title	date	text	class
   	 2011-10-21 09:19:54 	 The guy looks like QxGDestiny 	0
   	 2011-10-23 13:00:28 	 I remember when CS:S was about terrorists and counter terrorists 	0
   	 2011-10-24 12:06:09 	 Starcraft: Heart of the Swarm 	0
   	 2011-10-24 12:18:18 	 Snatch. Solid British gangster film. Jason Statham when he wasn't too well known  	0
   	 2011-10-24 12:54:43 	 Did no one post a link to teamliquid.net 	0
   	 2011-10-25 05:19:36 	 Huk 	0
   	 2011-10-26 09:30:11 	 So like in pokemon it's only going to be used for sex? 	0
   	 2012-01-27 00:42:05 	 [July 16, 1992](http://www.gocomics.com/calvinandhobbes/1992/07/16), Pretty happy with this one 	0
   	 2012-02-05 22:37:36 	 I...I don't know anyone with an alt account for idling... 	0
 [Build Ready] First time builder. Think I am ready to build 	 2012-02-23 04:33:33 	" [Part list permalink](http://pcpartpicker.com/ca/p/4JWF) / [Part price breakdown by merchant](http://pcpartpicker.com/ca/p/4JWF/by_merchant)

Type|Item|Price
:----|:----|:----
**CPU** | [Intel Core i5-2500K 3.3GHz Quad-Core Processor](http://pcpartpicker.com/ca/part/intel-cpu-bx80623i52500k) | $209.69 @ DirectCanada 
**CPU Cooler** | [Cooler Master Hyper 212 Plus 76.8 CFM Sleeve Bearing CPU Cooler](http://pcpartpicker.com/ca/part/cooler-master-cpu-cooler-rrb10212pg1) | $30.66 @ NCIX 
**Motherboard** | [ASRock Z68 Extreme3 Gen3 ATX  LGA1155 Motherboard](http://pcpartpicker.com/ca/part/asrock-motherboard-z68extreme3gen3) | $134.99 @ Canada Computers 
**Memory** | [Corsair XMS3 8GB (2 x 4GB) DDR3-1600 Memory](http://pcpartpicker.com/ca/part/corsair-memory-cmx8gx3m2a1600c9) | $47.69 @ DirectCanada 
**Hard Drive** | [Seagate Barracuda 1TB 3.5"" 7200RPM Internal Hard Drive](http://pcpartpicker.com/ca/part/seagate-internal-hard-drive-st31000524as) | $99.88 @ Canada Computers 
**Hard Drive** | [Crucial M4 64GB 2.5"" Solid State Disk](http://pcpartpicker.com/ca/part/crucial-internal-hard-drive-ct064m4ssd2) | $96.98 @ DirectCanada 
**Video Card** | [XFX Radeon HD 6950 2GB Video Card](http://pcpartpicker.com/ca/part/xfx-video-card-hd695xcnfc) | $259.99 @ NCIX 
**Case** | [Cooler Master CM690 II Advanced ATX Mid Tower Case](http://pcpartpicker.com/ca/part/cooler-master-case-rc692kkn2advanced) | $84.99 @ Newegg Canada 
**Power Supply** | [Corsair 650W ATX12V / EPS12V Power Supply](http://pcpartpicker.com/ca/part/corsair-power-supply-cmpsu650txv2) | $84.99 @ Canada Computers 
**Optical Drive** | [Lite-On iHAS124-04 DVD/CD Writer](http://pcpartpicker.com/ca/part/lite-on-optical-drive-ihas124-04) | $20.49 @ Newegg Canada 
**Operating System** | [Microsoft Windows 7 Home Premium SP1 (64-bit)](http://pcpartpicker.com/ca/part/microsoft-os-gfc02050) | $105.92 @ TigerDirect Canada 
 | | **Total**
 | Prices include shipping and discounts when available. | $1176.27
 | Generated 2012-02-22 22:29 EST-0500 |

This will be mainly for gaming. But with some light video and sound editing. Any help is awesome, thanks! "	0
   	 2012-02-23 05:02:47 	 Thanks! Now... what is your favourite part of it? Or least favourite? 	0
   	 2012-02-23 08:13:37 	 Anyone have any opinions for the hardware? I have not ordered yet, will be doing that on the weekend.  	0
   	 2012-02-24 20:38:40 	 For Narnia! 	0
   	 2012-02-24 20:43:23 	 Ohhhhh I'll play, sign me up. 	0
   	 2012-02-24 22:47:13 	 You're an awesome person. I'll enter. 	0
   	 2012-03-07 07:22:24 	 I'd be interested as a scout or a backup. You can contact me [here](http://steamcommunity.com/profiles/76561198014352354), I am a rather new player as well looking to learn. 	0
   	 2012-10-17 09:37:05 	 A spoonful of pandas. 	0
   	 2012-11-05 10:16:02 	 Added you on steam. Just wondering, are you east/west/central? 	0
   	 2013-09-07 02:23:08 	 Banana slamma  	0
   	 2013-09-11 09:50:32 	 Hello There 	0
   	 2013-11-20 19:53:45 	 Where I am from that's called a Rocky Mountain Bear Fucker. Weird 	0
   	 2013-12-04 02:16:36 	 Name in the hat style. Putting my paper in so to say. 	0
   	 2013-12-04 07:35:45 	 Shaman Warrior Rogue 	0
   	 2013-12-05 21:48:48 	 /roll 	0
   	 2013-12-05 21:49:29 	" /roll
 "	0
   	 2013-12-05 21:52:22 	 /roll 	0
   	 2013-12-06 23:24:37 	 Day of Defeat. either 1.3 or source version. Loads of fun times with those games 	0
   	 2013-12-18 23:24:31 	 Does K-Town happen to be Kelowna B.C? 	0
   	 2013-12-29 02:45:56 	 Eugene Levy? Like that actor that played in the movie about a pie? 	0
 Beer Leagues 	 2014-01-26 21:10:33 	 Anyone know of any baseball or soccer beer leagues for the summer here in kelowna? 	0
   	 2014-10-18 04:34:28 	 I have only played a couple sessions before but I would be down to play 	0
   	 2014-11-12 19:00:13 	 Gotfrag 	0
   	 2016-01-21 06:25:52 	 And Hobbes 	0
   	 2016-06-11 08:42:19 	 But rerouting your commute changes 5-10 minutes. Autisim is for life 	0
 Cute kitty kissing his cat mommy 	 2017-05-09 15:56:15 	  	0
 How to overtake in Forza Horizon 	 2017-05-09 19:58:43 	  	0
 Rainbow lattice sunstone 	 2017-05-10 07:39:05 	  	0
 Statues having fun with people. 	 2017-05-10 13:37:53 	  	0
