title	date	text	class
   	 2015-07-14 05:50:33 	" [First officer Nye report to Holodeck.](http://imgur.com/22kGIfG)
Bonus: [Romulan](http://imgur.com/mSfrIPQ)

Edit: [Refined](http://imgur.com/Jy4AYc2)

Edit2: [Romulan Refined](http://imgur.com/uaQ6kCY) - uniform + hair "	0
   	 2015-07-17 12:03:23 	 [Bo'rak Obama](http://imgur.com/ETlQPWY) 	0
   	 2015-07-21 01:01:34 	 [Je suis un terroriste](http://i.imgur.com/BaZawGZ.jpg) 	0
 What a healthy relationship 	 2015-07-21 05:32:15 	  	0
   	 2015-07-21 18:15:48 	" Gives a whole new meaning to horny.
 "	0
 Da fuck u calling old? 	 2015-07-21 20:32:28 	  	0
 Its Kanye's now 	 2015-07-21 21:13:34 	  	0
 Dickbutt is alive 	 2015-07-22 01:19:01 	  	0
 Made macarons for the first time 	 2015-07-22 02:23:24 	  	0
   	 2015-07-22 02:37:07 	 chocolate ganache 	0
 If you say so mom 	 2015-07-22 06:11:27 	  	0
 Donald Trump's official presidential campaign poster 	 2015-07-22 07:34:30 	  	0
