title	date	text	class
 ZeNEX_Life all-kills Team-Liquid in the GSTL 	 2012-05-29 13:36:50 	  	0
   	 2012-05-29 13:39:08 	 Sent you a replay with Twitter, would love it if you got around reviewing it. I'm a bronze P player altough I consider myself slightly above bronze, somewhere around high silver I think, I just don't play enough. All my matches are against high(er) silver players. Thanks! 	0
   	 2012-05-29 14:16:29 	 Thanks alot mate! Just don't expect too much of it ;) 	0
 /r/starcraft now has over a 100K subs!! 	 2012-06-14 00:12:50 	  	0
   	 2012-06-14 00:13:11 	 Props to every one of you for keeping this awesome subreddit alive!3 	0
   	 2012-06-14 00:31:47 	 Tried to post this aswell but you beat me to it, good job!:D 	0
 Can someone explain me how to stop a 2gate PvP? 	 2012-06-14 13:09:41 	  	0
   	 2012-06-14 13:10:43 	 Ignore the (in base) in the build order. I'm having some big problems stopping it, even when I scout. i tried getting 2 gateways by myself, trying 1 gate/core but still.. What is the best reaction? Thanks! 	0
   	 2012-06-14 16:24:11 	 Thanks alot for the tips guys, I'm alot more confident i'll hold it off next time! Upvotes for all!! 	0
   	 2012-06-16 08:52:09 	 Looks really cool, great for doing hypothetical builds, learning timings and such. 	0
   	 2012-06-17 18:48:40 	 Why on earth still no pause in customs? 	0
   	 2012-06-18 18:47:56 	" As a Protoss player, here is how I see the situation now:
ZvP: Pretty even, hardest matchup for P tough
TvP: Decently balanced however, T seems to be alot easier for me then Z
ZvT: Terran gets smashed at this current point :( "	0
 Can anyone like me to the finals of Dreamhack please? 	 2012-06-19 10:44:28 	" I've searched for it, normally links to the VOD's are everywhere after a major tournament but I can't seem to find them now, not on youtube, nor on the Dreamhack site. (http://open.dreamhack.se/vods/)

I'm sorry if someone already posted these! Thank you "	0
   	 2012-06-19 11:02:46 	 Thanks! Here, have an upvote :) 	0
   	 2012-06-19 12:57:44 	" 3
 "	0
   	 2012-06-20 02:43:35 	 Vods up already? 	0
 ZERG IS SO FUCKING OP I CANT WIN 	 2012-06-20 13:35:33 	 It's just impossible to win agaisnt zerg now, all my losses are vs Z, I win all PvT and PvP, NERG ZERG NAO!!!!! 	0
 GOMTV, please stop playing the same song over and over during intermission!! 	 2012-06-21 15:09:38 	" If I hear 'I need a miracle, I've got to get away from here ' one more time, I think I'll go mental. Seriously, adding extra songs to the playlist takes 10 seconds..

 "	0
   	 2012-06-21 15:39:20 	 I do feel like it's up to them to make the intermission a bit pleasant, a viewer should not have to mute his stream every time because he heard thje same song 20 times that day.. 	0
   	 2012-06-27 18:19:37 	 I'm sorry to hear about the desk chair. 	0
 To anyone who likes Dubstep/DnD/Dub/Jungle.. Awesome free mixes here! 	 2012-07-28 02:10:32 	" http://www.egothieves.com/mixes/

An awesome site with free mixes for various styles of music, go check it out. "	0
 Holy shit GSTL!!!! 	 2012-07-28 14:19:11 	 The games so far are insane!! Gumiho is so good, takes down CoCa in the 3rd game aswell! 	0
   	 2012-07-28 14:26:25 	 Him pulling off the All-Kill would be insane, who would of tought that? 	0
   	 2012-07-28 14:38:11 	 Exactly! Their decision not to bring in a Protoss player leaves me puzzled aswell (Get it?;) ) 	0
   	 2012-07-28 14:43:26 	 Oh.My.God. He did it again!! He makes the Slayer team look like a bunch of unprepared code B players o.O 	0
   	 2012-07-28 15:15:53 	 I'm very sorry! Removed the post at once 	0
   	 2012-07-28 15:20:46 	 yeah, I really didn't think this post trough I believe. However, it's almost impossible to keep results like this off the front page :( 	0
 IAmA 21-year old student who just got over a heavy internet/gaming addiction, AMA 	 2012-09-15 22:43:56 	  	0
   	 2012-09-15 22:53:23 	 Actually no, I have had a few good, stable relationships. I don't think I'm bad looking and have gotten quite good ad hiding my internet usage over the years. 	0
   	 2012-09-15 22:54:51 	 Good question, this was hard at first, because every free moment I got, I felt that urge to play again. But I started working this year and have found some salvation if you like in surfing, I surf quite alot now, also got my coaching diploma. Basically, I try to occupy myself as much as possible with just about everything and it seems to work out. 	0
   	 2012-09-15 22:59:35 	 I didn't downvote you, it was a legitimate question, hence why I answered it. 	0
   	 2012-09-15 23:02:40 	" It's hard to tell to what degree since I always refused any kind of treatment or professional help. In the beginning because I tough I wasn't addicted at all, afterwards because I wanted to stop on my own. But it was pretty bad, I would wake up and start gaming just about untill I went to bed, the only thing I would do besides that was go out with friends or see my girlfriend, no classes, nothing. So I don't really know, pretty bad but not bad enough for me not to want personal contact anymore, or see my friend. 
For the 2nd part of the question, yes, I have experienced pain in my wrists (CoD and Sc2 aren't the most kind games for them) but they seem to have dissapeared now, thank God. "	0
   	 2012-09-15 23:09:49 	 Nee, Knokke :) 	0
   	 2012-09-15 23:13:45 	 I don't exactly how or what made me realise I was addicted but suddently I started seeing that the people around me were right and I was actually spending way too much time gaming and on the internet and I decided that this is not the life I wanted to live. So I packed my bags and went to France for the entire summer with a few mates, spent our days surfing and such but I tried to refrain myself form any form of internet usage. When I got back I forced myself to stay away from the PC as much as possible and that's a battle with myself I still have to fight every day. And like I said, I started working, travel as much as possible, mostly for surfing. And the biggest thing probably, I found a girlfriend who lives a simular lifestyle, alot of travelling and such and that keeps me away from falling back into old habits. 	0
   	 2012-09-15 23:15:44 	 Yes, it really is. This is the longest I've been on it in weeks just because I force myself to leave after 15 minutes each session. I love this site but it's so big and there's an endless flow of interesting stuff to find and peers to discuss with that if I wouldn't force myself to get off the PC, I would fall right back into my old lifestyle. But I really wanted to do this IAmA so I cut myself some slack :) 	0
   	 2012-09-15 23:23:02 	" Yes I have, and I actually did. This was on my old laptop, instead of removing everything I bough a new one (an Alienware, stupid me) and told myself I wouln't install games anymore. This lasted for maybe 3 days and made me realise afterwards that I indeed have a problem.

No, I never got to GM but I've been Top-8 Masters frequently, I think I played too much CoD to actually get promoted (I was #1 5v5 in the esl for almost a year, this made me some money in online tournaments but this was more bad then good, since I used it as an excuse to keep playign since 'I made money with it') "	0
   	 2012-09-15 23:25:09 	 I know the feeling all too well. I think something along those lines would have applied to me aswell. Luckely, I liked sleep too much to actually get up early to game wich kept me atleast a bit healthy but still, it was pretty bad from time to time. There were weeks in the winter where I realised I haven't seen the sun in days, I was basically living during nightime and blocked out the little sun there was. 	0
   	 2012-09-15 23:33:14 	 In what way do you want me to provide proof? 	0
   	 2012-09-15 23:45:16 	 Because I was going to start in Computer Science that year and I needed a good laptop to run all the software smoothly. Turns out it ran all the games smoothly aswell, not good.. And I played random so: 1/3rd For the Overmind!! I guess..:p 	0
   	 2012-09-15 23:47:01 	 I'de have to say i was the most addicted to CoD:MW2 the most, the hours I played on that.. It was really bad. Sc2 and War of Legend (a short period, but really heavy) have been bad for me aswell. 	0
   	 2012-09-16 00:07:36 	 There are alot of people who think the same as you, so did I actually. But it had been proven that you can actually be addicted to internet usage or gaming in the same way that you're addicted to by example drugs or alcohol. I went to a clinic in Holland (there aren't any (good) ones in Belgium who are specialised in this matter) where they only treat this kind of addiction, there they diagnosed me and offered to treat me but i didn't want to be internated, I wanted to get over it on my own, with the help of my doctor and parents. So far, it seems to have worked. 	0
   	 2012-09-16 00:08:03 	 The irony of me doing this IAmA did not escape me either :) 	0
   	 2012-09-16 00:33:46 	 I would say that before anything, just like with every other addiction, you have to realise yourself that you spend way too much time on computers and need to stop. If not, nothing or nobody can help. Once you realised this it's best to seek professional advice, they will explain everything to you and then it's up to you wether to decide if you want help or not. Just one more thing, don't think 'I'm going to calm down on gaming, going to game less.' No. Just, NO. That doesn't work, you have to quit everything, cold turkey and try to last as long as possible. Because if you play 'a bit' you'll fall back into old patters before you know. 	0
   	 2012-09-16 00:39:55 	" I never said that drugs and gaming are the same thing, drugs are bad, very bad, they destroy people's life so often while gaming is entertainment, so many people enjoy it. How could it be the same? Well, it can destroy lives aswell, believe me. Not in the way drugs do but in more subtile forms, you start to ignore the ones you love, they get frustrated.. You become unhealthy, hardly see people.. This of course will not happen when you are a casual gamer and there is nothing wrong with that, I cannot stress that enough. But there are times where it goes way beyond that, where you really need professional help in order to get way from it's grip.

This seems very weird to alot of people because they assume you can just 'stop gaming' and it's 'lack of self control'. Well, you can just 'stop drinking' too right? No.. Gaming does not indeed reward you in a fysical or material way like drug or alcohol do but sometimes, with certrain people, the rush of winning, the feeling that it gives, can be just as addicting as gambling I am sure. I'm not the worst case by far, I've seen people in the clinic go bonkers because they were denied internet access. 

I understand that all this must seems really weird for outsiders, incomprehensable even, but let me assure you, it can be really bad and it is in fact, considered a legitimate addiction by authoroties and such. "	0
   	 2012-09-16 19:30:24 	 These are actually really good questions to ask yourself if you're afraid you might have a computer problem, thank you! 	0
   	 2012-09-16 19:32:40 	 I have 1 friend I met trough gaming wich i still have contact with but we have met irl and have different stuff to talk about besides gaming, so that is no problem. And yes, some of my friends game and I have no problem with them gaming when I'm around, however, I will always stay on the background instead of joining in (In a FIFA competition on ps3 by example) 	0
   	 2012-09-16 23:28:57 	 Why does everyone seem to dislike Teemo so much? 	0
   	 2012-09-18 19:40:42 	 Blizzard please buff Ezreal to fix this!! 	0
   	 2012-09-20 14:06:05 	 I agree, I don't want to generalise but it does seem like the majority of drama and bullshit is coming from the NA ladder and it's players. Makes me wonder.. 	0
 Why is heal noob? 	 2012-09-20 17:08:05 	" Allright, first of all, I haven't been playing this game for too long now (level 20-ish) and usually play AD carry (graves, ezreal, teemo etc..) Since the beginning I've been playing with first heal-ghost and later heal-flash as soon as I had it. Now, lately more and more people told me to switch heal for ignite. Granted, almost everyone runs ignite these days. But for me, it just doesn't seem right; I feel like as if heal helped me out loads more in games then ignite. And there are so many close call situations in wich I tough, if only i had me heal there instead of ignite. A feeling I hardly get the other way around..

Now, my question is, is it really that bad to run heal? Should I just keep using ignite till I get used to it? Thanks alot! "	0
   	 2012-09-20 17:36:38 	 Thank you guys for all the answers, things are alot more clear now! Keep playing!:) 	0
   	 2012-09-22 19:50:51 	 Scared the crap out of me the first time they used it. I like the idea of a voice saying 'GG' at the end of a match, just not that voice.. 	0
   	 2012-09-25 12:49:27 	" I have literally spend hundreds of euro's on this stupid free online MMO called War of Legends. Yeah, big misktake. I was top of the server tough!
 "	0
   	 2012-09-28 14:51:38 	 What about someone serving 2 life sentences? Would they then kill him a second time and only let him walk if he ressurects again? 	0
   	 2012-10-02 12:07:10 	 Teemo is not OP, het gets countered just like any champ, quit the QQ'ing. 	0
 Is teaching bots meta so hard? 	 2012-10-08 18:03:42 	" Not a troll question, recently played a bot game again after a long time and I was surprised they still are retarded when it comes to lane mate. I made a team with me as Graves and then Sona, Warwick, Malazhar and Garen I believe. You would assume me both with Sona, WW jungle (but since bots don't 'jungle', him top with garen), and Malazhar mid.
Now, what happens when I start the game, I see Sona run top with Warwick, Malazhar bot with Garen leaving the mid lane for me.
Now my question, is it really that hard to make bots have some sense of awereness of where to go? I'm sure I'm not the only one who noticed this..

TLDR; Bot games are meant to learn noobs how to play but how can they when they don't come near real game compositions? Is it so hard to learn bots where to go? "	0
   	 2012-10-08 18:18:54 	 Thanks for the responses! However, I don't really follow Riot in their decision, not having a system like that just makes for the most ridiculous games form wich, imo, you don't learn a whole lot. It should be easier to, by example, tell the bots where to go from the start, so atleast you can decide for yourself in what team you want to play etc :) 	0
   	 2012-10-08 18:46:56 	 I worked in a pretty large fish-shop who sells to alot of restaurants. Whenever someone new guy came my boss would send them all the way to the ocean to go and get 'salt water for the lobster'. Everybody, and I mean everybody did this. Just imagine the hilarity when you see them coming back, dragging just gallons of seawater..:D 	0
   	 2012-10-24 19:30:02 	 Time to start e-mailing EG sponsers? 	0
   	 2012-10-24 19:30:31 	 Time to start e-mailing EG sponsors? 	0
 Reddit, how awesome would it be to see your 'life-stats' and what would be your favorite? 	 2012-10-26 19:50:54 	" Okay, I'll try to explain this the best way I can (note that English is not my native language). I've been thinking about how awesome/usefull it would be to see all the stats about your life, just for information/entertainment purposes or comparing to others. 
This would go from basic stuff like amount of food consumed, exact time lived, hours slept etc to really specific/weird stuff like times mastrubated, reddits read, high fives given..

Would love to hear you guys' opinions about this and what would be the n1 stat you want to see for your life? "	0
   	 2012-10-26 20:03:15 	" This.. Actually, I don't even know if I'de want to know. 
Actually, yeah I do..:p "	0
   	 2012-10-29 15:18:20 	" I have a suggestion. Keep the light in order not to make things complicated but make it so then when you actually revive, it kinda looks like the Prayer-cape emote from Runescape if anyone's familiar with that. That would look so sick imo

cf: http://www.youtube.com/watch?v=oWRRecTqGeU "	0
 This guy might have a good point about the Islam here, worth watching. 	 2012-10-29 20:35:09 	  	0
   	 2012-10-29 20:37:22 	 IMPORTANT: Subtitle language can be changed in the bottom left! 	0
 EUW Down? Unavailable/Undefinded for me 	 2012-10-30 18:16:31 	 Hey, I mentioned, when I launch LoL server status says undefinded, however, when I check the website, it says all servers are up. Is it just me or is anyone else having this? Also, if anyone has a fix, most welcome! Thanks 	0
   	 2012-10-30 18:24:39 	 Glad to hear I'm not the only one! 	0
   	 2012-10-30 18:42:24 	 Thanks a bunch! 	0
   	 2012-11-01 19:51:35 	 Relevant:  [http://imgur.com/a/Xvru5] **NSFW!!!!!!!** 	0
 I think this would be a great addition to the Stream list for more then 1 reason. 	 2012-11-06 18:45:12 	  	0
   	 2012-11-06 18:48:35 	" I think this would be a gread addition because I believe lesser known streams will have a higher chance of attractiong new viewers. Say for example, I main ADC so that's what I prefer to watch. Now, none of the 'big ADC names' is streaming, what I usually do is watch someone else 'famous', wether he plays my role or not.

Now, if this were to be added, I might click a guy I never heard of before just because I'de like to learn from him, and when I like him, I'll probably come back.
So, this will, in my opinion, give more exposure to the lesser known streamers. What do you guys think? "	0
   	 2012-11-06 19:09:31 	 Yeah, not all roles are correct, just made as an example. And you wouln't be forced to put it there but you could, if you chose so.. 	0
   	 2012-11-08 17:13:37 	 So there's just a forth of a pixel? 	0
   	 2012-11-09 19:30:21 	 I have got a Razor Blackwidow and I must say, I'm extremely satisfied with it. Not because of any changes in my play really (the keyboard is of course more then perfect for gaming) but just the way it feels when you type, the sound and the feel with every keystroke, nothing comes close imo. Once you go mech, you'll never go back :) 	0
   	 2012-11-11 18:56:11 	 Yes, what mdbjd said was correct, Riot has been criticised often because they tend to fall back on nerfing something they feel is too strong, rather then trying to balance it in another way, making alot of the campions feel the same and damaging the diversity. 	0
   	 2012-11-11 21:54:38 	 Alot of stuff on the Deep Web, in particular CP. Especially the way those people talk about kids just creeps me out, they act like it all normal.. 	0
   	 2012-11-12 19:38:29 	" [relevant](http://www.youtube.com/watch?v=NKTpWi5itOM)
 "	0
   	 2012-11-16 22:48:07 	 Thank you for responding and good luck in Season 3! 	0
   	 2012-11-21 16:47:11 	 Btw, anyone knows when brackets are up? Says registration is today on the site. 	0
   	 2012-11-25 00:18:30 	" I raise your repost with a repost 

http://www.youtube.com/watch?v=e0g9jrZJmF8 feature=youtu.be "	0
   	 2012-11-25 18:00:56 	 Olaf: Just ban me, honestly 	0
   	 2012-11-25 18:02:37 	 if you tried this over here you'd get lynched by an angry mob who's iPhones got destroyed, just saying.. 	0
   	 2012-11-25 18:12:56 	 OMG are you like sergeant Batista's son? When you talked with that accent, wow.. 	0
 'It's just you, me and a Pringles can' That Wingsofdeathx and Aphromoo syngergy, go watch! 	 2012-11-26 12:22:59 	  	0
   	 2012-11-26 21:58:56 	" Me in bronze: 'So you mean, if I rush these DT's and they don't have detection, I win? Awesome!!'

Yeah, I was that guy.. "	0
   	 2012-11-27 17:29:44 	 As a Belgian, I surrender. (Not as fast as France tough!) 	0
 [REQUEST] I would love to use this pic as my FB Timeline Cover but it's completly the wrong size, help please! 	 2012-11-29 22:31:08 	" So, as mentioned, I would love to use this picture http://www.ilikewallpaper.net/iphone-5-wallpaper/Longboard-Girl/5972, as my FB Timeline Cover but it was an iPhone wallpaper so is way too high. I would love to see it/her shopped into a fitting enviroment or something, with the dimensions being good for FB. 

Thanks to everyone helping me! Willing to offer a small reward if I really like it! "	0
   	 2012-11-30 21:27:31 	 This is in the perfect direction! Would love the resolution a bit bigger tough, using this as a Timeline Cover would look blurry. But thanks a ton already! 	0
   	 2012-12-01 23:50:24 	 Yes, this is the right size, thank you! Too bad the resolution isn't better but this is almost perfect, thanks alot! 	0
 Moreorlessrelevant explains why there aren't any black woman in a swedish McDO.. 	 2012-12-03 19:27:52 	  	0
 Moreorlessrelevant explains why there aren't any black woman in a swedish McDO.. 	 2012-12-03 19:55:53 	  	0
 iPhone 5 Push Messages not instant anymore, help? 	 2012-12-03 22:50:17 	" Hi,

I used to have an iPhone 4s and all push notifications (Facebook, Twitter, Skype etc..) were delivered instantly to my phone. Same thing goes for my mails. I recently bought an iPhone 5 and made it a copy of my 4s but push notifcations come in with a great delay or not at all, untill I open the app. I also noticed I'm being logged out of apps more often.
Does anyone have an idea how to fix this? Make the notifications/messages/mails instant again? Because this is rather annoying. Thanks alot!! "	0
   	 2012-12-03 23:05:45 	 Hmm, if I don't find another solution I might have to try this. Weird tough.. 	0
   	 2012-12-04 22:26:18 	 I speak both Dutch and French yes, how'd you know? 	0
 iTunes doesn't open anymore since update to 11, help?! 	 2012-12-04 23:26:08 	" Hi,

So I recently upgraded to iTunes 11. Everything went great for a day or 2 but ever since then, iTunes just doensn't open anymore. I tried everything, re-installing, opening as admin, giving priority.. Nothing worked.

When I try to launch it and have task manager open, it actually shows up in the list of processes, only to dissapear after a second or 5, never showing the iTunes screen or pictogram in the system bar. Could anyone help me please? Thanks alot!! "	0
 Just my toughts on the new Idra.. 	 2012-12-05 00:40:04 	" No need to upvote, just wanted to tell this..

Important: I'm not a native english speaker and I will try to make this nuanced as possible.

IHonestly, 've wasn't a huge fan of Idra, he was once one of the best zergs out there but then eventually just got passed by others. Nothing bad there, but he kept his 'BM' behaviour and 'I'm the best out there attitude', something wich I tought was a pretty dumb thing to do with no results to back that up. I tough that he would just keep on sinking, trying to survive on the name he once made for himself. 

Now, I must say tough, I was really impressed the last few times I've seen him play on stage, he seems to have really dedicated himself on reaching the top level again. Wich was partially what made me open his stream this evening when I was bored. There, I was pleasently surprised, I found a well-playing Idra, explaing his tactics to his viewers, interacting and not calling people bad every 5 seconds. I really enjoyed it and even felt bad for him and the other viewers when he had to stop streaming because someone tought it would be funny to do the Clan Invite glitch thing.

Just an honest story I wanted to get out there.

TLDR: Idra improved and cleaned up his act imo, best of luck for him in the future. "	0
   	 2012-12-05 09:05:47 	 This is actually very true, well said 	0
 Youtube sound not working? ( Sorry id repost) 	 2012-12-06 14:28:13 	  	0
 iTunes 11 does not open anymore, help please? 	 2012-12-06 14:47:20 	" Hi,

So I recently upgraded to iTunes 11. Everything went great for a day or 2 but ever since then, iTunes just doensn't open anymore. I tried everything, re-installing, opening as admin, giving priority.. Nothing worked.

When I try to launch it and have task manager open, it actually shows up in the list of processes, only to dissapear after a second or 5, never showing the iTunes screen or pictogram in the system bar. Could anyone help me please? Thanks alot!! "	0
   	 2012-12-06 19:22:29 	 Tried this, deleted iTunes and all sub-components, cleaned registries and reinstalled. Same problem tough, just doesn't want to open :( 	0
   	 2012-12-07 14:05:13 	 I was watching this and just knew it would end up on reddit.. 	0
   	 2012-12-09 00:09:02 	 Signed up. What kind of stuff will we be trading? Things like Champions and Skins? Best of luck with this project! 	0
   	 2012-12-09 20:41:43 	 Also, if you happen to be without an ashtray, you can peel a piece of before smoking and tap your ashes in there! 	0
   	 2012-12-10 00:17:42 	 Would love to see the final 4 players A-move the middle of the map simultaniously, would be epic! 	0
   	 2012-12-10 22:47:36 	" My mom used to say 'Oh, those dates on products don't mean a thing, if it looks and smells good, eat it' 
I have a pretty strong immune system now.. "	0
   	 2012-12-11 02:06:26 	 Smart leopard, wanting to keep the baby to stuff it untill worth eating 	0
   	 2012-12-11 12:33:26 	 Nevermind how fast Rengar got there, DAT FLASH!! 	0
   	 2012-12-12 14:25:01 	" I am the 17%!

No seriously, it's pretty disturbing that 17% actually chose that option "	0
 iTunes 11 doesn't open anymore, help please! 	 2012-12-13 21:52:40 	" Hi,

So I recently upgraded to iTunes 11. Everything went great for a day or 2 but ever since then, iTunes just doensn't open anymore. I tried everything, re-installing, opening as admin, giving priority, deleted iTunes and all sub-components, cleaned registries and reinstalled. Same problem tough, just doesn't want to open..

When I try to launch it and have task manager open, it actually shows up in the list of processes, only to dissapear after a second or 5, never showing the iTunes screen or pictogram in the system bar. Could anyone help me please? Thanks alot!!

Info: I run Windows 7 64 bit, any other information needed, just ask! Cheers "	0
   	 2012-12-14 14:59:17 	 Thank you for responding! Yes, the same problem still occurs when I switch accounts. Do you have a suggestion for a subreddit that might be able to help me better? Thank you! 	0
   	 2012-12-14 17:37:31 	 I found the Late Game Ward map pretty accurate 	0
   	 2012-12-14 18:00:29 	 Thank you! I would love a probe aswell, over a zergling tbh. Surprised probe has so few votes 	0
   	 2012-12-14 23:52:21 	 'Murica best country in the world, mmmkay? 	0
 iTunes 11 refuses to open, help please! 	 2012-12-15 00:06:21 	" Hi,
So I recently upgraded to iTunes 11. Everything went great for a day or 2 but ever since then, iTunes just doensn't open anymore. I tried everything, re-installing, opening as admin, giving priority, deleted iTunes and all sub-components, cleaned registries and reinstalled. Same problem tough, just doesn't want to open..

When I try to launch it and have task manager open, it actually shows up in the list of processes, only to dissapear after a second or 5, never showing the iTunes screen or pictogram in the system bar. 
Could anyone help me please? Thanks alot!!

Info: I run Windows 7 64 bit, any other information needed, just ask! Cheers "	0
 Reddit, if you could have one talent, one thing you could excel in, what would it be? 	 2012-12-15 23:33:14 	" As asked above, what would it be? Would you be world's best dancer? Be able to pursuade/manipulate people like no other? 
Preferably something realistic, so no superhuman powers and such..:) "	0
 Americans, what are the stereotypes about your country you would like to set straight? 	 2012-12-16 10:43:49 	" Hi,

I believe most of you are well aware of some of the stereotypes the rest of the world has about the United States of America. I would like to hear your point of view about these things and what you think about them! 
Also, people who visited the US, what surprised you? What did you except to be completly different?

Thanks!

Ps:apologies should there be any mistakes, English is not my native language "	0
   	 2012-12-16 10:44:53 	 Damnit, just realised what a bad timing this is, US is asleep right now.. Oh well 	0
   	 2012-12-19 17:36:09 	 [Mars](http://www.youtube.com/watch?v=iODdvJGpfIA) 	0
 Question: Can you follow the Hobbit without having seen the LOTR trilogy? 	 2012-12-19 21:21:41 	 Sorry if this is the wrong subreddit, didn't know where else to ask this. All tips are approciated!! Thank you 	0
   	 2012-12-19 21:25:14 	 Thanks for the replies! Going to see it tonight 	0
   	 2012-12-21 21:34:04 	 Is this out on EU or just NA? 'Cause I can't seem to find it :/ 	0
   	 2012-12-22 21:13:30 	 Ctrl+F 'fuck himself' was not dissapointed 	0
   	 2012-12-25 00:03:35 	 If there's one person 'X-P-special' in the room, it's her. Good lord, so bad.. 	0
 [DON'T UPVOTE THIS!!] I'm trying to look genuine! 	 2012-12-25 16:44:49 	 But srsly, upvotes to the left cuz sweet karma AMIRIGHT?? 	0
 What God tought when creating the world.. 	 2012-12-27 14:30:55 	  	0
   	 2012-12-27 18:17:27 	" [Thanks](http://i.qkme.me/3rskp7.jpg) 
 
Kidding, didn't notice that indeed but hey, this is IGTHFT, not a spelling contest :) "	0
 Been smoking for years but never rolled myself, this is my first one! 	 2012-12-28 00:38:17 	  	0
   	 2012-12-28 00:39:21 	 I know it's far from perfect but hey, who's first one was? Still kind of proud! For anyone wondering, it was either my friends that used to roll or me with one of those machine-thingies. 	0
 I'm so shy. Here's me taking a random redditor's [f]ootlong up my ass. 	 2012-12-28 01:07:21 	  	0
 I found old stuff in my basement, upvote for nostalgia and 90's! 	 2012-12-28 01:18:03 	  	0
   	 2012-12-28 16:50:33 	 DAE trees?? 	0
   	 2012-12-28 16:55:27 	 I'm a belgian, AMA 	0
 Picture of my cute athiest cat who just turned 420 on Christmas! 	 2012-12-28 17:06:58 	" More reddit then you'll ever need.

Disclaimer: age might be exaggerated "	0
 Reddit, what is the nicest random act of kindness you ever witnessed? 	 2012-12-28 23:21:55 	" For me it had to be when I saw this kid, must of been like 12 or something, come out of the store with his dad holding a pack of cookies. He looked really happy with them. Then he saw a homeless guy and his dog sitting near the entrance of the shop. 
He stopped, hesitated for a second and then went up the guy, giving him his cookies. He also asked if he could pet the dog, I could see the dad wasn't to excited about that but let him proceed. He then walked away with an even bigger smile, as if he knew what he had just done was nicer then wat I'de say 75% of adults would ever do.
Really brightened up my day. "	0
 How I felt last night after mexican take-out 	 2012-12-29 12:57:48 	  	0
 What I wouldn't do.. 	 2012-12-29 13:09:41 	  	0
 I'm just gonna jog across the street while the light OOOOOHHHHH SHIIIIIIIIIIIIIIIIIIIIITTTT!!!!!!!!!!!! - [0:09] 	 2012-12-29 13:26:30 	  	0
 Blue eyed chocolate labrador. 	 2012-12-29 14:07:58 	  	0
 ..Then, there's Denny. 	 2012-12-29 14:18:06 	  	0
 Who? Dennis? Nope, didn't see him.. 	 2012-12-29 15:04:23 	  	0
 Seems like a good place for a trampoline 	 2012-12-29 15:15:56 	  	0
 [GIF] Best feeling in the world 	 2012-12-29 19:54:40 	  	0
 Peace out dog 	 2012-12-29 20:06:25 	  	0
 [GIF] Bro, do you even lift? 	 2012-12-29 20:17:46 	  	0
 Who, Dennis? Nope, haven't seen him.. 	 2012-12-29 20:32:48 	  	0
 Just discovered this subreddit and I'm just wondering, what makes you want to not fap? 	 2012-12-29 21:29:57 	" It's an honest question, since there really aren't any downsides, why would you choose not to do it, especially when the majority of people like it?

Thank you for answering!

Ps: might actually try this myself once, not permanent, just to see how far I make it! "	0
   	 2012-12-29 22:43:00 	 Wow, thank you for this reply. I'll have a shot at it and perhaps keep you guys updated on how I'm doing. Wish me luck! 	0
 YOLO 	 2012-12-29 23:17:50 	  	0
 Possible repost, but this is the core of this subreddit imo 	 2012-12-29 23:27:59 	  	0
   	 2012-12-30 08:22:44 	 Happy holidays to you too, kind sir! 	0
 Sometimes I don't know my own strenght. 	 2012-12-30 14:19:27 	  	0
 So close! [GIF] 	 2012-12-30 14:32:24 	  	0
   	 2012-12-30 21:53:44 	 [here you go](http://www.youtube.com/watch?v=SiMHTK15Pik) 	0
 Physics? Lol, I'm a cat 	 2012-12-30 21:59:32 	  	0
 No, mine! 	 2012-12-30 22:07:55 	  	0
 Trust us bro, we'll catch you! 	 2012-12-30 22:14:24 	  	0
 [GIF] How to keep an idiot busy 	 2012-12-30 23:02:33 	  	0
 My kind of pet 	 2012-12-30 23:21:03 	  	0
 Reddit, if you could only read 1 more subreddit, ever, wich one would it be and why? 	 2013-01-01 22:21:36 	  	0
   	 2013-01-02 19:37:07 	 Upvote for Biggie 	0
   	 2013-01-03 17:21:31 	 He's not even inhaling? 	0
   	 2013-01-03 19:07:59 	" I think of myself as a rational, people-loving humas being but when I see videos like that I can't help myself feeling this urge.. I want those people and people involed dead and honestly, I believe I would kill them myself if I had the chance to.
I don't know if this makes me a bad person, perhaps worse then them, but that's just how I feel watching these things. "	0
 So my daughter just turned 18 [F] 	 2013-01-05 19:48:00 	 To gonewild for the free karma! 	0
   	 2013-01-06 15:00:52 	 I think it's safe to say that gonewild would like more, yes 	0
   	 2013-01-06 15:54:48 	 Same here in Belgium, as long as you don't hurt anyone during your attempt. 	0
   	 2013-01-06 17:05:14 	 Stuff like this gives us a bad name while we're trying our best to do the opposite. Thank you for showing this 	0
   	 2013-01-07 13:58:03 	 BEEP BOOP fuck the teemo? 	0
   	 2013-01-07 17:11:40 	 TIL shyvana counters almost anyone 	0
   	 2013-01-08 15:48:33 	 I find this very annyoing 'cause every time I want to E over the wall with ezreal by example, I keep thinking I'm not close enough, thus losing some time (time I might not have) 	0
   	 2013-01-08 20:28:08 	 I have never been so dissapointed 	0
   	 2013-01-08 23:10:47 	 Upvoted because internet 	0
   	 2013-01-09 20:09:58 	 Is it just me or are lot of girls that work at fastfood restaurants hot? Over here they're all middle-ages woman or chubbies :( 	0
   	 2013-01-09 21:05:38 	 Our football players are overall pretty bad but they sure try to make a show!(Belgium btw) 	0
   	 2013-01-10 09:51:45 	 I totally orgasmed all over the place. 3 and a half times.. 	0
   	 2013-01-10 11:27:56 	 I lost it at 'Tze baby tzuniiiiight' 	0
 My hero dad died long enough ago for me to exchange my grief for karma. Upvotes to the left 	 2013-01-11 16:05:14 	  	0
   	 2013-01-11 17:14:19 	 Would be funnier if it said something along the lines of '420 Blaze errday!!' 	0
   	 2013-01-11 20:54:18 	 'You know how sometimes your penis gets erect..' NOPE, I'm out! 	0
 Woman talks about how God provides her with endless bowls of spaghetti, tires that never wear out and shoes that last forever [X-Post from r/cringe] 	 2013-01-11 20:56:06 	  	0
   	 2013-01-13 14:19:11 	" Has to be a tie between Runescape when I was younger (the days played, holy shit..) or even worse, War of Legends, spend way more money on that game then I like to admit.

Glad LoL is not addictive in any way. Yeah.. "	0
   	 2013-01-13 17:43:32 	 I would buy Winrar (the company, not the program) and actually make the trail expire. *insert evil laugh* 	0
   	 2013-01-14 12:46:50 	 He really wanted her dead.. 	0
   	 2013-01-16 01:24:37 	 Fuck those cross-eyed rice-shitters and everything around them, backwards country, polluting the earth, not giving a shit about the enviroment, other countries, human or animal rights. Disgusting 	0
   	 2013-01-16 16:20:25 	 When should this be implemented? Anyone have an idea? Thanks 	0
   	 2013-01-16 16:22:13 	 I believe the message in this video is something along the lines of him 'fucking his swag' or something.. 	0
   	 2013-01-16 16:25:14 	 When should this be implemented? Anyone have an idea? Thanks 	0
   	 2013-01-16 16:25:26 	 When should this be implemented? Anyone have an idea? Thanks 	0
   	 2013-01-16 16:40:29 	" I once was home alone and gaming with my headset on, about 1 am,  volume pretty loud. Suddently tought I heard a noise coming from downstairs but I tought it was nothing (we have 2 cats aswell, they tend to make some noises now and then) but the, after about a minute, heard it again.
So I put off my headset, listened carefully and aboutt 5 seconds later heard glass breaking. My first tought was still, bloody cats, bumping glass off tables. Went downstairs without turning on lights in the hallway and when I get downstairs I can see trought the living room window 2 guys, each with rocks, throwing in the glass kitchen door.
Sneak upstairs while calling the police, telling them very briefly what's going on, taking my dad's katana he keeps next to his bed and go downstairs again. Now they do see me as I enter the living room and flee. Cops then arrived, made a report but were not too happy about me getting the sword and going downstairs again. 
What I can understand, at that moment tough, I was so angry because I envisioned not me (21y old male) but one of my little sisters being home alone and them breaking in that I was enfuriated. Sorry for the wall of text

**TL; DR: Was gaming,heard noises, tought it was cats, turned out to be burglars trying to smash in the kitchen window.** "	0
   	 2013-01-17 00:15:05 	 Fuck those cross-eyed rice-shitters and everything around them, backwards country, polluting the earth, not giving a shit about the enviroment, other countries, human or animal rights. Disgusting 	0
 LUX HEADSHOT NOSCOPES 720 HUEHUAUHEAUHEUAUHEU [NO AIMBOT] - [1:20] [X-Post from r/montageparodies 	 2013-01-17 14:44:49 	  	0
   	 2013-01-17 16:26:45 	 So euh.. How was she before the accident? 	0
   	 2013-01-18 13:54:47 	 As always, expect OP to deliver 	0
   	 2013-01-18 18:00:07 	 Happen to know wich one that is? Thanks 	0
 Seriously America, explain this and how it's even on television? 	 2013-01-18 18:27:53 	  	0
   	 2013-01-19 14:41:54 	 So you don't want us to look yet you post it on reddit? I'm confused.. 	0
   	 2013-01-19 14:47:04 	 Riot pls 	0
 Doctors of Reddit, what do you do when you see a patient is obviously faking it? 	 2013-01-19 15:48:55 	" Would love to hear some opinions about this because I have pulled this trick aswell when I was younger, claiming I was sick to skip school or for whatever reason. The doctor usually came by and always declared me sick for a few days after heaving heard me symptoms and doing a brief check. Now I wonder if they knew I was faking but just played along (they got payed anyhow..) or because it's out of safety 'what if he really is sick, I don't notice it and something bad happens.

Hope this explanation makes sense, english is not my native language. Thanks for the replies!

EDIT: Holy.. Front page, thank you all! "	0
   	 2013-01-19 15:55:32 	 That, that and that girl are into you, you're into them. Make a bloody move 	0
   	 2013-01-19 15:56:16 	 tl;dr: waffles, chocolate, fries and a shit government 	0
   	 2013-01-19 16:52:23 	 This is hilarious! Good job (both on the prank and your actual job, paramedics/doctors etc deserve more recognition for the work they do for others imo) 	0
   	 2013-01-19 16:53:34 	 This is why I think alot of doctors won't say they think you're faking it, even tough they're 99% sure. In some cases, it can screw them over afterwards for doing a bad job 	0
   	 2013-01-19 16:54:32 	 So what do you tell them when you suspect them of faking it? Just say you don't believe them? 	0
   	 2013-01-19 17:44:25 	 I would have a hard time not trying to make fun of them while they lie there 'seizing' 	0
 What were they thinking??[GIF] 	 2013-01-19 18:07:54 	  	0
 Just jump already, I'm trying to get home before dinner! 	 2013-01-19 18:10:49 	  	0
 Where did he go human?? 	 2013-01-19 18:13:51 	  	0
   	 2013-01-19 18:42:06 	 r/montageparodies anyone? 	0
   	 2013-01-19 18:59:21 	 I ever realised howmany paramadics like to troll fakers. And I'm loving you for it! 	0
   	 2013-01-19 19:44:12 	 When you think that is bad, try sitting at home watching it with massive lag 	0
   	 2013-01-19 19:57:52 	 High elo throws 	0
   	 2013-01-19 23:11:23 	 Care to elaborate? I would love to understand this 	0
   	 2013-01-19 23:24:41 	 In that case, aren't you a bit old to be my dad? 	0
   	 2013-01-19 23:26:04 	 Like Late_Night_Grumbler, this is interesting but does not answer the question of why there are so many people downvoting these posts. 	0
   	 2013-01-19 23:35:38 	 Ah I see, this has indeed cleared things up a bit, thank you kind sir! 	0
 Can someone please give me a spoiler-free link to the finals of IEM please? Missed the game, afraid to search reddit 	 2013-01-20 22:46:18 	" Like the title said, I'm afraid the result will get spoiled if I search for a link in 1 of the threads. Thanks a bunch kind summoners! 

Ps:no need to upvote "	0
   	 2013-01-20 23:00:09 	 Thank you kind sir 	0
   	 2013-01-21 11:49:23 	"  best chamption ever

Most gay champ ever, FTFY.

Played ranked 5's yesterday where akali got fed and got double penta's. granted, she was playing good but still, wasn't fun for either of the teams basically "	0
 Why isn't Draven picked more often at high elo/tournaments? 	 2013-01-21 12:59:52 	" Granted, I main adc and I don't really like him either but you got the whole 'league of draven' culture, he's know to shut down ezreal pretty hard. Then why is he hardly ever picked? Graves get counterpicked vs an ezreal way more often. Is it his lack of a reliable escape? What is it about him or his kit that makes him less viable then others. Thanks!

Tl;Dr: What does Draven need in order to become a vast pick? "	0
   	 2013-01-21 16:00:05 	 Do you adopt by any chance? I'm 21, well-spoken, hardly ever wet myself anymore and I'm easy to maintain! 	0
   	 2013-01-22 14:42:55 	 I peed a little 	0
   	 2013-01-23 21:18:51 	 I think you a word in the title 	0
   	 2013-01-26 00:15:39 	 Wait, wuuuuuut?  	0
   	 2013-01-31 12:27:57 	 I read the title as 'dad passed out right before..' and was like, what are they making such a big deal about? 	0
   	 2013-02-09 00:03:50 	 CP forums on the deep web. The way they talk about children and such, so disturbing.. 	0
   	 2013-02-18 15:57:01 	 I no way should he ever gotten a yellow card, this was brilliant. 	0
   	 2013-02-18 16:00:10 	 Relevant name :) Gratz 	0
   	 2013-02-18 23:49:48 	" 1. Often our team will be destroyed when an opposing Katarina is fed, I main adc and feel like there's little to nothing I can do to stop that single-handed. Is there anything I can do?

2. In most of my games I win my lane pretty convincingly but after that it feels like it's up to the team wether we win or not because often teammates lose their lane and I'm not good enough to carry by myself. As long as they don't lose, we tend to win but if they lose their I often get dived 1st thing in the teamfight by a 10-kill fed bruiser/assasin and get wrecked before I can deal dps. TLDR: How can I improve in 'carrying' my team more if I won my lane and they lost theirs? "	0
   	 2013-02-21 10:42:21 	" I have a simular glitch: http://img703.imageshack.us/img703/1269/screen03v.png

All drivers are updated, it's been since the last patch. Also, my FPS is lower then it was before, would be around 80 constantly, now it seems capped at 40 with random drops to 20. FPS in client is set to stable, tried others aswell. "	0
   	 2013-02-21 11:48:51 	 Or as Snoopeh says, gratz on lvl 19, new mastery point for you! 	0
   	 2013-02-21 11:49:32 	" Wow this was fast!
Mandatory: I knew this was going on Reddit after seeing it on stream. "	0
   	 2013-02-21 21:24:12 	 I'm not from the US and I don't understand 80% of the references to the commercials, anyone else? 	0
   	 2013-02-22 17:00:55 	 Exactly my tought aswell, especially ar parties, MDMA has given me way better nights then coke probably ever will 	0
 Apologies to my team. 	 2013-02-22 19:51:03 	  	0
   	 2013-02-22 20:53:18 	 Redditor for 3 minutes. Err, got any proof it's you?:) 	0
   	 2013-02-22 20:53:45 	 I'm well aware of this. Still, I wanted to do this, regarding of what the outcome might be. 	0
   	 2013-02-22 21:17:01 	 DAE BROODWAR TERRAN MUSIC? 	0
   	 2013-02-22 22:51:34 	 Exactly what I tought of the first time I heard it!'Put a beat under this and it could be Macklemore telling a story! It's even his style and everything 	0
   	 2013-02-23 17:44:21 	 Don't know what was worse, the actual video or his spelling. Doughter.. 	0
   	 2013-02-23 18:59:11 	 How come EG doesn't play on Day2 according to this scheduele? Or is that a mistake? 'Cause Db is on there twice 	0
   	 2013-02-25 16:43:41 	 [Krepo talking to Alex after reporting](http://img197.imageshack.us/img197/593/alexich.png) 	0
 Audi RS4 Ultimate Paintball Duel 	 2013-02-26 16:18:31 	  	0
   	 2013-02-26 17:39:56 	 I've seen everything on /r/Gore, /r/MorbidReality, /r/Shatter etc, nothing makes me even twitch but for some reason that made my stomach turn a little, looks so gross 	0
   	 2013-02-27 00:13:48 	 I had to watch that gif at 1 FPS the first time before seeing it normal, took me atleast 5 minutes. Fuck i.minus 	0
   	 2013-02-27 17:02:09 	 Wanted to say this, have an upvote 	0
   	 2013-02-28 17:28:08 	 Katarina: You learn that OP champs exist 	0
   	 2013-03-11 23:30:13 	 I would be scared aswell, creepy as fuck. Thanks OP [8] 	0
   	 2013-03-14 22:22:51 	 'Hmm, I can only see Olaf on the map. Oh..' 	0
   	 2013-03-15 23:54:55 	 I was already wondering wich one would be the chosen thread 	0
   	 2013-03-18 21:30:51 	 Can Ezreal's Q still crit at lvl1 with 1 crit chance mark or has this been patched? 	0
   	 2013-03-19 15:27:51 	 Or it's a Nano Virus in wich case they start developing a cure the moment it's released. However, then the cure % would probably be higher then 1% at 2M infected 	0
   	 2013-03-21 17:11:32 	 Oracles/pinks banned aswell. Or is this too cruel? 	0
   	 2013-03-21 18:04:22 	" I actually laughed with this one, gj OP

EDIT:heh'ed "	0
   	 2013-03-21 23:52:43 	 Damn mobile 	0
   	 2013-03-22 00:11:15 	 Very nice, good job 	0
   	 2013-03-22 15:42:55 	 Impressive 'OP fag' gif collection 	0
   	 2013-03-22 17:36:24 	 I believe we killed it 	0
   	 2013-03-24 20:03:20 	 Yes. I don't know who made the call to go back in or why bad that was a really big mistake that lost them the game in my eyes 	0
   	 2013-03-25 02:42:09 	 Saving this for when I'm not on mobile, thanks! 	0
   	 2013-03-25 15:51:53 	 [Well played](http://i.imgur.com/IK4LCfg.gif) 	0
   	 2013-03-25 19:09:50 	 This is the internet and he is a stranger, why would he lie? 	0
   	 2013-03-25 20:54:45 	 You can delete your own post.. 	0
   	 2013-03-27 12:42:13 	 For a second there I read r/spacedicks:beautiful pictures from space and tought you were trying to trick OP 	0
   	 2013-03-27 23:30:21 	 Right in the feels indeed 	0
   	 2013-03-28 01:48:48 	 *sigh* gifbin.. You have no idea how long it took to load on mobile 	0
 SIB: Test Drive Unlimited 2 	 2013-03-29 00:23:55 	" Hi, I'm looking for a (if possible) Steam  racing game. It has to have an open world and preferably a large collection of excisting supercars in wich you can cruise around. I don't really like racing other people or AI itself, just would love to just drive the cars. Bonus points is if's not needed to grind points/cash for hours before you get your first decent car.

I looked for a game like this and found TDU2. Is this the right game for me? Or other suggestions? Thanks alot!

Ps: I know it's weird to want a racing game without having to do alot of racing itself but I remember I just loved to drive in GTA with the faster cars. This is what I'm looking for now, only more realistic and perhaps less killing stuff :) "	0
   	 2013-03-29 08:41:31 	 Thank you so much for giving such a detailed answer. I'm going to buy and download it now, will let you know in some time what I think of the game and wether it was worth it! I'm very interested 	0
   	 2013-03-29 12:41:26 	 Why are these top comments getting deleted when they're telling the truth? Already seen multiple of these.. 	0
   	 2013-04-02 13:37:20 	 Don't forget our beer! And some chocolate for dessert :) 	0
   	 2013-04-02 16:43:33 	 Agreed 100%, someone should answer to this because it is in no way fair. 	0
   	 2013-04-03 19:00:39 	 Seems so surreal when you try to imagine it happening to yourself 	0
   	 2013-04-03 23:51:35 	 How is he a dick? He just put out a fire using a cat!! 	0
   	 2013-04-05 16:04:31 	 I main adc and can trade while farming pretty well now, however, due to always having a support by my side, my map awareness is not what it should be. I notice this especially when I play the occasional top or mid lane. More practice I guess! 	0
 Need a new gaming laptop after M14x broke. (1600) 	 2013-04-07 15:08:13 	" Hi,

I manged to spill half a glass of red vodka on my laptop the other night and it's basically dead now. It was an Alienware M14x with pretty decent allround stats, bought for 1600-ish. Now, I'm going to send it back to Dell and ask if they can fix it and if now, if they can just replace the broken parts or give me a discount if I buy the same one since there's probably parts in that that work just fine.

In case this doesn't work for whatever reason, I would like some suggestions for a new one, with about the same specs or better but perhaps for a cheaper price because I know Alienwares are expensive.

Stats I had now:
Windows 7 Home Edition
500GB 7,200 RPM SATA + 32GB mSATA Caching SSD 
8GB (2 X 4GB) Dual Channel DDR3 at 1600MHz
and a 6GB Nvidia card (forgot exactly wich one it was)

All suggestions are welcome! Thank you "	0
   	 2013-04-07 16:40:14 	 I'll give that a try, thanks! However, I'm afraid that even when it dries out, it will still leave behind that sticky mess wich will destroy everything anyway, any tips for that? Btw, seems like it's only on the side with my battery, ventilator and USB ports, HDD, Ram and video card seem safe 	0
   	 2013-04-08 18:42:26 	 Is it because he streams on azubu.tv now that his channel isn't being shown anymore on lolstreams? 	0
   	 2013-04-09 07:50:39 	" Damnit, I was so afraid this was going to come after I saw the vid. First off, you didn't ruin shit, by the amount of flaming done by the opposite team, they deserve no less. Plus, it's bronze and you're climbing really fast, these people have basically a 0% chance to ever play with you again so for them, it's one game where they're either on the right or the wrong side.

And to be fair, I'm in gold and would love a game where I get stomped by someone of your level just to see where all my mistakes lie.. Seriously, keep it up, do whatever you feel like doing and fuck us, Reddit will always find a way to disagree! "	0
   	 2013-04-09 22:57:23 	 You shouldn't have I'm afraid. 	0
   	 2013-04-10 21:18:11 	 This.Is.Epic. 	0
   	 2013-04-14 12:02:03 	 Saving this for later! 	0
   	 2013-04-15 23:43:38 	 Thank you for making me laugh like a retard while having dinner with my parents in a otherwise very calm restaurant 	0
   	 2013-04-16 16:16:20 	 I have found mine. Somehow I ended up in a relationship with it, every day is a fight. [Patience] skill almost maxed in the process tough 	0
   	 2013-04-16 19:42:15 	 You should take all of your poems and bundle them, they're awesome 	0
   	 2013-04-19 00:00:42 	 This my me trip so bad 	0
   	 2013-04-25 06:30:29 	 Thank you! Can't watch twitch vods on mobile 	0
   	 2013-04-25 12:50:29 	 Heca top here I come 	0
   	 2013-04-26 23:12:54 	 This is brilliant, I wish there were shows like this here in Belgium, would make politics alot more interesting 	0
   	 2013-04-27 20:28:58 	 Perhaps because the only time he gets to 1v1 is when the opposite team's top is on equal or higher level as him. Thus resulting in more losses. If he would get 1v1's in all matches, I bet he would stomp most opponents 	0
   	 2013-04-28 21:25:45 	 Is it just me or is this final alot more predictable then the EU one? 	0
   	 2013-04-29 14:40:00 	 If he can continue doing stuff like this I feel like Riot doesn't stand up for the values they stand for (or claim they do) 	0
   	 2013-05-02 15:42:45 	 I'm at  148 and feel left out :( 	0
   	 2013-05-03 18:08:59 	 I have found that if you can get to late and have a team that actually peels for you, Kog wrecks anything 	0
   	 2013-05-05 13:00:44 	 Ezreal definatly gets my vote. The flash-E dodgesn max range Q's.. Sounds awesome! 	0
   	 2013-05-07 14:28:33 	 Is it the book in wich the army accidently shoots a commercial jet, leaving some survivors in it and then debates wether if they should shoot it down to get rid of the evidence? Because I liked that one! 	0
   	 2013-05-08 17:56:26 	" Drive over the speed limit on highways. Quite a bit, here the limit is 120km/h, left lane usually goes around 130-140 but whenever it's 'safe' to do so, meaning I have the space, I set my cruise control anywhere between 160 and 180, depending on traffic, 200+ at night when the road's totally empty. 
I guess I do it because I like to go places fast and believe 120 is way too slow, look at Germany, simular sized roads have no speed regulation at all (or 250..)

TL,DR: driving fast on highways, 120 km/h is bs "	0
   	 2013-05-08 18:03:57 	 My most used way was to write formulas/key notes on a metal ruler with a pencil. Not only do you hardly notice it from a distance, if you're afraid you might get caught, 1 swipe is enough to remove everything. Bonus: very easy prep 	0
   	 2013-05-09 16:44:54 	 Tyler? 	0
   	 2013-05-12 00:56:15 	 Nope! Like Griffie said, it's called Mayday and actually a pretty good read, would definatly advise! 	0
   	 2013-05-16 22:44:46 	 It's not as simple, they're both doing it for obviously very different reasons, one to exploit the system and gain undeserved elo, the other one to have fun playing with some fellow LCS players. And honestly, I doubt anyone on the opposite team would of cared, thing are more relaxed 	0
   	 2013-05-17 11:04:36 	 I chuckled 	0
   	 2013-05-18 14:28:19 	 I don't feel like this is normal anymore aswell: http://img547.imageshack.us/img547/9623/lolprob.png 	0
   	 2013-05-22 16:52:44 	 Watched Notorious again today for like the 8th time but fuck, what an awesome movie 	0
   	 2013-05-23 16:14:46 	 It' NSFL, meaning Not Safe For Life. The more you know.. 	0
   	 2013-05-27 18:34:04 	 To be fair, Z at the end of WoL was kinda bs once they got to broods/infestor 	0
   	 2013-05-28 18:07:58 	 Same-sex marriage and marihuana. Those 2 combined is pretty rare I'de say 	0
   	 2013-05-28 18:25:09 	 You don't have to make a new account every time you do this, just use www.10minutemail.com. Also very usefull for when sites demand you to register in order to do something but you don't want the spam that goes with it 	0
   	 2013-05-28 18:32:21 	 I totally agree, this was the first time I felt sincerely bad for a player recieving this kind of hate on reddit as he seems to be the one that deserves it the least, such a nice guy 	0
   	 2013-05-29 02:41:32 	 I love this game, so rewarding finally beating the zombie one on brutal! 	0
   	 2013-05-29 15:40:07 	 Make that 10, go check out /r/lounge! 	0
   	 2013-05-30 12:00:06 	 Blue side seems to be OP on kata 	0
   	 2013-05-30 12:51:10 	 'I'm on that weird part of Yt again..' 	0
   	 2013-05-31 00:09:16 	 One of the best hip-hop albums of the moment in my opinion! Love his style 	0
   	 2013-05-31 10:53:09 	 First one that came to my mind aswell, beyond messed up 	0
   	 2013-05-31 17:10:34 	 Subtle, I like it 	0
   	 2013-06-02 18:59:04 	" Probably way too late here but whever.. I have a skeleton in my room. Not a metaphorical one but an actual skeleton. My mother gave it to me a couple of years ago.
She bought it when she was in uni, because she had to study all the bones and such.. Apperantly they're pretty rare now, since you can no longer buy them that easy. "	0
   	 2013-06-03 15:29:31 	 I have an entire skeleton made of real bones and 2 skulls, 1 fake and 1 real one. And yes, it would fit in my closet! But why have him there when I can have him next to my bed with a tie around his neck? 	0
   	 2013-06-04 01:29:31 	 What?? 	0
   	 2013-06-04 15:09:52 	 Why do things like this always get made by asians people? More particular the Japanese? So twisted.. 	0
   	 2013-06-04 15:21:35 	 Yes, buried.. 	0
   	 2013-06-04 23:50:19 	 'Graves no flash' 	0
   	 2013-06-08 13:40:54 	 In that case, they're not doing a really good job in my experience 	0
 Photoshop Live - Street Retouch Prank 	 2013-06-09 02:12:01 	  	0
   	 2013-06-11 11:53:32 	" Probably way too late for the party again but here it goes anyway:

When I was little, about 8 or so, I lived by the coast of Belgium (still do) A coasttram would drive along the coast in loops, stopping in all cities. Now, this thing drives in a bedding between the 2 roads the follow the same route, so naturally, alot of people cross it daily. There have been accidents before but they're pretty noisy so you can hear them coming wich gives you quite some time (they don't tend to go fast).

That day, I was on my way to the store when an eldery couple ok bikes wanted to cross the tracks. A tram was coming but they still had more then enough time. The man went first and got over just fine. His woman was next and the tram was getting pretty close now. 
She fell because her front wheel got stuck in the tracks. Being old and less mobile, she couldn't get up in time. 
The tram was too close to come to a standstill and ran her over at maybe 15 kmph but still, it was enough to run her over and drag her for a meter or 10. I watched it all in what seems like a slow-motion and stood there untill an ambulance showed up and put a tent over her remains. Needless to say, it wasn't a pretty sight.

Ps: sorry for bad formatting, on my phone "	0
   	 2013-06-11 12:47:52 	 Saving this :) 	0
 My feeling when checking reddit this morning. 	 2013-06-11 14:08:36 	  	0
   	 2013-06-13 12:30:22 	 Girl, you're so beautiful, I woud drag my balls through 10 miles of broken glass and rusty nails just to hear you fart through a telephone. Gets them every time man.. 	0
   	 2013-06-15 01:15:33 	 Just wondering, what's so bad about imageshack? I still use ot from time to time and see no huge flaws 	0
   	 2013-06-15 13:34:50 	 3-0'ing a team like Blaze kind of does justice imo.. But I understand what you mean, have an upvote 	0
   	 2013-06-15 14:35:02 	 I honestly wonder who would be the better, more consistent player. Fabby is pretty agressive and can dominate bot as soon as he takes the lead. Aphro however, might be more mechanical (when het gets back to his old level, he's a bit sloppy now) and has more experience playing with a pro team on stages. 	0
   	 2013-06-15 19:11:04 	" How on earth is it possible I watched NA lCS this night on my mobile phone, in bed, with no lag whatsoever. Then watched OGN this morning, a stream from Korea,  lag. 
Now I want to watch EU LCS, wich is basically played in my backyard and I just can't because of the horrible lag?? Get yo shit together EU LCS "	0
   	 2013-06-15 19:12:47 	 YT stream without lag!! https://www.youtube.com/watch?v=Kgp0A5xLPBM 	0
 For all the people trying to watch EU LCS on a laggy twitch, here's the YT stream! 	 2013-06-15 19:13:36 	  	0
   	 2013-06-15 19:20:56 	 You're welcome! I couldn't watch the Twitch stream, it drove me mad so I searched untill this came up 	0
   	 2013-06-15 20:28:40 	 That was the moment I closed the stream, too hard to watch :( 	0
   	 2013-06-16 19:46:47 	 A Snoopeh vid on reddit?? Who knew.. Anyway, beautiful steal 	0
   	 2013-06-17 00:03:15 	" You probably never got that mant POINTS for a comment before!!

I'llletmyselfout "	0
   	 2013-06-19 09:03:48 	 If only you had a camera back then, imagine the karma you would have gotten! 	0
   	 2013-06-19 20:38:23 	 /r/imgoingtohellforthis 	0
 Need a new gaming laptop, what do you think of this one? ($1000, EU, 15 inch) 	 2013-06-21 23:12:52 	" Hi,

My alienware M14x broke down earlier (spilled drink over it) and I'm looking for a laptop to replace it. I don't want to spend 1500 euro on a laptop again, but I still want one that does very good performance wise, at the same level or better then my previous one.

Here are the specs on my late m14x:
-8.192 MB 1.600 MHz Dual Channel DDR3 SDRAM [2 x 4.096]

-3 GB NVIDIA GeForce GT555M


-750 GB (7.200 rpm) serial ATA-hard drive


-Intel Core i7 Processor 2670QM (2,20 GHz, 6 MB cache, Quad Core)


This is the one I was looking at: http://www.toshibadirect.com/td/b2c/pdet.to?poid=2000098506$

Would this one suffice? Is Toshiba any good/know for gaming laptops? And please, any further suggestions are welcome! My pricerange is anywhere between 1000 and 1200 euro.

Thank you! "	0
   	 2013-06-22 15:07:42 	 I'm from Belgium. Wich one do you recommend then? 	0
   	 2013-06-22 15:08:26 	 Thanks for sharing you experience! 	0
   	 2013-06-22 17:01:20 	 Preferably an AZERTY since I've been using it for whole my life and it's the standard in Belgium. I think I could get used to a qwerty however, if the laptop is significally better then the ones with AZERTY 	0
   	 2013-06-22 19:15:14 	 Checked the new post in search for a submission about this game. I'm loving it, alot of teamfights, action packed and Forellenlord absolutly shitting on everyone!! Godlike Ahri plays 	0
   	 2013-06-22 21:58:57 	 Thanks for the tip! Have you perhaps got a short explenation or guide on how to apply this? Cheers! 	0
   	 2013-06-22 21:59:21 	 I'll definatly give them a look! Thanks a bunch 	0
   	 2013-06-23 14:05:50 	 Would love to see it aswell!  	0
   	 2013-06-23 18:22:31 	 You better deliver!! 	0
   	 2013-06-23 23:05:40 	 I just tested the same build and it worked wonders, the poke you have once the tear is stacked is ridiculous 	0
   	 2013-06-23 23:38:37 	 Thanks a bunch! I'll try it as soon as I get it. I'll let you know how it went, haha! 	0
   	 2013-06-26 12:37:31 	 D'awww.. 	0
   	 2013-06-28 11:09:06 	 Irrelevant question,  but why did Aphroo stop streaming with a cam? I'm certain that he streamed with one way back when.. Or did he? I'm confused.. 	0
   	 2013-07-01 00:30:47 	 Aww man, he would of lived forever if you didn't open it!! 	0
   	 2013-07-01 23:44:12 	 Why was the original taken down? Btw, HawthornePD just disabled posting on their FB, they we're getting flooded with hate. Too right imo.. 	0
   	 2013-07-04 00:33:21 	 And the idea has gone to shit already.. 	0
   	 2013-07-04 11:15:21 	 Wow, first time I see somebody I RES-tagged again and it says 'ejaculates on dead people'.. Hi again!;) 	0
   	 2013-07-10 13:14:12 	 Best.Work.Ever. 	0
   	 2013-07-10 19:15:19 	 There goes my evening.. 	0
   	 2013-07-17 12:02:55 	 She's the definition of Crazy Eyes 	0
   	 2013-07-18 01:52:11 	 Literally me when I woke up this morning, 10/10 	0
   	 2013-07-18 01:54:04 	 Holy shit, you're actually really good!! Was a bit afraid when I opened it, 'another LoL parody' but damn, you got talent man! 	0
   	 2013-07-18 15:38:41 	 Well you did an awesome job, looking forward to see your next work! 	0
   	 2013-07-20 00:34:35 	 He casted his ult just at the exact time requiem would hit. This is very hard to pull off because he was under alot of pressure by SK and he had to time it perfectly since there's only like a half second window of invurnability 	0
   	 2013-07-20 04:06:09 	 Yeah could be, just wanted to point out how well-timed it has to be. Don't know exactly how long it lasts tbh 	0
   	 2013-07-27 13:08:49 	" 'Dust2, best map ever' 
Whaaat? "	0
   	 2013-08-10 02:24:39 	" I actually did this to a girl, when I was 16 or so.. We didn't see/hear eachother for the entire summer so I tought she'd forgotten about me and it would be super akward when the first day. So I did what a stupid young vou does, dumped her the day before school started.

She didn't talk to me for over a year and I found out aftefwards that she was heartbroken when I ended it. Still feel guilty about that actually.. "	0
   	 2013-08-10 13:49:23 	" We're actually on pretty good terms now, we had this period in wich we talked again and got along fine. I also apologised so that helped..
Anyway, she's happy with her bf now so all is good! "	0
   	 2013-08-11 20:31:11 	 Of course she is, she's surrounded by cocks 	0
 [Idea] ARAM, only better. 	 2013-08-13 16:20:54 	" Not going to lie, I just had a rather frustrating game in ARAM, one of those were you see the loading screen and wish you could go afk if it wasn't for the '9X poppy afk's that would certainly follow.

Then I started thinking, why do I even play this gamemode? You sometimes lose 20 minutes+ of you're time in a game you have no chance of winning.

 'I do it for fun, I don't care if we win or lose' Good for you, but my game time/day is limited and I actually do feel a bit frustrated after those game. Now, don't get me wrong, I'm not the type of guy that 'likes ARAM as long as we have a good team and win'. I like it because of the teamfights and the practice you get.

Problem with ARAM tough, you're teamcomp is sometimes so random and/or shit that you learn nothing by playing it. So why not make a gamemode where everyone get's assigned 1 role from the current meta and plays a champ that is considered to be that role. Not only would this make it more fair, it would make it a whole lot more realistic because you play with actual comps that you can see in normals/rankeds.

inb4 'Riot doesn't want to enfore the meta' I know they don't, but it's not like it's a serious gamemode right? Plus, the meta is what the players make of it, the current meta is pretty stable, so I don't see how this would be a problem.

TL;DR: Make a gamemode where each member of the team gets assigned a random role and champ BUT within the current meta, making teamfight practice alot more realistic.

Would love to hear all arguments in favor or against my idea, all I know is that I would play this a whole lot more then the current 'get lucky in picks and win' ARAM

Ps: Yes, I know games outside of the meta are being played in rankeds aswell as in the pro circuit but you unfortunately cannot count in every random team comp out there.

EDIT: perhaps there could even be a gamemode besides this one in wich you pre-choose you role and the game then matches you with 4 others, who each have picked another role. In that way, you could practice by example, positioning/orbwalking as an ADC. Or initiating as the tanky top.. "	0
   	 2013-08-13 16:53:18 	 I know that that is why people play ARAM, all I'm saying is that I bet there's a large amount of people that would move to practice teamfights within the current 'stupid meta' 	0
   	 2013-08-14 12:18:42 	 Soooo.. League is better right? Right..? 	0
   	 2013-08-15 03:03:33 	 Surfing.. Being payed to travel all over the world, to the most beautiful countries to surf the best waves known to mankind.. Living the dream :) 	0
   	 2013-08-15 18:17:53 	 Why? It's not too uncommon for supports to run Ignite when their ADC is running barrier. 	0
   	 2013-08-16 12:49:35 	 My tought aswell, glad the 'regi-hate' has stopped but this is not frontpage worthy imo 	0
   	 2013-08-25 07:31:05 	 ITT: OP getting downvoted into oblivion  	0
   	 2013-08-26 16:17:01 	 u wot m8? 	0
   	 2013-08-27 18:48:50 	 U wot m8? 	0
 Dad tries skateboarding while holding his son, both bail hard. Bad parenting 101 	 2013-08-27 20:34:09 	  	0
   	 2013-08-27 20:35:01 	 X-Post from /r/whatcouldgowrong 	0
   	 2013-08-27 20:46:04 	 This is the reason it got me angry, if he stopped and considered the pro/contra's or the risks, there's no way he would of done this. Instead he went for the 'nope, this will be both awesome for us and look good on video.' 	0
   	 2013-08-27 21:50:29 	 Would love this aswell! Especially because, in this way, it would be alot easier for people from all over to come and join in, even some of us living in Belgium. *hint hint* 	0
   	 2013-08-27 22:43:42 	 [Ur a cheeky 1 EH?](http://static1.fjcdn.com/comments/4551482+_1122fdb9757f3c0e96683cdd6f28c304.jpg) 	0
   	 2013-08-28 20:24:15 	 Wow 	0
   	 2013-08-30 23:36:29 	 EG, CLG and M5 here, still got a shot! /#believe 	0
   	 2013-08-31 22:23:50 	 cheers! Wasn't sure and it doesn't show on my phone so I guessed 	0
   	 2013-09-01 23:27:58 	 I love me some trashtalk but damn, talk about kicking a man when he's down.. Anyway, ggwp Vulcun good luck at worlds 	0
   	 2013-09-03 22:20:35 	" How on earth can you call players like Wickd, krepo, snoopeh and yellowpete 'trash'? Yes, they have their bad games, everyone does.
I personally have seen lots of improvement troughout the last season and they ended 4th in the LCS. Trash? Gl in your series to bronze 2 or whatever it is you play in

/rant "	0
   	 2013-09-05 17:21:47 	 Cats are assholes. Love em 	0
   	 2013-09-05 17:49:06 	 I actually have red particles for him, there was a guide on how to do it posted back when he was released, I'll update when I can find it! 	0
 What site would you miss the most if it was to be taken away from you? 	 2013-09-07 16:52:16 	 Perhaps better to exclude reddit since I assume alot of people would answer this. 	0
   	 2013-09-07 16:55:48 	 Stupid as it may sound, my answer would be Facebook. I hardly ever check it for more then a minute but just knowing I can contact all my friends pretty easely (even when I haven't heared them in ages) if I need to is so convenient. Also, birthdays! Knowing me, I wouldn't remember more then 5 a year.. 	0
   	 2013-09-07 17:20:38 	 Good answer! A site I use so much and consider so normal that I haven't even considered, but losing it would indeed suck 	0
   	 2013-09-07 17:21:32 	 That, or for papers due tomorrow 	0
   	 2013-09-07 17:22:27 	 True, but that one has lots of alternatives on somewhat the same level, sites like google and reddit are quite unique in my opinion. 	0
   	 2013-09-07 23:56:31 	 Say whatever you like, the kid can rap and has probably made more money now, age 24, then you (or me for that matter) ever will. So he must be doing something right.. 	0
   	 2013-09-08 14:57:51 	 The baby was born with abnormaly large feet, making the pre-purchased shoes unusable. I want to believe.. 	0
   	 2013-09-08 15:15:06 	" It's almost impossible but try to imagine that that's you, trying to deal with the sudden passing of your mother, dealing with all the questions. Newt thing you know, there's this kid making fun of you and of her..
Knowing me, I'de be in prison, I wish I could say I have the self-control but I don't.. "	0
   	 2013-09-11 18:59:40 	" Where's the EG option? 

\#Istillbelieve "	0
   	 2013-09-11 19:06:51 	 This is no fun on acid :( 	0
   	 2013-09-12 18:54:43 	 I think this is one of those people that actually clicks their skills instead of using hotkeys. Anyway, cringed 	0
   	 2013-09-13 08:52:05 	 I still don't see the problem.. 	0
   	 2013-09-14 00:47:27 	" No matter how gruesome, this should be everywhere. People have to know what's going on and realise that just watching it happen is not the way to act.

Fuck Russia and China btw, preventing the entire international community to intervene with political and economical pressure. "	0
   	 2013-09-14 01:05:48 	" I never said bomb them. I'm talking about an intervention coordinated by the international community (NATO by example), not just the US. 
We've seen that their method does not work, however, it's getting pretty obvious that something has to be done because the situation over there is getting out of hand, human rights being violated left and right.. "	0
   	 2013-09-15 14:57:11 	" I'm dissapointed

EDIT: NVM! OP got both, happy days "	0
 I just got back from a 2 week trip and would love to watch some Worlds. Tell me the best games in your opinion please! 	 2013-09-22 23:10:58 	 As the title says, please say wich game(s) you liked best and I'll watch those! Thanks! 	0
   	 2013-09-22 23:11:29 	 That is 1 title..:v 	0
   	 2013-09-22 23:16:19 	 Would love to, but haven't got the time to do so :/ 	0
   	 2013-09-22 23:42:53 	 Thank you! Will check those out now 	0
   	 2013-09-23 02:15:12 	 Thanks to everyone replying! Got a few hours I can fill right now :) 	0
   	 2013-09-23 15:15:12 	 CLOUD9 BACKDOORS ARE NOT READY FOR THE PEKE \#PREPAREYOURANUSNA 	0
   	 2013-09-24 23:04:25 	 Nvm I'm retarded 	0
   	 2013-09-27 13:34:16 	 Lies, nobody plays Zilean! 	0
 We are everywhere! (/r/leagueoflegend) 	 2013-10-01 23:04:56 	  	0
   	 2013-10-14 15:11:59 	 [My login timer at 15:00 GMT+1..*sigh*](http://i.imgur.com/f2oNZyn.png) 	0
   	 2013-10-29 01:08:24 	 Mind=blown 	0
   	 2013-11-29 09:19:27 	 Smietn 	0
   	 2013-12-31 14:55:44 	 Weed wizard zilean tough.. 	0
   	 2014-01-05 17:47:15 	 I'm afraid it might be hard to find ex-procrastinators on Reddit, they probably all got the hell out of here.. 	0
   	 2014-01-05 22:40:55 	" Kendrick Lamar - Good Kid, M.A.A.D. city. It's more than an album, it's a lifestory told in the most fitting way possible

Edit: For anyone familiar with the album, so worth the read: http://www.kanyetothe.com/forum/index.php?topic=313845.0 
It's, in my opinion, a very good interpretation of the album and every song by itself. "	0
   	 2014-01-06 01:10:41 	" How many sins? I'm running out. How many sins? I lose count.. 
Goddamn love that song, all the stories coming together in 1 track "	0
   	 2014-01-06 07:36:54 	 Section 80 is amazing aswell! Learn about Kendrick because of GK, MC and started searching more of him afterwards. S80 is an excellent album aswell, with a whole different story and characters but atleast as 'real' 	0
   	 2014-01-06 15:24:45 	 Exactly, I was in doubt wich one to answer but I got into Kendrick with GK,MC and discovered Section 80 afterwards, so yeah.. 	0
   	 2014-01-08 11:32:44 	 Yeah but you can get e free rock using the same method, reversed. So, free bj! 	0
   	 2014-01-11 14:21:16 	 Is this real life? 	0
   	 2014-01-11 14:21:25 	 Is this just fantasy? 	0
   	 2014-01-28 15:29:07 	 Glad you liked it! 	0
   	 2014-03-25 22:25:00 	" I suggest you download Tor and go browse Silkroad, alot of fake documents are being sold there.

/r/silkroad to get started! Just be sure not to get lost ;)

Edit: why downvote his question? I was never under the assumption everyone held such high moral standards here.. "	0
   	 2014-04-25 17:55:14 	 Yes 	0
   	 2014-05-05 13:47:35 	 It's gone :( Can someone tell me what it said? 	0
   	 2014-05-21 01:10:49 	 Amsterdam? 	0
   	 2014-05-26 19:04:32 	 Hey, how did you get 2 flair?o.O 	0
   	 2014-06-13 16:55:05 	 Anyone got a mirror? Got taken down :/ 	0
   	 2014-06-16 14:31:03 	 Looking forward to see wich team we'll send home next round ;) 	0
   	 2014-06-18 20:58:54 	 Love you too 	0
   	 2014-08-18 18:13:09 	" Dude your music's amazing!! Sitting here on the train, hearing it for the first time with this stupid grin on my face..

Thank you!! I'm on my way to iTunes now  "	0
   	 2014-10-16 18:43:29 	 2 	0
   	 2014-12-18 19:28:14 	 She looks like she's having a stroke. A beautiful one, but a stroke none the less 	0
   	 2014-12-30 21:19:05 	" Quality post 10/10
420/10 with rice "	0
   	 2015-01-19 22:38:27 	 Love you all  	0
   	 2015-01-20 00:20:55 	 What does he say tough? 	0
   	 2015-01-30 20:15:14 	 All this whining.. Seems like a cool skin to me, I like it 	0
   	 2015-01-30 20:31:02 	 I meant that I like the idea. Everyone seems to hate it before having seen it.. I think they could do some really cool things with it 	0
   	 2015-02-09 15:33:40 	 I stopped playing a while back, can someone explain me what the difference between normal and 'hard' kills are? Thanks! 	0
   	 2015-02-16 17:00:32 	 Is it possible that you asked about it in game and I answered it might be his statik? If so, we were on the same game :) 	0
 3 months of gold for whoever can adjust/make a gif for me. 	 2015-02-19 18:29:59 	" Hi,

I found the following gif on the frontpage:
http://www.reddit.com/r/gifs/comments/2wf30j/classic_willie/
I would like somthing simular but with the name of the bear changed to 'Poeh' and the girl's name changed to 'Louise'.

The original gif is really easy to find.
Willing to gif 3 months of gold to whoever can make the best/high quality gif out of this.

Thank you! "	0
   	 2015-02-19 21:21:50 	 Thank you very much!! I'm on mobile now, I'll get you the gold when I get home, within 2 hrs max 	0
   	 2015-02-19 22:10:44 	 I gifted you gold 3 times now, so I believe we're even :) Thanks again! 	0
   	 2015-02-19 22:36:21 	 I'll certainly remember that, much appreciated! 	0
 How am I supposed to get this key?? 	 2015-02-24 00:51:57 	  	0
   	 2015-02-24 00:54:02 	" Apologies if this post looks weird, I posted it from my phone.

Now, I started a disaster and got this asba requirement to rebuilt. Do they really expect me to not rebuild untill my storage is big enough? This will take ages..:o "	0
   	 2015-02-24 01:19:17 	 Exactly what I tought.. I sent them an email, hopefully they'll care and fix it because there's nothing I can do with that piece of land now.. 	0
   	 2015-02-24 02:27:55 	 I like you, you're funny :D 	0
   	 2015-02-24 13:43:04 	 Nice guide. One question tough, why don't you include Spirit Visage in the defensive item list? I tend to go for it quite a lot as it does wonders combined with a BT, especially when a tank of theirs has a tornmail 	0
   	 2015-02-25 23:19:03 	 Be sure to check out stephan biniak's bootleg version aswell!! Super chill 	0
   	 2015-03-06 09:30:53 	 It's so simple, use Runescape's Grand Exchange system, problem solved.. 	0
   	 2015-03-06 17:13:38 	" Exactly! Plus, it would remove all the useless searching, just put in an order, decide howmuch you want to pay for it and wait. 

Prices are decided by the players and supply amp;demand.. I would be so happy if they implemented this "	0
   	 2015-05-26 00:08:26 	 Source anyone? 	0
 Older brother seeking help for my sister. 	 2015-06-09 12:14:54 	" Hi Reddit,

My little sister (she's 20, but I have 2 and she's the youngest, therefor my little sister) has been diagnosed with depression a couple of weeks ago.

I never saw it coming, she always was the most cheerful one out of our family of 5, has an amazing boyfriend who loves her, has tonnes of friends, popular, beautiful.. You get the picture.
Because of my work, I can't be home often and she's at uni most of the time anyway.

The last time I saw her it really shocked me how sad she looked, the light always visible in her eyes seemed to have faded away, she looked tires, didn't say much..
I went out to dinner with my dad and he told me it has been declining for a while now and I can see that it hurts my parents tremendously to see her suffer like this.

Now, I went trough something simular when I was in uni but got very good at hiding it and eventually got better because I got help and decided what was worth obsessing over and what not.

I'm afraid that she will not have this strenght, she never had any major troubles in her life and I can see she's not dealing with this well at all.
She is getting professional help but this can only go so far.

As her older brother, I alwasy felt like she looked up to me so my question now is, what is my best course of action? What do I do or say to help her in any way possible?
Mind you, I'm able to see her or meet up with her from time to time but this is once every 2 weeks max.

I already told her I was in a simular situation, what I did to help myself and how I eventually got out. The big difference between the 2 of us is that I kinda knew what was keeping me down, **she does not know**

Only thing that we can think of is that she sets really high (unrealistic) standards for herself, is perfectionistic and does not handle the stress coming from this very well.

So Reddit, what do and what say?

Thank you so much for helping me, I'm kind of lost and it kills me to see my baby sister like this. "	0
   	 2015-06-09 15:21:05 	" Hi,

Thank you for your response.

I have indeed tought about the fact that it might be possible that she's hiding something. However, I do not think this is the case. She was never the type of person to hide stuff from her family, no matter how embarrassing/painfull.  

Plus, she also says that this is the main reason why she's so confused, she doesn't know why she is feeling so depressed. I believe that it is something she might be unaware of, or something she refuses to face..

I like the quote by your father since it adresses what I think is the root of her problem. Will definitely use this the next time I have a chance to sit down and talk with her about this. Thanks alot!  "	0
   	 2015-06-10 00:39:45 	" That must be so tough on you :( 

If I may ask, what could potentionally make you open up towards them? Is there anything they could do or say to make you feel comfortable with this? "	0
   	 2015-06-10 08:55:10 	" Thank you, I might bring this up when Infeel the time is right.

And that may be so but that's no reason for me not to care about others right? So, stanger to stranger, how are you doing and dealing with it now? "	0
   	 2015-06-10 19:22:39 	" I already try to talk to her, in my experience, time can heal you but can also drag you down very fast. This is something I want to prevent at all cost. I really do hope it's just a phase and she'll snap out of it.

I drove home for the night so we could have dinner and he seems allright, laughing from time to time and making jokes so I'm carefully hopefull :)

And glad to hear that you seems to do allright, I doubt I can make you a whole lot better but if it's any help, I have tough about you, that stranger from Reddit, quite a few times today and I really do hope you're good! *internet hug* "	0
