title	date	text	class
 Overly Dramatic Kitten 	 2012-06-14 23:34:52 	  	0
   	 2012-06-14 23:44:47 	 They say the Internet has grown in leaps and bounds in the past 12 - 15 years... Seems the same to me. 	0
   	 2012-06-15 01:21:33 	 Just wanted to say, loved you in Zack and Miri... Freaking hillarious! Any future outtings for Jay? 	0
   	 2012-06-17 15:16:59 	 Bet Picard would find that most engaging. 	0
   	 2012-06-20 00:25:33 	" Locked eyes, from across the room.
Heartbeat froze as the reptiles move
Snakes and crocs
All in my house
Nearly puked when one ate a mouse and I

Shit in my pants.

True story. "	0
   	 2012-06-20 00:36:31 	 False. That is a package of paper, not a brand. 	0
   	 2012-06-26 13:54:46 	 a science experiment results in a bug bite. Later, he gets married. 	0
   	 2012-06-26 13:55:27 	 two friends have trouble getting a snack. 	0
   	 2012-06-26 13:57:28 	 guy gets girl pregnant, gives into the hate 	0
   	 2012-06-26 14:00:59 	 guy spends a night in a hotel sigh a girl he hasn't seen in years. Leaves with a burning sensation. 	0
   	 2012-06-27 03:38:19 	 whales circling saves their lives. 	0
   	 2012-06-27 03:39:02 	 guy trades his 100 year old car for a train so he no longer needs roads. 	0
   	 2012-06-27 03:40:21 	 jennifer anniston is a bad boss, but I would work for her 	0
   	 2012-06-27 03:41:00 	 two guys do some mountin' on a mountain. 	0
   	 2012-06-29 00:15:20 	 Steve Jobs stole his cocksucking abilities from Microsoft. 	0
   	 2012-06-30 18:55:26 	" Guys like ""Wow. I just did that in front of millions of people. This moment could not possibly get any worse"" then BIKE TO THE HEAD! "	0
   	 2012-07-01 14:32:55 	 You have presented Dobby with outdoor apparel. Dobby has no ice masters. Dobby can sky free! 	0
   	 2012-07-03 16:42:31 	" Reminds me of a place that used to sell ""Big as your head chimichanga's""

I wonder if the pufferfish could be trained to puff up after being swallowed. Could be a cheap weight-loss method for people. ""Feel instantly full!"" "	0
   	 2012-07-07 03:01:31 	 The line must be drawn here! This far, no further - Michelangelo 	0
   	 2012-07-07 03:02:38 	 With great power comes great responsibility - Hydro One 	0
   	 2012-07-07 03:04:28 	 Its morphin' time! - Nurses of America 	0
   	 2012-07-07 03:05:58 	 Snape Kills Dumbledore - Hermione Granger, the fourth Harry Potter book. 	0
   	 2012-07-07 03:07:37 	" ""A spoon full of sugar makes the medicine go down."" - Dr. Kevorkian "	0
   	 2012-07-07 03:20:09 	" ""But I poop from there!"" - Bob Saget "	0
   	 2012-07-07 15:06:24 	" I was in this restaurant one time. I walked in and there was a sign that said ""Please wait to be seated"". So I stood there and waited. Place was a ghost town too. After waiting for 5 minutes to be seated, I got tired of waiting, and went and sat at a booth. I waited again for over an hour, and the waiter never came. I tried clearing my throat, making noise, nothing. After an hour and a half, I realized the place was closed.

tl;dr There was a reason this restaurant didn't have anyone else in it! "	0
   	 2012-07-07 15:44:08 	 It felt like 17 years in the movie... It felt like the movies were 100's of years long. 	0
   	 2012-07-11 22:54:36 	 Its Geeze. Garsh! 	0
   	 2012-07-11 22:57:00 	" Nope. It was ""The Core"" "	0
   	 2012-08-04 03:25:07 	" Can't help but notice that you spelled ""crash into"" ""land on""

Not sure if something was lost in translation?

Seriously though, I wish it the best. "	0
 Saw this at a local Arby's. Apparently their food is so good, you'll hang yourself afterwards.  	 2012-08-09 00:31:11 	  	0
 How I feel when I see a good thread getting hijacked. 	 2012-08-15 03:27:02 	  	0
 Thanks Microsoft! 	 2012-08-17 13:53:34 	  	0
   	 2012-08-20 13:08:58 	 Oh dear, you're both right! 	0
   	 2012-08-23 12:25:27 	" Darth Vader never said ""Luke, I am your father."" Instead, he responded with ""No, I am your father."" To Luke's accusation that Vader killed Luke's father. "	0
 Today, after months of working, plotting, and grinding, I finally beat Ellen Degeneres at Wetopia, on Facebook! 	 2012-08-23 13:55:26 	  	0
   	 2012-08-24 02:10:40 	 I feel sorry for me :( 	0
 TMI? 	 2012-08-25 01:34:53 	  	0
   	 2012-08-26 13:37:52 	 There doesn't appear to be any fucking involved... 	0
   	 2012-08-29 12:44:04 	 Oh my god...That logo... Was Batman pissed she stole the Batmobile and then wrecked it? 	0
   	 2012-09-01 02:06:57 	" ""Borg invade space. Puny humans fall back. Borg make Borg of thousand world. Puny humans fall back. No more. Hulk angry. Hulk smash!"" "	0
   	 2012-09-03 19:25:42 	" I can't help but think... A moment in time like this, by the time you got your camera or phone out, got it ready, and snapped the picture... You would have missed it. 

So... I can't help but think that the OP was videotaping his two dogs having sex and caught this moment, screen captured it, and uploaded. Which begs the question... Why are you videotaping your dogs having sex? "	0
   	 2012-09-07 12:47:44 	 One great cup? 	0
   	 2012-09-21 13:44:55 	" ""We will not go quietly into the night!

We will not vanish without a fight!

We're going to live on!

We're going to survive!"" 

Today, we celebrate our motherfuckin' Independence Day, motherfucker!
 "	0
   	 2012-10-21 17:14:49 	 If they dropped a please in there... That would be all the difference 	0
   	 2012-11-02 04:04:43 	 Sweet 	0
 I hate it when this happens 	 2012-11-06 01:33:04 	  	0
 OAC Doesn't like all this talk of confession bears... 	 2012-12-28 13:26:36 	  	0
   	 2013-01-05 01:11:49 	 Back in my day we just called them rock formations damned liberal arts majors and your fancy igloos. 	0
 I've seen some stuff man. I wouldn't recommend it. 	 2013-01-19 02:26:30 	  	0
   	 2013-01-25 13:09:41 	 Not entirely sure why that worked. Best Buy isn't commissioned based, so the sale of a TV versus another item would impact the sales associate the same way. Likely you just had a good employee in that area. 	0
   	 2013-01-29 19:18:53 	 Lol have a nice drop. 	0
   	 2013-02-06 00:24:47 	 Earthworm Jim? He's such a groovie guy... 	0
 I had to buy her an eye mask... 	 2013-02-21 06:49:56 	  	0
   	 2013-02-22 12:48:38 	" This isn't for anything food related, but still kind of relates to rediculousness.

When I was working as an acting supervisor for a cable company in new York, I had an escalated call come in from an irate customer. Guy says ""Yeah... We just ordered this UFC fight on pay per vue. Its not being offered in HD in our area. I think we should be getting a discount, and toss in HBO and a few movie channels for free for a few months for our inconvenience.""

So I politely explained that the event was only in SD (this was years back) and that we had no control over what the provider gave us as a feed. I also told him that, if he was unhappy, I could cancel his order and he could choose not to order it. He persisted, saying that this phone call is a huge inconvenience and that a few months of premium channels is the least we could do (the UTC event was 49.99, and he was asking for approximately 90 dollars in free service over the three months). 

Finally he blurts out ""My friend spends a lot of money with you every month, you really should be more accommodating"". Turns out he isn't even the account holder. He had lied to my rep when he called in because the account holder was too drunk to talk but thought his hilarious negotiations skills were too good to miss.

The best part? I am still on the phone with him when the right starts (standard no hang up on customers policy... although I can't garauntee he was a customer of ours anyway) and he suddenly blurts out ""Well fuck you. Fight is starting. But I promise this isn't over"" then puts the phone down off the hook. Hear him say ""Let him eat air for a bit. Two hours to of hold time should straighten him out"" luckily at that point, I was able to wait two minutes, inform our QA group the customer has become unresponsive, and disconnect.

Also, I had  guy call in wanting me to discount his porn and give him phone sex because his TV cut out during his porn, and his boyfriend was asleep and he didn't want to wake him. "	0
 Its my first time, so be nice... 	 2013-03-06 13:51:19 	  	0
   	 2013-03-07 14:22:42 	 If the top voted comment is not Justin Bieber, there is something very wrong with this world. 	0
   	 2013-03-10 14:55:58 	" I know where I am moving next. Said I would never leaving Canada. Never say never.

...

Damnit. "	0
   	 2013-03-12 11:59:04 	 You seem to be awful aggressive in your posts. Or you don't realize that there is a difference between shift and caps lock. Either way, I never said I didn't like him because of his music. He is rude, he thinks he is above the law, and lacks general intelligence. And he is nearing burn out, if his most recent outbursts are any indication.  	0
   	 2013-03-21 11:23:23 	 Moreover, it is clearly not the Enterprise. They imply it is by showing the big E in an orbital decay, but if you examine the ship that hits the Earth, you will find that its nacells are squared instead of round. Its secondary hull also seems to be set higher in. Based on the impact, I feel it is likely this scene ties in to the original attack on London, which takes place towards the beginning of the film. 	0
 My ThinkGeek order came with a free Space Invader model! 	 2013-03-22 01:07:57 	  	0
   	 2013-03-24 12:57:35 	 That escalated quickly... 	0
 Whenever I am late... 	 2013-03-24 13:35:07 	  	0
   	 2013-04-18 04:00:08 	 Dead before dawn... 	0
   	 2013-04-24 12:28:41 	 If they creeped up on my porch, i dont think i could bear it 	0
   	 2013-05-03 12:05:10 	 So that's where all the high ping counter strike global offensive players come from. 	0
 Beaker's enjoying his Canadian vacation 	 2013-05-11 22:32:21 	  	0
   	 2013-05-19 13:51:38 	 What does God need with a starship? 	0
   	 2013-05-20 22:32:23 	 Reboot 	0
   	 2013-05-20 22:33:12 	 The TV show ReBoot. Can watch that show all day. 	0
   	 2013-05-23 03:21:44 	 Sonic.exe 	0
   	 2013-05-23 13:11:24 	 Five guys, one cup. Powerful picture. 	0
   	 2013-05-24 12:33:01 	 KHANNNNNNNNNNN! 	0
   	 2013-05-27 12:37:52 	 Got married at 25, and had our first date at 16... Never regretted it for a moment 	0
   	 2013-05-29 12:45:26 	 Up-chuck 	0
   	 2013-06-22 14:06:45 	" Saw my grandfather died and my mother dug up...

Ended better than expected. "	0
   	 2013-07-13 17:41:51 	 Tried match sticks for a stripped hole in wall. House burned down. You owe me one house, good sir. 	0
   	 2013-08-14 09:46:56 	  Picasso, the fifth ninja turtle. 	0
   	 2013-08-15 12:22:03 	 Using Bing as a search engine. Shame on you, Spider-Man. 	0
   	 2013-08-15 12:41:23 	 0.68 seconds. For an android, that is nearly an eternity 	0
   	 2013-08-29 12:37:02 	 Having never attempted to consume fecal matter, I have no grounds for comparison.  	0
   	 2013-09-06 12:27:20 	 I've read the signs, and there is only one way... His way 	0
 He's a real Doctor, from... Canada??? 	 2013-09-06 13:49:14 	  	0
   	 2013-09-25 12:36:16 	" http://www.google.ca/url?q=http://m.youtube.com/watch%3Fv%3DVt7hIk_jZww%26desktop_uri%3D%252Fwatch%253Fv%253DVt7hIk_jZww sa=U ei=UbxCUt_CGsSH2gXDuYDoBA ved=0CA4QtwIwAA usg=AFQjCNGiGAKVKaC2v-mgjrNmEbGLHto7Gw

relephant "	0
 Remembering Mario Thoret: Cyclist feared for safety on busy Ottawa commute | 	 2013-10-19 16:05:02 	  	0
   	 2013-12-06 19:25:00 	 Al Dante's Inferno. 	0
   	 2013-12-11 12:57:32 	" When I was 16 I tripped carrying a computer up a flight of stairs at the repair shop I was working at. I caught the computer in the face on the way down and broke my nose flat. The amount and speed at which it bled was downright frightening for someone who has never needed so much as stitches before. 

The most interesting thing is, my mom insisted we go to the doctor, even though I had set my nose back and the bleeding was stopped. My shirt and pants were severely covered in blood. After waiting for hours for the doctor, he looked at me for a few seconds in my blood stained clothing and asked if there was any bleeding. Then he grabbed the bridge of my nose, twisted lightly until he heard the crunch, and said ""Your nose is broken. Seems like it's set right. Nothing to do here.""  I know they don't do anything for broken noses, but his observational skills left me feeling less than in the best of hands.  "	0
   	 2013-12-21 07:07:31 	" My name is the same as a famous director. Every time he puts out a new movie, people ask me if I realize this. Or tell me they love my movies. Even when it's bed years since his last movie, I still get it. 

It got so bad at one point that I had a guy who works for Rogers in Canada start cracking jokes when I had called in to complain about an incorrect charge on my bill. Soon as he saw my name on the account. Said something about I should be able to pay for extra charges since I made millions off my movie. I just about lost it on him.  "	0
 1943 Custom Bartop 	 2014-02-02 17:02:51 	  	0
   	 2014-02-02 21:59:55 	 I mounted the motherboard onto the bottom of the cabinet, and placed a shelf above it for the power supply and the hard drive. The machine is an old XP2500 plus running xp with hyperspin. 1gb ram, 80gb hard drive, and a bfg 5500 graphics card. 	0
   	 2014-02-03 05:02:26 	 Its not quite perfect yet. If i can't make it perfect, I will try something else for the front end. Since it has spent most of its time playing 1943 so far, it hasn't been too much of an issue. :) 	0
 This image is also from 1942. The quality is amazing 	 2014-02-27 01:25:58 	  	0
   	 2014-02-27 02:16:59 	" If you are a fan of 1943, you might appreciate this 1943 arcade cabinet that I built a few weeks back

http://www.reddit.com/r/MAME/comments/1wt9cl/1943_custom_bartop/
 "	0
   	 2014-04-12 18:40:53 	 My name is also James Cameron. Can i get an apology for all the lame jokes i have to endure every time you release a movie? 	0
 Family catches dog theft on video 	 2014-04-14 00:31:29 	  	0
   	 2014-05-02 20:03:32 	" Obiously the Jesus Christ Riotz.

Or James Cameron Riotz.

In the future, all movies are avatar. "	0
 RCMP search for armed and dangerous man after at least 	 2014-06-05 04:19:35 	  	0
   	 2014-06-19 13:57:57 	 You'd be nuts to pass that up. Or at least legumes... 	0
 Just realized randomly its my cakeday... Bowser was impressed when I told him! 	 2014-06-19 14:04:33 	  	0
   	 2014-06-20 16:01:12 	 Would reddit gold make me feel like a man? Whats all the hub bub about? 	0
 A cocktail cabinet I built on request... What do you guys think? 	 2014-07-02 13:46:14 	  	0
   	 2014-07-03 02:00:09 	" Unfortunately, it was all sort of done in my head. I can tell you that the entire thing was built out of a 4 x 8 x 3/4 piece of maple cabinet-grade plywood, with a sheet of 2x8x5/8 shelving MDF. I started by cutting two panels from the ply. The sides are 24 wide, and the ends are 19. This left enough for the sides of the control panels.

After that, I measured out my controls and found out that I wanted to go about 20"" including the sides for the long control panel.

Once the sides were cut, I did the routering around the edges to create the slots for the t-molding. Then I stained everything. I screwed through the sides into the control panel sides, and added metal corner brackets on the inside for safe measure.

The trickiest part was the trackball. I didn't realize when I ordered it that it was going to be flush mount. For it, I cut a hole in the mdf the size of the body of the trackball. I then flush mounted it with the top, and put a piece of plexiglas over top of it.

The assembly is powered by an AMD Dual-Core 2.6ghz with 2gb of ram and onboard Radeon VC. Its running Hyperspin and I added all the video and marquee files so that the games she adds will automatically have the logos and such.

If you have any more questions, I'd be glad to answer them. The other thing is that, while it seems to have 4 sets of controls, its actually two duplicated. She wanted to be able to play games from both orientations, so I split off each of the connections so I could wire two controls to each of them. It worked well, and made configuration very simple. "	0
   	 2014-07-04 04:52:57 	 Relatively certain its a raspberry pi powered emulation box with some short barrel buttons. Beautiful, but not overly difficult to recreate 	0
   	 2014-07-20 20:02:30 	 The most common mistake is that people load zip files. RetroPie can only see unzipped roms (.nes, etx) with the exception of MAME, which requires them to be zipped. 	0
 Arcade Controller made out of dollar store wooden box 	 2014-07-27 22:33:24 	  	0
   	 2014-07-28 02:14:58 	 Thats the plan! This is a hardware test setup while i wait for parts to come in to build a portable gaming system similar to the r-kaid-r 	0
   	 2014-07-28 15:15:21 	 If you mean because they are low, i am adding menu/coin insert/p1 start buttons above. 	0
 [WP] You arrive in an alternate reality where Bieber Fever is an actual disease, as it turns out that Justin Bieber is the first phase of an alien invasion plan. 	 2014-07-30 03:08:40 	  	0
 What did Avril Lavigne say when she found out her massuse was actually an undercover cop? 	 2014-09-10 14:24:26 	" All this time you were pretending? So much for my happy ending...

I can't promise I am the first one to say it, but I did make it up myself. "	0
   	 2014-10-01 13:52:24 	 I once scored 82 quarters using a 20 on the coin machine... 	0
   	 2014-10-08 05:15:08 	 Really like it... how does 2p work?  	0
   	 2014-10-12 00:36:29 	 The crew that comea from GG every year to the Funspot tournament is awesome. Many good times had in the bar! 	0
 [WP] An old man on his deathbed reveals that he is the only thing standing between Earth and its destruction. 	 2014-10-19 06:58:37 	  	0
   	 2014-10-31 11:43:02 	 Am I the only one disappointed it isn't a Jurassic Park pumpkin? 	0
   	 2014-11-17 00:27:44 	 Did you buy this at Home Hardware? Only company I know that uses that style of price tag. 	0
   	 2014-11-27 13:53:34 	" A special offer!
For those of you who missed ReBoot season 3 and have no idea whats going on...

Ahem...
The web invaded Mainframe
Sprite and virus battled side by side
Attempting to reclaim the city
From the rift that opened wide
But Megabyte betrayed Bob
And he threw him deep inside the pit
The pit was closed
And Bob was hosed
And all that he could say was
Noooooo!
Without Bob to protect us
We thought we would have no barrier
From he who would infect us
Except Enzo, which was scarier
The city trembled terrified
From fear of the infectors touch
I guess your fears were verified
I wasnt a protector much

I guess our fears were verified
He wasnt a protector much
I guess our fears were verified
He wasnt a protector much
I guess our fears were verified
He wasnt a protector ector much

It wasnt Enzos fault at first
He only was a little sprite
At best he was the worst
But then he slowly learned to do it right
And just as he was getting skilled
A game came down he couldnt win
I thought for sure theyd both been killed
First Bob and Enzo not again

I jumped from game to game I aged
I grew and lost my innocence
I soon became enraged by each and every bad experience
the sprite you knew was gone
I had become a grim agressor man
I knew from that point on
That I was truly Bobs succesor man

I met up with the webriders
and took the form of interface
I joined my gun with pirate swords
And surfed the seas of cyberspace
and when at last the two of us
were really reunited guys
our shouts of joy did blare
Because we really were delighted guys

We soon made tracks to Mainframe
So our friends could reunited with us
We made it back but Megabyte
Was waiting there to fight with us
When Bob went face to face to face with Hexidecimal
Our chances for survival shrank from small to infintecimal

Bob helped to defragment my head
While Matrix fought with Megabyte
I thought he'd wind up dead
But he put up a terrific fight
I dreamed of this each lonely night
Of doing in this virus trash
But just ad I had won the fight
He engineered a system crash

What Megabyte had hoped to do
Was cause his death to crack us up
I gambled on the user to Reboot
And thereby back us up
It worked, we all were born anew
And rid of things barbaric
And now we're back together
Everything's alphanuemeric
Everything is alphanuemeric! "	0
   	 2014-12-13 16:42:11 	 All of Star Trek First Contact... my friends hate me... 	0
   	 2014-12-13 16:43:12 	 Pacman........... 	0
 Gotta know when to hold 'em 	 2014-12-24 14:54:50 	  	0
   	 2015-01-01 17:00:50 	 Star Trek premiered in 1966. It was very popular in Japan. People got so caught up in it, they were often too distracted for other forms of entertainment. Thats the power of Kirk. 	0
   	 2015-01-17 19:21:52 	" Sudbury is a one arch town. #deluxe
 "	0
   	 2015-01-25 16:55:14 	 Do JROK boards work in antarctica? 	0
   	 2015-01-28 00:02:14 	" Hrmm. I read through that thread. It seems to point out that hs is good for decent hardware.

I have tried all the front ends out there. If you like to leave your cabinet running and looking pretty when not in use, HS is nice. Different strokes for different folks. I don't use HyperLaunch though. Launching exes directly eliminates possible interference.

As for name calling people who disagreed with you... this is a friendly subreddit. Perhaps dont do that? "	0
 Cats... I don't care if it shows trust... 	 2015-02-01 14:03:16 	  	0
   	 2015-03-04 13:47:54 	" Hey there...

Firstly, I think you may have some misinformation. The SuperFX chip was an additional chip added to Some 3d intense games to give them some new abilities that the SNES didnt have out of the box.

That being said, you have a dead snes on your hands. What seems to be all the rage right now is ripping out the internals.and tossing either a very small windows pc or a raspberry pi into it. Then you can load it up with emulators and have everything in one spoT.

Bonus points for setting it up to use original snes controllers. Www.retrousb.com sells solderable usb to snes controller boards, so you could hook that up to the original controller ports.

Finally, consider if you want to to look stock or give it a themed paint job!

Hope this helps "	0
   	 2015-03-13 13:00:52 	 Isnt that the drummer from RHCP? 	0
   	 2015-03-16 12:34:44 	 Well you just won Cards Against Humanity 	0
   	 2015-03-17 23:48:36 	 Quite right. My bad 	0
 Retro Magnet that covers entire barfridge front 	 2015-03-18 01:22:09 	" So, I've done some googling. I have this fridge

http://www.sunbeamliving.ca/details.php?c=1 id=1266#

And am trying to find a magnet or a vinyl sticker that covers the entire front of it and gives it an 80's/90's video game theme. Wondering if anyone has seen something like this anywhere? I'd prefer to get something that arrives ready to apply without too much modification.

Thanks! "	0
   	 2015-03-18 12:58:41 	 You are whats wrong with the world. Instead of jumping into that recycling box and hitting the breaks, you just stand on the side and watch. You are lucky it didn't hit someone! 	0
   	 2015-03-20 11:49:15 	 That makes sense! I will start looking around for local printers that do vinyl. Thanks for the product advice! 	0
   	 2015-03-20 11:49:33 	 Yeah, along that idea! 	0
   	 2015-03-20 11:50:17 	 Looks like I need to do aome hunting for a good print company! 	0
   	 2015-03-20 11:51:27 	 I have a bunch of retro magnets right now... Its good, but yeah... something that blends it into my game room would be ideal. 	0
   	 2015-03-22 14:53:40 	 The Reboot of ReBoot 	0
 [WP] A couple, unable to have children, adopts a baby. Later in life they find, inexplicably, they are a perfect genetic match as parents for the adopted child. 	 2015-04-05 06:25:58 	  	0
   	 2015-04-09 02:25:03 	 Bet it was spotted in Sudbury, Ontario. And that he works for Falconbridge 	0
   	 2015-04-09 05:39:00 	 Does inco even exist anymore? 	0
 New Cartridge based console announced for next year! Looks interestinf 	 2015-04-16 05:02:06 	  	0
   	 2015-04-16 13:44:38 	" I have the NES version of this controller. Its mushy and not very responsive. The D Pad lacks the ""ball"" in the middle that creates the rocking effect. This means you can push in the center of the controller and hit all four directions at the same time.

I would recommend looking elsewhere. "	0
   	 2015-05-15 13:20:45 	 http://m.youtube.com/watch?v=M2pSiuIKn6k you are looking for the Merlin game system. I have one somewhere. 	0
 Losing weight is literally working your ass off... 	 2015-06-04 01:16:50 	  	0
   	 2015-06-10 22:03:40 	 Ahh, so garbage disposals are actually just hungry cats. Feels like somw flinstones style tech there 	0
 A friend of mine has been working on his own daily comic for quite some time. Thought reddit would enjoy it! 	 2015-06-11 03:38:27 	  	0
   	 2015-06-20 15:15:15 	" Yeah, so many different ways to read it
I've never made my own bacon before
I've NEVER made my own bacon before
I've never MADE my own bacon before
I've never made MY own bacon before
I've never made my OWN bacon before
I've never made my own BACON before
I've never made my own bacon BEFORE. 

Granted, several of these carry the same meaning... hmm.  "	0
   	 2015-06-25 13:32:53 	 General-Lee yes,  this is accurate. 	0
   	 2015-07-04 23:47:39 	 Thanks, it's great to finally get some recognition 	0
 New to Fitness. Long way to go. Started a vlog to keep motivated. 	 2015-07-09 13:18:37 	 [removed] 	0
   	 2015-07-09 13:40:26 	 Thanks! Learning stuff already 	0
   	 2015-07-28 16:03:55 	 Don't know if I can take your word for that. 	0
   	 2015-07-31 13:55:28 	 Either Astrosmash or Triple Action on the Intellivision. Before I could have video games every day, my dad used to take out the Intellivision once a month and we would all play. No times since compare. 	0
   	 2015-09-29 13:27:28 	 They are really dredging the bottoms of the law to do it, but I hear he will be charged with batter-y.  	0
   	 2015-10-02 13:30:01 	 Paramount probably decided they didn't want Nemesis back. It's like custody of the problem child. 	0
   	 2015-10-18 18:48:32 	" At the end of last year, I stepped on a scale with a weight limit of 400 lbs,  and it read error. I decided I needed to do something about it. So I made gradual changes. Two weeks later, I stepped into it again. 398. So now, 10 months down the line, this morning the scale reads 309.

It's possible to do it. It's not easy. It can be fun. I just wanted to say, as someone who is 9 months further along on a very similar journey... good job. Keep it up. It's worth it. And we can high five at the finish line. "	0
   	 2015-10-19 13:48:03 	" Haha yup. I was 30 when I started, too. I had deluded myself into thinking I would be done by end of year. It's almost never as fast as you think it will be. But, as you say, 30 years of debauchery traded to 2 years of self repair isn't a bad trade.

So far, I have gone from a tight size 60 waist pants to a loose 48 - 50. And shirts from 5x to 3x. Most of my size progress has been since June. So now I am hoping XL by the end of the year.

If you need to chat, or have questions, you can always shoot me a PM. US soon to be former fatties have gotta stick together! "	0
   	 2015-10-21 03:19:57 	 My theory is that he is actually Luke Skywalker  	0
   	 2015-10-29 12:44:12 	 Guess that makes him 3rd Rock from the Son 	0
   	 2015-12-07 22:29:41 	" There is a specific version of MAME you must run, and it outputs a file that allows judges to ""replay"" your game on their verified version of mame with the romset.  Most also choose to upload a video of the game play to make sure there is no question.

No system is perfect, but it's Not just a screenshot of a score. "	0
   	 2015-12-07 22:29:41 	" There is a specific version of MAME you must run, and it outputs a file that allows judges to ""replay"" your game on their verified version of mame with the romset.  Most also choose to upload a video of the game play to make sure there is no question.

No system is perfect, but it's Not just a screenshot of a score. "	0
   	 2015-12-07 23:43:15 	 Pretty much anything,  really. Arcade sticks are plentiful, but you can use keyboards, or usb controllers. MAME kind of makes arcade games like golf. The club you play with may give you a bit of benefit. 	0
   	 2015-12-09 20:06:46 	 Hmm.  I was told that the multi boards run pirated versions of the games, and that there are no licenses... 	0
   	 2015-12-18 06:32:11 	 I thought it was who's the boss... the guy is going to buy it, but starts talking about all the changes he is going to make, and they realize that it won't be the same house anymore... 	0
   	 2015-12-19 14:31:45 	" Thought the scene where Han dies could have used an ""I love you"" ""I know"" either before Han gets stabbed, or before he is pushed off the bridge.

Might have been too corny, but it also really would have suited the moment. "	0
 A friend asked me to build her mom a Ms. Pacman themed cabinet for Christmas... so here it is! 	 2016-01-06 05:48:16 	  	0
   	 2016-01-07 23:39:09 	 For the control board it's simply sandwiched between the plexi and the mdf. Around the screen, it's secured with double sided tape. Around the marquee, I repurposed some plastic molding I found at the hardware store that I believe is used in drywalling. I installed it with brass screws, as I did not trust the double sided tape to hold the weight. 	0
   	 2016-01-07 23:43:01 	 Kind of like this for the marqueehttp://m.homedepot.com/p/Unbranded-10-ft-Metal-Super-Wide-Outside-Corner-Bead-726978/202090330 	0
   	 2016-01-08 00:37:52 	 It does have exposure, so you have to be mindful of sharp edges. Or you can apparently use a heat gun and curve it over the lip. I haven't tried this yet though. 	0
   	 2016-01-08 00:40:12 	 Well that's just tacky as hell 	0
   	 2016-01-10 19:28:18 	" You can almost always remove or from a sentence and have a stronger meaning.

Did I do it right? "	0
   	 2016-01-10 19:37:27 	 Looking good!  	0
   	 2016-01-10 19:39:12 	 How is your coin insert mech connected to the computer?  Generally, I have connected the coin slot to the usb interface so a coin drop is seen as a button press, like any other button. Then you simply go in, selected player 1 coin insert in mame, and drop a coin in to map it.   	0
 Printing with a heated bed 	 2016-01-22 02:41:51 	" Basically, I just picked up a Printrbox Simple with a heated bed, and am having trouble finding out whether or not you still use tape on a heated bed or not. I don't want to accidentally damage anything. The sample print was still on the bed when I got it, and it had been printed directly onto the bed.

Thanks in advance! "	0
   	 2016-02-04 18:32:05 	 Then it is gone 	0
   	 2016-02-11 13:43:44 	" Slightly shorter than you, went from 398 to 274 in a year. You can do it, 5 years in plenty of time. Just gotta get yourself into it. 

I started small, I found a gym I was comfortable going to and started going twice a week. Then 3 times. And I cut out all sugar drinks. Over the course of 5 months, I trimmed out deep fried food, and brought my calories a day down to about 1850.

In June I transitioned into doing low carb. Eventually I increased my gym visits to 5 times a week. The most important lesson that I can convey is that don't try to do it all at once. If you do, you are likely to burn yourself out. Find rules you can live in now that get you started, then change them as you get comfortable. And remember that it's going to be 90 percent food and 10 percent exercise. Fitness helps strengthen your body and make it run better. But it can't make up for really bad eating habits.  

If you have any questions, feel free to hit me up. I love to help. "	0
   	 2016-03-22 00:47:03 	" Wow. You almost found it, but you need her help to get there. 

Story of my life. "	0
   	 2016-04-20 04:37:48 	 Are you planning to put it up on thingiverse? would love to print one myself but have no design talent  	0
   	 2016-05-05 11:25:37 	 Let's just agree to me egons be egons then. No hard feelings. 	0
   	 2016-05-15 15:19:25 	 I believe you are a sqrlpunk looking for your sqlpunk 	0
   	 2016-05-21 22:48:59 	" Very interesting how close the uniforms they are wearing on the Franklin look like they are super inspired by the Starfleet uniforms from Enterprise. Right down to the patches on the arms. I wonder if they find an old federation ship and... for some reason put on clothing they find in it. A la In A Mirror, Darkly?

Very interesting indeed. "	0
   	 2016-05-24 11:11:48 	" While I am not a big fan of the design used here, I appreciate what they are trying to do and am sure there are those that will like it.

Have an upvote.

Also maybe cross post this on r/Cade if you haven't yet. "	0
   	 2016-05-27 02:03:17 	" You can do it man. I started at 400 and am down to around 280 and still working at it. I started with food changes and a couple of times a week at the gym. I did protein, then fat, then carbs. I try to keep carbs to 50 or less a day. It can certainly be a struggle, but it can certainly be done. 

Let me know if you want any insight. I won't pretend to be an expert but I have been there. "	0
   	 2016-06-17 14:12:21 	 Your 100 looks way better than mine. Ugh, still so far to go. Good job, it's a hell of an accomplishment! 	0
   	 2016-06-18 12:17:25 	 Is it too late now to say sorry? Are they fixing more than your body? - Venue owner 	0
   	 2016-06-21 04:19:32 	 Pretty sure the franchise will need insurance after it ends up being totalled. 	0
   	 2016-07-10 06:33:54 	 Just use one of those toilet seat covers. That's what they are there for! 	0
   	 2016-07-12 04:02:22 	 Make sure you take your pic on the bridge, assuming they have a copy of the enterprise D bridge set up. I did a makeshift tng uniform by piecing together a red and black shirt. Looked terrible in person but decent in photos. That was my favorite part. 	0
 It's taken me until now to realize 	 2016-08-03 23:17:10 	" After Yesterday's Enterprise, we learn that Tasha Yar survived the destruction of the Enterprise C only to die trying to escape from the Romulans. When we meet Sela, Picard says he would very much like to meet her mother. 

Had Tasha survived to meet Picard, this Tasha would have a completely different history than the Tasha Yar Picard knew. It never occurred to me before today that the reunion would have been bittersweet for both, neither being the friend either remembered. "	0
   	 2016-08-03 23:31:25 	 You are exactly right. I think it would have been interesting to see in the TNG storyline. 	0
 I found a place where the recycling rate just hit 98.0001% 	 2016-08-13 23:53:05 	 [removed] 	0
 Patrick Stewart for Strongbow 	 2016-08-15 01:30:53 	" https://youtu.be/eZ-cTs-u-Kg

There are 7 altogether "	0
   	 2016-08-18 20:47:14 	" Super Mario All-SARS

The Mushroom Kingdom is facing an epidemic, and only Dr. Mario can save the day. "	0
   	 2016-08-25 12:37:56 	 Good on her to stay in character! 	0
 This guy showed up in my backyard... Anyone got info on him? 	 2016-09-03 22:32:03 	  	0
   	 2016-09-03 23:19:40 	 Sorry about the picture quality. The lighting conditions are weird right now. Focused pictures washed out the markings, this one seemed the best. I also didn't want to disturb him too much! 	0
   	 2016-09-03 23:20:19 	 Sorry about the picture quality! Of the several I took, this one showed the markings best. Picture taken in Ontario, Canada. Near Montreal. 	0
 Refinished a table today. The stain we used loves me. 	 2016-09-26 01:33:19 	  	0
 I got a Sega Genesis USB hub from ArcadeBlock this week and was inspired... 	 2016-09-30 02:57:45 	 [removed] 	0
 Was inspired by the Sega Genesis USB hub in my Arcade Block this month 	 2016-09-30 03:11:10 	" https://m.imgur.com/a/LkzAb

This month I received a USB hub that looks like a mini Sega Genesis and couldn't help but think... That thing is probably mostly hollow and would probably have plenty of room for an Orange Pi One in it.

About twenty minutes later, I had drilled a hole for power and cut and filed a hole for HDMI. Some hot glue action secured the board in place and we are off to the races.

So far it doesn't seem to be running overly warm, after a nice long NES session. Super happy with how it turned out!

Sorry about the messy photos... Doing a bunch of remodelling and took a break for this. "	0
   	 2016-10-01 06:48:15 	 The dog. Duck hunt. Laughing bastard. 	0
   	 2016-10-08 22:04:39 	 This. I tend to believe he wrote his programs smart. They captured who he was so it could use all information available to formulate a Soong esq response. 	0
   	 2016-10-17 04:40:40 	 I can't believe he pulled it off than many times in a row. Was actually surprised when she finally turned around and caught him. 	0
   	 2016-11-12 03:16:33 	 No wonder no one ever took Klingon disrupters seriously. That's why they preferred hand to hand combat. 	0
   	 2016-11-12 13:47:38 	 Yeah buddy. I was 12/12 at ebgames in Ontario. Five minutes later would have been no bueno 	0
   	 2016-11-16 13:52:31 	 Oh, I thought you meant the Klingons. 	0
   	 2016-11-25 12:52:50 	" Star Trek  Pocket Watch Vintage Fob Necklace Retor Pendant Best Gift Antique Quarte  Pocket Watch
 http://www.aliexpress.com/item/32729674391/32729674391.html 
(from AliExpress Android) "	0
 RetrOrange Pi - GPIO 	 2016-12-10 05:33:03 	" Has anyone managed to get it to work with the instructions contained here? 
http://orangepi.club/showthread.php?tid=44

I started with a fresh card. Installation from the RetroPie menu seems to go as expected. I then SSH into the box, and find a folder called 

orangepi_PC_gpio_pyH3-master

From this folder, I run 
sudo python setup.py install

which seems to complete without error. I then run
sudo service tz_gpio start

which complains that there is no tz_gpio.service 

I'm not very strong with my linux commands, so I'm not sure where I am going wrong. 

Thanks in advance to anyone that can help. "	0
   	 2016-12-10 18:41:07 	 So, I ran the most recent one, and it installed, and everyone works good when I define the controller. So thats all good. But I am trying to configure it so the GPIO can be used to exit the game, activate save states, etc. Still having issues with that, but thank you so much for pointing me in the right direction! 	0
   	 2016-12-10 21:13:00 	" So, super weird issue. Not sure if anyone is using this much. I basically am trying to get a wired button to trigger a return to main menu. I launch mario, and I try to trigger select/start from inside the NES emulator.

Here is where things get weird. Select works on the main menu of Super Mario Bros. Start works on the main menu too. But, once the game starts, pressing start using the GPIO doesn't pause the game. But, if you kill off mario 3 times and get back to the main menu, you can use the start GPIO to start the game again, and select to change between 1p and 2p.

Not expecting there will be much anyone can do to help diagnose this, its very weird. GPIO input also works on the main menu for RetrOrangePi.

Very very odd. "	0
   	 2016-12-10 21:27:14 	 So far I have tested two mario games on NES and SNES, and both exhibit the same behaviour.  	0
   	 2016-12-11 01:36:05 	" Will try the above and see how it goes!

Thanks for all the help!
 "	0
   	 2016-12-26 15:50:46 	" Could be this 
http://www.thingiverse.com/thing:602755 "	0
   	 2017-01-01 20:05:48 	 Was 9 o'clock on a Saturday... 	0
 ReBoot.com is back up and running. sort of? 	 2017-01-06 02:27:56 	" http://www.reboot.com/

Its got a fancy new reboot 404 page. Its a step in the right direction! I'm sure Megab... Bob will have it back up and running in no time.

Click the top-right and info, they say they are Rebooting the ReBoot website, and it has a 2017 copyright on it. "	0
   	 2017-01-08 07:12:21 	 Yarr, me matey. Ye not be thinkin' about plundering a galaxy class starship in a runabout are ye? Ye may enter for a prize, but walkin' the plank in space doesn't leave ye much chance at survival. 	0
   	 2017-01-13 02:55:46 	" Frantatic Four

Its all about Fran Drescher being closed 3 times and getting super power. Gotta be better than the latest movie. hehehehehehe "	0
   	 2017-01-14 05:59:21 	" This thing belongs on crapmame...

As an example on how not to build crap.

Good work man! "	0
 Prints keep starting near middle of bed 	 2017-01-15 05:25:53 	" Hey everyone! I've been using my Simple Metal for just over a year. This weekend I completed the XYZ upgrade from Matrix Precision. The install went perfect. I changed the X and Y for M211 (the wires aren't long enough for the Z axis, so I'll have more work ahead of me there)

I also increased the X and Y size in Cura. But, every time I do a print, it does its probe (at which point it is properly to the outer edges as I would expect)

When it starts to print, however, it starts printing near the middle of the bed. So, if I'm doing a print thats larger than 5 inches, it hits the right edge of the bed and starts grinding the belt. 

I'm at a bit of a loss to explain it. I've posted my printer settings bellow in case I'm an idiot and miss something obvious.

Recv: echo:  M205 S0.00 T0.00 B20000 X20.00 Z0.40 E5.00
Recv: echo:Home offset (mm):
Recv: echo:  M206 X0.00 Y0.00 Z0.00
Recv: echo:PID settings:
Recv: echo:   M301 P22.20 I1.08 D114.00
Recv: echo:Min position (mm):
Recv: echo:  M210 X0.00 Y0.00 Z0.00
Recv: echo:Max position (mm):
Recv: echo:  M211 X200.00 Y200.00 Z250.00
Recv: echo:Bed probe offset (mm):
Recv: echo:  M212 X0.00 Y0.00 Z-2.15
Recv: ok "	0
 Prints starting near middle of bed. (Xpost from /r/printrbot) 	 2017-01-15 06:24:55 	" Hey everyone! I've been using my Simple Metal for just over a year. This weekend I completed the XYZ upgrade from Matrix Precision. The install went perfect. I changed the X and Y for M211 (the wires aren't long enough for the Z axis, so I'll have more work ahead of me there)

I also increased the X and Y size in Cura. But, every time I do a print, it does its probe (at which point it is properly to the outer edges as I would expect)

When it starts to print, however, it starts printing near the middle of the bed. So, if I'm doing a print thats larger than 5 inches, it hits the right edge of the bed and starts grinding the belt.

I'm at a bit of a loss to explain it. I've posted my printer settings bellow in case I'm an idiot and miss something obvious.

Recv: echo: M205 S0.00 T0.00 B20000 X20.00 Z0.40 E5.00 Recv: echo:Home offset (mm): Recv: echo: M206 X0.00 Y0.00 Z0.00 Recv: echo:PID settings: Recv: echo: M301 P22.20 I1.08 D114.00 Recv: echo:Min position (mm): Recv: echo: M210 X0.00 Y0.00 Z0.00 Recv: echo:Max position (mm): Recv: echo: M211 X200.00 Y200.00 Z250.00 Recv: echo:Bed probe offset (mm): Recv: echo: M212 X0.00 Y0.00 Z-2.15 Recv: ok "	0
   	 2017-01-15 18:58:34 	 Sorry, yes, it's placing the edge of the print in the middle then attempting to extend the print beyond the border of the bed. 	0
   	 2017-01-15 19:20:42 	" Looks like it was something Cura was picking up for the G29 settings. Adjusted them, and I seem to have access to more or less the entire bed. Doing a 7.5 "" print right now, looks promising.

Was late last night, probably should have checked things before posting.

Thanks everyone! "	0
   	 2017-01-15 21:37:54 	 I did! I defined the new size of the bed in the firmware. After playing with it, the problem ended up being the slicer. Thanks for taking the time to reply. 	0
   	 2017-01-17 13:24:46 	 Looks like the left shark. Look at that green mouth 	0
   	 2017-01-21 23:03:13 	 Enterprise already had a season 4... 	0
   	 2017-01-22 15:20:33 	" I mean... Yeah that was pretty good. But where are Bob, Dot, and Enzo? I hate these filler episodes that don't link to main characters or further the plot in any way...

Edit: and my first reddit gold comes from a comment about ReBoot. I am happy this is the way my life has gone. Thank you kind stranger! "	0
   	 2017-01-22 18:44:00 	 No one knows for sure... 	0
   	 2017-01-23 14:37:23 	 I had this problem towards the end of one of my test prints. It ended up being a buildup on my extruder gear which caused intermittent skipping. Only a few layers were affected visually because the skipping often occurred during the infill 	0
   	 2017-01-23 14:41:47 	 What material are you printing in? I know with PLA I often raise the temperature up to 215 and lower the print speed when printing a thin object. Will increase stinginess and may make it more prone to warping, but definitely increases layer adhesion. 	0
   	 2017-01-23 15:06:08 	" Alternative Fact.

There is such a thing as an alternative Fact. "	0
   	 2017-01-24 07:59:50 	 I am sorry, but I can bearly see that. 	0
   	 2017-01-25 11:38:45 	 And with a schedule in standard Tasmanian time, too. 	0
   	 2017-01-27 04:32:44 	" The only problem with that theory is that These Were The Voyages was written as a series finale. As far as I know it was written years in advance with the intention of having it wrap up however many seasons they got. So even if they got 7 seasons, Trip would still die in the last episode. That's why it's written for their tenth year in space, as Enterprise comes home to be decommissioned.

Could be wrong, but I read about it in a magazine when Enterprise wrapped up, it was supposed to be a Valentine for the fans of all star trek. "	0
   	 2017-01-27 12:56:00 	" Same here! I was explaining it to a friend and he immediately stopped me and said ""did you learn that from the Batman cartoon?""

And my parents thought that stuff would totally my brain. "	0
   	 2017-01-30 11:57:54 	 Same boat here. I have 10 open disputes for items ordered in November that are past their 60 day garauntee. I had ordered stuff at the end of October to be part of Christmas gifts and ended up having to source them and buy them.through Amazon in Canada to get them in time. The last of the October stuff showed up last week. In all cases, the arrival in Canada was within a week of them.being shipped out. 	0
   	 2017-02-02 05:32:28 	 Had the same problem this week. Had to increase my extruder tension a little. Also using a simple metal. Filament was not perfectly uniform. It would slip a little on thinner parts. 	0
   	 2017-02-03 04:44:09 	 Dreamcast 	0
   	 2017-02-03 13:11:07 	 As a male, I also hate receiving this compliment. 	0
   	 2017-02-05 15:07:51 	 I also did this last month and mine pitched ever so slightly down in the back. Overall very happy with it though 	0
   	 2017-02-05 15:11:46 	 To be fair I haven't had time too confirm that it's not my installation. It is possible I need to level it slightly. It ended up being easy better then the original heated bed though. 	0
   	 2017-02-06 13:08:32 	 If there is anything half time shows have taught me, it's that left shark is perfect in its own way, cause god makes no mistakes. He's not the right shark, baby, but he was born this way. 	0
 DS9 Episode : Defiant 	 2017-02-06 14:20:42 	" Interesting note. Watching the episode Defiant. When Thomas Riker asks for a status report on the ship, they report minor damage, and he uses the line ""Tough little ship""

William Riker would later use this line in First Contact. Must be intentional. "	0
   	 2017-02-07 23:42:51 	 Thank you for being part of my church. I am a James Cameron. 	0
 My brother says this is how life is with two young kids. 	 2017-02-10 19:19:39 	  	0
   	 2017-02-10 23:52:10 	 Does the MacBook work well as a printed? Never occured to me that it would be self heating 	0
   	 2017-02-12 06:37:03 	 They say the users live outside the net, and input games for pleasure. 	0
   	 2017-02-23 13:09:16 	 I'm not a smart man, but I know what quality education is. 	0
   	 2017-02-24 14:06:28 	 Is it possible your extruder gear is starting to slip as the motor gets warmed up? Have you printed anything else to see if you get the same behaviour? I.e. starts off normal and transition to bad? 	0
   	 2017-02-25 17:29:47 	 4 months late... It's the ravioli episode. 	0
   	 2017-02-26 05:53:47 	" https://www.youtube.com/shared?ci=cFNfs-sbapE

That's the recommended method from Dremel. But before you do that, have you rerun your test print? If so, is it still printing properly? If it is, you have a profile issue with your slicer, not a mechanical problem. "	0
   	 2017-02-26 06:36:20 	 Is this a new build, or a printer that suddenly started having issues? 	0
   	 2017-03-05 01:32:47 	 Could be many things. Power to the motors or belt tensioner are often guilty for this. Looks like the layers are only misaligning on one axis 	0
   	 2017-03-06 14:43:05 	 I have seen this issue with a worn out gear on the extruder. You often can't see the pattern in under extrusion because you can't see how much of the internal structure is under extruded.  I pushed some through slowly/manually and found a spot where the filament just slipped. 	0
   	 2017-03-08 03:21:40 	 Michael in Jane the Virgin. Happened so fast... Def a wtf moment. 	0
   	 2017-03-11 22:38:35 	 Sure looks similar on the surface. But, because he found the box and didn't make it or look for it, it might be coincidence. 	0
   	 2017-03-15 21:02:58 	 What the watch did I just fuck? 	0
   	 2017-03-20 22:55:57 	 Get off my bridge. 	0
   	 2017-03-22 12:16:21 	 I think broom man without rug boy would be a clean sweep. And everyone's grandma knows that a broom will beat the dust out of a rug. 	0
   	 2017-03-24 03:25:37 	" There is a scene where Zach says ""Boyfriend troubles?"" And she responds with ""ha, yeah... Boyfriend."" Zach says ""Girlfriend troubles?"". She goes silent for a moment, then starts talking about how all her family wants is for her to have a normal life, and she is terrified of telling them what is really going on with her. "	0
   	 2017-03-24 04:30:51 	 Also Trini flat out says she thinks she is a superhero. 	0
   	 2017-03-24 04:44:52 	 To be fair, that was before Zordon have them the rules. Not her fault that he is slow at the basic housekeeping stuff. 	0
   	 2017-03-24 12:18:03 	 Are you in Ontario, or was yelling at that scene a common occurrence? 	0
   	 2017-03-24 12:23:58 	 I wonder if, in this new PR universe, that Rita ripped the Zeo crystal out of Mars before the other Rangers could stop her, and they made their last stand on Earth. Would be interesting to see a prequel showing how she became bad, and what other damage she did before she was ultimately stopped. 	0
   	 2017-03-24 23:51:30 	 Do you like Zeo crystals? Well I will tell you where you aren't finding any Zeo crystals. On the mooooooooooooonnnnnn. 	0
   	 2017-03-26 05:45:32 	 After listening to it only 3 times it didn't sound right anymore... 	0
 JDF just shared this photo on Facebook. Right in the feels 	 2017-03-26 06:09:36 	" Nice to see ASJ and JDF side by side and... Dare I say it... Friendly?

http://m.imgur.com/gallery/7rCYu3G "	0
   	 2017-03-26 06:26:27 	 At a quick glance you have either over temp or bad retraction, and your bed adhesion is bad. What settings were you running at? 	0
   	 2017-03-28 06:20:53 	 Yeah, that's what I was thinking. That's what happened to the atmosphere on Mars. It left with the crystal. 	0
   	 2017-03-30 03:22:10 	" 

I went and watched it again today. What they thought was the Dragonzord was actually Goldar. The green flash appears to be when Rita leaves Goldar's chest to attack the Ranger thats in the dream sequence. I also think that the fly over at the beginning is actually Zordon's ship crashing into Earth. Could be wrong about that though. "	0
   	 2017-03-30 12:53:52 	 What do you mean? 	0
   	 2017-03-30 13:05:12 	" Or a terrible ""How I met the girl I left my wife for"" if OP is already married. "	0
 Playing Mario and Tetris on my face 	 2017-04-01 00:33:30 	  	0
 Nintendo classics played on my face 	 2017-04-01 02:54:17 	  	0
   	 2017-04-01 04:41:03 	" For me it was when Zach was talking. and she says ""But my mom's sick. And I get scared sometimes to be at home with her at night. Because I'm scared she can't make it. And I'm worried that if she goes"" then pauses... and continues ""...when she goes""

Right in the feels. Accepting mortality of a loved one is a tough pill to swallow. "	0
   	 2017-04-02 15:44:10 	 Activate the Omega 13 	0
   	 2017-04-02 15:46:43 	 Nope. Kim to Jason. Jason to Billy. Billy to Wazowski's face. At some point Billy gets the note back and carries it with him going forward 	0
 Playing Mario and Tetris on my face! 	 2017-04-02 15:48:45 	  	0
   	 2017-04-02 15:58:13 	 If it proves at all popular, I will do more! 	0
   	 2017-04-02 22:51:33 	 I plan to do more if it's popular 	0
 Dr Mario played on my face! 	 2017-04-04 02:31:46 	  	0
 Dr. Mario played on my face! 	 2017-04-04 02:41:44 	  	0
   	 2017-04-04 03:42:10 	 https://youtu.be/74cST8xUZYg 	0
 Dr Mario played on my face! 	 2017-04-04 04:52:17 	  	0
   	 2017-04-04 12:47:53 	 No real pain! All done in one take each time :) 	0
 Kirby's Dream Land played on my face! 	 2017-04-04 14:50:38 	  	0
 Kirby's Dream Land played on my face! 	 2017-04-04 14:51:12 	  	0
 Playing Bubble Bobble on my face! 	 2017-04-05 03:40:14 	  	0
 Playing Bubble Bobble on my face! 	 2017-04-05 03:40:47 	  	0
 Through the Fire and the Flames played on my face! 	 2017-04-05 03:55:30 	  	0
 Guitar Hero III - Thorough the Fire and the Flames played on my face! 	 2017-04-05 04:58:46 	  	0
 Playing Dr. Mario with your face 	 2017-04-05 11:08:23 	  	0
 Guy plays video game music on his face 	 2017-04-05 11:25:08 	  	0
   	 2017-04-05 12:12:44 	" I started a channel where I play music on my face. Like this https://youtu.be/74cST8xUZYg.

Was thinking about tackling the First Contact theme song for tomorrow if there is any interest. Primarily I am doing video game music. But Star Trek is something I would break tradition for! "	0
 Super Mario Land played on my face! 	 2017-04-07 12:52:19 	  	0
 Super Mario Land played on my face! 	 2017-04-07 12:52:50 	  	0
 Smashmouth played by... Smashing mouth! 	 2017-04-07 13:03:49 	  	0
 Smashmouth covered by... Smashing mouth... 	 2017-04-07 13:13:58 	  	0
 Smash mouth covered by smashing mouth 	 2017-04-07 14:18:45 	  	0
 Cover of Dr Mario 	 2017-04-07 23:58:49 	  	0
 My unique cover of Super Mario Land 	 2017-04-08 01:32:58 	  	0
 My unique cover of Super Mario Land 	 2017-04-08 01:43:13 	  	0
 Super Mario Land played on my face! 	 2017-04-08 06:30:46 	  	0
   	 2017-04-08 07:05:14 	 https://youtu.be/LZ1abyOuQ6c 	0
 Through the fire and the Flames played on my face 	 2017-04-08 22:11:58 	  	0
 Kirby's Dream Land and King Dedede's theme on my face! 	 2017-04-08 22:22:03 	  	0
   	 2017-04-08 23:26:48 	 Finishing with a lunch leaves bruises 	0
 Donkey Kong Country played on my face! 	 2017-04-09 01:30:42 	  	0
 Donkey Kong Country played on my face! 	 2017-04-09 02:03:14 	  	0
 Donkey Kong Country played on my face! 	 2017-04-09 04:18:40 	  	0
 Video game music played on my face! 	 2017-04-09 07:22:08 	  	0
 Bubble Bobble played on my face! 	 2017-04-09 12:57:13 	  	0
 My unique cover of the AVGN Theme Song 	 2017-04-09 18:11:48 	  	0
 AVGN Theme Song played on my face! 	 2017-04-09 18:23:44 	  	0
   	 2017-04-09 19:21:29 	 I will film at widescreen full 1080P from now on.  	0
   	 2017-04-09 19:45:01 	 Can I film at 1080p and just have 4 copies playing simultaneously? 	0
 Castlevania played on my face... Filmed in Landscape! 	 2017-04-09 23:27:09 	  	0
 Castlevania theme played on my face! 	 2017-04-10 01:45:39 	  	0
   	 2017-04-10 02:20:10 	 It all looks ten when I shave the beard off. The truth is somewhere in the middle. 	0
 Castlevania (NES) 	 2017-04-10 03:03:41 	  	0
   	 2017-04-10 12:52:43 	 People go out in the wild and treat wild outboards like the ones in captivity and are surprised when they get tossed around. Nothing will ever surprise me as much as the ignorance of man. 	0
 My local car dealer is finally being honest! 	 2017-04-10 18:15:59 	  	0
   	 2017-04-10 18:24:41 	 Sorry for the quality. There is no reason not to miss listening to this! 	0
 Truth in advertisement from a local car dealer 	 2017-04-11 00:35:11 	  	0
 United should adopt Enterprise's Slogan : We'll pick you up... 	 2017-04-11 03:19:16 	  	0
   	 2017-04-11 03:45:46 	" I originally thought this was like a questionnaire. Like these are the acceptable reasons to admit your wife, please circle all that apply.

I guess technically this is a list of acceptable reasons. But still. I am not a smart man. "	0
   	 2017-04-11 13:10:55 	 I liked the concept behind it, but I found it a bit awkwardly dialogued and pretty short for a twenty dollar purchase. 25 percent of the novel is a preview of the mmpr main series comic. 	0
 Corporate greed over all 	 2017-04-11 13:19:28 	  	0
 Corporate greed over all! 	 2017-04-11 13:31:03 	  	0
   	 2017-04-12 04:03:37 	" I have found the music is primarily pretty subtle. I've only gotten a few hours in, but I have been very happy with the way it flows. Of course, I'd expect nothing less in a Zelda game.

I've only played the switch version so far, but I assume the soundtrack is the same between the Switch and Wii U versions? "	0
 Super Mario Bros. 2 	 2017-04-12 04:16:18 	  	0
 Mario Bros 2 theme played on face 	 2017-04-12 10:18:42 	  	0
 My stupid little Ghostbusters cover 	 2017-04-13 19:58:45 	  	0
   	 2017-04-13 20:41:15 	 Haha. I've done about 11 of these videos so far. My cheeks stopped getting sore. Had to work my way up to Ghostbusters though 	0
   	 2017-04-13 20:43:08 	" They do eventually. I've been working on a video that's ""history of mario"" starting from donkey kong and ending with mario 64. About the 5 minute mark I really have to concentrate to keep the tempo going. "	0
   	 2017-04-13 20:47:08 	" I have done that three times in a row on the Mario one. Switching from Mario World to Mario 64, I forget what I'm supposed to be doing. I should probably do outtakes after I finally release it, but the language is a bit colourful.
 "	0
   	 2017-04-13 21:04:31 	 Always looking for idea's for future videos too, if you have any requests :) 	0
   	 2017-04-13 22:52:42 	" I did that one already actually !

https://youtu.be/7jSqNsxZnHg "	0
   	 2017-04-14 06:53:27 	 Yeah! Probably on Saturday. 	0
 Ghostbusters 	 2017-04-14 07:24:17 	  	0
   	 2017-04-14 14:35:26 	 I feel like this might be an attempt to get me to slap myself. I think this because I did it and could not get a sound but felt like I was slapping myself. 	0
   	 2017-04-14 16:10:31 	 Sorry I thought you were trolling me. Lol 	0
   	 2017-04-14 16:42:35 	 I have been addicted to melodica music lately. Benny from Axis of Awesome has been doing videos using it. 	0
 When double negatives attack! 	 2017-04-15 05:35:38 	  	0
 This car dealer had negativity doubled 	 2017-04-15 10:59:40 	  	0
   	 2017-04-15 11:05:09 	" Careful now. Shaving to a goatee makes you evil, but removing the beard completely removes not only most of your acting ability, but also the acting ability of those around you.

I know someone who went so long without a beard that, when he finally grew one, he dramatically tried to kill his captain. "	0
   	 2017-04-15 19:22:14 	 This. Especially if your z homing is a sensor. Many of them have different responses depending on ambient temperature or relative humidity. 	0
 My stupid Duck Tales title cover 	 2017-04-15 20:32:44 	  	0
   	 2017-04-15 20:34:12 	 https://youtu.be/vUmXcaIGsaA 	0
 Nintendo Acapella 	 2017-04-16 01:32:06 	" This is one of my favorite performances that got me listening to Nintendo music in my spare time 8 years ago.

https://youtu.be/TSBIAGCulDw "	0
   	 2017-04-16 01:33:14 	 Good cover! It would be awesome if future Nintendo games allowed you to specify alternative tracks so you could choose your favorite covers and replace the stock audio. 	0
 Duck Tales Theme on the face. 	 2017-04-16 03:38:40 	  	0
   	 2017-04-16 03:49:10 	 Not pictured is the single light bulb hanging from a cord in the middle of the bedroom. 	0
 People of reddit, what is your silly or useless talent? 	 2017-04-16 04:23:30 	  	0
   	 2017-04-16 04:24:16 	 I've been doing these stupid videos where I play music by tapping my cheeks ( https://youtu.be/vUmXcaIGsaA ) and was curious who else has a silly or useless talent. 	0
   	 2017-04-16 04:33:29 	 I can do this with the movie Star Trek First Contact. My friends like to get me started... Then tell me to stop about a minute in, just as the implant bursts out of Picard's face. 	0
   	 2017-04-16 04:41:01 	 That sounds useful and heartbreaking all at once. 	0
   	 2017-04-16 06:41:23 	 Thank you! I take requests. Mostly to cover up my own lack of creativity 	0
   	 2017-04-16 15:56:10 	 It's kind of mind boggling to me to visualize even 8 percent of the world's money in a physical form. 	0
   	 2017-04-16 19:14:07 	 How does one come to eat pencils? 	0
 Through the Fire and the Flames played on cheeks 	 2017-04-16 22:00:54 	  	0
   	 2017-04-16 22:37:44 	 It's probably the vertical filming. The new ones aren't like that. 	0
   	 2017-04-17 13:45:32 	 Playing my face music. I get hate for it, but I just keep on flicking it out. https://youtu.be/74cST8xUZYg 	0
   	 2017-04-17 13:55:46 	 I can see how that would be fun. But it also sounds like the setup for a new season of Dexter. 	0
   	 2017-04-17 13:56:38 	 Just for the pun of it? 	0
   	 2017-04-17 14:04:39 	 Is he Robin? 	0
   	 2017-04-17 14:06:07 	 Anything with an auto pilot. Eliminates human error. 	0
 Duck Tales 	 2017-04-17 14:08:03 	  	0
   	 2017-04-17 14:10:23 	 My scale is missing a rubber foot. When I stand on it, it rocks slightly. I don't want it to do that anymore. So I would wish for him to put it back, or remove the other three.  	0
   	 2017-04-17 14:11:37 	 ...Did anyone ever see her again? 	0
   	 2017-04-17 15:18:44 	 Debt. 	0
 Indiana Jones 	 2017-04-17 18:18:35 	  	0
 Indiana Jones 	 2017-04-18 06:37:42 	  	0
   	 2017-04-18 08:39:51 	" It's been a long road
Getting from there to here
It's been a long time
But my time is finally here "	0
 Star Wars and the Imperial March 	 2017-04-18 20:05:18 	  	0
" [WP] As the President went through the chain of command in the event of emergency, he finished by jokingly saying ""If it ever gets that bad, my brother Jimmy can take over the country"". The secret service just showed up to drive you to your inauguration. "	 2017-04-18 20:28:47 	 [removed] 	0
   	 2017-04-18 21:00:07 	" A terrible song for a terrible skill. Got it.

Full disclaimer, I don't actually hate Faith of the Heart.  "	0
   	 2017-04-18 21:02:57 	 I use it to log into my email/facebook. My wife and I often share a laptop, so its just easier than constantly logging her out, then logging in, then logging out again. 	0
   	 2017-04-19 04:03:43 	" Add this one to your rotation

https://youtu.be/jMHhgKdXLwM "	0
 While we're at it... Power Rangers 	 2017-04-19 04:19:43 	  	0
   	 2017-04-19 04:44:49 	 I got a copy of this at a value village in Canada a few years back. Had a porn mag hidden in it 	0
   	 2017-04-19 10:04:34 	 Not really concerned with karma. Having fun with it, and others have been enjoying it. Sorry you are offended by it. 	0
   	 2017-04-20 01:21:43 	 Yeah, I have been getting lots of requests from people and just have been trying to share them. I think I will start posting once a week with a post that has a summary of them. I don't want to to turn people off the sub 	0
   	 2017-04-20 01:59:28 	 Naw man, I get it. I need to learn a bit of restraint :) 	0
   	 2017-04-20 12:24:53 	 Should be Meters O'Brien 	0
   	 2017-04-21 13:15:42 	 There are four lights 	0
   	 2017-04-21 13:19:53 	 I'm Spatman 	0
   	 2017-04-21 13:29:29 	 They haven't called him kilometers since the war ended. Damn Cardies 	0
   	 2017-04-21 13:31:13 	 To boldly ho... 	0
 Interesting cover of the X-Men Cartoon Theme 	 2017-04-21 17:10:28 	  	0
 Interesting cover of the X-Men Cartoon theme 	 2017-04-21 17:52:54 	  	0
   	 2017-04-21 21:31:23 	 You look like a cereal killer 	0
   	 2017-04-22 00:34:18 	 That's weather forecasting for you. Better to be safe than wrong. Although they somehow still manage to always be wrong. 	0
 My Week of Crappy Covers 	 2017-04-22 02:48:46 	" This week has proven I had too much time on my hands, and a lot of different requests.

Somebody I Used to Know
https://youtu.be/LrhsHBYVXqo

X-Men Cartoon Theme
https://youtu.be/PP5gRgxcXpo

Power Rangers
https://youtu.be/jMHhgKdXLwM

Star Wars
https://youtu.be/2jwgRLvaqSY

Hail to the Chief
https://youtu.be/skSLIYhgMco

Indiana Jones
https://youtu.be/z710wdGkbGY

Duck Tales
https://youtu.be/vUmXcaIGsaA

Ghostbusters
https://youtu.be/8szFawiMjB0 "	0
   	 2017-04-22 03:24:45 	 Ya know, some times this world seems perfect. 	0
   	 2017-04-22 03:32:07 	" The On My Face Musical Saga: http://www.youtube.com/playlist?list=PLH048HqUH6EnxAYQd_bCwNzyfcO-7RR8N

Just kidding, my music sucks. "	0
   	 2017-04-22 03:33:33 	 Yes. 	0
 Somebody That I Used To Know 	 2017-04-22 14:27:04 	  	0
   	 2017-04-22 19:49:22 	 Butter on a sandwich without bread. That's a risky move 	0
   	 2017-04-22 19:52:14 	 Jump off a bridge. No one tells me what to do. 	0
   	 2017-04-24 06:18:57 	 It wasn't in the script ;) 	0
 Which Changling talked to Sisko on Earth? 	 2017-04-24 13:55:43 	 Just curious if it's ever identified.  When Sisko is on Earth,  a changling approaches him, disguised as Meters O'Brien. Do we ever find out which one? Or is it just Generic Changling #73? 	0
 It's time for Animaniacs! 	 2017-04-25 03:16:21 	  	0
 It's time for Animaniacs! 	 2017-04-25 03:20:06 	  	0
 Animaniacs Theme Cover! 	 2017-04-25 03:38:28 	  	0
   	 2017-04-25 04:09:04 	" I make weird music using only my mouth. Haters hate, some find it annoying, but I have a lot of fun with it.

Some of my work:

http://www.youtube.com/playlist?list=PLH048HqUH6EnxAYQd_bCwNzyfcO-7RR8N "	0
   	 2017-04-25 05:22:37 	 It's you, and meme, and all of the people. 	0
 Animaniacs Theme 	 2017-04-25 12:14:37 	  	0
   	 2017-04-26 02:42:49 	 I had the one with the three Enterprise models growing up. Do they each have a stand that's shaped like a commbadge? 	0
 My stupid covers 	 2017-04-26 03:19:22 	" I've had some good feedback based on my silly ""musical"" talent. I'm not sure how to go about garnering more attention.

The On My Face Musical Saga: http://www.youtube.com/playlist?list=PLH048HqUH6EnxAYQd_bCwNzyfcO-7RR8N

Anyone got advice? I know not everyone will find these amusing.

Thanks! "	0
 The Animaniacs Theme 	 2017-04-26 03:29:30 	  	0
   	 2017-04-26 03:38:24 	 So sit back and relax 	0
   	 2017-04-26 04:35:32 	 Very nice! 	0
 I covered the theme from Super Mario Bros 2! 	 2017-04-26 14:43:49 	  	0
 Face Cover of the Pokmon Theme Song! 	 2017-04-27 14:56:23 	  	0
 Pokmon Theme Cover 	 2017-04-27 16:56:50 	  	0
 This girl either likes motor cycles or charges for sex 	 2017-04-28 00:03:20 	  	0
   	 2017-04-28 00:22:24 	 that costs extra. 	0
   	 2017-04-28 00:27:47 	 Math checks out! Ever go by DonTario? 	0
   	 2017-04-28 00:31:19 	 Well I'll call you Dontario from now on if it makes you feel better. 	0
 Sometimes it doesn't matter how much you succeed 	 2017-04-28 00:37:54 	  	0
   	 2017-04-28 00:38:41 	 A gentleman never pays. 	0
   	 2017-04-28 00:42:15 	 I know how to make films. I went to school for it. I have a knack for it, I studied it very well... 	0
   	 2017-04-28 00:43:31 	 Sorry buddy, she's just trying to protect you guys... 	0
   	 2017-04-28 00:44:12 	 Thank you for doing this. 	0
   	 2017-04-28 00:44:53 	 But... at the same time?!? 	0
   	 2017-04-28 00:52:10 	 *swallows* i was a good dad. 	0
   	 2017-04-28 01:16:56 	 This guy plates 	0
   	 2017-04-28 01:21:48 	 What about opposite universe? 	0
   	 2017-04-28 01:54:06 	 They call it Tucson cause that's the recommended number of kids you keep in the back for when it breaks down  	0
   	 2017-04-28 01:58:02 	 Thank you for doing this. 	0
   	 2017-04-28 01:58:15 	" Thank you for doing this.
 "	0
   	 2017-04-28 01:58:23 	 Thank you for doing this. 	0
   	 2017-04-28 01:58:28 	 Thank you for doing this. 	0
   	 2017-04-28 01:58:50 	 Thank you for doing this. 	0
   	 2017-04-28 03:49:10 	 Gandalf the red. From the alternative universe where he just slaughtered everything and everyone. 	0
 I wanna be the very best... 	 2017-04-28 03:51:28 	  	0
   	 2017-04-28 04:08:13 	 This is the one that would randomly pop up and leave me disappointed.  The other one was epic 	0
 Need some advice! 	 2017-04-28 04:14:17 	" Some of you have probably noticed some of the unique covers I have been doing. I know they aren't to everyone's taste, but I have been having fun with them and am trying to improve as I go.

I want to do something a little more ambitious with my next video. I'd like to do a rundown/Mashup of Saturday morning cartoons, and I am wondering what you guys would like to see. 

Hopefully I can take some suggestions and combine it with some of my own and put out something that is fast moving and fun! "	0
 Request cover of Kirby and Dedede theme played on my face! 	 2017-04-28 12:54:01 	  	0
 Not a pokemon master :( 	 2017-04-28 13:01:42 	  	0
   	 2017-04-28 13:19:06 	 Love it! My only complaint would be fox looks more like a dog than a fox. Longer,  thinner snout would fix that. So fancy! 	0
   	 2017-04-28 13:20:11 	 I ignored the motion controls and managed to eek out nearly 43 seconds of true enjoyment, and nearly 2 minutes of moderate indifference 	0
   	 2017-04-28 15:13:40 	 The mario one had it the worst. I have been experimenting to get better recording but I guess there is no substitute for professional grade equipment 	0
   	 2017-04-28 15:16:28 	 Excellent idea! And I really want to thank you for taking the time to make suggestions. So many people just down vote and move on.  	0
   	 2017-04-28 20:34:15 	 I definitely need a better mic. It sounds way better in person, or so I have been told 	0
   	 2017-04-28 23:33:00 	" Can I ask what you ended up going? I picked up one today (significantly less than that) and its an improvement, but it still has a certain amount of backgroud ""hiss"" "	0
   	 2017-04-29 02:34:07 	 Be gentle with her! 	0
 M/32/5'9 [398lbs  274] (2yrs) My story is in the comments! 	 2017-04-29 04:14:41 	  	0
   	 2017-04-29 04:15:54 	" I made a video detailing my weight loss history and the mistakes I made. I don't run a weight loss channel or anything like that, just hoping to encourage and help others.
https://youtu.be/FxK-GH_7uxo "	0
   	 2017-04-29 04:36:27 	 My current target is 199 just for the shameful pride of being able to say I lost 50 percent of my body weight. Thanks for the encouragement! 	0
   	 2017-04-29 05:51:04 	 Thank you! 	0
   	 2017-04-29 05:51:14 	 Ah, you are too kind :) 	0
   	 2017-04-29 06:02:07 	 Will add it to my wish list! In the meantime, I am working on my next cover.  I moved rooms and used noise cancellation,  and am trying to clean up the audio. Will post it when it's done, see if you guys can hear the difference 	0
   	 2017-04-29 06:06:05 	 Just broke through a 2 month plateau myself! You've got this :) 	0
   	 2017-04-29 06:38:38 	 Thank you!  	0
   	 2017-04-29 13:15:47 	 Just looked at a pic of myself and you are gorgeous too ;) 	0
   	 2017-04-29 16:38:04 	 Yeah, its so demoralizing! You know sooner or later something is going to give... But it always ends up later, instead of sooner! 	0
   	 2017-04-29 16:39:26 	 I had a few people ask, so just to make it easier. The gym I go to is in Ottawa, Ontario.  	0
 After some helpful suggestions, tweaking, and learning, I present my latest project : Megaman 2 (GB) 	 2017-04-29 16:50:44 	  	0
   	 2017-04-29 16:52:42 	" https://www.youtube.com/watch?v=M4krpyiakWk

Still not perfect... But I think each one is a learning experience! "	0
   	 2017-04-29 17:19:14 	 Helpful criticism welcome! I'm still learning, and I know this stuff isn't for everyone. Thanks all! 	0
   	 2017-04-29 18:58:36 	 This isn't even my final form! Haha, couldn't resist 	0
   	 2017-04-29 19:35:46 	" Like doing multiple ""instruments?  "	0
   	 2017-04-29 20:54:44 	 Keep at it!  	0
   	 2017-04-29 20:54:51 	 Thanks! 	0
   	 2017-04-29 20:54:58 	 Thank you! 	0
   	 2017-04-29 20:55:08 	 Its a beautiful city! 	0
   	 2017-04-29 20:55:22 	 Thanks! 	0
   	 2017-04-29 20:59:02 	" I think the part that's often not spoken about is how hard it is to get over being overweight in your mind. I spent a lot of years at near 400, and people would often say ""Its not that bad"" or flat out ""You're not fat, stop saying that about yourself""

From people I've spoken to, I think the getting over ""being ugly in your mind"" is the hardest thing to do. I question if I will ever feel as if I look fantastic. But I'll hopefully have many extra years to work on that, thanks to the changes I've made now. "	0
   	 2017-04-30 00:05:31 	 You look amazing!  	0
   	 2017-05-01 02:01:00 	 Well you certainly shine, Ann. Thank you so much for your kind words! I must admit, the idea of being on videos online at 398 mortified me... That's something that changed. 	0
   	 2017-05-01 02:03:28 	 Thanks ! 	0
   	 2017-05-01 02:03:55 	 Thanks so much! 	0
   	 2017-05-01 02:05:41 	 This is damn inspirational for me. My dream has always been not to lose the weight, but to get a body I can be proud of. Keep up the excellent work! 	0
   	 2017-05-01 02:07:25 	 That's amazing progress! Well done :) 	0
   	 2017-05-01 02:08:34 	 You look amazing, and I bet it feels fantastic to have made such great progress! CONGRATS! 	0
   	 2017-05-01 02:10:56 	 That's an absolutely amazing amount of progress! 	0
   	 2017-05-01 02:12:38 	 Fellow ketonian here! Your progress is crazy, and I hope you are very proud of yourself. Keep it up! 	0
   	 2017-05-01 02:14:05 	 The change in your face alone is amazing. You look great and I hope you are very proud of yourself! Keep up the good work! 	0
   	 2017-05-01 02:15:08 	 Wow man, that's awesome. Keep it up, you just added years to your life.  	0
   	 2017-05-01 02:16:23 	 That's crazy! You've done so well! 	0
   	 2017-05-01 02:18:28 	" I am making my way through a big drop... Started at 398, currently 274. Muscle building has eluded me so far. I am not good at it, but I want to build enough muscles in my arms to avoid skin surgery.

If you figure out a magic formula, make sure to let me know :) "	0
   	 2017-05-01 02:29:12 	 The weight loss I've got going pretty well, but the muscle building doesn't work so well for me. Do you do lower x 3 and upper x 3 alternating? 	0
   	 2017-05-01 03:09:41 	 Thanks so much for the detail!  	0
   	 2017-05-01 05:08:25 	 Let's just both agree that we have done amazing things, and that the best is yet to come ;) 	0
   	 2017-05-01 05:09:29 	" They certainly can be rye opening!

Edit : eye opening. Auto correct knows my drinking preferences. "	0
   	 2017-05-01 05:30:23 	 Ahh, you are a slice! 	0
   	 2017-05-01 05:52:49 	 I know how you feel! I look at myself day after say and all the bumps and lumps that were there in the beginning seem to still be there. But you have made great progress and it's very obvious in your photos. Keep up the great work,it only gets better! 	0
   	 2017-05-01 05:53:37 	 You have leaned up so much! Great job! 	0
   	 2017-05-01 12:59:56 	 Been there a few times. Games were in great shape and the owner cared about them. Sad to see them go. 	0
   	 2017-05-01 22:44:51 	 I understand. It's very difficult to find any help.  	0
   	 2017-05-02 13:26:49 	 Bees 	0
 All Star but it's all about me 	 2017-05-03 01:28:36 	  	0
 King of the Hill - Face the Music Cover 	 2017-05-03 05:18:18 	  	0
   	 2017-05-03 05:20:41 	" I've had trouble finding a microphone that records it accurately, unfortunately. Of course, I'm cheap, so thats the problem. Audio's recorded by either my cell phone or a rock band microphone... Neither is ideal! But hey, here's king of the hill :)
https://youtu.be/2bMkXPQ4tRE "	0
 King of the Hill - Face the Music (cover) 	 2017-05-03 05:28:25 	  	0
 King of the Face 	 2017-05-03 12:13:24 	  	0
 King of the Hill 	 2017-05-03 12:34:29 	  	0
 Most people on reddit use the downvote feature improperly... 	 2017-05-03 15:11:43 	 [removed] 	0
   	 2017-05-03 15:18:06 	 More like naming an NPC and then having the longest escort quest ever. 	0
   	 2017-05-05 12:51:03 	" Could probably do it using a steam streaming box. You could also buy a wireless HDMI transmitter and gut a wireless USB controller to power your controls. Would mean they could be up to thirty feet apart.

There are actually quite a few ways to skin this particular cat "	0
   	 2017-05-05 12:58:23 	" I broke my nose working as a computer technician.

The company had built a second floor into their office and, rather than build a proper set of stairs, they took a set of stairs on wheels and attached them to the upper floor. They then cut the top rail off, leaving the bottom rail for stability.

On my first week on the job, I was very carefully carrying a customer's computer up the stairs for repair. And I forgot about the bar. Tripped over it. Computer landed upright on the ground. I landed on the computer. Face went completely numb.

Ended up in the bathroom, face still numb from shock, and had the foresight to put my nose back in place while I still couldn't feel it. At which point my coworker almost threw up, and asked me to take the rest of the day off.

Still have a little dent, right in the middle of the bridge, to this day. "	0
   	 2017-05-06 04:54:43 	 I am doing this too! I have never realized how much of it is filmed using cliche soap opera camera angles. I love it! 	0
   	 2017-05-06 05:05:03 	 I am not as surprised as he appears to be 	0
 My Ninja Turtles Cover! 	 2017-05-06 14:53:06 	  	0
 Original Ninja Turtles Theme cover! 	 2017-05-06 15:17:11 	  	0
 My Cover of the TMNT theme song! 	 2017-05-06 15:46:37 	  	0
   	 2017-05-06 20:42:07 	" My weight loss story. 124lbs lost so far.
https://youtu.be/FxK-GH_7uxo "	0
   	 2017-05-09 04:47:36 	 I can't believe I never noticed this. I watched both shows extensively at the same time... 	0
" Chris Pine in a ""Lost"" Star Trek episode (SNL) "	 2017-05-09 04:51:03 	  	0
   	 2017-05-09 12:58:39 	 My bad! I looked over the /r/startrek front page and didn't see it. Thanks  	0
   	 2017-05-10 04:27:45 	 I feel like I really should know the pizza power theme without googling it... 	0
 Super Mario World on my Face! 	 2017-05-10 13:51:39 	  	0
 Super Mario World on my Face! 	 2017-05-10 13:59:48 	  	0
