title	date	text	class
   	 2015-07-19 01:32:56 	 Hey I think you're awesome for directing such a cool show and I like Finding Carter too. I'm sorry I'm late but, was wondering why the design of Pretty Little Liars was split into A and B, is that to enable more viewership? 	0
 If Marlene King Ever Reads This... 	 2015-07-19 06:19:34 	" Why have you made this show so annoyingly hard to like? 

If it were not for the amazing cast and crew, your continually frustrating red herrings and lackluster reveals would have cancelled the show ages ago.

I'm not saying Marlene lacks in talent. She is an excellent writer.

I'm just saying: COME ON NOW.

You're not even giving us any way to make sense of who Charles is, even 6 episodes in.

I just think if you want less frustrated fans and more viewers for the last season, you have to give something throughout the season. Let it be a gradual buildup not filler...filler...filler...then the last episode BAM half hearted answers. "	0
   	 2015-07-19 06:22:43 	" I agree, but as you can see by declining ratings, people are fed up. I""m fed up. I don't think I will watch until 6x10 if I know it will all be just filler. "	0
   	 2015-07-19 06:32:40 	 EXACTLY and aww you're so awesome (Grandmas rule) 	0
   	 2015-07-19 07:18:33 	 I wuv you :*( and I miss my granma!!!! 	0
   	 2015-07-19 07:18:52 	 *solidarity 	0
   	 2015-07-19 07:22:14 	 Here is the artist: http://www.deviantart.com/art/Car-Wash-547180494 	0
   	 2015-07-20 01:41:55 	" I haven't BASHED anyone. The cast, crew, and actors all brought the show to life too. Writers are just one part of it. And also, ratings have continually plummeted and writers have more say then you think. So regardless of what the network thinks fans want, less and less fans are watching, so something is going wrong with the formula.

Also if you look at series similar to this that have mysteries, they've handled the plot better and catered to a young audience. Look at Buffy the Vampire Slayer, Veronica Mars, just to name a few. The plot was not soooooooooo drawn out. You can have fillers, that's understandable, but have fillers that connect and progress the main plot. That's all we ask for. It just feels like the plot moves from one point, and then jumps to the end without any middle area to explain things. It feels disjointed. "	0
   	 2015-07-20 01:45:13 	 I honestly don't think it is. I think it's some of the problem, but not big enough to sacrifice quality. Ever hear of writer strikes? And MOST IMPORTANTLY, isn't Marlene King producer as well??!? Pretty sure she has a lot of say when it comes to PLL. 	0
   	 2015-07-20 01:46:26 	 EXACTLY! That's what I'm saying. The quality has suffered throughout the years. 	0
 The line that should be uttered the last episode of pll 	 2015-07-20 03:41:39 	" ""People don't care about what's fair. They care about what feels right.""

*mic drop

Feel free to add your last line. "	0
   	 2015-07-20 04:10:58 	 I saw mom throw aunt Marion from the rooftop, Charlie Worsens 	0
   	 2015-07-20 04:19:31 	 hahahaha 	0
   	 2015-07-20 05:05:06 	 NICE 	0
   	 2015-07-20 06:09:57 	 So I got it then :D  	0
   	 2015-07-20 06:37:19 	" I, I saw mom throw Aunt Marion from the rooftop, Charlie Worsens.

there, solved. :D "	0
   	 2015-07-20 07:05:59 	 You should write a book. 	0
   	 2015-07-20 15:59:40 	 woah!!!!!!!!!!! you got it!! 	0
   	 2015-07-20 16:00:28 	" foxf4ce got it. She said:  ""I saw mom throw aunt Marion from rooftop, Charlie rises now."" "	0
   	 2015-07-20 19:54:20 	 You got the last part. You did it though. So it's your credit. 	0
" Based on this version of the ""anagram"": ""I saw mom throw aunt Marion from rooftop, Charlie rises now."" I think I know what happened "	 2015-07-20 20:29:39 	" Jason was the cause of Charlie's death.

Jason got locked away in Radley.
Jason saw Marion get pushed by his mom.
Jason assumed the Charlie persona.
Jason's mom got him out of Radley.
Bethany dies.
Jason reassumes Charles Persona.
Alison comes back, Charles starts working with Marion.

Charles is Jason. "	0
   	 2015-07-20 20:36:52 	 We'll see in the finale. They haven't really shown anything before Allison went missing that has to do with her family other than that Charles clip. 	0
   	 2015-07-20 21:50:50 	 I think Mona was lying. We'll have to wait and see if the writers and Marlene make sense of it all. 	0
   	 2015-07-20 22:06:56 	 I don't even know anymore :*( I can't do anything with the PLL plot. 	0
   	 2015-07-20 22:11:24 	 GIVE ME THE results :D 	0
   	 2015-07-20 22:34:54 	 show me a pic plz 	0
   	 2015-07-20 23:35:32 	 http://i.imgur.com/zjvox7f.jpg 	0
 I think Lucas is Charles, this video convinced me of it! 	 2015-07-20 23:46:33 	  	0
   	 2015-07-20 23:46:59 	 http://i.imgur.com/zjvox7f.jpg 	0
   	 2015-07-21 00:22:48 	"  Its just bad writing.

 "	0
   	 2015-07-21 00:29:00 	 Lucas is Charles 	0
   	 2015-07-21 01:01:00 	 love it! 	0
 You only saw one yellow dress 	 2015-07-21 02:04:44 	  	0
   	 2015-07-21 02:35:59 	 I dunno it happened in an episode. 	0
   	 2015-07-21 02:38:32 	 thanks for posting original link.  	0
   	 2015-07-21 03:59:01 	 thank you so much for the pictures. I now think and I think it seems to fit more, that Charles is Lucas. But thank you very much for the pics. 	0
   	 2015-07-21 04:07:44 	 Lucas is A. He was seen with a black hoodie, he has motive, he may have been adopted, he loves toy planes and cars. Yeah I think he's Charles 	0
 Cute dogs Confused at sound of music 	 2015-07-21 04:23:10 	  	0
   	 2015-07-21 04:35:37 	 not if charles died and he's just impersonating him. 	0
   	 2015-07-21 04:35:59 	 yaaaaassssssssss 	0
   	 2015-07-21 04:41:28 	 I think Alison saw her mom buy Charlie a yellow dress and then her mom made her forget she saw Charlie altogether and the dream became the two yellow dresses 	0
   	 2015-07-21 05:43:44 	 What if Alison saw her mom give Charles a yellow dress? And then her mom told her to forget him? That could tie in the real yellow dress and the metaphor. 	0
" Lucas was in 3 out of the 5 episodes on Marlene's list and the first episode he was in had the word ""homecoming"" in it "	 2015-07-21 05:53:56 	  	0
   	 2015-07-21 06:31:24 	 MMMMm you speaking to my heart right now. I'd drink the whole bottle with some smoked gouda and graham crackers. 	0
 Illustrator Turns Peoples Deepest And Darkest Fears Into Comics 	 2015-07-21 06:51:43 	  	0
   	 2015-07-21 07:06:38 	 wasnt he homeschooled after he got tired of Mona blackmailing him. He even mentioned, he has a lot of free time. He could have easily just impersonated Charles in order to hide his true identity. Besides, we haven't seen Wren or Jason in a black hoodie. But we have Lucas and Cece. And i think lucas is a transgendered person so i definitely think it's him. 	0
   	 2015-07-21 07:17:25 	 if thats true then you'd have to rule out everyone, especially wren and cece. if charles is charles and hes alive, we never saw him and all the a clues are useless. 	0
   	 2015-07-21 07:24:41 	 if he was in radley like charles supposedly was two years ago, how would wren become a licensed doctor that quickly? 	0
   	 2015-07-21 07:37:45 	 I don't think Wren is Charles if that were the case then. I don't really think someone could fake being a doctor and treat people all within the timespan of 2 years. 	0
   	 2015-07-21 07:42:58 	 I thought it was Wren then I said no because Marlene said we saw A in a black hoodie. I though Jason but then we never did see him in a black hoodie and he did look sincere when they revealed charles. I thought Ezra but then, he was there to rescue the girls. Toby was also unavailable because he was at the station. The only ones left are Lucas and Cece. They both were in black hoodies, they both had connections with Jason and they both were absent a lot but still in several episodes of pll 	0
   	 2015-07-21 08:01:42 	 tell me about it. We shouldn't have to guess this hard! 	0
   	 2015-07-21 09:44:29 	 thank you 	0
   	 2015-07-21 10:18:03 	" http://www.bustle.com/articles/86785-is-lucas-charles-dilaurentis-on-pretty-little-liars-that-anagram-may-hold-the-answer-to-the

http://tremolux.tumblr.com/post/112758824180/uber-a-whats-in-a-name

Though i think the person meant big a not uber a "	0
   	 2015-07-21 10:21:07 	 woah so charlie pushed marion? woah nice!!! 	0
   	 2015-07-21 18:55:28 	 They thought Wren was A. 	0
   	 2015-07-21 18:58:28 	" Actually I keep hearing this and it wouldn't matter his age if Charles died and he's just impersonating him. The actor will be making an appearance in the 6A finale. It's been confirmed he will be ""involved"" in the episodes of the finale or close to the finale. Wren will not be. And those that theorize Cece is Charles assume Cece is transgendered and was once a man. The actor who plays Lucas himself stated that would be a great reveal, but he thinks the network would not approve something like that. So if it's not Cece, the other only real suspect to be A, it has to be Lucas.  "	0
   	 2015-07-21 18:59:51 	 maybe he's just a cross dresser like in the movie psycho. 	0
   	 2015-07-21 20:23:36 	 thank you 	0
   	 2015-07-21 20:25:19 	 Is that the dress from the instagram post? Ugh my brain! #Livingforittho 	0
   	 2015-07-21 20:27:02 	 no it's lucas. 	0
 I think it's safe to say Wren is not A anymore. We don't see Wren in any of 6x09 and we most likely won't see him in 6x10 	 2015-07-21 20:40:08 	 Sorry Wren theorists, but Wren is not Big A. 	0
   	 2015-07-21 20:51:42 	 The actress playing Cece has already stated she's appearing in the finale and so did Lucas and we saw Jason. The actor for Wren never said he'd be making an appearance. Never was seen on set. Never was seen in this whole season. I think it's clear by now Wren is not A. 	0
   	 2015-07-21 21:10:35 	 But he never wore a black hoodie. He was not a part of most of the 5 listed episodes. He doesn't fit into the anagram Mona gave the liars. 	0
   	 2015-07-21 21:10:43 	 Link? and Pic? 	0
   	 2015-07-21 21:22:03 	 it may mean someone wanting to kill someone or kill themselves. 	0
   	 2015-07-21 21:23:51 	 If you don't believe a thing that comes out of Marlene's mouth, then what's the point of acknowledging any clues she gave that link to Wren like the walking after midnight farm? 	0
   	 2015-07-21 21:32:58 	 Upvote for you! 	0
   	 2015-07-21 21:33:35 	 oh okay. Maybe you're right. Some clues do seem like red herrings. 	0
   	 2015-07-21 21:45:58 	" It's also ""Nerd Lucas is the Liar"". How is the black hoodie misunderstood? "	0
   	 2015-07-21 22:17:20 	" Right, like the latest anagram ""so wren is charles"" is then not enough to determine wren is charles. "	0
   	 2015-07-21 23:44:35 	 Apparently all my responses are unpopular except the obvious ones. 	0
 If you were on the phone with the president, what is the funniest line you can think up that would make him giggle? 	 2015-07-22 00:09:14 	  	0
   	 2015-07-22 00:12:03 	 hahahah 	0
 Wait a fucking minute...if the time jump is five years later and they're graduating in 2012, that means they'll be in the future, 2 years ahead of now. So we'll know who Uber A on the same year they do, 2017. 	 2015-07-22 00:15:24 	  	0
   	 2015-07-22 00:17:40 	 pll themed shower thought. 	0
   	 2015-07-22 00:25:29 	 And you get cake, and he gets cake, and EVERYONE GETS CAKES 	0
   	 2015-07-22 03:09:13 	 Thank you. 	0
 So spoiler...but look at this website...hmmmm 	 2015-07-22 03:11:11 	  	0
   	 2015-07-22 03:15:02 	 It HAS to be Lucas. I am 1,000% sure now it's Lucas. 	0
   	 2015-07-22 03:16:09 	 Freddy...Lucas...Photo 	0
   	 2015-07-22 03:16:13 	 Freddy...Lucas...Photo 	0
   	 2015-07-22 03:25:08 	" lol no but the name. lol the name and the fact that he's a photographer and look as this https://twitter.com/brendanrobinson

He is SO PLL Active compared to Drew and Julian, even Vanessa. "	0
   	 2015-07-22 03:27:12 	 Right but there was also a coincidence for Charles and Melissa in Black Widow Farm, yet people believe that. I'm just saying it's odd Freddy was used at the end of the episode and then there's a photophrapher named Freddy Lucas. 	0
   	 2015-07-22 03:29:00 	 Just compare the activity of him and someone like Julian Morris.  I know people may say that Julian won't post to give it away, but I think Brendan is posting more because he knows he'll be revealed as A. He hasn't appeared on PLL since the Xmas episode yet all of a sudden he's posting a lot.  	0
   	 2015-07-22 03:35:12 	 You don't know. Either Charles is dead and he's impersonating him or hes somehow Charles. People can look years younger than what they really are. 	0
   	 2015-07-22 03:44:01 	 I'm just talking out my ass here, but being in a mental asylum may undernourish someone. I've seen lots of blondes dye their hair black. You never know. We've never seen lucas' parents. We don't know if he's adopted. But again, I'm just trying to justify it. I could be completely wrong. 	0
   	 2015-07-22 04:09:06 	 Lucas is my bet for Big A and Marion is BW 	0
