title	date	text	class
   	 2016-08-09 16:31:07 	 Hopefully the eu will stop wasting money on the palestinians. I cant beleive our taxes are being squandered this way. 	0
   	 2016-08-10 03:26:28 	" We all need to stop pretending that Turkey will ever join the EU. It's just not fair to the turkish people that they keep getting false hope.

Let's all be honest. They would not be a good fit, anyways. "	0
   	 2016-08-10 03:29:39 	 Like most european countries, we are defenseless without America. 	0
 Ukraine is on the verge of full-scale war 	 2016-08-10 03:50:13 	  	0
 Donald Trump Suggests Second Amendment People Could Act Against Hillary Clinton 	 2016-08-10 16:22:09 	  	0
 Training of British troops on Okinawa bases may violate Japan-U.S. Security Treaty 	 2016-08-10 17:56:30 	  	0
   	 2016-08-10 18:26:56 	 The burqa needs to go.  	0
   	 2016-08-10 18:31:01 	 Islamic Dictatorships are very uninteresting to me. 	0
   	 2016-08-10 18:38:06 	" Jihadists often wear burqas to not be identified.

http://news.bbc.co.uk/2/hi/uk/6378863.stm "	0
   	 2016-08-10 19:45:14 	 Such Projections  	0
   	 2016-08-10 20:43:14 	 Banning the burqa is the right thing to do. Not only is it a symbol of oppression, but there is security concerns as well.  	0
   	 2016-08-10 21:17:51 	 The majority of people are starting to understand that our immigration policies are utterly insane. 	0
   	 2016-08-10 21:44:23 	 Left Wingers, mostly. 	0
   	 2016-08-10 21:51:09 	 Text Book example of Projection by russia. 	0
   	 2016-08-10 22:17:28 	 If you wear a burqa, you will be prosecuted. It is not rocket science. 	0
   	 2016-08-10 23:08:06 	 Why are peasants so susceptible to kremlin propaganda? 	0
   	 2016-08-11 16:11:50 	 See kids, here is living proof that rt will rot your brain. 	0
   	 2016-08-11 16:20:44 	 You are forgetting that America is Nato, and they are getting tired of being leeched off of. 	0
 German intelligence warns of IS hit squads among refugees 	 2016-08-11 16:55:31 	  	0
   	 2016-08-11 17:24:05 	 Good job, Esti! 	0
   	 2016-08-11 19:58:12 	 Isis said from the very start that they will send jihadis hidden amongst the masses of migrants. 	0
   	 2016-08-11 20:46:55 	 Are you incapable of expressing your veiws without attacking people that disagree with you? 	0
   	 2016-08-11 20:58:27 	 It's 2016 people! 	0
   	 2016-08-11 23:02:48 	 Therapy, why didn't anyone think of this sooner?! 	0
   	 2016-08-11 23:44:53 	 Can you please refrain from personal attacks? 	0
   	 2016-08-11 23:47:50 	 There is nothing fascist about my previous comment. I suggest you study political science before you hurl baseless accusations at me. 	0
   	 2016-08-11 23:54:06 	 Wow, I see you are too triggered to think clearly. I will just leave you to stew in your own ignorance. 	0
   	 2016-08-12 16:13:19 	 Obviously some sort of zionists conspiracy to steal more land./s 	0
   	 2016-08-12 16:57:29 	" While enjoying the merits of being an ocean away from the chaos it created, the United States has left its European allies with the consequences of American military adventures in Libya, 

I don't think that the hack who wrote this article realizes that Libya was a European led conflict. Anyways, as long as we are leeching off america for our defense we will always have to suffer the consequences of their ME interventions. We have no one to blame but ourselves. "	0
   	 2016-08-12 17:04:13 	 This article is blatant propaganda. 	0
   	 2016-08-12 19:58:52 	" They use the blood of their neighbors to make their passover bread.

https://en.m.wikipedia.org/wiki/Blood_libel "	0
   	 2016-08-12 20:31:00 	 Edge lords tend to be downvoted. I know that is not the purpose of the up/down voting system, but it is what it is. 	0
   	 2016-08-12 20:39:46 	" This is a normal brain

http://www.allhealth.com.au/files/SJ79344Y0F/Def-06.jpg

This is a brain on sputnik/rt

https://i2.wp.com/kizie.com/blog/wp-content/uploads/2009/06/simpson-brain.jpg?zoom=2

 "	0
   	 2016-08-13 03:07:07 	 Can't blame anyone that is educated for wanting to leave that islamic dictatorship. 	0
   	 2016-08-13 03:37:41 	 Not fair. Ivan has serbia and belarus standing next to him. 	0
   	 2016-08-20 21:06:29 	 If something was going to be done about the jungle it would have been done along time ago. 	0
   	 2016-08-20 21:18:12 	 I know we like to bash on ivan, but who gives a shit about toy guns being sold at an airport? Maybe we should just grow a pair. 	0
   	 2016-08-20 21:25:12 	" kek ""liberation"" "	0
   	 2016-08-20 21:37:00 	 Yes 	0
   	 2016-08-20 21:46:16 	 If i wanted to be edgy i would use profanity. I was just rather amused by the wording of the title. 	0
   	 2016-08-20 22:35:59 	" ""Choosing"" "	0
   	 2016-08-20 23:08:56 	 Brit checking in. Happily downvoted you. 	0
   	 2016-08-20 23:14:01 	 Why do russian shills always accuse others of being shills? Perhaps it is your own projections. 	0
   	 2016-08-20 23:16:54 	 Same here. I can't beleive people actually vote for this imbecile. 	0
   	 2016-08-20 23:22:14 	 No, the burgers make better pizza than italia. But if they tried that stunt with fish and chips we would be having a different conversation. 	0
   	 2016-08-20 23:24:33 	 No, but that doesn't make the Soviet army liberators. Why are your panties in a bunch? 	0
 The People vs. Fritz Bauer Official Trailer 1 (2016) - Burghart Klauner Movie 	 2016-08-21 16:35:29 	  	0
   	 2016-08-21 22:54:56 	 We will only become weaker. 	0
   	 2016-08-22 16:58:41 	 What a bunch of muppets  	0
 Drones seized over HMP Pentonville carrying drugs and phones 	 2016-08-22 17:20:43 	  	0
 Promised prosperity never arrived in Russian-held Crimea, locals say 	 2016-08-22 17:24:47 	  	0
 Turkey PM: Russia can share Incirlik airbase with US 'if necessary' 	 2016-08-22 17:50:58 	  	0
   	 2016-08-22 19:07:38 	 I am so glad we voted to leave this sinking ship. 	0
   	 2016-08-22 19:27:09 	 They need to ban grenades. 	0
   	 2016-08-22 20:18:38 	 The eu was a goid idea but as long as muppets like junker occupy the top echelons of the eu the UK should not be part of the eu. 	0
   	 2016-08-22 20:33:08 	 How about an eu wide ban? 	0
   	 2016-08-22 20:47:43 	 But it really isn't. What the true deterrence is fences and border gaurds. 	0
   	 2016-08-22 20:51:11 	" TL;DR

Palestinians became uppity and were quickly bitch slapped by the IDF. "	0
   	 2016-08-22 20:58:06 	 Good 	0
   	 2016-08-22 21:36:25 	 Meh, UN can ban whatever they want, but have no mechanisms for enforcement. Additionally, they are to reliant on ME oil money to issue such a ban. 	0
   	 2016-08-22 23:25:54 	 Holy Shite. European militarily traditions have become rather pathetic. 	0
   	 2016-08-22 23:29:12 	 The whole thing was a joke. I think you are reading too much into it. 	0
   	 2016-08-22 23:31:27 	 European militarily traditions have really gone to shite. 	0
   	 2016-08-22 23:53:47 	 Maybe she went with the empire because she knows it triggers humourless cunts. 	0
   	 2016-08-23 00:11:11 	 I'm not implying that you personally were triggered. But many of my continental freinds (who at times can be humorless cunts) were triggered by this tweet. 	0
   	 2016-08-23 00:31:05 	 I'm not sure what fb post you are referring to. Although, we do have plenty of humourless cunts so I don't find it hard to believe. 	0
   	 2016-08-23 02:01:01 	 And just like in the those dark times the United Kingdom stubbornly soldiers on. 	0
   	 2016-08-23 02:03:31 	 The new europe. Thank god we voted to leave that sinking ship. 	0
   	 2016-08-23 02:04:48 	 Wales, because I am fond of sheep. 	0
   	 2016-08-23 04:27:25 	" Unless you consider freedom of expression important to quality of life.  

And quality of life is substantially higher in america than it is in italia.

http://www.numbeo.com/quality-of-life/rankings_by_country.jsp "	0
   	 2016-08-23 14:41:02 	 Yea, freedom is one thing that Americans got right. 	0
   	 2016-08-23 16:23:19 	" Baltics and Poland need nukes. America will pivot to east asia and the UK will not fight for baltics unless America fights with us. The rest of nato will probably blame the baltics and poland for ""poking the bear"". "	0
   	 2016-08-23 16:25:05 	 Brilliant, don't apologize. 	0
   	 2016-08-23 16:42:22 	" No one is ""#fuckrussia"" here. Maybe you should #buggeroff. "	0
   	 2016-08-23 16:53:22 	" Disable addblocker, no thanks.

And to think that I will miss a great opportunity to take a shite on ivan. "	0
   	 2016-08-23 16:59:57 	 How many hours a day do you spend posting Propaganda? 	0
   	 2016-08-23 17:55:32 	 That was rome not italy. 	0
   	 2016-08-23 18:07:48 	 An islamist country is hostile towards transsexuals. 	0
   	 2016-08-23 18:11:44 	 The mainlanders are going full retard with their clothing regulations.  	0
   	 2016-08-23 18:15:18 	 Better dead than red, comrade. 	0
   	 2016-08-23 18:31:39 	 The butthurt baltics should be happy they were given the privilege of being raped and pillaged by the soviets. So ungrateful. 	0
   	 2016-08-23 19:19:54 	 And your vile attempt to diminish russian crimes is nauseating. 	0
   	 2016-08-23 19:24:49 	 Punching the alien was genius. 	0
   	 2016-08-23 19:48:46 	 The continentals are regulating fashion. That is full retard. Thank God we voted to leave that insane asylum. 	0
   	 2016-08-23 20:03:19 	 Really, blaming American teens for this 	0
   	 2016-08-23 20:05:18 	" Russia is the successor of the soviet union. No amount of white washing of russias crimes can change this, Ivan.

If you like to be in a bubble I suggest r/russia were any criticism of mother russia no matter how valid or true is banned on sight. "	0
   	 2016-08-23 20:12:28 	 I came close to vomiting. 	0
   	 2016-08-23 20:19:45 	" Canuckistan

Ftfy  "	0
   	 2016-08-23 20:21:35 	 Much of W Europe still enforces blasphemy laws. We are rather pathetic on freedom of expression. 	0
   	 2016-08-23 21:25:53 	 True, but modern day italy is not rome. 	0
   	 2016-08-23 22:09:00 	 And the yanks biggest mistake was not nuking moscow and st Petersburg after they nuked japan. 	0
   	 2016-08-23 22:10:12 	 No, they are counted. 	0
   	 2016-08-23 23:06:53 	 Just pull an Israel and do not confirm nor deny. 	0
   	 2016-08-23 23:44:54 	 I thought that frogs were good swimmers, but no golds in swimming. Not Sorry. 	0
 Angela Merkel calls for 'one in, one out' immigration deals with North Africa to stem refugee crisis 	 2016-08-23 23:59:33 	  	0
   	 2016-08-24 02:36:24 	 I hope that the Baltic States are never again occupied by Ivan. I think that nuclear armed Baltics is the only way for them to ensure their independence in the long run. 	0
   	 2016-08-24 03:51:17 	 Not really. 	0
   	 2016-08-24 14:22:15 	 You have discovered my secret plan for nuclear apocalypse 	0
   	 2016-08-24 14:33:30 	 Meh, the muj and cia killed thousands of ruskies in afghan. Ivan ran away with his tail between his legs. The su imploded shortly after. 	0
   	 2016-08-24 16:20:32 	 Ukraine will make a fine addition to NATO. 	0
   	 2016-08-24 16:25:50 	 And the skirt wearers think they can become independent. 	0
   	 2016-08-24 17:00:24 	" he isn't brown.

Hence the hate crime charges
 "	0
   	 2016-08-24 17:12:27 	 No thanks, I'll just downvote. 	0
   	 2016-08-24 17:18:44 	 Good thing wanting independence and being able to attain independence aren't the same. 	0
   	 2016-08-24 17:59:13 	 Lies, twas thee heathen quakers 	0
   	 2016-08-24 18:08:35 	 If they leave where would we store our nukes? 	0
   	 2016-08-24 18:23:20 	 Im not trying to convince the skirts not to gain independence.  I am just reminding them of their rightful place before they have to be forcibly put in their place. 	0
   	 2016-08-24 18:33:38 	 Why does my tea taste funny?....shite. 	0
   	 2016-08-24 21:07:09 	 Hopefully it can offset the lost revenue from falling tourism. 	0
   	 2016-08-24 21:09:38 	 What doesn't violate eu's over bearing  regulations? 	0
   	 2016-08-24 21:41:16 	 Crickets Chirping  	0
 US warns Europe over plan to demand millions in unpaid taxes from Apple 	 2016-08-24 21:42:31 	  	0
   	 2016-08-24 21:53:04 	 The stabber should be given a Darwin Award. Lol, who is stupid enough to take a knife to a gunfight?  	0
   	 2016-08-24 22:08:39 	 Hopefully he did not reproduce so that his idiot genes will not contaminate the next generation. 	0
   	 2016-08-24 22:10:54 	 Why do we play such charades? 	0
   	 2016-08-24 22:49:09 	 Thankfully his sacrafice will be rewarded with 72 sex slaves in the afterlife.  	0
   	 2016-08-24 23:10:43 	 You should go to grammar school. 	0
   	 2016-08-25 00:03:41 	 You shouldn't have given up your nukes. 	0
   	 2016-08-25 00:10:58 	 No hard feelings, we ended up keeping the Falklands and Northern Ireland. 	0
   	 2016-08-25 01:54:48 	 Don't be so gullible. 	0
   	 2016-08-25 04:56:28 	 Police State is acting like a police state.  	0
 Russian Police Seize Doping Whistleblower's Assets 	 2016-08-25 19:38:06 	  	0
   	 2016-08-26 02:29:59 	 That's what happens when our goverments act in such a reckless and irresponsible manner. 	0
 Germany in talks with Turkey to allow lawmakers to visit air base 	 2016-08-26 03:07:23 	  	0
 Car bomb attack in Turkey kills 11 police; 78 wounded 	 2016-08-27 00:21:52 	  	0
 British Companies Are Selling Advanced Spy Tech to Authoritarian Regimes 	 2016-08-27 00:58:05 	  	0
 VP of France's National Front calls for ban on Jewish skull caps 	 2016-08-27 02:43:45 	  	0
   	 2016-08-27 02:44:40 	 The mainlanders are taking their burqa bans to the next logical step. 	0
   	 2016-08-27 02:46:56 	 That is the most pathetic thing I've heard today. 	0
   	 2016-08-28 03:24:54 	 Does anyone still doubt that russians invaded ukraine? 	0
   	 2016-08-28 03:37:05 	 Disgusting  	0
   	 2016-08-28 03:44:05 	 He is actually a seljuk. 	0
   	 2016-08-28 14:33:31 	 Yes, people who's only news sources are rt and sputnik. 	0
   	 2016-08-28 14:42:42 	 And of course they blame DA JOOS! 	0
   	 2016-08-28 18:13:32 	 Turkey will never be in the EU. 	0
   	 2016-08-28 18:14:18 	 Motive Unknown  	0
   	 2016-08-28 18:16:27 	 Hell NO! Some of it pays for palestinian terrorism. 	0
   	 2016-08-28 18:17:30 	 We have been so vindicated for not wanting to adopt the euro. 	0
 Theresa May 'acting like Tudor monarch over plans to deny parliament Brexit vote 	 2016-08-28 19:36:36 	  	0
   	 2016-08-29 00:03:59 	 The EU was a noble expirement, but as long as Merkel and her ilk continue to run the EU, the UK should have no part in it. 	0
   	 2016-08-29 00:16:31 	 We will leave when we are good and ready. We will continue to complain for as long as EU is going full retard. I am glad to clear up any confusion for you. 	0
   	 2016-08-29 00:20:19 	 We will invoke article 50 when we are good and ready. Good Day, Sir. 	0
   	 2016-08-29 00:23:27 	 Sorry, but We are not sorry. We will leave when we are ready. If that hurts you, than you will have to deal with it. I say good day, sir. 	0
   	 2016-08-29 00:29:30 	 I wonder why no one thought of asking them before. Merkel is a genius. I would not be surprised is she stays in office for 4 more terms. 	0
   	 2016-08-29 00:33:12 	 It's a very complicated situation that requires further discussion, and planning. The people who think Brexit will happen overnight are quite misinformed, or perhaps delusional. 	0
   	 2016-08-29 00:38:23 	 Sorry, but we should never apologize for putting our self-interest above that of the interests of the EU and its various member states.  Your personal *conception of British people* is of little importance to myself, or most other British people. 	0
   	 2016-08-29 00:53:13 	" The EU is an impotent bureaucracy barely capable of wiping its own arse, much less kicking out the UK.
 "	0
   	 2016-08-29 01:17:52 	 Many things can change very rapidly, but their is nothing to indicate that turkey joining the eu will be one of those things. 	0
   	 2016-08-29 01:26:41 	 There was many things to indicate that the Warsaw pact might collapse. A soviet union with a decaying economy as well as Perestroika and Glasnost were very strong indicators that the days of the SU and Warsaw pact were coming to an end. 	0
   	 2016-08-29 01:43:30 	 The mainlanders are sometimes in need of a propper tongue lashing. 	0
   	 2016-08-29 18:50:02 	 Let's see if the jerries bend over for erdogan again. 	0
 Belarusian and Russian militaries are jamming mobile communications along border with Poland 	 2016-08-29 19:22:11 	  	0
   	 2016-08-29 19:35:41 	 Yup, we have become rather pathetic. 	0
   	 2016-08-29 21:02:22 	 So lazy. If I was unemployed I would not give up searching for work. 	0
   	 2016-08-29 21:18:51 	 Motive Unknown. I suspect a possible amish extremist. 	0
   	 2016-08-29 21:25:48 	" if the job payed slightly more than bring at home

I'm not exactly sure what you are trying  to say. Can you please clarify?
 "	0
   	 2016-08-29 21:46:46 	 That would be a very bad personal finance decision. 	0
   	 2016-08-30 01:07:48 	 Using the free time to study to enhance your skills would be a wise decision. 	0
   	 2016-08-30 02:28:57 	 We used to be rather formidable, but these days we  have to rely on the Americans to do the heavy lifting.  	0
 Now Russia banned from 2018 Winter Games 	 2016-08-30 02:32:43 	  	0
   	 2016-08-30 21:31:42 	 Ivan is hard at work. 	0
   	 2016-08-30 21:50:05 	 Send all the migrants to germoney and sweden. It's clear that ee is not up to their standards. 	0
   	 2016-08-30 22:00:51 	" The 31-year-old knifeman, who is said to be mentally-ill, attacked the officer 

Riiiight..... "	0
   	 2016-08-30 22:42:06 	 What a high quality post. I'm surprised it hasn't been uploaded more. 	0
 Baltic Battalion Urban Warfare Training 	 2016-08-31 01:22:55 	  	0
 Lithuania has built a fake town so it can practice fighting off a Russian invasion 	 2016-08-31 19:07:55 	  	0
   	 2016-08-31 19:22:13 	" If you yell fire in a theater and people are injured because of the ensuing panic, then you would be legally liable for any damage/injuries that happen.

If you yell fire and no panic ensues, then you will more than likley just be asked to leave the theater by the theater staff.

The act of yelling fire is not actually a crime and comparing it to this story is quite silly.

 "	0
   	 2016-08-31 20:26:07 	 Wink, wink... 	0
   	 2016-08-31 20:50:29 	 Don't drag us into it, m8. 	0
   	 2016-08-31 21:13:29 	 The kremlin trolls are always on the prowl. 	0
   	 2016-08-31 21:41:19 	 Why are the southern europeans so useless (for lack of a better word)? 	0
 Teens arrested in Polish 'hate crime' Harlow murder probe 	 2016-08-31 21:50:21 	  	0
   	 2016-08-31 22:12:45 	" Can people addicted to heroin buy guns? 

Not if they answer question 11e truthfully when filling out their 4473. But if they lie there is no way to verify.

http://i.imgur.com/WvpAp3U.jpg "	0
   	 2016-08-31 22:47:10 	 But you are still an unlawful user of marijuana in the eyes of the ATF. Speaking about the ATF, Alcohol Tobacco and Firearms should be the name of a convenience store not a federal agency. 	0
   	 2016-08-31 22:51:09 	 I'm actually from jolly old England. Moved to the states 2 years ago for a career opportunity and some freedom. 	0
   	 2016-08-31 23:50:36 	 Heavens no, that lot are a bunch of heathans. 	0
   	 2016-09-01 02:06:53 	 Not in the eyes of the ATF or the federal government. 	0
   	 2016-09-01 02:38:14 	 No, that is easily the most retarded question I've read all day. 	0
 Two officers, civilian hit by gunfire in Copenhagen 	 2016-09-01 02:43:25 	  	0
 American Journalist Lindsey Snell Detained in Turkey for 'Violating a Military Zone' 	 2016-09-01 03:03:38 	  	0
 President Erdoan approves Turkey-Israel normalization deal 	 2016-09-01 03:11:18 	  	0
   	 2016-09-01 04:10:13 	 No, but you get complimentary bottle of scotch with every purchase of an AR15 style firearm. 	0
   	 2016-09-01 04:18:21 	 They must have very strong convictions and nerves of steel.  	0
   	 2016-09-01 16:19:26 	 They should be increased. 	0
   	 2016-09-01 16:27:19 	" Far Right veiws him as the whites race's saviour from USA/Jewish imposed multiculturalism and white genocide.

The far left creams their britches when comrade putin says the fall of the soviet union was the greatest tragedy of the 20th century. "	0
   	 2016-09-01 16:50:38 	 Yes 	0
   	 2016-09-01 17:01:55 	 Isn't that usually called affirmative action? 	0
 Meet the cat that guided a lost hiker down the mountain 	 2016-09-01 17:05:01 	  	0
   	 2016-09-01 19:28:41 	 Jefferson was a boss. We europeans should learn from him. 	0
   	 2016-09-01 19:36:42 	 It's a pity their plot failed. 	0
   	 2016-09-01 21:04:45 	" Coffee no.

Caffeine...maybe. "	0
   	 2016-09-01 21:36:36 	 This sub is crawling with soviet sympathizers. You will not get far with this lot. 	0
   	 2016-09-01 21:37:02 	 RT logic 	0
   	 2016-09-01 21:38:18 	 That's game. 	0
   	 2016-09-01 21:41:09 	" Alexander Hamilton  the rest.

 "	0
   	 2016-09-01 22:06:49 	" Yeah. Froggers like Montesquieu, La Rochefoucauld and *Machiavelli*

Ivan, Machiavelli was not a frogger. Maybe you should try reading a history book some time. "	0
   	 2016-09-01 22:40:30 	 You fookin wot m8 	0
   	 2016-09-01 23:10:39 	 Hopefully maduro is lynched by a mob of starving Venezuelans. 	0
 F-15E Strike Eagle fighter jet in Wales, United Kingdom of Great Britain and Northern Ireland 	 2016-09-01 23:40:55 	  	0
 Montenegro military: NATO-ready 	 2016-09-02 01:18:31 	  	0
   	 2016-09-02 01:30:28 	 WRONG SUB  	0
   	 2016-09-02 16:36:08 	 Brutal police state acts like a brutal police  state. In other news, the sun still rises in the east. 	0
   	 2016-09-02 16:41:33 	 russiya can into superhero knockoff  	0
   	 2016-09-02 16:43:34 	 I thought it was pretty funny. 	0
   	 2016-09-02 16:46:56 	 That's shite 	0
   	 2016-09-02 18:16:04 	 Even the anti capitalist loons copy Americans. Can't europeans at least try to be somewhat original?  	0
 Tu-154 crash near Smolensk was Moscow's aim 	 2016-09-02 18:33:32 	  	0
   	 2016-09-02 18:45:40 	 What they really want is to flood europe with islamists. 	0
 Rostec Suggests Using Russian Pension Funds to Implement 'Big Brother Law' 	 2016-09-02 18:57:58 	  	0
 UK Army shrinks below 80,000 as recruitment struggles 	 2016-09-02 19:35:30 	  	0
   	 2016-09-02 19:43:30 	 The way our government has mismanaged the military, I'm not sure we would be able to take back the Falklands if the argies get froggy again. 	0
   	 2016-09-02 20:53:42 	 Just when you think putin's russia could not sink any lower. 	0
   	 2016-09-02 21:16:34 	 My money is on amish extremist. 	0
   	 2016-09-02 21:22:13 	 whatever you say maduro  	0
   	 2016-09-03 03:43:53 	 Joe Biden should have ran for president this time around. 	0
   	 2016-09-03 17:08:49 	 except the Kurdish ones 	0
   	 2016-09-03 17:12:44 	 He sounds like a soft spoken dandy. 	0
   	 2016-09-03 17:16:51 	" Excuse Me, but we were not ""crushed"" by the jerries. We all know who the true surrender monkeys are. "	0
   	 2016-09-03 17:25:07 	 European countries subsidizing islamists. In other news the sun still rises in the east. 	0
   	 2016-09-03 17:28:05 	 If france wasn't such a weak country British Forces wouldn't have been needed in france at the time. Our mistake was overestimating the fighting ability of the french. 	0
   	 2016-09-03 17:35:16 	 Half way across the world, bigger problems closer to mainland UK. Anyways, Poster was talking about Hitler, not Tojo. 	0
   	 2016-09-03 17:41:41 	" Get it all out mate. I know the frogs hate to be reminded of their surrender.

https://youtu.be/-4gwj1wFVEU?t=35 "	0
   	 2016-09-03 18:34:01 	 They really weren't. That's why they surrendered. 	0
   	 2016-09-03 18:39:40 	 There is no excuse for Singapore, but at least london was not occupied unlike paris. 	0
   	 2016-09-03 18:41:19 	 If ifs and buts were candy and nuts 	0
   	 2016-09-03 18:53:07 	 So true. The real pitty is that the yanks did not nuke the reds after they finished curb stomping japan. They could have saved the world half a century of cold war. 	0
   	 2016-09-03 18:57:38 	 Luck didn't create the Royal Navy. 	0
 U.S. Soldiers Conduct Live-Fire Exercises In Lithuania 	 2016-09-03 22:31:22 	  	0
   	 2016-09-03 23:28:09 	 Because the eu can not even wipe its own arse much less build a wall.  Erdocunt knows this and is taking full advantage. I can't say I blame him. 	0
   	 2016-09-03 23:41:34 	 You put them in a detention center until they can be deported to their county of origin. 	0
   	 2016-09-03 23:45:46 	 No. 	0
   	 2016-09-03 23:54:07 	 As if his russian ethnicity makes his statement untrue. 	0
   	 2016-09-03 23:56:39 	 Will never happen. Especially an eu dominated by germany. 	0
   	 2016-09-04 00:00:24 	 There is plenty of islands in the Mediterranean that can serve this purpose. The syrian civil was will not last forever and they can stay in the refuge/detention center(s) until the conflict is resolved. 	0
   	 2016-09-04 00:03:35 	" They were invited by Lithuania so I would not consider that ,""sticking it's arse where it doesn't belong"".

As for the russian invasion part, America is the main reason why that hasn't happened.  "	0
   	 2016-09-04 00:19:33 	 The channel was created because of rising seas, not *luck*. 	0
   	 2016-09-04 00:32:53 	 OK, but only after we leave. 	0
   	 2016-09-04 00:50:27 	" Why hasn't military technology surpased WW2 standards? 


Seriously?
 "	0
   	 2016-09-04 01:22:41 	 Now you just added the cold war. That makes your comment less ridiculous. Anyways, UAVs were used during ww2. 	0
   	 2016-09-04 01:45:55 	 That is the most asinine comment I have read all day. 	0
   	 2016-09-04 03:57:51 	 You yanks better give back my karma. 	0
   	 2016-09-04 05:42:03 	 Poland can into House of Cards. 	0
   	 2016-09-04 15:58:51 	 You are going to ~~gulag~~ re-education camp, Comrade. 	0
   	 2016-09-04 16:14:53 	" Udija...wink wink

https://youtu.be/Xd3dM2IuMc8?t=250 "	0
   	 2016-09-04 16:30:12 	 swine 	0
   	 2016-09-04 17:25:00 	 We are not repairing relations. We are just trying to scare ee in case they want to give us unfavorable terms during brexit. We will never repair relationships with countries that assassinate UK citizens and illegally annex their neighbors. Hopefully more sanctions will be added. 	0
   	 2016-09-04 17:51:24 	 Europe is governed by spineless worms, so I do not think getting access to the single market will be too difficult. 	0
   	 2016-09-04 19:51:40 	 This is bloody lunacy. 	0
   	 2016-09-04 22:17:04 	 Millenial checking in. The human rights act is crap.  	0
   	 2016-09-04 22:44:43 	 We'll be in good hands as soon as we leave the eu. 	0
   	 2016-09-04 23:23:38 	 Texas is going to be a democratic state if republicans keep pushing the Hispanics into the arms  of the democrats. Texas is already 40% Hispanic and Hispanics will be the majority soon. It probably will not happen this election, but in the next 3 or 4, maybe. 	0
   	 2016-09-04 23:29:34 	 We need to fast track our exit. 	0
   	 2016-09-05 00:02:51 	 That is exactly what trump is doing. 	0
   	 2016-09-05 00:11:22 	 Anti immigration rhetoric. Wanting to repeal or reinterpret the 14th amendment. 	0
   	 2016-09-05 00:52:53 	" Trump is actually closer to 20% among hispanics.

http://www.latimes.com/nation/politics/trailguide/la-na-trailguide-updates-1472827916-htmlstory.html

https://www.washingtonpost.com/blogs/plum-line/wp/2016/09/02/if-this-new-poll-is-right-trump-is-absolutely-shredding-the-gop-brand-with-latinos/?utm_term=.9bad06efde84

http://www.nbcnews.com/news/latino/new-poll-shows-trump-s-problems-latino-voters-won-t-n642011 "	0
   	 2016-09-05 00:55:44 	 GWB received 40% of the hispanic vote in 2004. Trump is polling at 20% with hispanics. 	0
   	 2016-09-05 02:07:31 	 It is very accurate to say he is pushing hispanics away. Romney won 27% oh hispanics and McCain won 36%.  Trump will be lucky to even win 24%. 	0
   	 2016-09-05 02:08:05 	 The GOP is hemorrhaging hispanic voters. 	0
   	 2016-09-05 02:15:50 	 No, but Trump is polling in the low 20s among hispanics. He less popular than GWB, McCain, and Romney. He has the lowest rating of a GOP candidate since the 2000 elections. 	0
   	 2016-09-05 02:20:37 	 You come off as a krokodil addict. Your addiction consumes you. 	0
   	 2016-09-05 15:14:19 	 Many legal hispanics have illegal family members and most legal ones have some sort of relations with illegals. When trump attacks illegals he is attacking the freinds and family if legal hispanic immigrants.  	0
   	 2016-09-05 15:19:51 	" Because many hispanics have illegal family members. Because mist hispanics have freinds, coworkers, or acquaintances that are illegal. When trump attacks illegals he is attacking their family and friends.

https://youtu.be/k-pHQpiK3_k "	0
   	 2016-09-05 15:21:57 	 You don't have to believe the polls. You don't have to use common sense. If you want to believe that trump is helping the gop with hispanic voters that is your prerogative. 	0
   	 2016-09-05 15:33:43 	 I am only saying the truth. Many hispanics have illegal family members and most have friends or acquaintances that are illegal. If you want to conflate that with racism than so be it. 	0
   	 2016-09-05 15:34:22 	 I am only saying the truth. Many hispanics have illegal family members and most have friends or acquaintances that are illegal. If you want to conflate that with racism than so be it. 	0
   	 2016-09-05 16:05:50 	 Legal hispanics do not necessarily want open borders but calling their friends and family members  murderers, rapist, and drug traffickers is a great way to push them into the arms of Hillary. 	0
   	 2016-09-05 16:24:28 	 Not a leftist, but please explain how I took that out of context. 	0
   	 2016-09-05 16:26:53 	 Isis has spread to pakistan and Afghanistan. It more than just a sunni arab problem. 	0
   	 2016-09-05 16:40:31 	 Calling hispanic peoples friends and family members rapists murderers and drug pushers will send them to Hilary. How can you not see this? 	0
   	 2016-09-05 16:48:28 	 It's more like a beggar being upset because you only gave him 5 quid instead of 10. 	0
   	 2016-09-05 16:51:01 	 Many hispanics have illegal immigrants family members. Most hispanics have illegal Immigrant friends/coworkers/acquaintances. I thought we went over this already.  	0
   	 2016-09-05 16:52:39 	" Nonsense.

http://www.nbcnews.com/storyline/isis-uncovered/isis-pakistan-afghanistan-taliban-fighters-sign-commanders-say-n296707 "	0
   	 2016-09-05 16:56:18 	 Hundreds. I live in a state with close to 40% hispanic population. 	0
   	 2016-09-05 17:02:59 	 Lol, good one.TX. 	0
   	 2016-09-05 17:05:57 	 I moved to houston almost 5 years ago for a career opportunity and some freedom. 	0
   	 2016-09-05 17:10:50 	 That is correct. 	0
   	 2016-09-05 17:14:32 	 Leftwing politics has turned greece into a beggar state. 	0
   	 2016-09-05 17:19:40 	 That is not my assertion. We have been over that already.  	0
   	 2016-09-05 17:28:22 	 You don't have to believe that hispanics will flock to Hilary Clinton. You don't have to believe that trump will win a lower percentage of the hispanic vote than any other GOP candidate in recent history. I guess we'll just have to wait for the election results. 	0
   	 2016-09-05 17:43:35 	 Israel represents european colonialism to self hating leftist. That's why they will always excuse islamic terrorism on jews. 	0
   	 2016-09-05 17:59:29 	 And why is that a problem? 	0
   	 2016-09-05 18:09:42 	 I'm sorry, but your comment does not make very much sense. Would you care to elaborate? 	0
   	 2016-09-05 18:14:35 	 First, the yanks beat us in rio, now they beat us in weapon sales. 	0
   	 2016-09-05 18:23:48 	 That is utter nonsense. If that were true thousands of muslims from the russian federation would not have joined isis. 	0
   	 2016-09-05 18:27:38 	 So? 	0
   	 2016-09-05 18:33:47 	 Why shouldn't we profit from middle eastern geo politics? 	0
   	 2016-09-05 18:34:47 	 Meh, as long a May doesn't start imposing the death penalty for adultery, I'll be good. 	0
   	 2016-09-05 18:37:09 	 Because they employ British Citizens. 	0
   	 2016-09-05 18:46:49 	 Greece became a beggar state because of left wing governments who kept spending more than they could afford. Especially on pensions and other entitlements.  	0
   	 2016-09-05 18:47:25 	 Because jobs are good. 	0
   	 2016-09-05 18:48:42 	 We are good at selling arms and you lads are good at tax evasion. We all have something we're good at. 	0
   	 2016-09-05 18:52:12 	 If the *conservatives* enacted left wing policies than they weren't really conservative now where they. 	0
   	 2016-09-05 19:06:23 	 It's not *whataboutism*. I was merely trying to compliment our neighbors. 	0
   	 2016-09-05 19:11:36 	 Regardless of who enacted them, left wing policies are responsible for greece becoming a beggar state. I am sorry if that does not fit your narrow world view. 	0
   	 2016-09-05 19:17:07 	 That, and a utter lack of fighting ability on the part of the arabs. 	0
   	 2016-09-05 19:29:51 	 Are you the grammar police? 	0
   	 2016-09-05 19:30:51 	 Why should we care about refugees when we are not taking them in?  	0
   	 2016-09-05 19:45:31 	 And a slave trader/pedo. 	0
   	 2016-09-05 19:58:10 	 I knew it. We are better than Ireland at everything. 	0
   	 2016-09-05 20:00:40 	 Thnx m8. These continentals were in need of propper banter. 	0
   	 2016-09-05 20:03:02 	 Texas is the murica of America. 	0
   	 2016-09-05 20:19:55 	" Sorry, but capitalism will always win and the bums will always lose.

https://youtu.be/O5epuPMf-7Y#t=14s
 "	0
   	 2016-09-05 20:31:17 	 They are afraind of upsetting the migrants. 	0
 Afghan asylum-seekers arrested over sex attacks at festival 	 2016-09-05 20:34:43 	  	0
   	 2016-09-05 20:45:48 	 *Australian*,  wink wink. 	0
 Corsica parents 'block women in headscarves' 	 2016-09-05 20:46:56 	  	0
   	 2016-09-05 21:05:30 	 I'd actually prefer to be kept out of your imaginations.  	0
   	 2016-09-05 21:08:32 	 Yes, being against shia is one of the motivations for joining a wahhabi organization. 	0
   	 2016-09-05 22:41:40 	 If me banter wasnt topnotch y you taken da b8 m8? 	0
   	 2016-09-05 22:44:48 	 That was a rhetorical question, Socrates. 	0
   	 2016-09-05 22:48:46 	 OPA! 	0
 In first, Germany admits PA is likely paying terrorists' families 	 2016-09-05 23:12:58 	  	0
   	 2016-09-05 23:14:42 	 But why should the german tax payer foot the bill? 	0
   	 2016-09-06 04:59:44 	"  They are constantly trying to seceded and be their own country.

That is a loud of bullocks. A secession bill has not been introduced into the Texas Legislature in over a hundred years. There might be a few branch davidians type cunts that want secession, but that is about it.

Your other points are irrelevant. "	0
   	 2016-12-14 23:15:25 	 I think the best way to deal with homegrown islamists is to stop beeing racist towards them. We need  to remember that they come from a different culture that in many ways is more advanced than ours. I think that if we treat them with love and respect they will reciprocate with love and respect. 	0
   	 2017-01-10 03:32:55 	 Who took a shit in your cheerios? 	0
   	 2017-02-10 00:31:51 	 I thought that it might be related  to the recent bomb threat in Sweden. Hopefully that was just a prank. 	0
   	 2017-05-03 18:31:34 	 If Germany wants more refugees then they should keep them, not shove them down other countries throats. 	0
   	 2017-05-03 18:33:56 	 So much butt hurt. 	0
   	 2017-05-03 18:37:02 	" That is a clear cut case of state sponsored terrorism against the LGBT community!

r/globalterrorism "	0
   	 2017-05-03 18:39:51 	 Sorry, but the yanks are correct about requiring visas from countries that pose a greater threat of overstaying. 	0
   	 2017-05-03 20:40:09 	 Those people are true fascists. 	0
   	 2017-05-04 03:55:22 	" This is state sponsored terrorism against the gay community.

/r/GlobalTerrorism  "	0
   	 2017-05-04 16:02:27 	" He was apparently obsessed with white genocide. He reenacted the murder of the white masters during the Haitian revolution for a school project.

r/globalterrorism "	0
   	 2017-05-04 16:08:27 	" he said he was only following Trumps orders 

That excuse didn't work at nuremberg either.

r/globalterrorism "	0
   	 2017-05-04 16:14:39 	 Butt hurt Russians incoming! 	0
   	 2017-05-04 17:10:29 	" His action was terrorism against the LGBT community.  He deserves anything that happens to him in prison.

r/globalterrorism "	0
   	 2017-05-04 17:14:38 	" We need to start arming those brave protestors.

r/globalterrorism "	0
   	 2017-05-04 19:00:18 	" Bash the Fash 

r/globalterrorism "	0
   	 2017-05-04 19:02:38 	" Trump is waging war against the sick! This nothing more than terrorism against people with preexisting conditions!

r/globalterrorism "	0
   	 2017-05-05 17:30:55 	" We need to swing those districts. What the GOP is doing is nothing more than state sponsored terrorism against the poor and the sick!

r/globalterrorism "	0
   	 2017-05-05 17:42:09 	 Because it's the GOP lawmakers that have sold us out.  	0
   	 2017-05-05 17:44:13 	 Probably not. 	0
 McCain: Meeting with Kim Jong Un not an honor 	 2017-05-05 18:02:37 	  	0
   	 2017-05-09 19:20:31 	" Trump is waging war against the poor and minorities. He knows that the less black people who vote the better his chances are. Basically that is voter terrorism!

r/globalterrorism "	0
   	 2017-05-09 20:37:22 	 Bash a fash 	0
 APD Officer Fired for Tampering with Rape Case 	 2017-05-09 21:08:04 	  	0
   	 2017-05-09 21:10:06 	" TLDR

Scumbag police officer Carlos Mayfield gave a confidential file of a rape investigation to his girlfriend that happens to be the mother of the alleged rapist.

The investigation was compromised. "	0
   	 2017-05-09 21:34:38 	 They are just arming their future enemies. Americans never learn. 	0
   	 2017-05-09 21:36:59 	" So true. And while the American people die waiting for a doctor their ""democratic "" leaders waste money perpetuating  an endless cycle of death, destruction, and hatred. "	0
   	 2017-05-09 21:39:29 	 Are Americans the most easily manipulated people on earth? 	0
   	 2017-05-09 21:45:25 	" That action was scene straight out of a die hard movie. What type of terrorists was John McClain fighting?

r/globalterrorism "	0
   	 2017-05-09 23:13:05 	 What's an mr folk? 	0
   	 2017-05-09 23:14:03 	 Because your soldiers will be back there fighting the people that you are arming today. I.e. Afghanistan 	0
   	 2017-05-10 00:15:18 	 He Is Certified Scumbag 	0
 Poop bombs: Venezuelans new weapon against riot police are poopootov cocktails 	 2017-05-10 01:59:16 	  	0
   	 2017-05-10 02:04:02 	" Both are authoritarians, both could care less about human rights, both are terrifying their own citizens.

This guy does have a point

/r/GlobalTerrorism  "	0
   	 2017-05-10 02:10:08 	 or a 401k 	0
   	 2017-05-10 02:11:58 	" Basically we as society need to come together because the current administration is taking us closer and closer to Fascism. They are currently waging a campaign of terror against the poor , the sick, and minorities.

/r/GlobalTerrorism  "	0
