title	date	text	class
   	 2015-12-26 10:12:04 	 it is so cute rabbit 	0
   	 2015-12-29 10:34:20 	 You can say what you want about this show but we have to admit one thing, they did an amazing job with Darth Vader 	0
   	 2016-01-03 05:44:48 	 Bunch of dudes and two women? Sounds like a hell of a bar 	0
   	 2016-01-12 12:09:27 	 I'm pretty sure the cat is just making fun of the cross-eyed ginger 	0
 Miss Universe 2015's first press conference 	 2016-01-27 06:01:38 	  	0
 Leaders seek funds for Syria, elusive stability for region 	 2016-02-04 09:06:55 	  	0
 A month to change your heart: Day 10 	 2016-02-10 12:13:29 	  	0
 'The View' hosts 'Feeling the Bern' after Bernie Sanders sit-down 	 2016-02-11 07:01:18 	  	0
 Stocks Fall, Gold And Govt Bonds Rise After Brussels Explosions 	 2016-03-23 08:45:47 	  	0
 Bundesliga: Leverkusen dismantle distracted Wolfsburg in convincing win 	 2016-04-02 13:26:10 	  	0
 Punishing Women Is What the Reproductive Rights Battle Is About 	 2016-04-03 07:40:08 	  	0
 Diane Kruger looks painfully thin on red carpet 	 2016-04-08 08:56:16 	  	0
 Melting ice sheets changing the way the Earth wobbles on its axis, says Nasa 	 2016-04-09 09:11:45 	  	0
 Navy SEAL killed in Iraq was trying to rescue others 	 2016-05-05 11:29:15 	  	0
   	 2016-05-05 11:35:41 	 This is amazing and beautiful killer eyes. 	0
   	 2016-05-06 12:24:43 	 Zero fucks given. That's how much soul cats have. 	0
 Oops, wrong dates on my Airbnb rental  how about a full refund? 	 2016-05-17 14:13:00 	  	0
   	 2016-05-17 14:19:06 	 That shadow on the box! 	0
 Mystery severed foot found in Bath park 'a teaching aid' 	 2016-05-18 08:11:18 	  	0
   	 2016-06-02 11:22:30 	 Game of Thrones, Walking Dead, and Baby Ruth candy bars. 	0
 California shooting: Gunman and one dead at UCLA campus 	 2016-06-02 11:24:50 	  	0
   	 2016-06-02 11:27:01 	 velvet is there something on my cute face. 	0
 After grim payrolls, focus turns to economy 	 2016-06-04 09:31:40 	  	0
 HP CEO Whitman compares Trump to Hitler, Mussolini 	 2016-06-12 08:50:44 	  	0
   	 2016-06-12 08:54:15 	 Imagine the electricity machine. 	0
 Apple WWDC 2016 Live: Will Siri be the focus of this keynote? 	 2016-06-13 11:04:47 	  	0
 Apple patents technology to block iPhone cameras 	 2016-07-01 14:55:53 	  	0
 Maher Mocks Claims Clinton-Lynch Meeting Was Innocent, 30 Minutes Is A Long Time To Be Talking About Your Grandchildren 	 2016-07-02 13:16:01 	  	0
   	 2016-07-02 13:20:48 	 DONKEY! Figured it out! 	0
 Oswals and Apache agree to settlement 	 2016-07-28 12:32:29 	  	0
   	 2016-07-28 12:34:17 	 Cuteness overload 	0
 Republican Doug Elmets speaks at the Democratic National Convention 	 2016-07-29 08:46:27 	  	0
   	 2016-07-29 08:49:15 	 well done. 	0
 Security of seismic sensor grid probed 	 2016-08-08 08:02:45 	  	0
   	 2016-08-08 08:05:49 	 This is real hype/crunk music right here. 	0
 Justin Bieber and Selena Gomez Continue to Uncouple In the Public Eye 	 2016-08-16 08:48:44 	  	0
 This Guy Makes His Meals From Plants Found In Public Parks 	 2016-08-18 08:10:51 	  	0
 Tim Bosma's family sues killers Dellen Millard and Mark Smich for millions 	 2016-08-23 10:45:51 	  	0
 Italy Earthquake: Army Mobilized, Amatrice and Accumoli Hit Hard 	 2016-08-24 10:59:12 	  	0
 Google Allo vs WhatsApp vs Facebook Messenger and others: A comparison 	 2016-09-23 12:21:47 	  	0
 'Shark Tank' Investors Share Tips for Success 	 2016-09-24 09:00:33 	  	0
" ""Hey what did you call me...?"" "	 2016-11-05 07:27:59 	  	0
 MRW someone flashes me to let me know there's a cop up ahead. 	 2017-01-20 09:23:26 	  	0
   	 2017-02-25 06:52:42 	 the fucking dog is a great straightman. 	0
 Google weighs in on WikiLeaks bombshell 	 2017-03-09 08:22:59 	  	0
   	 2017-03-10 09:37:13 	 yummy. 	0
 Steel gate made of pliers 	 2017-03-28 07:12:12 	  	0
   	 2017-04-20 13:31:34 	" Thank you for this song! Amazing. 
I like your voice and black hair (shy).
 "	0
 Cuba is 'huge opportunity' for U.S. travel companies, BCG says 	 2017-05-10 06:53:26 	  	0
