title	date	text	class
 Inventions Ready to Take Off 	 2012-07-19 06:36:18 	  	0
   	 2013-10-06 06:03:12 	 I agree. What's being asked is superfluous 	0
   	 2013-10-06 06:08:52 	 Might want to try a hedging strategy to offset potential losses 	0
   	 2013-10-06 06:13:41 	 Valid concern. Wendy's Spicy Chili can really impact performance after 3-4 bowls 	0
   	 2013-10-06 06:15:29 	 My vote - John Tarr, can't go wrong with him 	0
   	 2013-10-06 06:17:44 	 On second thought, Bryan Cooper might be better. 	0
   	 2013-10-06 16:21:01 	 Is it dumb to fly a kite during a hurricane? 	0
   	 2013-10-06 23:23:49 	 You might be overthinking it 	0
   	 2013-10-07 00:09:34 	 I agree. What was the thinking here? 	0
   	 2013-10-07 01:08:10 	 The bird's the word 	0
   	 2013-10-07 01:08:47 	 Worrying won't do any good. Will you care a year from now? 	0
   	 2013-10-07 01:10:47 	 Do cows make chocolate milk? 	0
   	 2013-10-07 01:11:55 	 Work on a better hedging strategy, the rest will fall into place. 	0
   	 2013-10-07 01:14:41 	 It's not the end of the world. 	0
   	 2013-10-07 01:15:17 	 You made yourself lose by picking him. 	0
 Have you heard? The bird's the word 	 2013-10-07 01:18:34 	  	0
 No more free equity, ABC 	 2013-10-07 01:48:40 	  	0
   	 2013-10-07 04:10:41 	 2% profit or 5% equity. Either way, being on the show increases sales sometimes 10-fold, so might be worth it. 	0
   	 2013-10-07 05:28:41 	 Not necessarily. Viewers may like/buy the product, regardless of what the sharks say. 	0
   	 2013-10-07 05:29:58 	 More like 2.5 hours, according to Cuban. 	0
   	 2013-10-07 05:31:58 	 Daymond is worse, in my opinion. He rarely invests and frequently talks down to entrepreneurs as if he's the king of everything. 	0
   	 2013-10-07 05:32:45 	 Coming in unprepared. 	0
   	 2013-10-07 17:43:18 	" Is it greedy for Fox to take a cut of American Idol record sales they helped generate? I don't think so. These shows make people famous/millionaires overnight. Not too much to ask  to take some profits back to pay bills.

I understand Cuban's point, though. Some entrepreneurs might not be in a position to give up additional equity, and the sharing clause deters them from being on the show. "	0
 Favorite Shark Tank Quotes 	 2013-10-08 02:35:37 	" What are your favorite quotes from the show?

I particularly liked ""What, do you want to sing Kumbaya? This is business...get to it!"" from the 10/4 episode. "	0
   	 2013-10-08 02:50:46 	" I think 19 Entertainment basically ""owns"" anyone who appears on the show. Even if a contestant signs with another label, 19E has the right to ""manage"" and get a cut out of profits. 

http://boards.straightdope.com/sdmb/showthread.php?t=609061 "	0
   	 2013-10-08 03:14:43 	 Ironically, Mark is the one who invested in Rapid Ramen. I think it was more about the entrepreneur's drive/determination. He seems to look out for the hard workers, since he was in the same situation (i.e. trying to get his companies off the ground). 	0
   	 2013-10-08 03:56:58 	 Is it crazy to drop a cell phone in a port-a-john? 	0
 Why do my farts smell so foul? 	 2013-10-08 04:21:55 	 Diet consists of peanut butter, chicken sandwich with guacamole, salad, and oatmeal. Should I be concerned? 	0
   	 2013-10-08 04:23:53 	 Trying to flatulate 100 times by the end of my vacation 	0
   	 2013-10-08 04:29:21 	 Should I look for OTC meds to help? 	0
   	 2013-10-08 04:29:50 	 Going to work everyday 	0
 Should the government be collecting taxes while shutdown? 	 2013-10-08 04:34:17 	  	0
   	 2013-10-08 04:36:22 	 Start a company. It's the #1 way millionaires are made. Specifically, a web-based business. 	0
   	 2013-10-08 22:28:06 	 LTS for BQI 	0
   	 2013-10-08 22:30:14 	 Is the library a good place to practice yodeling? 	0
   	 2013-10-08 22:32:16 	 Does a walrus make a good pet? 	0
   	 2013-10-09 03:38:12 	 Is it wise to fart in an elevator full of top-level executives? 	0
   	 2013-10-09 05:38:06 	 How so? 	0
   	 2013-10-09 05:39:02 	 What if I'm interested and want to watch, but still find myself dozing? 	0
   	 2013-10-10 04:44:33 	 Try Google Chrome 	0
   	 2013-10-10 04:48:09 	 Should you take a dump with the toilet lid down? 	0
   	 2013-10-11 06:42:49 	 Turbolax :-) Just one teaspoon for fast, effective relief 	0
   	 2013-10-11 06:43:45 	 Having to interact with them in person 	0
   	 2013-10-11 06:44:17 	 SavedByTheBell and Farting 	0
 College study finds Oreo cookies are as addictive as drugs 	 2013-10-16 04:10:55 	  	0
   	 2013-10-16 04:12:22 	 Does a polar bear make a good pet? 	0
   	 2013-10-16 04:13:11 	 Go for Felix Douglas. Can't go wrong there. 	0
 Anyone else get annoyed with small talk? 	 2013-10-24 04:33:24 	 Office politics, useless conversation that goes nowhere 	0
   	 2013-10-24 04:38:01 	 ..... 	0
   	 2013-10-24 04:38:34 	 Have you ever tried that? 	0
   	 2013-10-24 04:47:56 	" Ever get stuck in a ""locked conversation"" where the other person is talking but never asks any questions and you can't get away easily? Annoying! "	0
 Extra Bean Burrito = Bad Idea 	 2013-11-15 06:01:29 	  	0
   	 2013-11-15 06:06:07 	 You have to work with boring computer programmers all day. 	0
   	 2013-11-15 06:07:25 	 Don't do it unless you have plenty of cash reserves.  	0
   	 2013-11-15 06:09:53 	 SnapChat 	0
 What's your real motivation in life (seriously)? 	 2013-11-15 06:11:42 	 Why do you get up in the morning? What are you hoping to gain before your time is up? 	0
   	 2013-11-15 06:13:08 	 Apparently you haven't smelled it. 	0
   	 2013-11-15 06:16:06 	 Anything in particular you want to be remembered for?  	0
   	 2013-11-15 06:23:15 	 Wireless Electricity 	0
   	 2013-11-15 06:27:43 	 Right before I wrote this comment. Did-ya hear it? 	0
   	 2013-11-15 06:29:51 	" ""At the end of the day"", ""hemmin' and hawin'"", ""low hanging fruit"", ""touch base"", ""reach out""....pretty much any common business phrase. "	0
   	 2013-11-15 06:30:05 	 Because they're so overused and annoying! 	0
   	 2013-11-15 06:30:39 	 Price is Right Theme Song, 'cause I dig it! 	0
   	 2013-11-15 06:44:52 	 LOL, too funny 	0
" Why does Damond John hardly ever invest in anything, and when he does it's always ""decide in the next 3 seconds or I'm out."" "	 2013-11-15 06:46:55 	  	0
   	 2013-11-15 07:02:16 	 Fingerprint 	0
 What was the best prank someone pulled on you or you pulled on someone else? 	 2013-11-15 07:03:42 	  	0
   	 2013-11-15 14:05:52 	 Daymond is the only one who seems to do the shot clock on every offer. 	0
   	 2013-11-15 19:19:09 	 Still, he seems to think his time is more valuable than any other Shark, and ironically, he probably has the least net worth. 	0
 How much $$ do you think has been made on all the Sharks' deals? 	 2013-11-15 19:22:09 	 Some deals have probably gone bad, but I would think most are way in the green. Any idea how much they've made? 	0
 Mark Cuban Reveals Best And Worst 'Shark Tank' Pitches 	 2013-11-15 19:30:02 	  	0
   	 2013-11-16 04:15:14 	" ""Do you want to sit around and sing Kumbaya?"" "	0
   	 2013-11-17 06:27:50 	" The ratio of sharks to pie is too large.
 "	0
   	 2013-11-17 06:29:56 	 Man, there really needs to be an NBA Jam game for mobile. Could be a great pitch for an upcoming show. 	0
 What options do I have for getting $1 million without doing anything illegal? 	 2013-11-17 14:42:40 	  	0
   	 2013-11-17 15:13:52 	 If nothing else, they made Reddit Frontpage, Top 10.  	0
 If you could keep someone confined to a 36 x 25 elevator for a 1-hour period with nothing but your rankest, foulest egg fart to keep them company, who would it be and why? 	 2013-11-19 05:57:36 	  	0
   	 2013-11-19 06:00:42 	 Or maybe he would feel right at home? 	0
   	 2013-11-19 06:12:39 	 Wow. Very romantic. 	0
   	 2013-11-19 06:22:38 	 Plan my first appearance on SharkTank as a big wig investor. 	0
   	 2013-11-19 06:24:49 	 Flatulence 	0
 In terms of health/brain function, is watching TV for 4 hours worse than reading a book or knitting a sweater for the same amount of time? 	 2013-11-21 01:20:47 	 TV gets the blame for people being overweight/using less brain power, but if you're sitting for the same amount of time doing something else, aren't they the same? 	0
   	 2013-11-21 01:26:06 	 Checking Reddit Front Page 	0
   	 2013-11-21 01:28:51 	" I'd have to agree. Disagree with scientific research that says ""all TV is bad."" "	0
   	 2013-11-21 01:29:49 	 A toilet 	0
   	 2013-11-21 01:31:15 	 I can't say... 	0
   	 2013-11-21 14:46:36 	 What about TV shows with intricate plots that require critical thinking? And what about the health aspect....still sitting in the same place while reading/knitting. 	0
 What's your biggest life challenge right now? 	 2013-11-22 15:22:12 	  	0
 Crappiest item sold on eBay? 	 2013-11-26 02:31:54 	  	0
 National Lampoon's Christmas Vacation is on NetFlix Streaming! 	 2013-12-01 03:02:34 	 Enjoy! 	0
   	 2013-12-01 03:12:36 	 Classic! 	0
   	 2013-12-02 19:42:16 	" Funny how Amazon released this ""news"" that isn't supposed to take place for at least 5 years on the day before Cyber Monday. Coincidence? I think not. "	0
   	 2013-12-03 20:18:49 	" ""It's a one-year membership in the jelly of the month club.'

""Clark, that's the gift that keeps on giving the whole year"" "	0
   	 2013-12-03 20:22:02 	 Or buy one from eBay/Craigslist for $10. 	0
 Entrepreneurs - What's the biggest mistake you've made in your business? 	 2013-12-03 20:24:39 	  	0
   	 2013-12-03 20:31:04 	 Unorganized with finances or everything in general? 	0
   	 2013-12-03 20:36:28 	 What type of business, if you don't mind me asking? 	0
   	 2013-12-09 05:46:06 	 Sending a letter to yourself was basically useless even before the patent rules changed. You can send an empty unsealed envelope to yourself before you have an idea, and then add a letter and seal it later. Will not hold up in a court of law. 	0
   	 2013-12-09 05:48:25 	 If you can't build a prototype yourself, you'll need to use a site like Freelancer.com and have someone build it based on detailed specs. BUT, before talking to anyone, have them sign an NDA (non-disclosure agreement).  	0
 Pretty much sums up Christmas for me... 	 2013-12-10 03:47:40 	  	0
   	 2013-12-10 13:36:51 	" Yes, I think he would be the least likely of all the sharks to donate money to charity. He's greedy with a capital ""G"". "	0
   	 2013-12-10 20:16:24 	" ""I'll give you half the money you need for twice the equity you're offering"" "	0
 200,000 people apply to live on Mars 	 2013-12-11 13:28:51 	  	0
 Farts on planes; a wind-breaking study of 2013 	 2013-12-11 14:04:06 	  	0
   	 2013-12-11 14:56:26 	 Should be based on the potential smell of the fart. Mild, airy farts are OK. Rotten egg farts are a definite no-no. 	0
   	 2013-12-11 20:36:54 	 When someone asks about my AskReddit pet peeve. 	0
   	 2013-12-11 20:41:16 	 Don't do it unless you can afford to lose. Way too volatile. 	0
   	 2013-12-11 20:43:09 	 Office Space 	0
 Website Owners: Sued for Gaps in Website T C's? 	 2013-12-11 20:49:49 	 Anybody been sued for leaving something out of your website Terms and Conditions? 	0
   	 2013-12-11 22:27:09 	 This goes far beyond mildly interesting 	0
 Mandela interpreter claims schizophrenic episode 	 2013-12-12 13:26:37 	  	0
   	 2013-12-12 18:39:26 	 Did you have any business/technical challenges building and/or scaling the site? 	0
 My entry for this year's ugly sweater contest at work 	 2013-12-18 05:36:45 	  	0
   	 2013-12-18 05:40:15 	 Yes siree 	0
   	 2013-12-18 05:55:33 	 Actually made it myself without granny's help this time.  	0
   	 2013-12-18 06:26:00 	 What a coincidence. I have the same problem. 	0
   	 2013-12-19 06:28:52 	 For sure, Mach Rider 	0
   	 2013-12-19 06:31:17 	 Not sure why this has so many downvotes....it's awesome! 	0
 Anybody who owned a PowerGlove back in the day? 	 2013-12-19 13:40:39 	  	0
   	 2013-12-19 17:50:07 	 River City Ransom 	0
 If you could make your own original Nintendo game, what would it be? 	 2013-12-19 17:54:31 	  	0
   	 2013-12-19 17:57:12 	 Talking about the original 8-bit Nintendo system. What game do you wish was made but never was? 	0
   	 2013-12-19 18:00:00 	 Why the quick down votes? You guys are no fun! 	0
   	 2013-12-19 18:02:48 	 Very creative! 	0
   	 2013-12-19 18:06:25 	 Make way! 	0
   	 2013-12-19 18:07:29 	 Nobody? 	0
 Setting up Small Business Accounting? 	 2013-12-19 18:11:38 	" Anybody have a playbook or guidelines for setting up/maintaining small business accounting from scratch?

This is for a new LLC. "	0
   	 2013-12-19 18:22:58 	 Robots will become smarter than humans and wipe us out. 	0
   	 2013-12-19 19:50:07 	 Better tip for Amazon users - shop elsewhere. Amazon's shipping has been slow as molasses for every order I've placed this past year. 	0
   	 2013-12-19 19:55:40 	 What if I told you this is the worst post I've seen all morning 	0
   	 2013-12-19 19:59:04 	 Amazon used to be really good with shipping even without Prime. I don't mind waiting 3 days, but man, 1 week+? 	0
   	 2013-12-19 20:01:11 	 Reddit 	0
   	 2013-12-19 20:09:03 	 I don't see 'down vote them' on the list 	0
   	 2013-12-19 23:00:28 	 OK, I'll check it out. Thanks 	0
   	 2013-12-20 04:04:34 	 This is a fantabulous idea 	0
   	 2013-12-23 05:14:55 	 Looks like an ant army took over 	0
   	 2013-12-23 05:22:04 	 What if I told you this is a blatant lie. 	0
 Reality show about people watching reality shows 	 2013-12-23 05:27:28 	 It's the next logical progression in reality show entertainment 	0
 How many up/down votes do you give on Reddit per day? 	 2013-12-23 05:37:33 	  	0
   	 2013-12-23 05:39:50 	 That's not really a number. 	0
   	 2013-12-23 05:45:47 	 Check my drawers for skid marks 	0
   	 2013-12-23 05:47:29 	 How do you get this in edge-wise if the other person keeps talking? 	0
   	 2013-12-23 05:54:20 	 Just walk away while they're still talking 	0
   	 2013-12-23 06:15:47 	 111 is the current record 	0
   	 2013-12-23 06:19:26 	 is this a sarcastic comment? 	0
 Best Christmas movies on Netflix Instant 	 2013-12-23 20:38:47 	  	0
   	 2013-12-24 08:22:02 	 Pretty much. 	0
 What would do if you crapped your pants 30 minutes before being in a wedding? 	 2014-01-24 14:51:25 	 You have no spare clothes. 	0
   	 2014-01-24 15:10:31 	 Bahahahaha! 	0
   	 2014-01-24 15:12:08 	 We'll say boxers, extra runny poo with stark white pants to make things interesting 	0
   	 2014-01-24 15:13:18 	 What does that affect injuring yourself? 	0
   	 2014-01-24 15:14:19 	 Very inconspicuous 	0
   	 2014-01-24 15:20:02 	 And become a mountain man with th3battula? 	0
 Rare NES game passes $30,000 mark on eBay, keeps climbing 	 2014-01-25 16:50:24 	  	0
   	 2014-01-25 22:53:22 	" eBay Auction: 
http://www.ebay.com/itm/221357006206?ssPageName=STRK:MEWAX:IT _trksid=p3984.m1438.l2649 "	0
   	 2014-02-01 03:44:36 	" because they're ""sharks"" "	0
 Facebook May Disappear in 3 Years 	 2014-02-01 23:40:23 	  	0
   	 2014-02-02 02:14:01 	" ""Well, sonny Jim, I'm gonna get me one a 'dem Facebooks right thare."" "	0
   	 2014-02-02 02:32:26 	 is Jeopardy 	0
   	 2014-02-03 03:14:11 	 I think Eli made up this phrase 	0
   	 2014-02-03 03:15:05 	 Cleaning crappers 	0
 If you could undo one event or decision from your life, what would it be? 	 2014-02-04 06:01:52 	  	0
 Watch and listen to what really caused the Broncos mistake on first snap of Super Bowl 	 2014-02-08 03:11:21 	  	0
 All American Credit Cards Will Disappear In 2015 And Be Replaced With This New Tech 	 2014-02-08 06:21:58 	  	0
 Is having a personality disorder a requirement for working in IT? 	 2014-02-12 02:05:39 	 Who in IT doesn't have one. 	0
 What's your favorite (or least favorite) Olympic moment so far this year? 	 2014-02-13 02:53:32 	  	0
   	 2014-02-13 02:59:25 	 Just going to go out on a limb and guess you probably don't watch any type of sports either. 	0
 Star Wars toy auctioned for record sum 	 2014-02-21 06:47:47 	  	0
 TalentCraze - A New Website Featuring One Act Every 24 Hours 	 2014-03-04 03:39:38 	  	0
   	 2014-03-23 18:56:05 	" OK, let me hop in my time machine to illustrate this ""real-world"" example "	0
   	 2014-03-23 19:09:50 	 Instant down vote. Can I multiply it by more down votes for you to have any sort of up vote? I think not. 	0
 I need some great business ideas! What do you need/want that hasn't been created? 	 2014-03-28 06:18:36 	 Mostly looking for new website/app ideas, but open to anything! 	0
 [Serious] What do you really want out of life? 	 2014-03-28 06:28:35 	 What are you hoping to do/experience/accomplish while you are here? 	0
   	 2014-03-28 06:54:36 	" Wow, spot on. My pet peeve is random ""drive-bys"" at my cubicle at work.  "	0
   	 2014-03-28 06:58:30 	 Bahahaha! Good one 	0
" Stock Market ""rigged"" Author Tells 60 Minutes "	 2014-03-28 19:37:51 	  	0
   	 2014-03-28 19:38:24 	 As if we didn't already know 	0
 Prepare to Hang Up the Phone, Forever 	 2014-03-30 08:28:17 	  	0
 TIL Reddit users consume the most news of any social media site 	 2014-03-30 08:50:17 	  	0
" TIL Farting while flying is ""healthy and recommended"" "	 2014-03-30 17:04:38 	  	0
   	 2014-03-30 19:20:57 	 Apparently he read the article. 	0
   	 2014-03-30 21:13:58 	 I think we just created a playbook for other countries here. 	0
 [Serious] What's the most disgusting thing you've ever seen in a restaurant? 	 2014-03-30 21:21:19 	  	0
   	 2014-03-30 21:51:41 	 From Justin to Kelly 	0
   	 2014-03-30 21:52:09 	 One of best, if not the best. 	0
 Yellowstone National Park hit by 4.8-magnitude earthquake after California is shaken by major tremor 	 2014-03-30 23:02:17 	  	0
 What's the worst business idea that made someone millions? 	 2014-04-01 04:34:35 	  	0
   	 2014-04-01 04:37:04 	 Of course, there's the pet rock. The guy made millions you know... 	0
   	 2014-04-01 04:37:41 	" The post says ""millions"" not ""billions"" :-) "	0
   	 2014-04-01 04:39:16 	 Anyone on here actually buy one of these? 	0
   	 2014-04-01 04:41:55 	 Doggles! 	0
   	 2014-04-01 04:44:39 	 Even worse is [this](http://www.thinkgeek.com/product/c208/) 	0
   	 2014-04-01 04:48:01 	 The best (worst) of [Skymall] (http://www.thrillist.com/travel/nation/skymall-s-15-weirdest-products-thrillist-nation) 	0
   	 2014-04-01 04:50:16 	 Over $500 million according to [this] (http://www.buzzfeed.com/sapna/the-house-that-snuggie-built) - 06/24/13 	0
   	 2014-04-01 05:00:04 	 *eyeroll* 	0
   	 2014-04-01 05:04:06 	 Just a wild guess, was it called The Clapper? 	0
   	 2014-04-01 05:07:58 	 What's the worst Chia ever made? 	0
   	 2014-04-01 05:11:03 	 Further proof Americans will buy anything with clever marketing 	0
   	 2014-04-01 05:12:18 	 Does it come with instructions?  	0
   	 2014-04-01 05:13:32 	 Good one. Any Duck Dynasty product is the worst ever. 	0
   	 2014-04-01 05:14:45 	 Just saw the word 'lights' and put 2 and 2 together. 	0
   	 2014-04-01 05:15:45 	 Steak knives that cut through a muffler 	0
   	 2014-04-01 05:19:38 	 Because everybody needs a beach towel with a big bearded hillbilly on it 	0
   	 2014-04-01 05:22:55 	 Vince Shlomi aka Vince Offer 	0
   	 2014-04-01 05:28:22 	 They must have spent a fortune retooling equipment for this change. 	0
   	 2014-04-01 05:49:29 	 [Mug shot] (http://www.thesmokinggun.com/sites/default/files/imagecache/750x970/article/documents/2009/0327092sham1.jpg) for reference 	0
   	 2014-04-01 05:50:08 	 How? 	0
   	 2014-04-01 05:51:05 	 Do it [eBay] (http://www.ebay.com/bhp/the-clapper) 	0
   	 2014-04-01 05:53:09 	 ThighMaster 	0
   	 2014-04-01 05:53:52 	 Instant garage sale item 	0
   	 2014-04-01 05:55:15 	 For reference, the worst as seen on TV workout gear [here] (http://www.womenshealthmag.com/fitness/shake-weight) 	0
   	 2014-04-01 05:56:57 	 But it can also be bundled with a [walking leash] (http://www.amazon.com/ROCK-walking-leash-Kraft-Silly/dp/B008PSP5SG) for added excitement 	0
   	 2014-04-01 05:57:54 	 And a four word answer... 	0
   	 2014-04-01 05:59:52 	 A great collection [here] (http://www.nydailynews.com/life-style/world-stupidest-inventions-gallery-1.26294), including Twitter toilet paper. 	0
   	 2014-04-01 06:01:16 	 Tetris leggings 	0
   	 2014-04-01 06:04:33 	 That's the worst idea I've ever heard in my life. 	0
   	 2014-04-01 07:17:36 	 Brilliant 	0
   	 2014-04-01 07:17:53 	 How does it work? 	0
   	 2014-04-01 07:18:06 	 Google- 	0
   	 2014-04-01 07:18:40 	 True. There could be worse, but I haven't heard them yet. 	0
   	 2014-04-01 07:30:55 	 Only takes one idea to make a million dollars. And a lot of time and money. And effort. And luck.  	0
   	 2014-04-01 07:34:36 	 Did the guy who made these based on Office Space make millions? 	0
   	 2014-04-01 07:35:34 	 Call now... 	0
   	 2014-04-01 07:36:14 	 Hmmm, wonder what the correlation is? 	0
 I'm an average guy who goes to work everyday just like everybody else. AMA 	 2014-04-01 07:39:13 	  	0
   	 2014-04-01 07:49:24 	 Gift cards 	0
   	 2014-04-01 13:47:25 	" It's somehow worth ""billions"" "	0
   	 2014-04-01 13:48:11 	 True.  	0
   	 2014-04-01 13:51:25 	 These very questions. Thanks for being the first to ask! 	0
   	 2014-04-01 13:56:26 	 True 	0
   	 2014-04-01 13:57:43 	 A fart jar 	0
   	 2014-04-01 14:09:09 	 Ask me again later. 	0
 The Real Final Words From Flight 370 Cockpit Revealed 	 2014-04-01 14:34:03 	  	0
   	 2014-04-01 15:53:18 	 I work in a STORE so I can be haggled by random tourists asking the history of it. 	0
   	 2014-04-01 15:54:58 	 And he still [does] (www.lunarland.com/) 	0
   	 2014-04-01 20:10:03 	" If you'd never heard of any of these products and didn't know they made millions, would you consider them ""good"" business ideas? "	0
   	 2014-04-01 20:31:35 	 They aren't comfortable but they sure are ugly 	0
   	 2014-04-01 20:32:29 	 Crap on, crap off... 	0
   	 2014-04-01 20:33:02 	 Disabilities or just lazy people in general 	0
   	 2014-04-01 20:35:16 	 or you can go bankrupt trying to patent, build, and market even a simple product. 	0
   	 2014-04-01 21:27:24 	 Subprime mortgages were a good idea? 	0
 What was the last CD you bought and how long ago was it? 	 2014-04-05 01:00:59 	  	0
   	 2014-04-05 01:04:05 	 Honestly, can't recall the last time I bought a CD 	0
   	 2014-04-05 01:04:46 	" ""Pleased to meet you. Nice to know me."" "	0
 Honda claims world record with its 116-mph lawnmower 	 2014-04-05 03:45:14 	  	0
 Which Saved by the Bell character do you most closely resemble? 	 2014-04-05 04:44:42 	  	0
 If you could time travel to any point in time, what would it be? 	 2014-04-05 04:54:40 	  	0
   	 2014-04-05 04:57:22 	 Assuming it actually happened, of course. 	0
   	 2014-04-05 05:12:23 	 The question you just asked. 	0
 Bathroom remodel 	 2014-04-07 02:30:50 	  	0
   	 2014-04-07 17:19:58 	 River City Ransom on NES 	0
   	 2014-04-08 04:25:51 	 What do you do? 	0
   	 2014-04-08 04:28:08 	 It must take discipline to pay off a car while pulling in $200k+ year. 	0
 When someone sends you a text message, how long on average do you take to respond? 	 2014-04-08 05:55:52 	  	0
   	 2014-04-08 20:44:28 	 A negative times a negative equals a positive. 	0
 How does Kohl's make money? They constantly give out $10 gift cards, give $10 for every $50 spent and regularly have sales of 15-20% off. 	 2014-04-09 02:51:49 	  	0
   	 2014-04-09 02:53:37 	 Disclaimer: I don't work for Kohl's, nor do I have any stake in the company. 	0
   	 2014-04-09 02:54:43 	 But, a lot of people will use their $10 gift card and buy something small, like socks or sunglasses. 	0
   	 2014-04-09 02:55:08 	 Downvote if you will, but I speak the truth. 	0
   	 2014-04-09 02:55:57 	 Not sure how they make a profit from those people. 	0
   	 2014-04-09 02:58:15 	 I don't get it. 	0
 'Heartbleed bug' puts Web security at risk 	 2014-04-09 05:20:20 	  	0
   	 2014-04-10 03:50:04 	 Wondering what % take advantage of the gym membership vs. eating ice cream 	0
   	 2014-04-10 03:51:05 	 Downvote everybody in real life. 	0
   	 2014-04-10 05:47:25 	 You don't think Oprah.com is a good match? 	0
   	 2014-04-10 05:51:03 	 Small talk with another human. For me at least. 	0
 If you could live inside one video game, what would it be? 	 2014-04-10 14:38:39 	  	0
   	 2014-04-10 16:27:29 	 Don't forget to add a cover sheet 	0
   	 2014-04-10 20:24:13 	 And the virtual crowd goes wild 	0
 Sriracha Factory in Irwindale Declared Public Nuisance 	 2014-04-10 21:21:02 	  	0
   	 2014-04-10 22:48:56 	 Tons of new games i need to try as a result of this Reddit post. 	0
   	 2014-04-14 05:01:05 	 Your mom. Bahahahahaha 	0
   	 2014-04-14 05:02:33 	 This question appearing on AskReddit 	0
   	 2014-04-14 05:03:48 	" Being the ""new guy"" "	0
   	 2014-04-14 05:04:44 	 This one. 	0
 When you're nervous, what do you think about to calm your nerves? 	 2014-04-16 19:59:39 	  	0
   	 2014-04-21 17:06:39 	 Wow, excellent selection here 	0
 Nintendo Game Boy  25 facts for its 25th anniversary 	 2014-04-21 20:25:53 	  	0
   	 2014-04-22 05:12:59 	 As opposed to indirectly? 	0
   	 2014-04-22 05:13:39 	 Now there's a classic SBTB character!  	0
   	 2014-04-23 03:57:55 	 Dare I ask how much? 	0
   	 2014-04-23 04:01:19 	 Could have happened after the package was delivered. 	0
 If you could be any Office Space character for the day, who would you choose? 	 2014-04-23 04:08:46 	  	0
   	 2014-04-23 04:15:18 	 If every person who upvoted this post donated $1, you might get your money back. 	0
   	 2014-04-23 04:21:17 	 Office Space, as in the 1999 movie. 	0
   	 2014-04-23 04:22:01 	 and margaritas 	0
 Why does time seem to go by faster with age? 	 2014-04-23 04:23:08 	  	0
   	 2014-04-23 04:24:15 	 Mmmm, yeah. Gonna have to go ahead and have you watch it on Saturday. 	0
   	 2014-04-23 04:24:40 	 Lawrence! 	0
   	 2014-04-23 04:26:37 	 Seems like you just said this 	0
   	 2014-04-23 04:27:24 	 Wait until you're 30, which will seem like 3 years from now. 	0
   	 2014-04-23 04:28:11 	" ""That's OK, I got it"" "	0
   	 2014-04-23 04:33:12 	 I.e. we go to work EVERYDAY. Rinse, repeat. 	0
 The Most Awkward Prom Photos 	 2014-04-25 17:32:49 	  	0
 You might be a redneck if...? 	 2014-04-26 06:52:18 	  	0
   	 2014-04-26 06:52:59 	 your convertible doubles as a pickup truck 	0
   	 2014-04-26 06:56:04 	 Tough crowd tonight 	0
   	 2014-04-26 06:57:15 	 Simon says go 	0
   	 2014-04-26 07:01:58 	 Pong 	0
   	 2014-04-26 07:02:51 	 Don't buy anything. 	0
   	 2014-04-26 07:05:15 	 Being asked this question 	0
   	 2014-04-26 07:05:46 	 People's Court 	0
   	 2014-04-26 07:06:41 	 The law of gravity 	0
   	 2014-04-26 07:07:10 	 Coming across this question. 	0
   	 2014-04-26 07:08:52 	 99, all on my wall. 	0
   	 2014-04-26 07:13:08 	 Because toilet paper is a big chunk of one's budget 	0
   	 2014-04-26 07:15:02 	 This is great...if you don't own a credit card 	0
   	 2014-04-26 07:15:57 	 Now I know why I only get 2 mpg 	0
   	 2014-04-26 07:16:58 	 or don't use bank machines at all. You'll get some time back, too (double bonus). 	0
   	 2014-04-26 07:18:42 	 Right here where it is now 	0
   	 2014-04-26 07:20:10 	 Not terribly concerned about it at this stage in life 	0
   	 2014-04-26 07:20:30 	 Your butt 	0
   	 2014-04-26 07:21:18 	 Reading this question on a Friday night 	0
   	 2014-04-26 07:22:43 	 Can anyone name an app worth 99 cents? 	0
   	 2014-04-26 07:23:14 	 Looks sure get better with age 	0
   	 2014-04-26 07:25:20 	 Sha-poopy 	0
   	 2014-04-26 07:26:14 	 Ask me again later 	0
   	 2014-04-26 07:29:43 	 Wouldn't have opened this thread 	0
   	 2014-04-26 07:32:55 	" If I wore an eye patch and said ""Rrrrrrr"" "	0
 What are the best and worst experiences you've ever had? 	 2014-04-28 15:56:23 	  	0
 What tasks do you hate doing and wish you could automate? 	 2014-04-29 20:58:16 	  	0
   	 2014-04-29 21:04:22 	 *nods without saying anything* 	0
   	 2014-04-29 21:16:51 	 Like posting to Reddit 	0
   	 2014-04-29 21:17:19 	 Ever try a cleaning service? 	0
 Life as an Introvert 	 2014-05-01 06:11:40 	  	0
   	 2014-05-01 13:58:18 	 Life was great until, misused commas 	0
   	 2014-05-01 21:41:09 	 It takes a special type of introvert to do tech support. 	0
 What are some creative license plate letter/number combinations? 	 2014-05-02 03:01:09 	  	0
 What is the crappiest product you've ever bought? 	 2014-05-12 15:35:01 	  	0
   	 2014-05-12 17:14:15 	 It helps you read gooder 	0
   	 2014-05-12 21:00:00 	 Wow...just Sham-wow 	0
 How much debt do you currently have? 	 2014-05-14 06:55:30 	  	0
   	 2014-05-14 06:57:21 	 All student loans? 	0
   	 2014-05-14 06:58:16 	 For how long? 	0
   	 2014-05-14 07:35:40 	 Mmm...carrageenan 	0
   	 2014-05-14 22:29:24 	 Liar 	0
 What's your winning stock market strategy? 	 2014-05-16 20:30:50 	  	0
   	 2014-05-16 20:40:31 	" How do you ""lose when you sell""? "	0
   	 2014-05-18 07:43:05 	 Performance 	0
   	 2014-05-18 07:46:48 	 Might be useful for a hobby/side project, but not in an enterprise production environment.  	0
   	 2014-05-19 21:39:25 	 Not very encouraging 	0
   	 2014-05-19 21:53:45 	 It's an open ended question. No specific requirements, just looking for any recommendations 	0
   	 2014-05-20 04:33:25 	 That Game Boy is dirtier than a toilet 	0
   	 2014-05-20 04:34:03 	 Your clothing line sucks! 	0
   	 2014-05-20 04:35:13 	" Pretty much all the ""add-ons"" sold at a car dealership "	0
   	 2014-05-20 04:36:19 	 Slap Chop, Sham-Wow, anything from Vince Offer 	0
   	 2014-05-20 04:37:51 	 Cart Wheels 	0
   	 2014-05-20 04:42:38 	 Reddit Gold 	0
 What steps do you take to research/find the best deals for big ticket items such as cars, electronics, trips, etc.? 	 2014-05-20 06:21:51 	  	0
   	 2014-05-20 06:28:00 	 Next time book way in advance if possible. Rooms are usually more reasonable if booked earlier. 	0
 Why Supermarket Sweep Was The Best Game Show Ever 	 2014-05-22 05:04:46 	  	0
   	 2014-05-22 05:15:00 	 An extra...two-hundred-and-fifty dollars! 	0
   	 2014-05-22 05:17:58 	 Whoever smelt it, dealt it. 	0
 Scientists: Chances of Finding Alien Life 'Good' But Threatened by Funding Cuts 	 2014-05-22 05:20:54 	  	0
   	 2014-05-22 05:22:27 	 Hey, the next time you're at the checkout counter and you hear the beep... 	0
" If Thursday is ""Throwback Thursday"", what is Friday considered? "	 2014-05-23 18:56:54 	  	0
   	 2014-05-23 19:07:19 	 Let me hop in my time machine 	0
   	 2014-05-23 19:36:07 	 Well, look who's a little honey boy 	0
   	 2014-05-23 19:37:41 	 This could be blackmail 	0
   	 2014-05-24 02:57:49 	 An idea in itself is not very useful. Start by having a prototype developed -- use household materials or hire a CAD designer (have them sign an NDA first) and have a rapid prototype created. 	0
   	 2014-05-24 20:24:31 	 Downvote 	0
   	 2014-05-24 20:25:47 	 Not a chance 	0
   	 2014-05-24 20:26:44 	 That it actually started 	0
   	 2014-05-24 20:28:58 	 Your grandpa wasn't a very smart man was he? 	0
   	 2014-05-24 20:30:03 	 And? 	0
   	 2014-05-27 05:13:37 	 You beat me to this. Took the same pic today. 	0
   	 2014-05-30 01:46:29 	 Don't buy any of the add-ons except GAP (if buying new) 	0
   	 2014-05-30 01:49:06 	 Get a WiFi repeater 	0
   	 2014-05-30 01:49:32 	 Reddit 	0
   	 2014-05-30 01:52:07 	 Cliff Notes 	0
   	 2014-05-30 01:53:59 	 In the time you spent making a meme and Reddit post, you could've ordered food online and had it delivered 	0
   	 2014-05-30 01:57:04 	 Don't buy anything 	0
   	 2014-05-30 01:58:46 	" Kind of an oxymoron -- If someone is in a bunch of tourist photos, doesn't it make them ""famous""? "	0
   	 2014-05-30 02:00:00 	 Do your homework. Drink a lot. 	0
   	 2014-05-30 02:01:10 	 Not sure--It hasn't been invented yet. 	0
   	 2014-05-30 02:03:59 	" I read ""get food"" as leaving the house, procuring food and returning. If OP can't answer the door, then that's a sad story. "	0
   	 2014-05-30 02:05:36 	 Fart on command 	0
   	 2014-05-30 02:06:02 	 Slashdot 	0
   	 2014-05-30 02:07:05 	 I've collected a lot of this over the years 	0
   	 2014-05-30 02:11:51 	 Ultimate Farting, Jack Vale Farting in Elevators 	0
   	 2014-05-30 02:15:20 	 Going to work each and every day 	0
   	 2014-05-30 14:17:08 	 Do your homework. 	0
   	 2014-06-06 01:40:11 	 Did you know Reddit existed while in prison? 	0
   	 2014-06-06 04:29:22 	" ""Old"" is a relative term. "	0
   	 2014-06-06 05:58:31 	 Depends. Is it a tangible product? 	0
   	 2014-06-06 19:21:10 	" ""If they could?"" Please. TV isn't a necessity. Read a book or do something productive instead. "	0
   	 2014-06-06 19:27:54 	 First step: Create an NDA (nondisclosure agreement) and ensure it is signed by anyone with whom you intend to discuss the idea. 	0
   	 2014-06-06 19:30:07 	 Without going into detail, is your idea a tangible product or technology/app related? 	0
   	 2014-06-06 19:34:50 	" Eventually you'll have to tell someone and an NDA is your ""protection"", unfortunately. "	0
 North Korea says it is holding American tourist for unspecified violations 	 2014-06-07 04:28:11 	  	0
   	 2014-06-08 05:00:00 	" This isn't true, since Subway sandwiches are never actually ""foot long"" "	0
 What's a canceled/completed TV show you wish could return with the original cast? 	 2014-06-08 05:02:19 	  	0
   	 2014-06-08 05:04:09 	 Saved by the Bell 	0
   	 2014-06-08 06:32:23 	 Good point. 	0
   	 2014-06-09 03:14:28 	" Maybe some market research is in order to determine your competitors?

http://www.jacootielight.com/

http://www.amazon.com/Stroller-Safety-Lights-dual-LEDs-Money-back/dp/B00APABIF6 "	0
 What would be the impact to society/the economy if sports suddenly didn't matter to anybody? 	 2014-06-11 03:40:16 	  	0
   	 2014-06-11 03:44:04 	 Fill the time previously spent playing or watching (or both)? 	0
   	 2014-06-11 03:52:53 	 and Star Trek? 	0
   	 2014-06-11 03:53:09 	 Better or worse? 	0
   	 2014-06-11 05:46:44 	 Could be a less subtle symptom, like diarrhea. 	0
   	 2014-06-11 20:23:50 	 Can't stand when people do this. 	0
   	 2014-06-12 02:41:42 	 What did you really think of Alex Trebek (really)? 	0
   	 2014-06-12 06:22:49 	 Giving Reddit Gold 	0
   	 2014-06-12 06:57:32 	" Aka ""small talk"" "	0
   	 2014-06-12 21:14:25 	 Considering Netflix is the equivalent of 100 semi trucks driving over the bridge, not sure if this is a valid argument. 	0
   	 2014-06-12 21:26:46 	 New study suggests this has been an issue for a long time.  	0
   	 2014-06-13 02:32:47 	 ...and minus 1 	0
 Junk sleep: When sleep and technology don't mix 	 2014-06-13 03:57:07 	  	0
   	 2014-06-13 16:02:34 	 Moved my phone to another room last night and i think it actually helped. 	0
 What's a life experience you hope to never have again? 	 2014-06-16 15:25:39 	  	0
   	 2014-06-16 20:57:00 	 I may not be the sharpest tool in the shed, but I see what you did there. 	0
   	 2014-06-18 02:48:14 	 Laser Reproductions - used them for a small project over a year ago. 	0
 Remains of 'End of the World' Epidemic Found in Egypt 	 2014-06-18 04:29:36 	  	0
   	 2014-06-27 01:42:04 	" ""What would you say...ya DO here?"" "	0
   	 2014-06-27 01:42:55 	 This post. 	0
 Which type of fart best describes you? 	 2014-06-27 01:46:32 	  	0
 If you could eliminate one undesirable aspect from your life what would it be? 	 2014-07-02 03:03:24 	  	0
 What's the best salsa you've ever tasted? 	 2014-07-03 07:16:12 	  	0
   	 2014-07-03 07:23:45 	 For me, it's Mama Rosa's Garlic Salsa.  	0
   	 2014-07-03 07:25:09 	 I've tried this brand and wasn't too impressed.  	0
   	 2014-07-03 20:39:28 	 Type A, go-getters vs. Antisocial geeks living with parents 	0
 Happy 4th from Joe Dirt 	 2014-07-03 21:52:15 	  	0
 What's a problem that needs a creative solution? 	 2014-07-04 02:42:24 	  	0
 What do you use to wipe down equipment at the gym? 	 2014-07-19 22:04:38 	  	0
   	 2014-07-19 22:07:40 	 Wipes that you bring or the gym provides? 	0
   	 2014-07-19 22:15:48 	 Where do you buy them? 	0
 What are some clear signs you're having a bad day? 	 2014-07-20 15:53:13 	  	0
   	 2014-07-20 15:54:46 	 When you let out a fart and you end up shatting your pants. 	0
" Instead of Self Storage, have a ""Selfie"" Storage where you have to take a picture of yourself with your crap to get a storage unit. "	 2014-07-20 21:59:20 	  	0
 I can't decide whether to trust Yelp or UrbanSpoon reviews for a restaurant 	 2014-07-21 03:57:34 	  	0
 Do away with greeting cards 	 2014-07-22 04:20:48 	 Because who wants to spend an extra $3-5 for a card? 	0
 AMA Request: London Whale 	 2014-07-23 02:36:25 	  	0
 Have a radio station that consists of nothing but people farting 24 hours a day 	 2014-07-25 03:33:15 	  	0
   	 2014-07-28 14:41:15 	 Reddit Gold 	0
 CabinetGuard - Protects kitchen/bathroom cabinets from water leaks and household product spills 	 2014-07-30 05:10:45 	  	0
   	 2014-07-30 14:45:11 	 Summary: Don't spend any money. 	0
 Kayak keeps defaulting to the Flights section, but I've only been researching Hotels lately 	 2014-08-02 03:04:10 	  	0
   	 2014-08-02 04:08:37 	 It wouldn't be secure if it was just e-mailed. DUH! 	0
   	 2014-08-05 04:44:29 	 It takes a few days for TripAdvisor to manually review each submission. Expecting a flood of bad reviews in T minus 2-3 days! 	0
   	 2014-08-05 04:46:30 	" This one takes the cake:

""My girlfriend and I stayed here over the weekend. They limited us to one poop per day or we were to be charged an ""Excess Waste Fee"" of $200. Had to put a cork in my ass just to save ourselves a couple Benjamins.

Never, ever, again."" "	0
   	 2014-08-05 04:48:04 	 It takes a few days for TripAdvisor reviews to appear. Brace yourselves... 	0
   	 2014-08-05 05:06:23 	 Yelp review count appears to be dropping now... 	0
   	 2014-08-05 06:15:51 	 Union Square Hotel obviously doesn't have the same mindset as [Yelp] (http://i.imgur.com/7rtiNMP.jpg) 	0
 Don't post your location to social media sites while on vacation. It's a security risk, and might lead to others asking to meet up, when you would rather do other things 	 2014-08-06 03:58:58 	  	0
 Hotel owner 'apology' post over $500 fine for bad reviews gets a roasting 	 2014-08-06 04:01:09 	  	0
 One thing I learned from Union Street Guest House's PR fiasco... 	 2014-08-06 05:06:48 	  	0
   	 2014-08-06 05:14:43 	 Oh yeah, and Union Street Guest House sucks... 	0
   	 2014-08-07 03:47:43 	 Watching sports is a waste of time. 	0
   	 2014-08-07 03:49:35 	 Steve Bartman needs to attend more Cubs games. 	0
   	 2014-08-07 14:40:57 	 I do downvote what I do understand. *downvotes* 	0
   	 2014-08-17 15:20:37 	 Oh, you poor thing. 	0
   	 2014-08-17 15:22:53 	 Pink eye 	0
   	 2014-08-17 15:23:32 	 Having food poisoning from chicken. Holey moley, it is not pretty at all. 	0
 I just unsubcribed from an e-mail list and received another e-mail confirming the unsubcribe 	 2014-08-30 02:24:35 	  	0
 How often do you see people surfing the web at work? 	 2014-09-06 04:02:16 	  	0
   	 2014-09-06 04:03:03 	 Web surfing at work seems to be a taboo topic, but I think most people do it. Just curious about your observations. 	0
   	 2014-09-06 04:06:00 	 With no repercussions? 	0
 12 Hilarious Passive-Aggressive Notes in the Workplace 	 2014-09-06 07:55:11 	  	0
 Apple Store Crashes As iPhone 6 Goes On Sale 	 2014-09-12 16:37:32 	  	0
   	 2014-09-12 17:44:28 	 You poor soul. 	0
 Searching for vintage cereals online and found this 	 2014-09-13 20:22:49 	  	0
   	 2014-09-13 20:37:15 	 One would think 	0
   	 2014-09-13 21:08:12 	 Duuuuuuuuuude 	0
   	 2014-09-13 21:14:20 	 Guessing it would probably be stale after all these years. 	0
   	 2014-09-13 21:20:54 	 and [this] (http://img4.wikia.nocookie.net/__cb20101204020423/batman/images/d/d5/Cereal.jpg) 	0
   	 2014-09-13 21:22:11 	" ""Free Action Poster!"" "	0
   	 2014-09-13 21:30:40 	 We are no longer friends. 	0
   	 2014-09-14 01:07:22 	 Sounds stupid, but here it goes. I was searching for a Life Cereal box image so I could Photoshop an old pic of myself on the box (the reason for doing this is a different story). As I was searching, I came across a Batman cereal box, and it instantly brought back memories. From there, I searched for other vintage cereal boxes and came across the Nintendo box, which is my favorite. Mmmkay? 	0
   	 2014-09-14 01:10:03 	 Well, only one box is in the image. 	0
   	 2014-09-14 01:13:16 	 Could be because they were fortified with 9 essential vitamins and minerals. 	0
   	 2014-09-14 04:03:08 	 Question blocks are horrible 	0
   	 2014-09-14 04:07:54 	" Posted a pic of myself when I was maybe 6 years old on another site. Someone commented and said, ""looks like you're about to be on a Life Cereal commercial"". So, me being a geek decided to Photoshop the pic on a Life Cereal box and post as a reply (which I did). Happy now? "	0
   	 2014-09-14 04:32:49 	 OK, yo! 	0
 Awesome Old Cereal Boxes 	 2014-09-14 04:38:47 	  	0
   	 2014-09-14 04:45:43 	 ET [phone home] (http://lh5.ggpht.com/_yNMIPbHcVKU/TW_CpeyINmI/AAAAAAAAIYA/AHOn1SpuTxk/awesome%20old%20cereal%20boxes%2018_thumb.jpg?imgmax=800) 	0
   	 2014-09-14 04:49:23 	 Never tried either of those. 	0
   	 2014-09-14 05:01:30 	 Didn't realize they made a Steve Urkel cereal. WTH? 	0
   	 2014-09-14 05:11:28 	 [Urkel for President] (http://lh3.ggpht.com/_yNMIPbHcVKU/TW_ClnrVqdI/AAAAAAAAIXc/Lq6scSxFvCs/s1600-h/awesome%20old%20cereal%20boxes%2014%5B2%5D.jpg) 	0
   	 2014-09-14 05:25:11 	 It's too recognizable and would give away my identity. 	0
   	 2014-09-14 05:26:22 	 Don't remember that one. 	0
   	 2014-09-14 06:44:14 	 It's fun to reminisce. 	0
   	 2014-09-14 06:47:46 	 Me too. Man, those were the days... 	0
   	 2014-09-14 06:48:41 	 Mr. T thinks you're a wuss. 	0
 What are some tips for the first day at a new company? 	 2014-09-14 06:50:23 	  	0
   	 2014-09-14 06:54:36 	 Boss is out of state anyway 	0
   	 2014-09-14 06:55:49 	 What if you punch him in the face, then realize there's a bigger guy around the corner? 	0
 Shark Tank 2 Hour Season Premiere - Friday, Sept. 26th @ 8/7c 	 2014-09-14 07:10:09 	  	0
   	 2014-09-14 21:36:34 	 Episodes are on [abc.com] (http://abc.go.com/shows/shark-tank) 	0
   	 2014-09-15 05:31:43 	 Netflix costs money, abc.com doesn't. It's a trade-off. 	0
 Pee and Poo Soft Toys 	 2014-09-16 03:42:11 	  	0
 Real-time indicator on car dash that shows trip cost, based on last gas fill-up 	 2014-09-20 20:28:11 	  	0
   	 2014-09-21 16:32:30 	 There's an [app for that] (http://www.aislefinder.com/) 	0
   	 2014-09-21 16:44:11 	 Might want to talk to Mr. Wonderful about that. 	0
   	 2014-09-29 05:26:32 	" ""Bieber Fever"" - might need to call in sick today. "	0
   	 2014-10-24 03:49:52 	 Probably not this thread. 	0
 Internet Arcade puts 900 free coin-op games in your browser 	 2014-11-04 03:06:56 	  	0
   	 2014-11-11 13:44:55 	 The Endurance seems like a clock and Cooper is trying to sync up with the clock when he is docking 	0
 Happens Everytime... 	 2014-11-23 02:01:51 	  	0
   	 2014-11-23 06:15:07 	 Well, a clean toilet would be nice to see for longer than 5 minutes.  	0
 What has been your most life-changing event so far? 	 2014-11-23 06:47:43 	  	0
 What's the Worst Gift Card to give someone? 	 2014-12-02 04:57:57 	  	0
   	 2014-12-02 05:30:34 	 Rite Aid 	0
 [Serious] What does it feel like to have over $1 million in a bank account? 	 2014-12-11 02:50:56 	 Do you feel more or less secure? Worry more or less? Life-changing or not? 	0
   	 2014-12-11 03:17:41 	 I prefer Saturdays myself. 	0
 Jingle Belch: A Holiday Classic 	 2014-12-11 03:21:06 	  	0
 Extremely rare NES game sells for $35,100 	 2015-01-26 21:27:12 	  	0
   	 2015-04-13 20:57:53 	 Receipt looks shopped 	0
   	 2015-04-14 20:50:39 	 And it still does 	0
   	 2015-04-16 04:58:27 	 Paper towels and toilet paper 	0
   	 2015-04-26 21:55:58 	 Don't think you have enough battery power to uninstall the app. 	0
   	 2015-05-06 05:38:16 	 Great tip! Should also be posted in /r/LifeProTips 	0
   	 2015-05-09 07:56:54 	 Instead of 50% off, you can get 100% off by not buying something. 	0
   	 2015-05-16 06:07:34 	 Is a preposition a good way to end a sentence? 	0
   	 2015-05-16 06:09:02 	 Mega Man 2 on Original NES. Can't go wrong there 	0
   	 2015-05-19 04:32:40 	 AskReddit? 	0
 Delete any post that gets more than 2000 upvotes on /r/crazyideas, since it must be a good idea 	 2015-05-25 01:02:12 	  	0
   	 2015-05-26 14:00:59 	 Handwriting (and spelling) analysis suggests this is total BS 	0
   	 2015-05-27 06:03:14 	 Only one? 	0
   	 2015-05-27 13:03:27 	 Wow, horrible grammar  	0
 No diarrhea allowed 	 2015-05-28 04:15:54 	  	0
 What's the quickest way to get $300 for a Wii U without using my own money? 	 2015-05-29 22:28:45 	  	0
   	 2015-05-30 01:34:02 	 Open a Chase checking account, get $200, then close it after 6 months. Wii U for almost free (minus the hassle of paperwork, keeping a minimum balance, etc.) 	0
   	 2015-05-30 01:36:12 	 Who cares? 	0
   	 2015-06-01 05:11:12 	 Question is irrelevant since Wikipedia won't exist in 2115 	0
 Mega Man on Wii U? 	 2015-06-07 06:52:12 	  	0
 Farting for Charity 	 2015-06-07 07:10:03 	 Have a national farting competition where all proceeds from ticket sales go to charity 	0
   	 2015-06-07 22:44:32 	 Kid Cuisine dinners, Superman ice cream, Hot Pockets, Jenos Pizza Rolls 	0
 Have a prize giveaway at work for everyone who makes it through another workday 	 2015-06-07 22:49:01 	  	0
 Nintendo-themed alcoholic beverages 	 2015-06-07 23:16:42 	  	0
   	 2015-06-09 06:22:26 	 Google is becoming another bloated corporation, not the great startup it once was 	0
   	 2015-06-11 06:31:48 	 Commander Keen 	0
 NBA - Subtract points for fouls instead of shooting free throws 	 2015-06-15 03:58:33 	  	0
 Biggest Gainer - New realty show where people stuff their faces to see who can gain the most 	 2015-06-22 03:52:24 	  	0
   	 2015-06-22 21:54:58 	 You're welcome 	0
 Mr. Wonderful should run for president instead of Donald Trump 	 2015-06-23 22:23:50 	  	0
   	 2015-06-27 07:27:27 	 ...aaaaaaaaand it ended up being the worst $5 spent 	0
 Ordinary West Village Rooftop Hides Adorable Country Cottage 	 2015-06-27 21:58:10 	  	0
   	 2015-07-06 14:54:13 	 You with this question 	0
   	 2015-07-07 15:04:16 	 Don't buy anything 	0
 If delivery truck A is traveling at 50 mph in one direction, and delivery truck B is traveling at 60 mph in another direction, how much longer before my Amazon Prime package arrives? 	 2015-07-08 04:36:01 	  	0
 If I break wind, who do I call for repairs? 	 2015-07-08 05:32:46 	  	0
   	 2015-07-08 14:57:38 	 Hope my insurance covers it 	0
   	 2015-07-08 14:58:49 	 One day shipping, sir 	0
   	 2015-07-08 14:59:36 	 I'm trying it right now. Do drones have eyes? 	0
   	 2015-07-08 16:49:17 	 Sounds like a defective calculator 	0
 If we find signs of intelligent life, will they be LED like the billboards on the freeway? 	 2015-07-09 03:34:43 	  	0
 Is the velocity of diarrhea the same as a fart? 	 2015-07-09 07:40:24 	  	0
   	 2015-07-10 05:56:33 	 Sounds kind of cynical 	0
   	 2015-07-10 06:03:14 	 So, Super Mario 64 specifically was the cause? Why can't I get the same result playing River City Ransom or Mach Rider? 	0
   	 2015-07-10 06:05:32 	 Not sure about the first 7 points, but for Chrome being slow...get an SSD! 	0
 Donald Trump should run for president 	 2015-07-10 06:15:57 	  	0
   	 2015-07-10 06:17:28 	 Now THIS is a great idea! 	0
 Make a new law that says you have to watch Saved by the Bell at least 5 times a year 	 2015-07-10 06:25:58 	  	0
   	 2015-07-10 06:26:34 	 I think you missed the point 	0
   	 2015-07-10 06:32:06 	 Yeah, I never read the news. Only browse Reddit *eye roll* 	0
 Make a huge food court with different cuisines from every country around the globe 	 2015-07-10 06:46:06 	  	0
   	 2015-07-10 14:20:31 	 The right subreddits such as /r/CrazyIdeas, of course 	0
 Nintendo had a chance to get in on the ground floor of PlayStation 20 years ago  and blew it 	 2015-07-10 14:27:54 	  	0
   	 2015-07-10 14:28:55 	" ""Limited Edition"". *False advertising* "	0
   	 2015-07-10 14:31:50 	 Google AdSense for clicking on my own displayed ads 	0
 Favorite obscure SBTB character? 	 2015-07-10 14:46:41 	  	0
   	 2015-07-10 14:47:00 	 For sure Big Pete 	0
 Thank you, Crest, for using antifreeze in your 3D mouth wash products 	 2015-07-10 15:29:22 	 Thanks to you, I've been super dehydrated and tired without realizing the true cause until now. You add Propelyne Glycol to your mouth washes which is the equivalent of antifreeze. You suck! 	0
   	 2015-07-10 15:44:24 	 Thanks, HR lady from Zillow. 	0
   	 2015-07-10 15:53:52 	 Ox is no dummy 	0
   	 2015-07-10 15:54:56 	 Soon, you will no longer be employed by McDonald's since this is on the front page. 	0
   	 2015-07-11 02:14:49 	 Hahaha! The better Belding, of course 	0
   	 2015-07-11 16:49:11 	 Have you ever compared a 7200RPM vs SSD your own machine? Night and day difference 	0
   	 2015-07-11 17:52:04 	" ""Ouch! I'm telling!"" "	0
   	 2015-07-12 06:50:40 	 You'll run out of space pretty fast with only 128GB. 	0
   	 2015-07-12 06:53:48 	" They're not really ""unsung"" if they're on the frontpage of Reddit "	0
   	 2015-07-12 06:56:30 	 I think any sensible person knew this wasn't going to be the nex big thing. 	0
   	 2015-07-12 06:57:16 	 Head on over to /r/rant 	0
   	 2015-07-12 06:58:34 	 Me 	0
 Create a Mega Man game with the ability to design custom bosses 	 2015-07-13 01:17:19 	  	0
   	 2015-07-13 03:02:53 	 Fart Man 	0
 Open a Goodwill on Rodeo Drive 	 2015-07-13 03:07:45 	  	0
 If you could live inside one movie for a day, what would it be? 	 2015-07-14 16:45:02 	  	0
   	 2015-07-14 16:50:23 	 Back to the Future 	0
   	 2015-07-14 16:58:25 	 Phil...Connors? Bing! 	0
   	 2015-07-14 16:58:55 	 Stop! 	0
" If Yelp had a ""Rate People"" feature, what would be some of the funniest reviews? "	 2015-07-16 06:06:27 	  	0
   	 2015-07-16 06:08:25 	 1.5 stars? 	0
 Everyone wears Back to the Future costumes to work on October 21, 2015 	 2015-07-16 06:18:04 	  	0
   	 2015-07-20 06:32:18 	" I read this as ""United Airlines gives hacker-free flights..."" "	0
 Have a subreddit for posting far-fetched ideas 	 2015-07-20 16:37:41 	  	0
   	 2015-07-21 04:26:09 	 [test post please ignore] (https://www.reddit.com/r/pics/comments/92dd8/test_post_please_ignore/) 	0
" What is your ""go-to"" song or music of choice? "	 2015-07-22 02:38:04 	  	0
   	 2015-07-22 02:48:59 	 When I'm working out, anything Zedd  	0
   	 2015-07-22 02:50:24 	 Not to be confused with rythose 	0
   	 2015-07-22 03:40:09 	 Have a free upvote  	0
   	 2015-07-22 03:41:00 	 Never heard of it 	0
 Disappointing Demo Shows The Tiny View Of Microsofts Hololens 	 2015-07-22 04:04:12 	  	0
 Inside Stephen Hawking's $100 Million Search For Alien Life 	 2015-07-22 04:12:34 	  	0
   	 2015-07-22 04:50:53 	 Still think it's going to be good. Already thinking of potential app ideas. 	0
   	 2015-07-22 04:54:04 	" ""On average, Jet says you can can expect to save $150 per year."" I can guarantee $150 savings by not buying anything. "	0
   	 2015-07-22 05:10:43 	 Kills hyperlinks. Much too violent of a device. 	0
   	 2015-07-22 05:14:06 	 The angle is slightly off and it's bugging me. 	0
 What is a skill or talent you wish you had? 	 2015-07-22 05:47:57 	  	0
   	 2015-07-22 06:03:14 	 Kazoo? 	0
   	 2015-07-22 06:03:35 	 Sounds painful 	0
   	 2015-07-22 06:09:02 	 So, not literally falling apart. Good to know.  	0
   	 2015-07-22 06:09:56 	 You've arrived at the right place 	0
   	 2015-07-22 06:10:43 	 Steve Bartman  	0
   	 2015-07-22 06:12:12 	 This makes me feel old 	0
   	 2015-07-22 06:14:25 	 Sort by lowest price first. Bound to be free shipping somewhere 	0
   	 2015-07-22 06:14:58 	 Moon real estate 	0
   	 2015-07-22 06:15:26 	 *Soda* 	0
   	 2015-07-22 06:17:17 	 Leave me alone 	0
   	 2015-07-22 06:18:09 	 This one 	0
   	 2015-07-22 06:21:22 	 TGIF with Family Matters, Full House and Step by Step 	0
   	 2015-07-22 06:22:49 	 Don't create a Reddit account. It's a total waste of time 	0
   	 2015-07-22 06:24:30 	 We're in trouble if this ever happens 	0
   	 2015-07-22 06:25:03 	 /r/crapgifts 	0
   	 2015-07-22 06:49:57 	 Correction: All about working a ridiculous amount of hours, and buying stuff that isn't needed/can't be purchased with cash 	0
 How has Reddit impacted your life? 	 2015-07-22 06:52:24 	  	0
