title	date	text	class
 Defeated 10+ Years of Migraines 	 2015-01-26 18:31:29 	" Hey everyone,

I've never visited this subreddit before but my family actually suggested I post something online about how I was able to overcome my migraines of 10+ years. I'm not a great writer so bear with me.

A little information about me, I am a 22 y.o male and recent college graduate. I've been suffering with migraines since the 4th grade, and while I was in High School was diagnosed with ""chronic, severe migraines"" by a neurologist. I have seen a few different neurologists and between ages 17-21 was prescribed between 50-200mg of Topamax daily for prevention, and various triptans (both oral and injected) for treatment of pain. The past 1.5 years I have not taken any form of migraine medication, preventative or pain relieving.

After 10+ years of migraines I have largely been able to figure out my triggers:

1. Dehydration has always been the biggest one, and also easy to figure out since I played a lot of sports in school i.e. I didn't drink enough water at soccer practice I was puking and thumping myself over the head with a soccer ball to try to get the pain to stop.
2. Changes in the weather, mainly when it gets cold. If I spend too long outside in the cold without covering my head with a warm hat I will surely get a migraine.
3. Food and blood sugar. Not in the sense that I have dietary triggers but if I go to long without eating I can get a migraine.
4. The most PAINFUL trigger for me though has always been alcohol, and as an American college student and a member of Greek-life not being able to drink can put a huge hamper on your social life. Alcohol-induced migraines gave me an entirely different breed of migraine, completely untreatable except by emptying the entire contents of my stomach multiple times over and passing out for 10-12 hours.

Here is how I've been able to remove the prescribed medications from my life and live a fun and generally unrestricted lifestyle (including alcohol use) even though migraines are always something I worry about in the back of my mind:

1. Proper exercise: I lift weights 3x a week and run between 3-5 miles 3x a week. I cannot overstate the importance of a constant regimen of exercise. Both as a preventative and spot-treatment. If I am suffering from a non-alcohol related migraine, a quick run or gym session is sure to take the pain away.
2. Hydration: I drink at least 70-80 oz of water per day, and much more if I know I'm going to be consuming alcohol.
3. Food: 3 square meals per day, and a meal or large snack before consuming alcohol is crucial.

I know what I've said might seem like very typical advice, but when I adhered to it, it totally changed my life. I went from the constant looming fear of that unfathomable, nail-through-the-head pain, to confident and generally care-free. Of course it's hard to get migraines out of your life 100% of the time, shit happens as they say, but my life has transformed for the best.

Hope this helps at least one other person the way it has helped me.

 "	0
   	 2015-01-26 22:30:47 	 Of course, exercise without proper hydration, diet, and rest can definitely exacerbate a migraine 	0
   	 2015-01-26 22:32:09 	 I remember constantly being pushed more and more medication at the neurologist and doctor's visits when I was younger.... funny how the simplest things seem to work the best 	0
   	 2015-01-27 17:42:57 	" Sure, here's some info:

I've always been on the thin side, when I first stared what resembled a workout routine I was a mere 5'11, 145lbs. Within the last year I have been in between 160-170lbs.

I was underweight for my age as well. Maintaining a good diet i.e. eating enough calories to maintain your level exercise and staying hydrated are critical for proper exercise. Without food   water exercise would, for me at least, just make my migraines worse.

My goals for exercise had nothing to do with migraines actually, I just wanted to put on some muscle before heading off to college. It took finding a good balance of cardio and weight lifting before (3 days of each I mentioned) while eating enough and drinking enough water before my migraines dwindled off. I imagine that if I had migraine elimination as a goal of exercise and the information I have now, they would've gone away sooner.

I will also mention that when I say ""proper diet"", I just mean eating enough to keep up with the calories you're burning in the gym and still gain muscle. I don't count calories or nutrients or anything like that, although I'm sure healthy eating would only help more.   "	0
   	 2015-01-27 17:47:27 	" Getting used to drinking a lot of water can definitely suck. Just try to force yourself to drink more. I'm not talking about over-hydrating or anything crazy, but the more often you drink water the easier it gets to maintain good hydration levels.

Also you will pee a lot. "	0
   	 2015-01-27 17:47:50 	 Definitely this 	0
   	 2015-01-27 17:49:09 	 I totally understand that. Life happens, and big events definitely make it hard to maintain a regimen 	0
   	 2015-01-27 17:49:54 	 Yeah heat does it for me too, but drinking all that water makes it easier to stave off. 	0
   	 2015-01-27 17:54:20 	" I get red wine headaches from cheap reds, and sometimes good malbecs and a few others. I believe that these are Red Wine Headaches and not specifically the same type of headache as my migraines because they happen regardless of how I prepare for drinking. Seems safe to assume that people who suffer from migraines would be more susceptible to RWHs.

http://en.wikipedia.org/wiki/Red_wine_headache

For me, overly processed alcohol like cheap beer and cheap spirits are worse culprits, but I believe it's the alcohol itself rather than the other ingredients "	0
   	 2015-01-28 23:49:52 	 a good fitness regimen came to me more through trial and error rather than a prescribed routine. I would have made sure to stay fed, hydrated, and incorporate more cardio. cannot emphasize enough how much that combination has worked 	0
   	 2015-01-28 23:51:29 	 some reds do it to me, most don't. wish I knew more about catching the ones that did 	0
   	 2015-02-02 16:17:35 	 whites are still good haha 	0
   	 2015-02-02 16:19:28 	 That sounds brutal. It can be hard to start exercising if you have a migraine but I always figured the more oxygen you get to your brain the better 	0
 22 year, American Male, looking for 1 week Central/South America Destination 	 2015-03-02 16:13:16 	" Some info about me: 22 year old American male college student. I will be on a weeklong trip to Cancun, MX for spring break during the middle of March. I am looking for somewhere interesting to go after my trip in Cancun, preferably in Central or South America, or the Caribbean, for about 5-7 days. I am not necessarily looking for any type of party scene since I am just leaving Cancun.

Things I would enjoy: sand sports (sand boarding, dune buggies, etc.), hiking/backpacking, surfing and other water sports.

I am a pretty experienced traveller, I've taken multiple solo cross-country road trips and spent 3 months backpacking in Europe this past summer. I would like to keep things as affordable as possible.

Thanks folks! "	0
   	 2015-03-02 16:40:49 	 Peru and Colombia both sound amazing. Do you have any advice on hostels?? 	0
   	 2015-03-02 20:53:31 	 I did some research. Is there any pertinent info you would give a first-timer? Sounds like a great place! 	0
   	 2015-03-03 14:29:33 	 Thank you, very informative. I was going to ask how you got there from Cartagena but you've covered it. 	0
 Need words related to waste management 	 2015-04-27 17:41:25 	" Basically, I am coming up with a name for a waste management related project, and I am looking for words to use in the name that present the topic in a refreshing and rejuvenating manner, rather than giving off the immediate impression of filth. Any help would be appreciated.

Thanks! "	0
   	 2015-04-28 17:51:50 	 environment and community are along the lines of where I'm trying to take this, thanks 	0
   	 2015-04-28 17:54:33 	" hmmm, I can't think of any exercise in particular that would bother me. As I said before, I lift 3x a week (MWF) and run between 3-5 miles 3x a week on the other days.

Make sure to hydrate when you exercise, especially as the weather gets warmer.

Wish I had more insight into your specific problem "	0
   	 2015-05-01 20:29:47 	 best of luck, I hope it helps you as much as it helped me! 	0
   	 2015-05-04 22:57:19 	 that's awesome, I'm glad I could help. I only posted this with the hope I could help at least one other person. Keep it up! 	0
 Looking for South Asian or Greco-Roman myths or stories about rejuvenation and vitality 	 2015-06-10 23:35:18 	  	0
   	 2015-06-11 18:38:24 	 thanks for the info! 	0
   	 2015-06-18 23:00:45 	" I think I was maybe 3 at the time. I remember my babysitter giving me a bath before jumping out of the tub, running down the hall to my parents' room, and pooping on the floor. Then laughing a lot.

Not sure if this actually happened... "	0
   	 2015-06-18 23:07:25 	 I used to pretend a little dude was running across the trees/houses/hills outside my car window when I was riding passenger 	0
 Finished Matterhorn last week, can't start a new book 	 2015-07-21 16:00:42 	 I finished reading Matterhorn last week. I tried to start Dune yesterday which I had been meaning to read for a long time, I had to put it down though. It's almost like I'm feeling too emotionally connected to Matterhorn to the point that I'm still dreaming about it, that I can't immerse myself in a different story yet. Has anyone ever experienced something like this? What book did it for you? 	0
