title	date	text	class
 Who ranks up there as your worst Giants' signings ever? 	 2011-05-15 04:08:33 	 Who else would like to see up here? I definitely cannot stand Tejada this year. I know it is way too early to DFA him and experts would bash this move as a bad way of running a franchise. But at what point would you think 'hmm, this guy's season isn't going to turn around'? He is bad on offense, bad on defense (he seems worse at short than 3B), and is a constant letdown with runners in scoring position. At $6 million for this one year, I would say he ranks as one of the worst in franchise history. Off the top of my head, the only other horrible signing I remember would be Alfonzo. Thoughts? Discuss. 	0
   	 2011-05-15 04:41:47 	 Zito is slightly more bearable right now because he is on the DL (I guess that in itself says something), but when he is playing, it's every fifth game. I cringe every time I see Tejada, which is nearly every game, and starting for that matter! I forgot about Benitez, he was pretty bad.  	0
   	 2011-05-15 05:10:14 	 [](/wtf) 	0
   	 2011-05-15 17:00:53 	 Chuck Bartowski and Morgan Grimes (followed by Jeff and Lester) for Chuck fans 	0
 Craigslist Killings 	 2011-05-15 20:26:20 	  	0
 Before Wii controllers came along 	 2011-05-16 07:17:44 	  	0
   	 2011-05-16 23:43:21 	 I believe that's Sutro Park? I loved walking around here because I grew up across the street from Safeway down by the beach. If you ever get the chance, keep walking up and to the left, there will be a parking lot, which leads into the ruins of Sutro Baths as well as Land's End, giving you one of the most unique views of the GG Bridge. 	0
   	 2011-05-17 00:39:25 	 You probably don't remember, but I stopped by to your booth at 2009 Comic-con. You guys were a couple hours late and hungover as hell. What happened to you guys the night before?? Haha 	0
   	 2011-05-19 13:57:07 	 Wow, that just left me shellshocked 	0
   	 2011-05-20 14:01:35 	 That is not creepy at all 	0
   	 2011-05-20 14:31:21 	 And here I thought magikarp was the most useless pokemon 	0
   	 2011-05-20 17:34:48 	 What?? Blasphemy! Await further recalculations... 	0
   	 2011-05-20 20:52:32 	 There needs to be a rageface for being absolutely flabbergasted in a good way. Best use of the evil face I've seen in its short existence. I couldn't help but give it an upvote. 	0
   	 2011-05-20 22:09:12 	 And that kids is how I met your mother...just kidding [](/trolldad) 	0
   	 2011-05-20 22:12:45 	" [](/trolldad ""problem son?"") "	0
 Alert: Attempted kidnapping at UCSD! 	 2011-05-21 06:51:07 	" ""UCSD police are investigating an attempted kidnapping that occurred on 5/20 800pm just west of Geisel library. Suspect light skinned male dark curly hair 58 medium build wearing jeans. Fled on foot. Be on alert.""

Hide yo kids, hide yo wife, cuz they be rapin' errbody out there

In all seriousness though, stay safe out there UCSDers. "	0
   	 2011-05-22 03:46:38 	 That sounds pretty eggciting 	0
   	 2011-05-22 06:59:41 	 The rapture was the least of your worries 	0
   	 2011-05-25 06:02:24 	 Fleming's happy hour burger is huge with slices of bacon and onion rings for $6. Best burger for your dollar IMO.  	0
   	 2011-05-27 00:46:22 	 Your dad is great, ever thought about asking him to do a IAMA through your account? 	0
   	 2011-05-28 03:17:02 	 Point Loma Seafoods down at Point Loma is very similar to El Pescador in terms of what they offer, except it's a much larger fish market. Might want to check them out for possible oysters. 	0
   	 2011-05-28 05:34:09 	 DEception :( 	0
 Who remembers these drinks? 	 2011-05-28 05:43:41 	  	0
   	 2011-05-28 05:50:12 	" No, unfortunately they only lasted a year. I remembered these in middle school and how I begged my mom to buy them though. Here's the link:

http://www.time.com/time/specials/packages/article/0,28804,1913612_1913610_1913561,00.html "	0
 Me? I'm just a concerned citizen, helping to clean up our fair city! 	 2011-05-28 06:55:48 	  	0
 You know you secretly like this too 	 2011-05-29 04:07:30 	  	0
   	 2011-05-29 04:33:03 	 YES! upvote for you sir 	0
 The best way to kill fruitflies 	 2011-05-31 03:15:41 	  	0
   	 2011-05-31 17:17:25 	 He beat me in throwdown challenge 	0
   	 2011-05-31 19:27:00 	 Is it just me or does that kid look like an Asian cabbage patch doll? 	0
   	 2011-06-01 14:11:40 	 This kinda happened to me once. A girl was flying home for the weekend. I asked if she was going to go out, hit up the clubs. She was flying home for her dad's funeral *sinks down* 	0
   	 2011-06-01 14:37:58 	 What club was this and where did you get another shirt?? 	0
   	 2011-06-01 14:39:47 	 TIL eating cheese puffs is like playing Jenga 	0
   	 2011-06-01 16:40:15 	 happy birthday god 	0
   	 2011-06-01 18:06:44 	 Unleash the fury Mitch, UNLEASH THE FURY! 	0
   	 2011-06-01 22:36:04 	 True story of Ted Mosby - How I Met Your Mother Season 8 	0
   	 2011-06-02 00:54:14 	 Now, I will wait to see the [Fixed] version of this comic where Yao sets said wilderness on fire 	0
   	 2011-06-02 01:18:30 	 [](/wayevil) I LIED! 	0
 Who else thought this was the smartest guy you knew as a kid? 	 2011-06-02 14:56:58 	  	0
   	 2011-06-02 15:19:58 	 Engage! 	0
   	 2011-06-02 15:33:29 	 Fetch the gasoline tank 	0
   	 2011-06-02 15:39:10 	 TIL what DAE means, thanks haha 	0
   	 2011-06-02 17:16:15 	" ""Hey, Ma! The Meatloaf? ...FUCK!! What is she doing back there? I never know, I never know what she's doing... back there."" "	0
   	 2011-06-02 23:57:49 	 WTF, I seriously got really itchy and scratched my leg compulsively 	0
   	 2011-06-03 00:28:07 	 If there was ever a zombiepocalypse, I would want to be fortified inside a Costco. It has everything I will ever need. 	0
   	 2011-06-03 06:51:36 	 Ain't that some shit? 	0
   	 2011-06-04 03:37:55 	 You know you're old when...you use that old school cell phone lol 	0
   	 2011-06-04 03:50:26 	 I remember playing Final Fantasy VII on PS but I could never finish the game because my parents were too cheap to buy me a memory card so I would have to start over or leave the game running every single time. True story. 	0
   	 2011-06-04 05:33:30 	 I see what you did there 	0
   	 2011-06-04 06:14:05 	 New zombie fortress? 	0
   	 2011-06-04 20:23:47 	 I did this once with the glasses that I was wearing 	0
   	 2011-06-04 23:04:37 	 It's the only humane thing to do 	0
   	 2011-06-04 23:36:11 	 TIGER! 	0
   	 2011-06-04 23:41:12 	 [](/ohcrap) what have you done! 	0
   	 2011-06-04 23:53:03 	 Unless....you could deliver during the day TO derpmart [](/awyeah) 	0
   	 2011-06-05 00:39:19 	 [](/aintthatsomeshit) 	0
   	 2011-06-05 03:46:48 	 I have never lost at Risk 	0
   	 2011-06-05 03:47:54 	 [](/aintthatsomeshit) 	0
   	 2011-06-05 04:49:49 	 Yes I have played! I am the conquerer of continents goddamnit! 	0
   	 2011-06-05 07:06:58 	 Girls have to say that so as to shed the slut label 	0
 OCD balance rage 	 2011-06-06 03:16:59 	  	0
   	 2011-06-06 15:44:57 	 Game of Thrones!! 	0
   	 2011-06-06 16:54:38 	 Awesome, gonna go try that with a bottle of champagne now 	0
   	 2011-06-08 04:38:16 	 On a scale of Wayne Brady to Snoop Dogg, how black are you? 	0
   	 2011-06-08 15:20:48 	 Would make more sense if the 5th panel was [](/wayevil) 	0
   	 2011-06-08 21:02:42 	 Le wild Yao-charizard appears and uses flamethrower. It is super effective! 	0
   	 2011-06-13 06:07:22 	 Saran wrap surprisingly doesn't stick all that well to a car. I don't think it will take long to remove it all. 	0
   	 2011-06-13 17:27:16 	 Carefully position birdfeeder above bird bath, then proceed to knock it into the bath 	0
   	 2011-06-13 20:38:25 	 Thanks, sorry, was not aware of where it was from 	0
   	 2011-06-13 20:46:26 	 friend's facebook feed 	0
   	 2011-06-15 16:57:43 	 Penguins? 	0
   	 2011-06-16 03:05:55 	 Now do the scene where Lando betrays them and lies! 	0
 Look what I found spray-painted on the way to school today 	 2011-06-16 22:07:23 	  	0
   	 2011-06-18 06:51:31 	 A lot of material. Trying to drink water from a fire hydrant is a pretty good analogy. But, you can always find time to do the things you want to do. 	0
   	 2011-06-18 06:52:02 	 Not sure, thinking about emergency medicine or internal with a specialty later on. Keeping my options open. 	0
   	 2011-06-18 07:12:52 	 Yep, we had a cadaver. I don't think we named it. It was quite the experience though. It was very difficult to work with in the beginning, but you attenuate to the circumstances pretty quickly. 	0
 Google loves dads! 	 2011-06-20 05:20:08 	" Not that anyone should forget, but I saw this pop up in the corner of my gchat in gmail today. Oh google, so thoughtful.

Can't seem to link it directly into the title so here's the link:

http://sanfrancisco.ibtimes.com/articles/165549/20110619/fathers-day-google-doodle-gmail-voice-dad.htm "	0
 They make EpicMealTime look like they're eating baby food 	 2011-06-20 05:48:39 	" Not sure why URL doesn't work but here it is below:

http://insidescoopsf.sfgate.com/blog/2011/06/07/worlds-largest-hamburger-to-be-attempted-at-east-bay-festival/

The reason why any of us do anything in life. Because we can. Fuck yea. "	0
   	 2011-07-01 01:25:35 	 I guess I would usually cite Chris Hansen here, but that would be hypocritical. 	0
 World's Largest Burger 	 2011-07-05 23:44:42 	 http://insidescoopsf.sfgate.com/blog/2011/07/05/photos-worlds-largest-hamburger-at-alameda-county-fair/ 	0
   	 2011-07-20 20:38:33 	 Nailed it. 	0
 I stopped by the Asian store today and found a pair of Siamese bananas conjoined at the length! 	 2011-08-07 07:42:45 	  	0
   	 2011-08-07 07:46:20 	 shoot...it didn't even cross my mind to buy them and eat them, damnit!!! 	0
 I was walking to the bus stop when I came across this and missed my bus 	 2011-08-13 19:20:14 	  	0
   	 2011-08-13 19:22:07 	" I later googled Delorean boat and came across this:

http://www.kickstarter.com/projects/361244777/delorean-hovercraft

It's the first and only Delorean hovercraft I've ever seen (or at least just the frame) and it just so happens to be in my neighborhood! Can't wait to see the finished product. "	0
   	 2011-08-19 04:24:09 	 I was at Comic-con at the panel this summer. Is it true what they say about the ticks in the area when filming on location? 	0
 Everyday I'm hovering... 	 2011-08-22 19:08:37 	  	0
   	 2011-08-22 19:12:18 	 I was trying to avoid a possible hadouken 	0
 My gf painted this for me for our anniversary 	 2011-08-23 15:30:26 	  	0
   	 2011-08-23 15:31:49 	" This is the original painting by Leonid Afremov entitled 'Romantical Love'

http://www.internetphotos.net/wp-content/uploads/2008/04/romantical-love-painting-photo.jpg "	0
   	 2011-08-23 16:32:17 	 Only at comic-con, love it 	0
   	 2011-08-23 18:05:41 	 This was painted with acrylics, original was with oils 	0
   	 2011-08-23 22:12:43 	 Yes it is 	0
   	 2011-08-24 03:35:31 	 I am the biggest Giants fan :) GOT HEEM! 	0
   	 2011-08-24 03:36:28 	 1 year, contrary to popular belief that this was a 2 month gift haha. Thank you sir. 	0
 TIL Rogue from X-Men is afflicted with a rare autosomal dominant disorder of melanocyte development called piebaldism 	 2011-08-25 18:13:37 	  	0
   	 2011-08-25 18:13:59 	" Google images search of piebaldism for your viewing pleasure

http://images.google.com/search?tbm=isch hl=en source=hp biw=1280 bih=675 q=piebaldism gbv=2 oq=piebaldism aq=f aqi=g3 aql= gs_sm=e gs_upl=917l2303l0l2420l10l8l0l3l3l0l207l712l2.2.1l5l0 "	0
 Apparently people do not understand the obvious when a big storm threatens. 	 2011-08-27 15:52:59 	  	0
   	 2011-08-28 17:52:16 	 [](/aintthatsomeshit) 	0
   	 2011-08-28 20:28:09 	 I had to look at my hands after reading your comment... 	0
   	 2011-08-28 20:31:37 	 boom, headshot! 	0
   	 2011-08-29 06:19:41 	 Climb the potato chip rock (Mt. Woodson), which I did this summer before I left :) 	0
 If you could pin the Giants slide from relevance to one single person/event, what would it be? 	 2011-08-31 18:03:51 	  	0
   	 2011-09-02 04:05:07 	 Do you have your own baseball card? If so, do they pay you for that? 	0
   	 2011-09-02 04:59:05 	 Have you ever hit a batter who then charged the mound? If so, what were you thinking at the time and if not, how would you probably react? 	0
 California professor goes real life SOA and Breaking Bad 	 2011-09-02 16:54:11 	  	0
   	 2011-09-12 23:50:59 	 Brought to you by San Diego Blackout 2011 	0
   	 2011-09-15 17:13:36 	 Upboat for trollclock 	0
   	 2011-09-15 20:59:03 	 I see what you did there. 	0
   	 2011-09-18 05:44:28 	 I think he looks like Will Sasso 	0
   	 2011-09-20 17:44:46 	 Putting my hand under the cold underside of a pillow 	0
   	 2011-09-23 14:03:19 	 Mind = Blown 	0
   	 2011-09-26 07:33:27 	" I think this belongs on this thread:

http://www.reddit.com/r/AskReddit/comments/kqtlq/what_is_something_ridiculously_nice_we_can_do_for/

Fuck yea... "	0
   	 2011-09-27 16:59:15 	 Ability to exaggerate 	0
 Mini Timmy 	 2011-09-29 23:37:38 	  	0
   	 2011-09-30 07:31:02 	 might want to avoid ellipses when referencing murder for future friend making endeavors  	0
   	 2011-10-02 05:04:09 	 thanks for the cred :) 	0
   	 2011-10-05 05:11:56 	 [](/harpdarp) I saw this show once, Sons of Guns... 	0
   	 2011-10-06 04:01:48 	 He's not your boss, captain 	0
   	 2011-10-11 15:06:11 	 PanAm = nailed it 	0
   	 2011-10-19 16:46:53 	 What the hell just happened 	0
   	 2011-10-23 22:56:39 	 I read that in Sheldon Cooper's voice 	0
 Will Smith as Will Clark 	 2011-10-27 07:04:22 	  	0
   	 2011-10-27 08:07:08 	 I will overthrow your reign of terror in another universe! 	0
   	 2011-10-27 19:12:17 	 Your pupils turned into pixels 	0
   	 2011-10-27 20:34:28 	 Does that make IE a crackwhore? 	0
   	 2011-10-27 22:30:19 	" In other news:
http://www.washingtonpost.com/national/santa-fe-woman-accused-of-repeatedly-stabbing-boyfriend-while-playing-game-of-monopoly/2011/10/27/gIQAHIh5LM_story.html "	0
 TIL Tebowing is the new planking 	 2011-10-28 00:51:14 	  	0
   	 2011-10-28 05:57:45 	 Still champs! 7-7 tie! 	0
 How do Rangers fans feel right now? 	 2011-10-28 06:38:23 	  	0
 How do Rangers fans feel right now? 	 2011-10-28 06:47:35 	  	0
   	 2011-10-28 06:50:29 	 Actually as a Giants fan, I know their pain from game 6 in 2002, but then again, we won it last year so lol. 	0
   	 2011-10-31 05:20:14 	 http://i.imgur.com/zNxdK.gif 	0
 The problem with clubbing on Halloween 	 2011-11-01 17:47:22 	  	0
   	 2011-11-03 14:06:44 	 I like how people assume the best costumes are from Halloween, but if you look closer, they're all from Comic-Con 	0
   	 2011-11-03 16:23:34 	 That's quite a polarizing argument 	0
 Which one would you join? 	 2011-11-03 22:37:56 	  	0
   	 2011-11-03 22:44:31 	 would you be too fly for a wi fi? 	0
   	 2011-11-07 16:42:09 	 Rule #4, remember to buy a boat and live near a gulf stream to dump the body. 	0
   	 2011-11-09 23:03:06 	 omg...too soon? 	0
   	 2011-11-10 03:30:18 	 It's ok, LaRoche did the same thing to us. Then we became the world fucking champions so I like the trend where this is headed. 	0
 Forever a basophil 	 2011-11-16 03:48:35 	  	0
   	 2011-11-17 16:05:31 	 Isn't this Stephen Lang? 	0
   	 2011-12-02 05:55:49 	" I thought he was more like ""come at me bro!"" "	0
   	 2011-12-03 18:03:34 	 I saw the same thing happen, except it was an average guy running full speed on the treadmill. It was very early in the morning so the gym was relatively empty. He slipped, and the treadmill shot him straight back, his towel flying into his face. Dazed and confused, he looked around to see if anyone saw. I did, but he didn't realize so he tried to get back on, without realizing that the treadmill was still on full speed. He slipped again, fell on his knees and got shit backwards into the stationary bikes. Probably one of the funniest things I've seen at the gym.   	0
 I don't know why, but this is just the funniest shit ever... 	 2011-12-11 04:15:37 	  	0
   	 2011-12-13 05:11:15 	 What time was this taken at? 	0
 Taste the rainbow 	 2011-12-13 17:04:39 	  	0
   	 2012-01-08 03:06:08 	" Ah yes, one of my favorite .gifs
http://i.imgur.com/NKkt6.gif "	0
   	 2012-01-08 18:42:36 	 I'm going there in early March. Any tips on how to dress? Raincoat or umbrella? What kind of shoes do people normally wear? 	0
 How I feel about dinner after a long day's work 	 2012-01-13 01:23:22 	  	0
   	 2012-01-19 02:08:34 	 Let the trampling begin 	0
 Party Rock Anthem as performed by MS Paint 	 2012-01-20 06:29:53 	  	0
   	 2012-02-06 05:15:08 	 It's the only reason I kept watching 	0
 Do you dare do the Gauntlet Challenge? 	 2012-02-08 02:02:30 	  	0
 The nerdiest handshake in sports 	 2012-02-09 16:00:06 	  	0
   	 2012-02-10 18:08:33 	 http://i.imgur.com/fYZ1Y.gif 	0
   	 2012-02-12 02:07:08 	 That's just cold blooded....YEAAAAAAAAHHHHHHHHHHHHHHHH 	0
   	 2012-02-12 05:48:42 	 Maybe you're allergic to casein, which is another milk protein 	0
   	 2012-02-12 06:01:15 	 you could try casein powder. I supposedly absorbs more slowly than whey. 	0
   	 2012-02-12 06:03:38 	 PIVOT! 	0
   	 2012-02-12 06:05:00 	 I feel like it's gonna poke me in the eye 	0
   	 2012-02-12 23:25:00 	 did you get an A? 	0
   	 2012-02-13 15:42:32 	 [Sorry buddy](http://i.imgur.com/uT64i.jpg) 	0
 Meanwhile in...I don't even know where they are 	 2012-02-15 00:18:31 	  	0
   	 2012-02-16 07:26:04 	 My roommate used to make what he called a McGangbang. Putting the chicken patty from a McChicken between two McDouble beef patties all at the cost of $2 and some change.  	0
   	 2012-02-16 07:28:31 	 And that's why I want to create UFC for kids 	0
   	 2012-02-17 01:00:49 	 Forever a cone 	0
   	 2012-02-17 01:33:06 	 This exact thing happens at my med school 	0
   	 2012-02-17 01:34:38 	 TIL Mother nature designed the Firefox logo 	0
   	 2012-02-17 05:34:52 	 Oh JGL, you crack me up 	0
 Dat Ass 	 2012-02-17 06:05:06 	  	0
   	 2012-02-17 06:05:43 	 [One more for good measure](http://i.imgur.com/5KdzE.png) 	0
 Three day weekend! Fuck this shit. 	 2012-02-17 19:07:13 	  	0
   	 2012-02-18 03:36:54 	 Actually, in your defense, there is a such thing as two scrotal sacs. It happens when there is improper fusion of the labioscrotal swelling in embryology. Thought i'd throw that in there for you, although it's probably not very high yield :P 	0
   	 2012-02-18 05:32:19 	 Doesn't matter, had sex 	0
   	 2012-02-18 05:38:01 	 Am I the only person who looks for Kayser-Fleischer rings whenever I see these pictures? God I watch too much House. 	0
   	 2012-02-19 01:11:39 	" Made a post with the exact same title a day ago, didn't get any karma (Okay face)

http://www.reddit.com/r/pics/comments/ptgyx/dat_ass/ "	0
 Can you legally refuse a DUI checkpoint? 	 2012-02-19 06:53:35 	" [How is this legal?](http://www.youtube.com/watch?v=ILqc0DMh84k)

I didn't know you could refuse to answer. Does this differ by state? "	0
   	 2012-02-19 07:40:52 	 Lawyered 	0
 These Linsanity puns have gone too far 	 2012-02-19 23:27:20 	  	0
   	 2012-02-23 03:10:13 	 Forever a bone 	0
   	 2012-02-24 00:17:48 	 I could tell it was photoshopped because there's no way Lindsay Lohan looks like that 	0
   	 2012-02-24 00:19:56 	 I realized they were shopped halfway when I saw how off (sober) Lohan was 	0
   	 2012-02-24 00:22:25 	 Wouldn't the ultimate troll be introducing the next generation to Star Wars by starting off with Episode I? 	0
   	 2012-02-24 23:36:25 	 [Who else thought this was the fanciest of the fancy as a kid?](http://i.imgur.com/1Tzrq.jpg) 	0
   	 2012-02-25 00:01:54 	 Whoa, I've never seen/tried that, but that looks fancy 	0
   	 2012-02-25 00:18:31 	 Excellent, I'm in Vermont so maybe I can pick some up the next time I'm in Montreal, thanks! 	0
   	 2012-02-26 01:51:25 	 Kim Kardashian's form is actually called herpes simplex 2 	0
 Edinburgh Castle seen from Arthur's Seat 	 2012-03-16 14:50:32 	  	0
 Lincecum noogies Kershaw FTW 	 2012-03-18 14:10:02 	  	0
 Look what I found today 	 2012-03-25 04:46:01 	  	0
   	 2012-03-27 13:06:52 	 Not if Marty McFly has anything to say! (insert theme music) 	0
 Hedgehog wearing a little hat and scarf 	 2012-04-05 01:00:55 	  	0
   	 2012-04-12 04:17:23 	 stranger danger! 	0
 Fine, I'll take my shitbox elsewhere 	 2012-05-13 22:50:30 	  	0
 Well, that was quick! 	 2012-05-13 22:51:02 	  	0
   	 2012-05-14 01:54:57 	 That burger stole that quote from Jesus 	0
   	 2012-05-14 04:07:21 	 thanks! 	0
   	 2012-05-19 02:31:18 	 Have you ever thought how similar cameras are to guns? Have you ever considered doing a YouTube short on using cameras as the guns? The way  it straps around your body and the different lenses as different length barrels and compacts as pistols. Using mirrors as shields. Probably not the most original idea, but would love what you guys could do with your creativity! 	0
   	 2012-05-25 23:16:11 	 Put his face through the stargate :) 	0
   	 2012-06-05 13:49:13 	 Am I the only one who kept thinking you wouldn't exist if there was a Back to the Future moment here? 	0
 TIL that Sibel Kekilli (aka Shae in Game of Thrones) was a pornstar in Germany 	 2012-06-07 15:55:23 	  	0
   	 2012-06-07 21:56:50 	 Apologies, I just happened to come across the wiki article today 	0
 To say the least, the salesman was not happy after this test drive 	 2012-06-09 02:26:30 	  	0
   	 2012-06-09 02:29:55 	 lawyered! 	0
   	 2012-06-09 02:38:11 	 Sometimes, the pane is unbearable 	0
 SDCC to start scanning badges and checking ID? 	 2012-06-12 23:33:28 	  	0
   	 2012-06-12 23:33:42 	 What do you guys think of the validity of this claim? 	0
   	 2012-07-11 21:52:09 	 The problem is, you won't be able to get into the ballroom 20 line once it moves indoors without a badge so.... 	0
   	 2012-07-23 23:30:50 	 I don't think they give away the unsigned ones that I know of 	0
   	 2012-09-09 04:01:13 	 haha yes, fixed sorry 	0
 This happened to a friend who just posted this on Facebook. Does reddit have any explanations?? 	 2012-09-13 13:20:08 	 http://i.imgur.com/ASX5s.jpg 	0
   	 2012-09-13 13:25:45 	 Brilliant! So much for the diving insect theory. 	0
   	 2012-09-19 18:53:39 	 I'm still not sure why his body doesn't show up in the pictures. Is that light the sole light source for every picture? It looks unlikely especially in the one with the waves in the background. 	0
   	 2012-09-19 20:25:33 	 This makes a lot more sense. So, this means while he's swinging the light, his whole body has to be in constant motion? In a sense, he's swinging and dancing? Just trying to get a sense of how this looks lol. Thanks for the thorough explanation! 	0
 If Bill Nye had his way, there would be a lot less crazy in our country 	 2012-09-24 15:45:52 	  	0
 The Chinese are really, really good at creating knockoffs 	 2012-09-25 13:25:22 	  	0
   	 2012-09-27 03:28:14 	 was it ok? 	0
   	 2012-10-23 01:08:58 	 yeah! science bitch! 	0
   	 2012-11-22 18:10:48 	 Are they laced with crack just like from the ones from Red Lobster? 	0
 I also made a $20 bet in Vegas this past summer...faith! 	 2012-11-30 22:21:12 	  	0
   	 2012-12-15 01:39:21 	 That's not creepy at all. 	0
 Breaking Bad shirt, so awesome! 	 2012-12-15 20:36:58 	  	0
   	 2013-02-16 16:09:16 	 I was going to say really weird version of Jim Parsons 	0
 Who would want this?? 	 2013-02-18 03:38:09 	  	0
   	 2013-02-23 20:18:09 	 As a medical student and crossfitter, I have had the same issue while doing cleans so I completely understand your frustration and pain. I know I can probably pull more, but the pain limits the weight I carry as it hurts more with increased weight. I realized cleaning uses a lot of muscle groups including abduction and flexion of the shoulders. This creates a lot of strain on the supraspinatus muscles, which you can test with your arms pointed out at a 45 degree angle from the horizontal, thumbs pointed down, and ask someone to push your hands down while you push up against their hands. If that recreates the pain, you most likely have supraspinatus strain and/or some type of labrum tear. MRI or not, the first line of treatment is ibuprofen and rest and then physical therapy exercises to strengthen the accessory muscles. Surgery is last resort to reattach the torn labrum. For me, I get pain deep in the shoulder as well as some biceps tendon tenderness. I try to limit the weight and not go over 80% of my 1RM. I also noticed the faster you get your elbows under, the less weight strain on your shoulders so a lot is perfecting technique. Let me know if this helps! 	0
   	 2013-03-02 15:23:56 	 Alice in Wonderland Syndrome 	0
   	 2013-03-02 23:11:05 	 Nope, actually it was in an adolescent girl. Pretty rare syndrome that usually affects children, but they usually grow out of it. 	0
   	 2013-03-03 04:01:26 	" It's a neurological condition that affects sensory perception. Patients see things that are smaller or larger than they actually are, but realize that this can't be real. There are also temporal effects such a time slowing down. It usually occurs before they fall asleep or after they wake up. 

http://en.wikipedia.org/wiki/Alice_in_wonderland_syndrome "	0
   	 2013-03-09 18:37:42 	 Lemon zester 	0
   	 2013-03-14 22:59:22 	 Only a Sith deals in absolutes... 	0
 My friend's ridiculously photogenic dog 	 2013-04-08 04:38:17 	  	0
   	 2013-07-04 21:14:49 	" This makes for an awesome poster. I used this to get a free print today:

http://slickdeals.net/permadeal/98280/walgreens-8x10-collage-print-for "	0
   	 2013-07-06 22:28:07 	 Let us know when this gets on kickstarter. I'd definitely be interested in this. Hario is coming out with their own drip machine later this year. 	0
   	 2013-07-07 01:31:20 	 This isn't sold in the states is it? How'd you buy it? Also how would yours be different from this one? 	0
   	 2013-07-07 01:49:36 	 awesome, totally looking forward to kickstarting this! 	0
   	 2013-07-08 03:31:17 	 Where do you get those coffee bags? I've asked roasters before and they don't sell them. 	0
   	 2013-07-08 04:29:51 	 They don't have them where I live. How much did they cost? I love the designs. Would they be able to ship them??  	0
   	 2013-07-08 19:32:18 	 This is seriously one of the more cooler activities I've seen at con. Will be definitely keeping a look out! 	0
 Has anyone ever won anything by collecting the game pieces on McDonald's Monopoly? 	 2013-07-16 23:54:17 	 I'm starting to suspect that this is a ploy just to buy their food... 	0
   	 2013-07-22 21:18:45 	 Really great photos. Are these post-edited? If so, how much editing did you do? Lightroom? 	0
   	 2013-08-19 20:44:47 	 have you ever considered a choose your own adventure book instead with alternate endings? 	0
   	 2013-10-03 18:49:52 	 nutella 	0
 Ecuador/Galpagos/Peru in April 	 2013-12-23 21:14:39 	 Looking for some tips, particularly the Galapagos. There are so many cruise companies and many itineraries to choose from. Looking for something that's inexpensive (I know, difficult) to moderate, definitely not luxurious. Specifically, looking to be there April 15-20. Also anything to do in the Guayaquil and Cusco areas. Also one day in Lima. Thanks! 	0
   	 2013-12-25 23:51:03 	 the one LEGO to rule them all! 	0
   	 2014-01-07 06:46:48 	 sean connery?? 	0
   	 2014-04-01 09:13:50 	 I honestly hope after reading all the responses to this thread that future sitcoms learn the lesson about love stories like this. Hint hint New Girl... 	0
 Coffee in Las Vegas 	 2014-06-10 22:01:41 	" I'm moving to Las Vegas next week and I'm afraid there won't be any good coffee shops/roasters there. I've previously lived in very coffee-friendly cities, SF and LA, so I might be a little bit spoiled. 

http://sprudge.com/jackpot-big-cash-payout-for-finca-las-vegas.html

This article is over 2 years old and I'm pretty sure there hasn't been any progress. Anyone have any suggestions or am I shit out of luck for the next 3 years?? "	0
 Looking for a good espresso machine without breaking the bank 	 2014-11-16 18:22:34 	 I'm looking for a decent espresso machine, but not one that's too cheap like those you can find in Walmart. Any suggestions? What do you guys think about the Waring Vero Barista? It looks nice. 	0
   	 2014-11-16 18:32:52 	 While I'm asking, how do people feel about the ROK manual espresso maker? 	0
   	 2015-01-17 03:40:19 	 Bar 9 collective in Culver City is one of the best kept secret coffee shops I've ever had in LA 	0
   	 2015-01-30 08:22:59 	 Would also love 1st half picks as well! 	0
   	 2015-01-30 17:53:19 	 TOR -7 at Brooklyn 	0
   	 2015-02-02 16:51:30 	 Is this where tree sap comes from? 	0
   	 2015-02-05 07:57:10 	 Aaron Rodgers + Hugh Laurie = you  	0
   	 2015-05-28 02:06:25 	 How would you hedge this if you had warriors 5:1 during the season, 200 to win 1200 and cavs at 17/10? 	0
   	 2015-05-28 05:44:49 	 If you were in this position, what kind of small bet would you put on cavs? Or should I assume if warriors have such a big home court adv., wait to see if cavs lose game one and then take a cavs hedge? 	0
   	 2015-05-28 23:52:14 	 Thanks for the input man! Leaning towards letting it ride. Go Dubs! 	0
   	 2015-07-09 03:35:00 	 In exchange for giving up badge. Wow this was such a trap. 	0
 I counter your Belgian ice cream sandwich with my Mexican churro ice cream sandwich 	 2015-07-22 04:04:35 	  	0
   	 2015-07-22 04:13:13 	 Sure you can. Eat it :) 	0
   	 2015-07-22 04:23:22 	 I counter your diabeetus with insulin. Boom. 	0
   	 2015-07-22 04:28:45 	" This is from Churro Borough, a ice cream/churro shop in Los Feliz in LA. They are the self-proclaimed place of the ""original churro ice cream sandwich.""  "	0
   	 2015-07-22 08:45:24 	 They actually already make a horchata flavored ice cream here to go with the sandwich. Mine was a spanish latte flavor. They also make a spicy hot chocolate. 	0
   	 2015-07-22 09:05:19 	 This one is from LA in Los Feliz neighborhood called Churro Borough 	0
