title	date	text	class
   	 2014-02-10 23:19:22 	" I met him as well. I was really young, 5 or 6 maybe and he was shooting a movie near where I lived so my dad brought me over there and told me  ""That's the Genii from Aladdin!!"". I, being a 5 year old, immediately ran over to meet him. As I was running over, a van with some sort of film equipment was coming by and was going to hit me. Robin yelled at the same time as my dad for me to stop. Robin Williams saved my life, then afterward, we had a little conversation about watching for cars. Meanwhile, my stupid older brother sat in the car and listened to music. "	1
 Why is it while being accelerated bodies gain mass? Also, why is it that it would take infinite energy to raise a body to the speed of light even though the speed of light is an exact number? 	 2014-02-13 01:08:46 	  	1
   	 2014-02-13 18:02:09 	 Thanks, that was really clear and easily understood. The video also helped a lot. 	1
   	 2014-02-13 18:06:16 	 Thanks for all the help guys!! 	1
 Reddit, what is something that is crazy enough that it might just work? 	 2014-02-25 21:49:02 	  	1
   	 2014-03-03 22:45:02 	" ""We are only what we choose to reveal.""- Frank Underwood "	1
 To my Social Studies teacher. 	 2014-03-19 03:52:16 	  	1
   	 2014-03-26 01:27:03 	 This pretty much sums up my entire life. At least I have reddit, where I know everyone hates everyone! 	1
 I'm not sure how I feel about seeing this in my Psychology teacher's classroom. 	 2014-05-10 03:53:14 	  	1
 Is it possible for an hallucination to kill you? 	 2014-08-09 05:23:12 	  	1
   	 2014-09-16 00:04:53 	" I don't mean to be mean

but I'll make you my queen

if you suck on my peen

I keep it very clean

and it's really quite lean

I'm sorry it's green

I got a bad gene

but to counter the green, it has a nice sheen

I'll be honest, I'll become quite keen

if only you only

just suck on my peen
 "	1
 Are we in a universe with separate sections of different waves? 	 2014-10-22 15:09:12 	 If over time waves lose energy and speed, does that mean that there are separate sections for waves of separate wavelengths? I'm thinking this because if if an X-ray were to lose energy over time and become a radio wave,  wouldn't it be moving at the same rate as all other radio waves created near the same time? Then over time, wouldn't there be a huge difference in the number of radio waves and all other wavelengths? 	1
 Has Ubisoft made an announcement about the frame rate and/or other issues? 	 2014-11-12 01:49:20 	 With all the buzz about the issues with Unity, the frame rate issues in particular, I'd expect Ubi to say something about it. Have they said anything about upcoming patches or anything? 	1
   	 2014-11-26 19:05:53 	 This is too accurate.. 	1
 I met them all.... 	 2014-12-03 02:46:56 	  	1
   	 2014-12-22 01:15:22 	 I actually respect Frank a great deal. He does what the fuck he wants and gets what he wants despite all obstacles. This doesn't change the fact that he's an awful human being though. I think that one thing the show does really well is showing that despite him being an awful person we all want to be like Frank, at least a little bit. Everyone wants to be strong willed, intelligent, cunning, clever and ambitious. But everyone also wants to be a good person, unlike Frank. Frank doesn't give a fuck. 	1
   	 2014-12-23 00:18:47 	 I think that this happened to show that despite the attributes I described he's still a human, and humans fuck up.  	1
   	 2015-01-04 03:35:32 	 Kyle or Chad. I've never met anyone named Kyle or Chad who wasn't a douchebag 	1
 A group which contains a physicist, a priest, a doctor, psychologist and an atheist are permitted to ask God 3 questions. What do they ask? 	 2015-02-15 04:14:22 	 No follow-ups, and each of them is thinking only in terms of their designated title within the group (ie, the physicist is only thinking in terms of physics). 	1
 Looking for some basic advice on starting a business. 	 2015-02-15 22:33:26 	 Brand new to this sub, so I have super limited knowledge. I'm an 18 year-old who is considering starting a dance club in my local urban area which allows 18+ patrons. I'm going to take a class on entrepreneurship next semester, but I was curious if you guys had any advice on how to get this all started. I was thinking market research to see if it was even worth pursuing? 	1
   	 2015-02-15 23:22:49 	 Yeah, it would serve drinks. I thought about getting a job at a club, but I life in a rural area so there aren't any around, which is one reason why I had the idea.  	1
   	 2015-02-16 04:02:15 	 Any particular reason you feel this way? 	1
   	 2015-02-16 17:35:31 	 A dance club like with a bar, dance floor and obnoxious, loud music 	1
 Can anyone identify the shoes Belson wears in S2E5? 	 2015-05-25 22:45:55 	 The shoes I'm referring to are the ones he wears during the talk when he announces that they will be streaming the UFC fight. 	1
   	 2015-06-10 04:51:07 	 Is it bad that I'm pretending that this is the girl who broke up with me like a month ago? Probably. 	1
   	 2015-06-10 06:10:06 	 Should probably use a throwaway, but who gives a shit? A similar thing happened to me about a month ago, and a few months ago, but with a twist. This beautiful, amazing girl and I went on a few dates. Then she disappeared. I messaged her saying I understood if she didn't want to see me and that I would respect it, but she told me that she had depression and was into in pretty bad and she disappears when this happens to her. Then a couple months later we got together and dated for about a month and a half..then she disappeared. Long story short is that I think I scared her away by trying to see her to comfort her, and because she was my gf and I wanted to see her. Sorry this became a long story but it's making shit worse for me and I ended up venting it here. But to relate it to you, when things got better for this girl I dated she came back to me. Your friend will probably do the same. 	1
   	 2015-06-10 19:45:30 	 Reflexive property, everything is equal to itself.  	1
   	 2015-06-10 19:51:21 	 Well in a sense they are, aren't they? They're contributing to the larger collection of media which does shape and define us as a nation (I assume you're talking about American filmmakers). I mean I hate these pretentious douchebags as much as anyone, but they are contributing. I may not be in a significant way but they are 	1
   	 2015-06-10 22:17:45 	" Looks like I'm fucked then.
 "	1
   	 2015-06-11 07:19:13 	 Everything. 	1
   	 2015-06-16 21:58:22 	 I deal with this practically everyday. Everyday it's a struggle. Honestly, what I do is just tell myself that I need to. I might have nothing to to do that day, but to be a real member of society I need to get the fuck out of bed.  	1
   	 2015-06-19 06:41:07 	 My job isn't necessarily cognitively demanding, but it's more demanding than me sitting my room feeling depressed. So I use it exactly as you described the potential use for tasks. I even go to work like an hour early because when I'm at work I don't have the time to feel depressed, and it's a good distraction from my depression. Granted, the idea breaks down when we have slow night. I work in a restaurant. 	1
   	 2015-06-24 06:14:02 	" I'm terribly sorry to see this. No one deserves this pain. I'm experiencing something fairly similar unfortunately. I was with this amazing girl, we were fantastic. I knew she had depression and other issues, but I wasn't ready for her to get depressed then break up with me because she didn't feel able to be with someone. I've unfollowed her on Facebook but every once in a while I can't stop myself from looking and every time I look I experience heart shattering pain. She doesn't advertise relationships on Facebook, or her feelings all that much for that matter but when I look I'm just crushed that she isn't experiencing things with me. But this happened before and she may come back to me like she did before, but until that happens I'm afraid I'll feel this way. This extreme feeling of love and missing her. To make it worse, this all began when my depression and anxiety starting to really ""bud"" if you will.  "	1
   	 2015-06-26 05:17:39 	 I don't really give a shit who I tell. I mean I don't just go around telling everyone, I have to know them enough to be generally comfortable. But if I'm feeling depressed and someone asks me what's wrong I'll tell them that I have depression and want to just be alone. 	1
