title	date	text	class
   	 2015-12-15 01:05:21 	 I think it depends on how it's done. Like anything else, it can be done well or it could be done not so well... 	0
   	 2015-12-15 01:17:37 	" Samuel Hamilton from Steinbeck's ""East of Eden."" "	0
   	 2015-12-16 03:53:59 	 Don't open that door bro. Sounds like the ceiling access you mentioned in the first post is your only option. Good luck!  	0
   	 2015-12-16 23:48:40 	 Oh man, this was great! 	0
   	 2015-12-19 18:13:03 	" Peoples history of the United States by Zinn
And manufacturing consent by chomsky  "	0
   	 2015-12-20 17:47:49 	 Compost bro 	0
   	 2015-12-28 14:40:09 	 Love this podcast! Nice hearing from laird again. Wish the audio quality was better... 	0
" Would love to see modern trailers that talk about making the movie like this old one. ""Grapes of Wrath"" 1940 "	 2015-12-29 04:02:43 	  	0
 Has anyone read laird Barron's x's for eyes yet? How was it? 	 2015-12-29 20:10:34 	 Didn't realize this had came out and was wondering what everyone thought of it. 	0
   	 2016-01-03 02:47:22 	 Interesting. Have you finished it yet? I've actually never read any hardy boys, but I guess it's like teen adventure stories?  	0
   	 2016-01-03 06:00:58 	 Well, I'm convinced. Going to order it up! Thanks! 	0
   	 2016-01-03 06:31:42 	" As a dark fiction writer I have to say that the shocking, disturbing, and depressing can be good writing too. Its not all just new writers trying to be edgy, obviously. Just write what's true to yourself and your characters. 

Don't worry OP, life is fucked up, our writing will reflect that sometimes.  "	0
   	 2016-01-04 03:26:02 	 No, I don't have a kindle, been thinking about getting one lately though.  	0
   	 2016-01-23 16:50:23 	 Tortilla Flats is awesome too! Similar to Cannery Row. 	0
 The Red Tower - Thomas Ligotti 	 2016-03-29 20:57:15 	  	0
 Frontier Death Song - Laird Barron 	 2016-03-29 21:06:42 	  	0
 The Hounds of Tindalos - Frank Belknap Long 	 2016-03-29 21:17:07 	  	0
 The Willows - Algernon Blackwood 	 2016-03-29 21:20:10 	  	0
 The Damned Thing - Ambrose Bierce 	 2016-03-29 21:23:15 	  	0
 The King in Yellow - Robert W. Chambers 	 2016-03-29 21:31:09 	  	0
 The Colour Out of Space - H.P. Lovecraft 	 2016-03-29 21:34:41 	  	0
 Hey guys, I made a subreddit to start compiling links to full text cosmic horror stories, feel free to add more! 	 2016-04-02 21:50:40 	" /r/cosmichorrorfiction

I only have a handful up right now but will add more soon. 

If this type of post isn't allowed I'm sorry, feel free to delete!  "	0
 Shiva, Open Your Eye - Laird Barron 	 2016-04-03 00:30:06 	  	0
 Nethescurial - Thomas Ligotti 	 2016-04-03 01:57:57 	  	0
   	 2016-04-25 05:10:18 	 Pretty early on in the book there is a description where harker sees Dracula is crawling up the side of the castle wall from a window.. That part always gave me chills!  	0
   	 2016-04-25 05:38:07 	 Good job man! Keep it up! 	0
   	 2016-05-01 06:51:41 	 This shit is the tits, love it. 	0
   	 2016-05-01 07:19:54 	 That first song was fucking amazing. 	0
   	 2016-05-05 16:48:40 	" ""The Red Tower"" by Thomas Ligotti 

http://weirdfictionreview.com/2011/12/the-red-tower-by-thomas-ligotti/ "	0
   	 2016-05-15 01:52:40 	" Hey man, I love that music! Please, do you listen to other similar things to ""tomppabeats""??? I only wish the songs weren't so short.  "	0
   	 2016-05-19 21:47:14 	 http://weirdfictionreview.com/2012/09/moving-past-lovecraft/ 	0
   	 2016-06-03 01:48:26 	 Anyone have a list of the stories included? Didn't see one on the B+N website.  	0
   	 2016-06-03 23:47:19 	 Yes, what was the song? 	0
   	 2016-06-13 19:28:26 	 I still find myself checking to make sure there is only one moon sometimes. 	0
   	 2016-06-15 13:52:34 	 Wong Kar-wai's In the Mood for Love.  	0
   	 2016-06-26 15:24:06 	 Let me know when they get whiskey, I'm tired of bringing my own.  	0
 New Murakami book about music due out in November 	 2016-07-17 04:16:59 	  	0
   	 2016-07-17 06:31:18 	" Noticed your user name, have you heard this band? Here is a cool murakami inspired song..

http://youtu.be/9hE4yCe12W4 "	0
   	 2016-07-18 19:25:25 	 Pretty sure he didn't wear a condom when he fucked that demon girl either..  	0
   	 2016-07-22 00:02:00 	 Really? Even 20% of Americans seems insanely high.. That's crazy.  	0
   	 2016-07-22 16:57:51 	 Years ago I went to a place that gave the women a menu without prices and the guys got one with prices. Wonder if places still do that.. 	0
   	 2016-07-22 17:02:00 	 I know right? This was about 15 years ago.  	0
   	 2016-08-09 18:46:17 	" http://hplovecraft.com/writings/fiction/chrono.aspx

He wrote mostly short stories. Here is every story he wrote for free. Read a story and then listen to the corresponding podcast. They pretty much do an episode for every story. The guys are really funny too! "	0
   	 2016-08-14 17:31:01 	 Is half of the store overpriced toys like B N? I really can't see how the Amazon bookstore could be worse than a B N... Looks pretty cool in the pictures. I swear every time I go into my B N they have removed another section of books to fit in some stupid bullshit that isn't books.  	0
   	 2016-08-19 00:25:47 	" Here it is!

https://drive.google.com/file/d/0B5Mew0gEo47xMmFGc0owQXhfVWM/view?pref=2 pli=1

 "	0
   	 2016-08-19 00:31:22 	 I'm thinking of writing a story about folk punk kids riding a haunted freight train, I'll try to remember to post it here if I ever finish it!  	0
   	 2016-08-19 00:33:32 	 My teeth falling out or crumbling or becoming rotten..  	0
   	 2016-08-21 07:00:40 	 Same here! I looked it it up a while back and it's a fairly common thing to dream apparently. But it really freaks me out. Thank goodness it's been a few years since I've had any of those super vivid teeth crumbling dreams but it used to happen all the time.. Not sure why they stopped..  	0
   	 2016-08-22 23:20:47 	" Try some Algernon Blackwood. His stories are creepy and many of them are set in nature. Try ""the willows""

http://www.yankeeclassic.com/miskatonic/library/stacks/literature/blackwood/stories/willows.htm "	0
   	 2016-08-22 23:27:54 	" http://www.yankeeclassic.com/miskatonic/library/stacks/literature/blackwood/stories/willows.htm

Here it is..  "	0
" ""The Many"" long listed for Man Booker looks pretty weird! "	 2016-08-27 00:48:21 	  	0
 Self publishing a multiple author anthology question. 	 2016-08-28 01:05:34 	 So I want to self publish a multiple author short story anthology in the horror genre. Does anyone have any experience with this? I know where to post a call for submissions and all that, but then what? I plan to pay authors a flat amount upon acceptance maybe with Amazon gift cards. I feel that would probably be the easiest.. Also, I plan to use Amazon and create space to publish. I'm an absolute beginner with this so any suggestions would be great. Can I just make up a name like so and so press or whatever? 	0
   	 2016-08-28 17:03:26 	 I think you probably have a point with the Amazon thing. It shouldn't be too hard to figure out how to pay authors with PayPal.  	0
   	 2016-08-28 19:39:06 	 Thanks! Another random question. Would putting one of my own stories into the anthology be in bad taste? Or is this something that is common?  	0
   	 2016-08-30 23:26:44 	 So I ordered this book, the plot sounds really interesting. Will report back after I'm finished reading if it's any good or not..  	0
   	 2016-09-22 20:45:44 	 I've only read a few of his short stories so far. The mark of the beast and the phantom rickshaw. I really enjoyed both stories. He is definitely a great storyteller. As for the racism thing another user brought up, if you want to read anything written in the 19th century by a white guy, guess what, it's probably going to be a bit racist.  	0
   	 2016-10-04 01:53:38 	 Dat Islay peat!  	0
   	 2016-10-05 00:26:08 	 Very cool! 	0
   	 2016-10-07 03:27:35 	 Thanks! Broward county checking in, some nice gusts and rain but nothing too serious near me.. 	0
   	 2016-10-08 07:01:59 	 Man he really took all the fun away from the kid for his stupid video, dick move for sure. The kid even says no I want read it! This legit made me mad, maybe I'm just drunk.. Whatever.  	0
   	 2016-10-08 08:29:17 	 Disgusting book written by an actual rapist and pedophile. And this is coming from somebody who loves horror and dark fiction. Fuck this guy.  	0
   	 2016-10-12 00:15:29 	 I know right? If an author can put a poop eating scene in a book and still be considered for the prize he must be pretty good! I recently got crying lot to test out the waters before diving into gravitys rainbow..  	0
 Books that deal with the absurdity of life and society 	 2016-10-12 04:57:38 	 [removed] 	0
 Books that deal with the absurdity of life and society 	 2016-10-12 05:33:34 	" So, basically, I'm looking to discuss and find more books that have this common theme. I've been reading Kafka (The Trial and The Castle) lately and just love him and his commentary on absurd bureaucracies and just life in general. I think I'm going to go for Catch 22 by Jospeh Heller next. Also I really liked a book called Satin Island by Tom McCarthy about a ridiculous corporate anthropologist. Camus's The Stranger also fits in here I think too. Also maybe some classic postmodern stuff like the Crying of Lot 49 by Pynchon and White Noise by DeLillo. I want more though! What are some good reads that make you feel the darkly funny absurdity of modern life? Doesn't even have to be humorous, just some good old existential dread is fine sometimes too!

Edit: Also really into all the funny and awkward social interactions between characters in Kafkas short stories!  "	0
   	 2016-10-13 18:29:31 	" If they wanted to give an award for music they should make a music category in my opinion. I guess it comes down to whether or not song lyrics are considered literature, which I think is a stretch. I mean I guess you can say song lyrics are poetry so it's ok, but really.. Just give literature awards to people who write books and poetry, and give music awards to people who make music. 

Also, I like Bob Dylan and all but don't know that I really agree that he reinvented music as some people were saying in the other thread. Folk music has been around for ever and was plenty popular before Dylan came around, he just decided to go electric and turn it into pop rock music, not that that's a bad thing. But still..  "	0
   	 2016-10-20 23:53:59 	" ""Scott Rudin and Eli Bush, who are producing Annihilation, will also produce Borne, which is expected to publish in May 2017. It's about a young woman named Rachel who lives in a near-future city littered with the remnants of a former biotech firm known as the Company. While Rachel is out scavenging, she brings back a green lump called Borne, which begins to ""grow and change in unexpected ways.""""

The new book sounds pretty cool! "	0
 That time when Sartre refused the Nobel Prize 	 2016-10-22 19:45:23 	  	0
   	 2016-10-25 02:01:07 	 I'm a human and I want more stories.  	0
   	 2016-10-25 22:35:25 	 That cover looks awesome!  	0
   	 2016-10-26 00:59:43 	" ""Visitors to a bookshop in Cairo are being invited into a dark, soundproof room to scream at the top of their lungs in an effort to relieve their frustrations and escape from the stresses of daily life.

""I entered it at a time when I was really stressed and came out much more relaxed,"" said frequent visitor, Mohamed el-Debbaby.
""What's even better is that I was able to find solutions to the problem I was facing, those realizations came as I was screaming.""

Hah, that's awesome.. I wouldn't mind one in my Barnes and Noble so I could scream each time they remove bookshelves to add more toys and other useless shit. 
 "	0
   	 2016-10-26 01:10:59 	 Seems a little tough OP.. Might as well give him Proust's In Search of Lost Time, lol. The classic science fiction novels mentioned by goodfellowgal- sound like good options.  	0
   	 2016-10-26 01:18:43 	" They even put signs on the little circular step stools saying not to sit on them. Let me tell you a secret, I still sit on them. 

They want the only seating to be in the cafe so you feel compelled to buy refreshments.  "	0
   	 2016-10-26 01:45:32 	 I bought The Many but haven't read it yet, it was good? 	0
   	 2016-10-26 02:55:42 	 Cool! It looked weird, that's what I'm into! 	0
   	 2016-10-29 00:12:50 	 Goldeneye, remote mines, I think the map was call silo maybe? The one with the control center with the stairs that led to a snowy area outside. I would kill God so bad.  	0
   	 2016-10-29 00:18:35 	 Looks like I can finally start sleeping at night again and return to work. It's been rough.  	0
   	 2016-10-29 00:47:58 	 I would have bought it based on the beautiful cover alone lol. Can't wait.  	0
   	 2016-10-29 03:45:24 	 Cool! The second one I really liked, even though a totally different vibe than the first. Creepy mysterious bumbling bureaucracy.. Almost like modern day Kafka.  	0
   	 2016-10-30 23:37:20 	 I just got the complete short stories of Ambrose Beirce, I highly recommend it! Also any of Borges's short stories are awesome.  	0
   	 2016-11-02 03:30:54 	 I really can't think of a better example of someone selling out, lol. I can't help but still love reinventing axl rose though...  	0
   	 2016-11-02 13:32:30 	 You've loved their music for ages but don't know the name of their best album?  	0
   	 2016-11-03 00:40:29 	 Little libraries of extremely offensive pieces of work.  	0
   	 2016-11-05 00:58:59 	 Make sure you have a lot of time on your hands. Being sent to prison would help.  	0
   	 2016-11-10 17:41:26 	 Find out anything? I'll call them when I get out of work. 	0
   	 2016-11-12 15:25:03 	 Don't forget an extension cord. Unless your coffee table has a power outlet.  	0
 Does Ulysses get any easier after episode 3 (Proteus)? 	 2016-11-12 22:38:00 	 [removed] 	0
   	 2016-11-13 06:54:07 	 This thread has nothing to do with a book recommendation request.  	0
 Anyone have the Vandermeer's Big Book of Science Fiction? What's your favorite story in it? 	 2016-11-14 21:38:15 	 This book is huge! If you have it, what's are some of your favorites from it? 	0
   	 2016-11-15 01:22:57 	 For sure, over a thousand pages, 105 stories, picked by the Vandermeers, 15 bucks on Amazon right now.  	0
   	 2016-11-15 04:13:38 	 Yeah. I think so at least. They've edited some great anthologies and pick really unique stories. They are most well known in the weird fiction community. Jeff's book annihilation was really awesome if you are in the mood for a weird kind of biological roadside picnic-esque scifi/horror novel.  	0
 Stopped smoking eight days ago. Found a single cigarette in my car during lunch break. Didn't smoke it. 	 2016-11-15 21:11:44 	 I held this cigarette in my hand and stared at it for a good five minutes as if it would start taking to me or something. I wanted to smoke it so bad. Then I destroyed it. I'm proud I didn't smoke it and know I would have felt guilty after but man it would have been nice to have one last one. But I guess it's never really the last one if you give in.  	0
   	 2016-11-15 21:45:31 	 Thanks man, it was a close call. I have a legit headache now from thinking so hard about it for those five minutes, lol. My brain almost convinced me it would be fine... 	0
   	 2016-11-20 07:20:25 	 What's philosophically in fashion now? 	0
   	 2016-11-22 19:05:47 	 200 folio society editions? Holy shit, that's some serious money.  	0
   	 2016-11-23 01:57:56 	" If you like reading about the most disturbing internet videos you should read this.

http://creepypasta.wikia.com/wiki/Normal_Porn_for_Normal_People "	0
   	 2016-11-23 14:03:56 	 I would probably just keep the folios and bulk donate the rest, though it would be tempting to get a nice payoff from them. If you decide to sell all the folios together pm me what your asking price is!  	0
   	 2016-11-23 14:08:30 	 Haha I am becoming obsessed with them again though... 	0
   	 2016-11-23 14:22:00 	 Steinbeck is one of my favorites, but I think you are right. That book is probably just not all that appealing to high school students. Start them on tortilla flat or cannery row. Both are fun reads that are full of wisdom and humanity and drunken shenanigans.  	0
   	 2016-11-23 14:24:50 	 No math either! And no bedtimes!  	0
   	 2016-11-23 17:27:11 	 If I got a word every time this story gets posted I'd have a short story by now...  	0
   	 2016-11-23 19:19:02 	 For the people who thought she was the blind and deaf one. 	0
   	 2016-11-24 16:12:31 	 Bummer, looks like you have to buy a ten dollar magazine to read it.  	0
   	 2016-11-24 18:29:39 	 Go for it! There's also a great audiobook version on YouTube. This is a book I found very helpful to hear aloud as well as reading it. And if you don't want to get a guide book there is always summaries online if you get stuck on a particularly hard part.  	0
   	 2016-11-25 05:20:09 	" ""...telling the television interviewer Katie Couric in 2005 that ""I've got plenty of money, more money than I ever dreamed I would have. But I am not a billionaire."" She has remained publicly silent on the subject since.""

""So I set out this week to assess the size and scope of her fortune, not to invade her privacy but because she's that all-too-rare commodity in the ranks of the ultrawealthy - a role model.""

I'm not sure that makes any sense.. Sure seems like he is invading her privacy... And because he thinks she's a role model?? "	0
   	 2016-11-26 06:38:45 	 http://youtu.be/-ECyX8A3iP0 	0
   	 2016-11-28 02:49:32 	 Try cross posting this to the horrorlit sub, they are great at stuff like this.  	0
   	 2016-12-01 02:57:08 	" I thought it was great. Good job OP. 

The other post said the character lacked diffidence (which I had to look up and means - modesty or shyness resulting from a lack of self-confidence) and because of this they couldn't bare it. I disagree. 

This is from Wikipedia - Prufrock laments his physical and intellectual inertia, the lost opportunities in his life and lack of spiritual progress, and he is haunted by reminders of unattained carnal love. With visceral feelings of weariness, regret, embarrassment, longing, emasculation, sexual frustration, a sense of decay, and an awareness of mortality.

I think the film does really capture the spirit of the thing. Again, great job.  "	0
   	 2016-12-02 00:19:27 	 *gluten free 	0
   	 2016-12-02 04:10:41 	" Because people are animals. Literally. So we have always had that carnal capacity for violence. Compound that with as our brains got bigger and we became self aware many people just can't deal with the absurdity of life and not having an answer to ultimate metaphysical questions of what's the point of it all and all that shit. So we made up bullshit divisive religions and bullshit nation states that go back to our basic tribalistic predilections of always being on our guard in our own little groups and having enemies. Also greed and profit motive contributing to extreme inequality doesn't help in modern times. But greed goes all the way back too right? It's the fighting over resources that are limited and the feeling you never have enough to be secure, you have to always keep fighting for survival, this is instinct, even though at this point it may be irrational. 

Humans have good qualities too like empathy and having a ""conscious"" but ultimately that just goes back to a basic evolutionary understanding that what's good for my group is good for me and basic ideas of reciprocity and whatnot. 

TLDR: Humans are shitty by nature. This probably sounds pretty cynical, so sorry, I maybe drank too much whiskey.  "	0
   	 2016-12-05 22:35:34 	 There has been a huge increase in sibling videos for adults lately though...  	0
   	 2016-12-10 06:30:33 	 You must be new here.  	0
 Cimexa on couches? 	 2016-12-10 08:59:50 	 Maybe a stupid question but what is the best way to apply cimexa to a couch? I have the kind of couches that is a wood base with fabric cushions on top. I'll put it all over the wood and the bottom of cushions but I can't put it on top where I sit right? That would not be healthy right?  	0
 Bed leg interceptors vs packing tape around the legs? 	 2016-12-10 09:10:39 	 Does the packing tape thing really work or are interceptors the way to go?  	0
 Precautions to take with cimexa around small children? 	 2016-12-10 19:41:21 	 How careful do I need to be with this stuff? I have a small kid so, say I dust an area of floor and she touches the floor and ends up putting fingers in mouth or rubbing her eyes. This makes me nervous about using it. How safe is it?  	0
   	 2016-12-11 06:46:36 	 Puffing some cimexa on it would be even better right? 	0
 Is it uncommon that an exterminator company will offer a guarantee? Have not yet been able to find one. 	 2016-12-11 17:17:18 	" I'd be ok with spending a decent amount of money but I was hoping to find a company that will do something like guarantee if you see any more bugs within like six months or something they would come back out for free. Have not been able to find this as of yet. Anyone have any luck with this or know any major companies that do this? 

Edit: I'm in south Florida if anyone happens to be from the area.  "	0
   	 2016-12-11 23:56:44 	 Well 90 days isn't too bad.  	0
   	 2016-12-18 04:32:54 	 Did you read the book? No, you listened to it. So why say you read it? Why not just say you listened to an audiobook?  	0
   	 2016-12-18 07:00:55 	 I know, right? And I'm actually a fan of audiobooks. I think people are self conscious about listening to audiobooks instead of reading them for whatever reason and that's why they get weird about it, but thats stupid. There's no shame in listening to an audiobook. But I don't get why someone would say they read a book when they actually didn't read anything, it's just a poor choice of words at best, or being disingenuous at worst. No one would go see a Shakespeare play or watch a movie version of a book and then say they read it, just because the original medium was written words.  	0
   	 2016-12-18 07:25:33 	 I would just wonder what the point of using the wrong verb was. You read a book. You listen to an audiobook. Read does not mean the same thing as listen. I just think it's stupid people are embarrassed enough about listening to an audiobook that they choose to use the wrong verb to describe their actions. I mean who gives a shit.  	0
 How worried should I be about ceiling droppers? 	 2016-12-21 04:57:40 	 Do they really do this that often? I got my bed pretty bed bug proof with a new mattress, new mattress case, the traps on all the legs, new bed frame, and there is literally nothing in my room except the bed and a cimexa drenched dresser.. But I'm worried about stragglers climbing the walls and ceiling and dropping down like a god damn freak show horror movie. Do they really use this tactic often to get to you? 	0
 Some of my climb ups not powdered? 	 2016-12-23 01:57:06 	" Most of them have the talc powder in them but it seems that like three of twelve don't have any powder whatsoever. Should I put cimexa in them or go out and buy talc powder? 

Edit: I got talc baby powder (not cornstarch) at the store and poured it all over my finger and applied it that way, as the store didn't have cotton balls and I couldn't really tell if tissue paper was applying it well. Also put a small puff of cimexa in for good measure. Do you guys think this is ok? Just got a new mattress and frame and don't want to fuck this up.  "	0
   	 2016-12-23 04:16:37 	 Doesn't look like bed bugs to me. The remains they leave are typically like black dots. And usually not out in the open. Not an expert though.  	0
   	 2016-12-23 05:00:31 	 Thanks man, you're always a great help 	0
   	 2016-12-25 03:22:06 	 Banana in the tailpipe!  	0
   	 2017-01-05 14:43:09 	 After reading the last few of your posts I think you should strongly consider seeing a therapist.  	0
   	 2017-01-06 18:43:18 	 My favorite book is still Johnny Cash's autobiography Cash by Johnny Cash..  :) 	0
   	 2017-01-06 21:07:48 	 Neat story!  	0
   	 2017-01-09 04:08:12 	 Day six and I'm twitching at a bar I want one so bad. Fuck  	0
   	 2017-01-12 07:52:20 	 Jesus Christ, how long does this guy take to get home!? I have work in the morning!  	0
   	 2017-01-15 16:06:08 	 Sup  	0
" Ottessa Moshfegh's new short story collection ""Stranger from Another World"" out today! "	 2017-01-17 19:17:35 	  	0
   	 2017-01-17 19:24:53 	" I haven't read Eileen but I got excited for this collection after reading one of her stories in the New Yorker. Lots of weird people doing weird stuff in her stories.. How do you guys feel about her? 

Edit: title is ""homesick for another world"" don't know where I got stranger from.. My bad. "	0
   	 2017-01-17 21:21:15 	" Yeah, a lot of people seemed to be put off by her statements about the writing of Eileen. Check this out if you haven't seen it. A short interview where she clarifies what she meant (last question).. 

http://youtu.be/tBEGOyNBNF4 "	0
   	 2017-01-19 14:26:04 	 The extravagance of it sickens me.  	0
   	 2017-01-19 14:33:43 	 Get a load of this fat cat with a fancy ditch!  	0
   	 2017-01-21 06:45:53 	 At least your raccoon is alive you fat cat!  	0
   	 2017-01-21 07:10:07 	 My experience is that raccoons are better at taking my goodies than sharing. One time a raccoon stole my bounty of 2 lentils, thus ending our friendship.  	0
   	 2017-01-21 19:59:49 	 I sold my soul to the devil for those two lentils and now they are gone. Now I'm back to sucking the nutrients out of soggy cigarette butts.  	0
   	 2017-01-22 07:16:25 	 Did you get the tour guide guy that drinks from a flask?  	0
 You're drunk.. Chevy your spelling 	 2017-01-23 06:05:29 	 Like me maybe your drink as fuck on whiskey and made a spelling. Mistake.  	0
   	 2017-01-26 14:20:07 	" Any tips on how not to get kicked out of the library? They are always like ""bla blah blah you can't bring your raccoon pelts and piss jug in here blah blah stop eating paper out of the books.""  "	0
   	 2017-01-26 23:34:40 	 ITT: FATCATS 	0
   	 2017-01-28 03:41:03 	 Marisa Tomei in My Cousin Vinney 	0
   	 2017-01-28 04:44:44 	 Hah hell yeah always got some dirty Evan in the freezer  	0
   	 2017-01-29 07:05:50 	 Based on how it is I would say it's probably worth $75, maybe. 	0
 Bed Bug LPT: Time to embrace minimalism! 	 2017-01-30 04:20:44 	" Hey guys, a little bit of a different post here but a little variety can be nice. So, as my title suggests, if you have BB's, adapting a more minimalist life style is really beneficial. Pretty simply, the less crap you have the less places they can hide. I've thrown out dumpsters worth of stuff I never really needed in the first place and now my place feels cleaner, fresher, and makes me feel better mentally when I'm home. With the help up climb ups, cimexa, and routine inspections I've finally got these bastards on the ropes. 

I also spend about a half hour per day cleaning and or organizing random shit so my place always looks nice. After a very long infestation I haven't found any alive or dead in about a month. Oh, and I also repainted all my walls a nice light color because they were all darker colors so it makes inspections much easier and makes rooms feel bigger and more open. Also, make sure to invest in a good flashlight.. 

I got a bunch of tips on organizing from reading Marie Kondo. She has a bunch of videos on YouTube as well. There is also a pretty good podcast by two guys called the minimalists. 

That's all for now, stay vigilant killers!  "	0
   	 2017-01-30 04:43:44 	" Hah, hell no. I got a nice metal frame that doesn't need the box springs. Equipped with climb ups and six inches away from the wall. 

As a random side note, nothing to do with BB's, if you ever meet a chick that has her mattress directly on the floor, take it as a giant red flag, they are always nutty.  "	0
   	 2017-02-01 03:04:01 	 Brb, moving to Shanghai.  	0
   	 2017-02-02 14:03:43 	 Wat  	0
   	 2017-02-03 02:40:20 	 No blac bloc protester wants to get busted with a gun. I would say 9/10 they don't carry.  	0
 In 'Universal Harvester,' Mountain Goats Lyricist Reaps A Creepy Crop (Out Today) 	 2017-02-07 22:21:48 	  	0
 Bed bug nymphs shouldn't be able to crawl up climb ups right? 	 2017-02-11 03:08:40 	" So, I was inspecting my climb ups and to my surprise I see what looks like tiny bed bug nymphs crawling around inside. Two of them. Casually walking about the inside wall without any difficulty at all. The wall part, not the bottom. The part they aren't supposed to be able to scale. I feel like maybe they aren't bed bugs but they awfully look like them. If they are they are like brand new babies unfed. Too small to get a decent picture unfortunately. What do you guys think? I feel like maybe they were a bit too energetic to be bb's. There is ciemexa everywhere and I haven't been able to find a live one in months. But I don't know what to think now. 


http://imgur.com/KNgBUJB "	0
   	 2017-02-11 06:15:49 	 Just looked up psocid. They do look pretty similar to bed bug nymphs. Going to look for a magnifying glass. Seems like psocid have a neck area whereas bb's don't. That should be the easiest way to differentiate the two.  	0
   	 2017-02-11 06:42:29 	" Got some slightly better pics. What do you think?
I feel like the head looks a little more defined as a separate part than a bb. But I'm also biased in that I don't want it to be a bb lol. 
http://m.imgur.com/PEYzyM8,gysRO1J

Edit: Also, the ass doesn't look quite as fat as a bb, maybe?

Edit2: http://m.imgur.com/gw0517D,nEC6oTF
Probably the best pictures "	0
   	 2017-02-11 06:49:13 	" They were able to climb that part too. 

Check out the new pics. What do you think? "	0
 Bed bugs or Psocid (book lice)?? 	 2017-02-12 06:15:52 	  	0
   	 2017-02-12 06:17:12 	" Few more pics 

http://m.imgur.com/PEYzyM8,gysRO1J "	0
   	 2017-02-12 06:30:54 	 Divine intervention my dude.  	0
 Jared Mees and the Grown Children - In the Fall 	 2017-02-12 06:52:32 	  	0
   	 2017-02-12 07:06:58 	 This guy ever make good on making an album with all the money everyone gave him? 	0
   	 2017-02-12 07:52:54 	 Maybe give that banjo a this machine kills fascists sticker. Fuck it maybe give the dog an AK.  	0
   	 2017-02-15 02:28:58 	" Like all of reddit? I mean it's a pretty good story but it's no ""I don't know what a potato is"" story.  "	0
   	 2017-02-17 00:11:16 	 Foodie! Loves to travel! No hookups!  	0
   	 2017-02-20 02:21:21 	" OP you just need to use this as a starting off point to your own ""If on a Winters Night a Traveler"" type adventure!  "	0
 Nothing Is Quite What It Seems In Surreal, Unsettling 'Twenty Days' 	 2017-02-20 17:21:50 	  	0
   	 2017-02-22 06:13:11 	 Man, rum diary is still one of my favorite books. If any HST fans haven't read it I thoroughly recommend it. It's like a young and crazier and more funny Hemingway.  	0
   	 2017-02-23 01:03:57 	 I'm extremely skeptical, but I'll try this tonight.  	0
   	 2017-02-27 06:32:57 	 Why is getting an award for being able to swim back and forth in a pool the fastest or whatnot more legitimate than getting an award for making a movie? 	0
   	 2017-03-03 21:33:54 	 What's the second sentence? 	0
   	 2017-03-04 04:43:50 	 Damn bro you paint a sad picture, lol. I want to smoke bad too, I'm on day three (again)... 	0
   	 2017-03-04 06:30:18 	 No, not good. Maybe more adults or already liberal minded young people who read an article about it being banned will check it out, but I doubt the average Arkansas high school kid is going to go out of their way to read a non fiction history book that's not required just because it's been taken off the curriculum.  	0
   	 2017-03-04 17:17:59 	 Same... 	0
   	 2017-03-05 07:27:15 	 My stamen just got hard  	0
   	 2017-03-05 08:27:52 	 I'd say post modernism is already pretty much over. Post-postmodernism homie.  	0
   	 2017-03-05 17:20:07 	 You should check out the hp lovecraft literary podcast. They cover tons of the stories that hp mentions in this essay.  	0
   	 2017-03-08 13:45:31 	 Or he's watching a horse race that he has a serious bet on.  	0
   	 2017-03-09 01:51:30 	 Could be a good thing, seeing how every time I go to my local Barnes and noble there seems to be less books and more overpriced toys and other assorted bullshit..  	0
   	 2017-03-11 17:40:46 	" 
Keeps crashing. Destroyed phone with brick and neighbor now has a black eye. 0/10, would not use again.  "	0
   	 2017-03-12 22:19:10 	 Would make for some good assassins creed climbing  	0
   	 2017-03-13 13:25:57 	" Exactly. I look at it like this. If an adult is sitting around all day and watching the Disney channel it would be weird (or should be at least) but because these people are consuming media for kids via a book they feel like it's totally normal. It's literally an immature thing to do. But like everyone says if that's what their into so be it. I'm not going to call them out on it in public or anything. But yeah, I'll silently judge them. Maybe I'm just an asshole though. 

Edit: I feel like I should also say that reading kids books probably isn't any worse than watching reality TV or playing call of duty all the time though. Our culture has become pretty stupid in general.  "	0
   	 2017-03-16 23:21:57 	 At the mountains of madness is much better enjoyed after reading his short stories. It's not a good starting point for lovecraft in my opinion.  	0
   	 2017-03-24 13:04:15 	 Boone  	0
   	 2017-03-28 21:06:43 	 I actually read the letters. What spicy says here is correct, and the headlines for that story from wapo are definitely misleading. However the White House could have just told nunes to shut it down if they were worried about Yates.  	0
   	 2017-03-28 22:32:19 	" Did no one here actually read the letters? I did. Spicy is unfortunately correct on this one. I hate trump as much as the next guy but there is nothing in those letters showing White House blocked Yates. 

Obviously the White House could have just told nunes on the low down to shut down the whole thing if they were worried about yates, but that's just speculation at this point. 

Edit: here are the letters https://apps.washingtonpost.com/g/documents/national/read-the-letters-detailing-how-sally-yates-was-blocked-from-testifying-on-russia/2390/ "	0
   	 2017-03-28 22:53:30 	" Except the letters don't prove the White House blocked her. I feel like no one here actually bothered to read them. 

Here they are:
https://apps.washingtonpost.com/g/documents/national/read-the-letters-detailing-how-sally-yates-was-blocked-from-testifying-on-russia/2390/

I hate trump as much as anyone else here but this is a wildly misleading headline from WAPO. "	0
   	 2017-03-28 23:32:21 	 Exactly. This is a great summary.  	0
   	 2017-04-12 23:20:15 	 I would have enjoyed it more if there was less piss. Literally in like every scene someone is pissing on someone.  	0
   	 2017-04-13 19:20:25 	 http://youtu.be/FaWgRw78Y1M 	0
 In a world of shit sandwiches.. 	 2017-04-25 20:26:06 	 In a world of shit sandwiches there was a dream. There was a building. There was an underground building. In a world of shit sandwiches there was an underground building. There was a building of hallways and tables. Table after table placed inside hallway after hallway as far as the eye could see. Thousands of shit sandwiches on these tables. A drunken Minotaur stumbles and is confused by the sheer amount of these goddamn intoxicating sandwiches. Why so many sandwiches? One was nice. Two was not too bad. But this was just too much. Too many shit sandwiches. One can just never eat ALL the shit sandwiches. 	0
 Jeff VanderMeer's New Novel, Borne, Released Today 	 2017-04-25 21:30:42 	  	0
   	 2017-04-26 16:54:54 	 Have you read tortilla flat? I thought it was even funnier than Cannery.  	0
   	 2017-05-04 04:28:12 	 Jesus Christ.. Every day it's the same shit. 	0
   	 2017-05-04 18:26:11 	 That's a funny way to spell Flowers for Algernon. I'm just so moved and destroyed by this story I can't even jerk it right now...  	0
 Interesting new study finds that male readers tend to have bigger cocks than non-readers. Also women readers reportedly have more awesome titties than non-reading women on average. 	 2017-05-06 23:51:22 	 Not really too surprised though, as I myself read many many books and happened to be blessed with a very big dick, not to brag or anything.. Anyway, anyone one else heard about this gem the handmaids tale? 	0
   	 2017-05-07 04:04:46 	 My man, that goes without saying. Eeww-readers don't even smell like books.  	0
 Haitian woman with a machete 	 2017-05-08 16:34:17 	  	0
   	 2017-05-08 16:48:07 	 Those are rookie numbers man. You gotta pump up those numbers. 	0
   	 2017-05-08 19:49:31 	 OP here. Sorry guys. Didn't know this was from a movie, saw it on Facebook where it was posted by someone as being an actual event. My bad.  	0
" Haruki Murakami's new short story collection ""Men Without Women"" out today. "	 2017-05-09 13:37:39 	  	0
   	 2017-05-09 13:40:24 	 GOOD point 	0
   	 2017-05-09 15:08:45 	 Nice! How's it looking? 	0
   	 2017-05-09 16:44:48 	" Found this in an article from the New Yorker.

""Scheherazade was included in a collection of stories you recently published in Japan, titled Men Without Women, all of which involve men who are withoutor who losewomen. What inspired you to write this series?""

""What I wish to convey in this collection is, in a word, isolation, and what it means emotionally. Men Without Women is a concrete example of that. The title grabbed me first (of course, Hemingways short-story collection of the same title figured in), and the stories followed. Each story came from the vibrations produced by the title. Why Men Without Women? I dont know. Somehow or other, that title put down roots in my mind, in the same way that a wind-blown seed settles and grows in some field.""

Source: http://www.newyorker.com/books/page-turner/fiction-this-week-haruki-murakami-2014-10-13 "	0
   	 2017-05-09 16:47:40 	 For many of us it is new. It was released in the United States today.  	0
   	 2017-05-09 17:30:15 	 Great article. Glad to hear he started writing again after all those years. Inspiring!  	0
   	 2017-05-09 17:31:30 	 Me too thanks  	0
   	 2017-05-09 19:41:38 	 Hah, I just looked, it's still messed up. You would think Amazon would anticipate things like this..  	0
   	 2017-05-09 20:23:15 	 Love this too! On his website when you read about some of his books it will give you other works to check out from other authors. This is how I started reading both Raymond chandler and Raymond carver.  	0
