title	date	text	class
   	 2013-02-25 11:15:28 	 The inspiration was from a previous submission. Source: http://www.skinnytaste.com/2013/02/slow-cooked-jerk-pork-with-caribbean_19.html 	0
   	 2013-02-25 11:27:23 	 There's leftovers! Happy to share! :) 	0
 Waterspounts off the coast of Queensland, Australia during the latest weather system. 	 2013-02-26 07:53:48 	  	0
 Cats are idiots. 	 2013-03-03 05:04:30 	  	0
 Birds-eye views of the cramped living condtions that the 1.3 million people in Hong Kong living below the poverty line have to suffer. 	 2013-03-04 09:43:52 	  	0
   	 2013-03-04 09:51:37 	 The album is called 'xTaken' by Benny Lam for the Society for Community Organisation. The photographs were commissioned to draw attention to the housing crisis engulfing the city. 	0
   	 2013-03-04 09:59:51 	 Oh, great Sega5! If you find any more of his work can you tag it here? 	0
   	 2013-03-04 10:31:59 	 Much appreciated! :) 	0
   	 2013-03-07 08:44:37 	 Haha! I was thinking [this!](http://images4.wikia.nocookie.net/__cb20101015151248/muppet/images/0/05/Beaker.jpg) 	0
   	 2013-03-07 09:47:08 	 StickDoctor, you have made my day. Thank you very much! I look forward to helping you when I can! 	0
   	 2013-03-07 23:31:38 	 Luminaeus, that made me laugh for a good five minutes. Thank you!! 	0
   	 2013-03-08 07:36:00 	 GIF! Y U NO START? 	0
 Explosion of Colour: A Holi Engagement Party 	 2013-03-11 06:03:16 	  	0
   	 2013-03-11 06:33:02 	 Agreed! That would be amazing! 	0
   	 2013-03-11 06:51:05 	 Imagine a reddit paint fight day. One in every major city around the world! 	0
 Friend asked for a giraffe on the box...Domino's did not disappoint! 	 2013-03-12 12:30:36 	  	0
 Lightning is one scary bitch. 	 2013-03-14 00:29:53 	  	0
 Reddit...March Death Count is? 	 2013-03-18 11:10:26 	  	0
 10 year old me. 	 2013-03-18 12:20:14 	  	0
   	 2013-03-19 10:04:19 	 Hi, I'm the Holiday Armadillo! 	0
 Baby Imguraffe. Nice to meet you! 	 2013-03-20 07:19:16 	  	0
 Lava meets lightning in Japan. 	 2013-03-20 07:29:34 	  	0
   	 2013-03-20 10:31:55 	 KIILLL MEEEE 	0
 Can you pick who these young celebrities are? 	 2013-03-21 01:04:21 	  	0
 Moss bridges, Ireland. One of my favourites. 	 2013-03-21 08:39:24 	  	0
 Dog owners, this will break your heart. 	 2013-03-22 04:19:54 	  	0
   	 2013-03-22 23:29:17 	 Reminds me off one of the opening scenes in Clockwork Orange 	0
 Remember how cool NSync was? 	 2013-03-25 07:18:30 	  	0
   	 2013-03-25 08:22:53 	" Sorry Taco-Tico, that's strange. Link is: http://i.imgur.com/tYcSiXx.jpg
 "	0
 This waterproof Canon camera was lost in Hawaii in 2007 and was found last month on a Taiwan beach more than 9600km away 	 2013-03-26 04:03:00 	  	0
   	 2013-03-26 04:06:29 	 I was hoping for a billion, but $5 is more than I came in with so we have a deal. 	0
   	 2013-03-26 04:27:25 	 PICS: http://khnl.images.worldnow.com/images/21773470_BG3.jpg and http://khnl.images.worldnow.com/images/21773470_BG1.JPG 	0
   	 2013-03-26 12:22:06 	 Flag. Flag flag flagFLAG FLAGFLAG FLAAAAG 	0
   	 2013-03-27 22:16:57 	 http://i.imgur.com/EAUWa.gif 	0
   	 2013-03-30 00:33:04 	 Apologies - source is www.youtube.com/user/JennaMarbles or jennamarblesblog.com/  :) 	0
 Agatti Aerodrome. Lakshadweep, India. [800x474] 	 2013-04-03 09:44:31 	  	0
   	 2013-05-01 13:06:55 	 That's the Little Creatures Brewery on Brunswick 	0
   	 2013-05-12 02:20:32 	 Was getting to meet Kim Kadashian part of the gift, too? 	0
 Dropped a glass onto a tiled floor and this happened. Can anyone explain? 	 2013-05-14 16:00:15 	  	0
 The great Beer Wall 	 2013-05-18 06:52:41 	  	0
 The shocking result of animal cruelty (more in comments) 	 2013-05-18 11:18:03 	  	0
   	 2013-05-18 11:18:20 	 This dog is not born that way. He spent major part of his growth years cramped inside a small cage and his body couldn't develop. Last year he was found roaming in the streets of France and the very good news is that he got adopted by a very animal loving family. 	0
   	 2013-05-29 02:49:43 	 What. The. Fuck.   Are. You. Doing. 	0
   	 2013-05-29 05:12:27 	 My favorite one liner: http://2.bp.blogspot.com/_-3DQI6aqrqU/TUnK-onTPfI/AAAAAAAAAB4/Hz5mTIrikcs/s1600/United-States.jpg 	0
   	 2013-06-01 07:56:43 	 Andy, are you ok? Are you ok, Andy 	0
   	 2013-06-26 02:33:29 	 Bohemian Rap City, worst song EVAAR 	0
   	 2013-06-30 11:49:23 	 r/shitcosmosays 	0
   	 2013-08-18 14:14:39 	 It's a cross 	0
   	 2013-08-18 14:23:13 	 [For reference] (http://i.imgur.com/PIXdZ.jpg) 	0
 I checked into a hotel and they had a example door lock to show guests 	 2013-09-07 10:46:59 	  	0
 I took a picture of a kid with the apple symbol shaved into the back of his head 	 2013-09-25 13:13:58 	  	0
   	 2013-10-21 12:44:15 	 [Found him!] (http://i.imgur.com/EWz599w.jpg) 	0
 Old Man Found Dead on Train Station Bench, Monk Prays For Him 	 2013-11-06 11:12:37 	  	0
 This is how much it costs on public transport in Australia to travel 1km on the bus. 	 2013-11-11 23:58:07 	  	0
   	 2013-11-29 13:51:33 	 Nothing cringe here. They strive to ace the test and finish first and they did. We'll done for learning what you've been taught! 	0
   	 2013-12-04 12:07:06 	" ""Oh, you said it, friend - but I wanted to stay 'cause I almost had sex on this girl. 
Oh yeah, but it was so expensive, each drink was like 6 dollars 40."" "	0
   	 2013-12-04 12:08:20 	 Living right up to that username 	0
   	 2013-12-05 11:20:55 	 Oh my god, absolutely lost it at 'peach out'. 	0
   	 2013-12-15 11:06:40 	 Thanks! It's Montville in Queensland :) 	0
   	 2013-12-15 11:07:36 	 We have a professional set, this is just an iPhone pic :) but thanks you!!! 	0
   	 2013-12-15 13:31:11 	 She says thanks! It's an Asos dress :) 	0
   	 2013-12-20 09:32:06 	 Kinkerland. Hehe 	0
   	 2013-12-30 05:25:31 	" ""Up fucked I"" "	0
 On a mobile device, it just takes too long! 	 2014-01-08 10:37:31 	  	0
 This has saved a lot of frustration for me! 	 2014-01-08 10:47:57 	  	0
   	 2014-01-09 08:46:03 	 Cheeky boob squeeze :) 	0
   	 2014-01-16 09:39:28 	 Holy balls that made me laugh 	0
   	 2014-02-11 09:57:52 	 R...Roger Federer?? 	0
   	 2014-02-15 08:36:46 	 Ahh yes; Karaoke 	0
   	 2014-02-15 11:42:21 	 Straight out of Witcher 	0
   	 2014-03-03 10:04:38 	 This is the first time I've noticed the text reflected in Morpheus' glasses...well done! 	0
   	 2014-03-03 10:09:03 	 No one except your Reddit family. Don't you DARE divorce us! 	0
   	 2014-03-07 02:05:51 	 What did you call me? 	0
   	 2014-03-07 02:07:20 	 Nice to meet you, elevatormech :) 	0
   	 2014-03-07 02:08:08 	 Some say he's a mystery wrapped in an enigma 	0
   	 2014-03-08 01:40:44 	 And just like that, Phil knew he'd never be the same. The friends he thought he had had violated his trust and preyed upon his trusting nature. The change in him happened as fast as an electrical pulse. At that moment, he was no longer Phil; he had become what the world now knows as Insanity Wolf! 	0
   	 2014-03-09 15:54:33 	 Yep - moggill rd/rafting ground rd? 	0
   	 2014-03-15 04:44:30 	 *Takeonaguy 	0
   	 2014-03-15 23:24:57 	 I just had to Google what WiFi actually stands for. How have I not questioned it before?? 	0
   	 2014-03-18 10:47:50 	 Nope, doesn't quite get his body around. He completes a full flip and still needs to get his feet out from under him to complete the second. 	0
   	 2014-03-18 10:52:44 	" ""http://i.imgur.com/8Gdkjbv.gif"" "	0
   	 2014-03-20 09:39:12 	 That was perfect. 	0
   	 2014-03-20 09:46:47 	" Yeah, pretty much every abbreviated plural.

Yankees think it's math
Yanks think it's math

Yankees/yanks "	0
 Aaahhhhh....yes. 	 2014-03-20 13:36:40 	  	0
   	 2014-03-23 11:27:05 	 Throw spiders at it 	0
   	 2014-03-24 11:38:06 	 All this proves is that John Candy faked his own death and spends his days playing bass and selling drugs. 	0
   	 2014-03-26 13:37:30 	 Is this Brisbane, OP? 	0
   	 2014-03-27 01:39:36 	 Yeah I recognized the casino. I work in the city and I saw a protest go past at around midday, some wearing guy Fawkes masks. I heard it is uni students protesting cuts to the federal government's tertiary funding to fund the Gonski reforms. But I could be wrong. 	0
   	 2014-03-27 11:24:09 	" Try me: [NSFW](http://i.imgur.com/A4RBZ5H.gif)
 "	0
   	 2014-03-27 11:36:00 	 I'm just surprised that this person has no tear ducts! 	0
 Does anyone else feel this way? 	 2014-03-30 07:13:53 	  	0
   	 2014-03-30 08:52:47 	 http://i.imgur.com/j5fYrIV.gif 	0
   	 2014-03-30 13:06:50 	 Don't be scared, SeniorHippopotamus! The image is a picture of a nerve synapse, thus portraying literally how we 'feel' :) 	0
   	 2014-04-06 11:55:06 	 [Credit to Cyanide and Happiness for the idea!](http://www.flashasylum.com/db/files/Comics/Rob/genie-lamp.png) 	0
   	 2014-04-08 11:08:34 	 Well...that escalated quickly. 	0
   	 2014-04-08 11:09:29 	 .........write that down. 	0
   	 2014-04-08 11:11:10 	 If he fires from that position he'll have a hell of a headache 	0
   	 2014-04-08 11:14:09 	 Why is her thigh censored? 	0
   	 2014-04-09 09:04:30 	 Fair call, thanks olineIcanbene1. I'll x-post. 	0
   	 2014-04-09 10:00:30 	 /r/nosaabstory 	0
 Southern Comfort's attempt at appealing to Gen Y 	 2014-04-19 23:56:20 	  	0
 At those odds I can't afford NOT to bet! 	 2014-04-22 14:11:44 	  	0
   	 2014-04-27 11:55:23 	 thatsthejoke.jpg 	0
   	 2014-05-11 04:24:29 	" [Fixed](http://i.imgur.com/RD8LTZk.jpg) Sorry for the amazing photoshop job!

EDIT: Not even sorry.
 "	0
   	 2014-05-11 04:30:42 	 http://i.imgur.com/RD8LTZk.jpg 	0
 Air Canada's new flight attendant uniforms 	 2014-05-13 23:50:19 	  	0
 Reddit State of Affairs Today 	 2014-05-21 01:17:40 	  	0
   	 2014-05-21 13:18:06 	 He uploaded it to his Facebook, next minute he sees himself in this ad! He did message them, [here's what they replied](http://i.imgur.com/AANaL5E.png) 	0
   	 2014-05-21 14:12:29 	 No, I don't think he minds to much. He knows anything on Facebook is public domain. It was more of a hilarious shock I think! 	0
   	 2014-05-31 00:19:51 	 Ahh the ol' reddit switchararoo 	0
   	 2014-06-03 23:36:45 	 Am I the only one frustrated by the fact that the ball's initial track down the first ramp isn't smooth? 	0
 Need help buying/making a battlestation for my fianc! 	 2014-06-12 08:10:37 	" Hi ladies of /r/makeupaddiction! I need your help.

My fianc's birthday is coming up, and I thought the perfect gift would be to buy or put together a make up battlestation for her. I am willing to spend a lot of time on it, and my budget is not really capped.

In terms of advice, I'm really looking for ideas on what features you'd like in your own make up stations and how to go about sourcing the materials. Mirror styles and types, storage zones (make up and jewelery potentially?), shelving, new make up to buy her to include and the physical design of the entire thing. The area I have available is a space of about 2.5m x 1m. 

Pictures of your own dedicated make up areas would be appreciated as well as I really have no idea what I'm up against.

You are all amazing, THANK YOU!
 "	0
   	 2014-06-12 08:40:28 	 Thank you /u/lilypetal! I love your suggestion about natural sunlight, I will have to rearrange our room but I think I can work it. And I hadn't thought about the spills, either. I imagine that as nice as a wood finish would look it would be horrible for stains.   	0
   	 2014-06-12 08:43:07 	 Oh, perfect - that's a big help! Thank you! 	0
   	 2014-06-12 09:10:22 	 That's a great idea, thanks! I'm so glad I asked, most of these things I have never heard of!  	0
   	 2014-06-12 23:55:21 	 Perfect! Thank you for your help!  	0
 A shot of the sleeping quarters on 1950s Boeing 377 Stratocruiser. 	 2014-06-17 01:16:53 	  	0
 Instagram from the 1950's! Flying was so utterly rare that passengers were given postcards with pictures of the plane or in-flight meal, to show their friends what the experience was like. 	 2014-06-17 01:19:10 	  	0
 Vintage 1960's flight attendant uniforms 	 2014-06-17 01:23:06 	  	0
 Vintage 1960's flight attendant uniforms ROUND 2 	 2014-06-17 01:33:45 	  	0
 Sleeping passengers from the 1950's travelling in first class [650x488] 	 2014-06-17 02:23:30 	  	0
 Building a battlestation for my fiance! Any advice for additions to this vanity? 	 2014-06-17 07:00:52 	  	0
   	 2014-06-17 07:13:24 	 Interesting! I read that before the commercial jet was rolled out (1952), turbulence could be incredibly violent as aircraft were powered by pistons instead of jet engines and there was no cabin pressurization. 	0
   	 2014-06-17 07:18:26 	 Ahh just the advice I was after! Thanks /u/reallycoolpeople. I was thinking of somehow installing a row of bulbs around the outer mirror and possibly adding a magnifying vanity mirror. 	0
   	 2014-06-17 08:33:21 	 Thanks /u/wannabebaker101! I love the organizer idea, definitely a must! I've also bought a chair to go with, [it's here!](http://i.imgur.com/PHwE11f.png) 	0
   	 2014-06-17 08:36:21 	 Great tips /u/thiscnidocyte. I think the focuses should be lighting and organization. Definitely a step up from beside the toothbrushes in the bathroom! 	0
   	 2014-06-17 08:57:31 	 Teehee! Thanks /u/Lestefania I thought it was a great find! 	0
   	 2014-06-17 11:40:44 	 Interestingly, Mongolians call him Chinggis Khan. 'Genghis' is a poor Anglicization from back in the day. 	0
   	 2014-06-21 10:11:08 	 This isn't Tumblr, you don't need to yell 	0
   	 2014-06-24 13:34:44 	 The mildest of mildly interesting 	0
 This magnificent city this morning 	 2014-06-25 03:08:08 	  	0
 I'm attending a 'monster' themed global conference with a big name musical act. Who could it be? 	 2014-06-25 04:18:49 	  	0
   	 2014-06-25 04:19:14 	 I was thinking Gaga...but she's performing somewhere else that night.  	0
   	 2014-06-25 04:21:46 	 Good answer! I think they may be a bit over the top for a work conference though. 	0
   	 2014-06-25 04:22:56 	 That would be amazing. 	0
   	 2014-06-25 04:26:21 	 I'm trying to figure out who they've approached to perform. 	0
   	 2014-06-25 04:28:17 	 Travel, leisure and corporate 	0
   	 2014-06-25 04:30:08 	 Oh good one, that's definitely a possibility! Thanks /u/Kelfox! 	0
   	 2014-06-25 04:45:34 	 Thank you! 	0
 Next level terrible 	 2014-06-28 05:59:46 	  	0
   	 2014-06-28 07:22:40 	 All the trademarks here: (1) Kermit meme (2) Instagramception (3) Cut off text (4) Horrible content (5) Offensively bad grammar (6) Username watermark 	0
   	 2014-06-29 23:28:37 	 [Here's some sauce!](http://mobile.news.com.au/sport/nrl/what-on-earth-was-todd-carney-thinking-when-shocking-lewd-photo-was-taken/story-fndv2ypb-1226971063762) 	0
   	 2014-07-18 11:05:20 	 All I know is that Athiesm is non-prophet 	0
   	 2014-07-22 13:27:36 	" Can we rub butts

Hahaha "	0
   	 2014-08-06 11:07:41 	"  ""I'm not mad, I'm just disappointed."" "	0
   	 2014-08-13 05:24:59 	 He eats one or two a day 	0
 Street art found in Penang, Malaysia 	 2014-08-14 03:23:35 	  	0
   	 2014-08-17 03:58:56 	 It's the fucking Catalina wine mixer 	0
   	 2014-08-25 08:24:19 	 That's it! Beautiful resort. I love that it's all inclusive, too. 	0
 A bird carpet-bombed my balcony today 	 2014-08-25 12:27:18 	  	0
 Every time Dad eats an apple, he puts the sticker on something. Here is his latest victim. 	 2014-08-27 08:59:56 	  	0
 PsBattle: Balotelli leaping for the ball 	 2014-09-01 06:42:53 	  	0
   	 2014-09-02 06:06:01 	 P-p-PPP-P-p-PPP-p PINGU, PINGU! 	0
 Storm over the beach, Port Macquarie 	 2014-09-02 23:32:16 	  	0
   	 2014-09-03 00:06:36 	 Credit to photographer Ivan Sajko 	0
 Here it is makeupaddicts, the antique Queen Anne vanity that I've been restoring for my fiance. It's taken weeks and it's been moved in today - she has no idea! 	 2014-09-05 06:16:53 	  	0
   	 2014-09-05 06:27:04 	 Thank you erixxi! I couldn't have done it without everyone's advice! 	0
   	 2014-09-05 06:52:48 	 You're too kind bridget992. I'm hoping she likes it - she gets home from work in 3 hours! 	0
   	 2014-09-05 06:55:09 	 Thanks eredd11 :) there's only one thing missing; a magnifying mirrored vanity mirror, and I've arranged for her mother to give it to her. 	0
   	 2014-09-05 07:06:04 	" Thanks jen-iscool - I really hope she likes it! I bought it online from an Auction house interstate and as soon as I saw it I knew it was the one!
 "	0
   	 2014-09-05 07:14:28 	 Oh, I'll try! A reaction shot would be great! 	0
   	 2014-09-05 09:08:26 	 Thanks for your kind words Pickles. Too many times I've seen her sit on the floor and do her make up in the mirror on our wardrobe door! No longer :) 	0
 So...Ronaldino has been 'offered a contract' by Conference South side Basingstoke Town. Check out the teamsheet on their Wiki page!! 	 2014-09-05 09:21:45 	  	0
   	 2014-09-05 09:26:39 	 Still hilarious 	0
   	 2014-09-05 10:04:12 	 UPDATE: [She loves it!](http://i.imgur.com/fIGJr6S.jpg) 	0
 One of the best Reddit puns I've seen in a while 	 2014-09-23 09:09:13 	  	0
   	 2014-09-23 09:21:11 	 Source: [Thread](http://www.reddit.com/r/worldnews/comments/2h6pu5/us_airstrikes_under_way_in_syria/ckpw5i8) 	0
   	 2014-09-23 09:21:29 	 Part of [this](http://www.reddit.com/r/worldnews/comments/2h6pu5/us_airstrikes_under_way_in_syria/ckpw5i8) discussion! 	0
   	 2014-09-23 09:21:56 	 Source: [Thread](http://www.reddit.com/r/worldnews/comments/2h6pu5/us_airstrikes_under_way_in_syria/ckpw5i8) 	0
   	 2014-09-23 12:59:58 	 *cringe* 	0
   	 2014-09-24 12:00:19 	 Shitpost 	0
   	 2014-10-04 16:44:09 	 Looks like an Asian ranga with some missing chromosomes 	0
   	 2014-10-05 05:10:06 	 This reads like a Dr Suess book. Green eggs and hambeast? 	0
   	 2014-10-05 05:16:12 	 Agreed, but I think using the word 'curvy' sounds a lot nicer than 'obese'. It would be nice if everyone used curvy to describe actual body shape instead of being overweight, but it seems it's the go-to descriptor. 	0
 Found this on the back of the stall toilet door at work 	 2014-10-07 02:32:30 	  	0
   	 2014-10-09 11:23:00 	 /r/notinteresting 	0
   	 2014-10-15 14:39:19 	 Dat gap though 	0
   	 2014-10-16 23:08:01 	 Bless you. 	0
   	 2014-10-25 09:23:40 	 Elbow grease. 	0
   	 2014-10-30 04:49:45 	 ~~ceilings~~  - overheads 	0
 Ebola is just a hoax created by the american government 	 2014-10-31 08:44:01 	  	0
   	 2014-11-07 22:43:13 	 /r/techsupportgore 	0
   	 2014-11-08 09:01:53 	 This is more /r/facepalm than /r/rage  	0
 Did I just find Tom Haverford's shop? 	 2014-11-11 02:17:24 	  	0
   	 2014-11-12 01:48:01 	 Can someone ELI5? 	0
   	 2014-11-12 02:22:52 	 This 'thot' thing needs to stop. I rage every time I see it 	0
   	 2014-11-12 15:57:59 	 Yikes...recircumsized?? anyone shed any light on this? 	0
 This is the face of Pepsi in Singapore 	 2014-11-13 09:44:03 	  	0
   	 2014-11-13 09:48:41 	 He's like Asian Fabio 	0
   	 2014-11-15 07:33:48 	 This doesn't seem to be either old people that are bad with tech or Facebook...did you mean to post if here? 	0
   	 2014-11-18 10:58:12 	 http://i.imgur.com/EAUWa.gif 	0
   	 2014-11-20 13:59:46 	 I would assume it's because none of then are factors of each other 	0
   	 2014-11-25 10:28:04 	 Gonna need a backstory here 	0
   	 2014-11-25 10:29:42 	 buttrock 	0
 It started to hail a little here in Brisbane 	 2014-11-27 08:07:56 	  	0
 Biggest hail storm I have ever witnessed. Complete chaos in the city. BNE, Australia 	 2014-11-27 08:29:17 	  	0
   	 2014-12-08 10:20:35 	 These will come in use when posting to /r/punchablefaces 	0
 The Daily Telegraph rushed these to print before getting the facts. 	 2014-12-15 07:01:37 	  	0
   	 2014-12-15 07:02:08 	" The situation at Martin Place in Sydney remains an ongoing one, and one from which very little concrete evidence has emerged. In fact, a statement aired on the ABC - ""All we know is a crime is taking place"" - remains the truest assessment of the events thus far.

And yet, here we are with this - a rushed out special 2pm print edition of the Daily Telegraph containing potentially one of the most vile, deliberately inflammatory, fundamentally wrong and wholly speculative front covers in the sordid history of Australian print media. "	0
 Was looking for gifts online when I accidentally found what all women want. You're welcome. 	 2014-12-18 03:51:05 	  	0
   	 2014-12-18 03:55:23 	" ""The flabby face will be refreshing"" - Thanks Japan! "	0
 My office decided to say 'fuck it' today 	 2014-12-19 09:29:06 	  	0
   	 2014-12-19 09:59:45 	 It may look that way...but it's a massive indoor slip n slide! 	0
   	 2014-12-19 10:05:34 	 Of course...that's what we use here in Australia 	0
   	 2014-12-19 10:07:38 	 Dunder-Mifflin...how did you know? 	0
   	 2014-12-19 10:12:31 	 Assistant to the regional slider 	0
   	 2014-12-24 01:46:34 	" Hi Captainbosspirate,

(1) This was not a Christmas party. This is an annual occasion just to have fun, and to raise money for charity.
(2) Partners are invited to the end of year balls.

Please stop having a whinge, it was all in good fun.

Source: I am the OP of the orginal image and an employee of the company. "	0
   	 2014-12-24 02:03:52 	  I can't have fun so no one can have fun 	0
   	 2014-12-24 04:05:28 	 Nope. Although I was very careful to remain anonymous, not name names and only paint the event in a positive light. As soon as it went viral new agencies simply scooped up gossip from social media on which it was rampant. 	0
   	 2014-12-24 04:16:21 	 I don't think so. The coverage that post got was absolutely insane. 	0
   	 2015-01-03 23:57:27 	 This looks like it's straight from the marshes of the first 'The Witcher' game 	0
 I dropped my cup and it broke perfectly 	 2015-01-09 10:34:35 	  	0
   	 2015-01-09 10:51:19 	 I have no idea. It can technically still be used I guess... 	0
   	 2015-01-17 23:05:30 	 No, men hate seeing nipples. 	0
   	 2015-01-22 04:48:30 	 Hotdogs or legs? 	0
 Our local news page now has 'Submit to Reddit' as a social plugin 	 2015-01-23 05:24:11 	  	0
   	 2015-02-08 13:45:42 	 Hey fuck you! Crossy road is the shit! 	0
 A garbage truck driver's thousand yard stare after accidentally running over and killing a young woman who tripped and fell on a pedestrian crossing this morning 	 2015-02-17 08:00:24 	  	0
   	 2015-02-17 08:01:00 	 Source [here](http://www.news.com.au/national/woman-dies-after-tripping-at-pedestrian-crossing-and-being-run-over-by-garbage-truck/story-fncynjr2-1227222759963) 	0
 A garbage truck driver's thousand yard stare after accidentally running over and killing a young woman who tripped and fell on a pedestrian crossing this morning 	 2015-02-17 08:01:45 	  	0
   	 2015-02-17 08:02:07 	 Source [here](http://www.news.com.au/national/woman-dies-after-tripping-at-pedestrian-crossing-and-being-run-over-by-garbage-truck/story-fncynjr2-1227222759963) 	0
   	 2015-02-17 08:42:12 	 Sorry to hear about that mate. How terrible. 	0
   	 2015-02-26 03:31:24 	 This is so meta 	0
   	 2015-02-26 11:47:18 	 Is this the house from Eternal Sunshine?? 	0
   	 2015-03-03 09:47:13 	 Marten Le-May-May 	0
 So I ordered McDelivery and this rocked up... 	 2015-03-05 05:05:13 	  	0
   	 2015-03-10 09:32:25 	 Because you touch yourself at night  	0
   	 2015-03-10 11:37:35 	 No no, no, no no.....no 	0
   	 2015-03-13 09:31:25 	 [I thought this was poignant here.](https://pbs.twimg.com/media/BxZ0WmzIUAAa0S-.png) 	0
" This bullshit recruiting that ""entrepreneurs"" do on social media "	 2015-03-20 23:22:42 	  	0
   	 2015-03-23 22:11:13 	 BUY WARTER! 	0
   	 2015-03-26 12:28:59 	 Shouldn't Shumacher be DNR?  	0
 I actually think I'm OK with my internet speed... 	 2015-04-06 09:10:29 	  	0
   	 2015-04-07 12:20:40 	 [Relevaaaaaaant](http://i.imgur.com/cYxStTX.jpg) 	0
   	 2015-04-11 00:29:26 	  	0
 The Chinese character for 'skewer' is a skewer with meat on it 	 2015-04-14 04:38:34 	  	0
   	 2015-04-14 05:37:15 	 TIL 	0
   	 2015-04-14 05:45:12 	 what are chines if our eyes aren't real? - Jaden Smith 	0
   	 2015-04-16 14:36:15 	" hot air gun

Hairdryer "	0
 me irl 	 2015-04-17 13:25:05 	  	0
 me irl 	 2015-04-17 13:36:38 	  	0
   	 2015-04-20 15:12:04 	 I love all of garden 	0
   	 2015-04-20 15:13:00 	 Thanks you too 	0
   	 2015-04-21 14:06:51 	 I am trying to figure out why he looks so Slavic and I can't put my finger on it 	0
   	 2015-04-23 06:34:26 	 Holy shit yes 	0
   	 2015-04-23 23:00:01 	 Chiiiiilliiiiiiiii's - baby-back ribs!  	0
 This is the mirror from Hubble. If you've ever wondered why it's so revered amongst astronomers and astrophysicists, this picture should answer that for you. 	 2015-04-24 09:21:21 	  	0
   	 2015-04-27 11:27:30 	 Question from the uneducated: What do you think GabeN is doing now? Do you think he's having emergency meetings, firing people who made the paywall decisions and generally sitting there thinking 'fuck, this situation is completely fucked!' What are his options now for getting the masterrace community back onside? Can he basically scrap this whole thing, apologise and start over? 	0
   	 2015-04-27 12:17:58 	 Really though? From the urgency of his unplanned AMA yesterday it's clear he takes this pretty seriously. 	0
   	 2015-04-27 14:22:04 	 Hmm yes I see, fair enough. Thanks for your opinion. 	0
 From CNN. So how come there are no white people rioting in the streets? 	 2015-04-29 14:59:38 	  	0
   	 2015-05-06 08:58:38 	 DAMN! Face like a smashed crab  	0
   	 2015-05-11 13:15:06 	 'Pet hate' is a colloquially accepted idiom 	0
 French dickbutts for sale in a shop in Singapore 	 2015-05-16 11:52:09 	  	0
 [AU] Gigabyte P37W or P37K 	 2015-05-17 08:19:03 	" Trying to decide whether the extra ~$400 is worth it to upgrade to the [P37W](http://www.gigabyte.com.au/products/product-page.aspx?pid=5349) from the lead in [P37K](http://www.gigabyte.com.au/products/product-page.aspx?pid=5375). The laptops are not cheap so I am trying to keep it reasonable. I specifically need a relatively high powered, thin gaming machine with internal optical drive at a min 17"".

From what I can see, the only difference is the upgrade from a [GTX 965M](http://gpuboss.com/graphics-card/GeForce-GTX-965M) to a GTX 970M in the P37W.

According to GPUBoss, the 970M is up to 35% more powerful, has a larger memory bus and higher clock speed.

Does anyone have an opinion as to whether the upgrade would be worth the extra cash? I'd love some help. Also, please let me know if I am overthinking things and the 965M is perfectly solid.

Thanks! "	0
 [Build Help] Gaming Laptop - Gigabyte P37K vs Gigabyte P37W 	 2015-05-17 08:29:37 	" Hi all, trying to decide whether the extra ~$400 is worth it to upgrade to the [P37W](http://www.gigabyte.com.au/products/product-page.aspx?pid=5349) from the lead in [P37K](http://www.gigabyte.com.au/products/product-page.aspx?pid=5375). The laptops are not cheap so I am trying to keep it reasonable. I specifically need a relatively high powered, thin gaming machine with internal optical drive at a min 17"".

From what I can see, the only difference is the upgrade from a [GTX 965M](http://www.notebookcheck.net/NVIDIA-GeForce-GTX-965M.134120.0.html) to a GTX 970M in the P37W. According to GPUBoss, the 970M is up to 35% more powerful, has a larger memory bus and higher clock speed.

Does anyone have an opinion as to whether the GPU upgrade would be worth the extra cash? I'd love some help. Also, please let me know if I am overthinking things and the 965M is perfectly solid.

Thanks! "	0
 Gaming Laptop - Gigabyte P37K/P37W - Is the GTX970M worth the upgrade? 	 2015-05-17 08:43:41 	" Hi all, trying to decide whether the extra ~$400 is worth it to upgrade to the [P37W](http://www.gigabyte.com.au/products/product-page.aspx?pid=5349) from the lead in [P37K](http://www.gigabyte.com.au/products/product-page.aspx?pid=5375). The laptops are not cheap so I am trying to keep it reasonable. I specifically need a relatively high powered, thin gaming machine with internal optical drive at a min 17"" screen.

From what I can see, the only difference is the upgrade from a [GTX 965M](http://www.notebookcheck.net/NVIDIA-GeForce-GTX-965M.134120.0.html) to a GTX 970M in the P37W. According to GPUBoss, the 970M is up to 35% more powerful, has a larger memory bus and higher clock speed.

Does anyone have an opinion as to whether the GPU upgrade would be worth the extra cash? I'd love some help. Also, please let me know if I am overthinking things and the 965M is perfectly solid.

Thanks! "	0
   	 2015-05-17 09:13:23 	 I also just joined the brotherhood at 10s. Welcome, doubleFisted33 :) 	0
   	 2015-05-17 09:14:05 	 Nicely done ;) 	0
 Reds are now the second largest active group, behind greys 	 2015-05-17 09:22:26 	" Interesting. I wonder how much longer we have left...

Edit: And purples "	0
   	 2015-05-17 09:26:57 	" I could, but I would need to ship it internationally to me here in Australia. The P650SE was appealing to me, but I was under the impression the base model didn't include hard drives or operating system, and when I added these in the price difference wasn't big. Also, I need a 17"" screen. Thanks for the tip though! "	0
   	 2015-05-17 09:39:11 	 Oh great, thanks bernie. I'll check these out 	0
 [Opinion] Laptop GPU - 965M or 970M 	 2015-05-17 10:10:12 	" Hi all, trying to decide whether the extra ~$400 is worth it to upgrade to the [P37W](http://www.gigabyte.com.au/products/product-page.aspx?pid=5349) from the lead in [P37K](http://www.gigabyte.com.au/products/product-page.aspx?pid=5375). The laptops are not cheap so I am trying to keep it reasonable. I specifically need a relatively high powered, thin gaming machine with internal optical drive at a min 17"" screen.

From what I can see, the only difference is the upgrade from a [GTX 965M](http://www.notebookcheck.net/NVIDIA-GeForce-GTX-965M.134120.0.html) to a GTX 970M in the P37W. According to GPUBoss, the 970M is up to 35% more powerful, has a larger memory bus and higher clock speed.

Does anyone have an opinion as to whether the GPU upgrade would be worth the extra cash? I'd love some help. Also, please let me know if I am overthinking things and the 965M is perfectly solid.

Thanks! "	0
   	 2015-05-17 13:22:09 	 Yeah, it's a fair amount of money...AUD2199 to AUD2599 with the 970M. But, comes with Witcher 3 included so I've got that going for me I guess. Haha. 	0
   	 2015-05-17 13:30:33 	" Yeah...tell me about it. No space for a PC set up, and I need the 17"" screen and internal optical drive as my wife needs to use it too and it's her compromise. It's frustrating, because I know I could build a better PC for far cheaper! "	0
   	 2015-05-17 13:43:37 	 Very true, I hadn't considered the smaller builds. I think I'm with you, the $400 doesn't seem worth it. Thanks for your advise hghdra, much appreciated. 	0
   	 2015-05-19 15:25:37 	 What the f.... 	0
   	 2015-05-20 23:41:00 	 I was born in '22 and I am 93. 	0
   	 2015-05-23 01:03:56 	" Lots of employee comments here, I wondered if anyone could lend advice from the other angle; I am a manager of a small business, I have four fantastic hard working staff under me. I can almost never fault their effort and detail the put in. How can I reward them for the work and show that I appreciated them? And also, if the constantly give me 100%, how can I make sure they don't burn out and keep enjoying what they do?

Any suggestions welcome - thanks all. "	0
   	 2015-05-31 00:45:06 	 Also, 1ml (or 1cm3) of water weighs 1 gram, and takes one kilojoule of energy to heat it by 1 degree Celcius. Aaaaahhh the metric system :) 	0
 Make life easier, everybody wins! 	 2015-06-13 01:05:06 	  	0
   	 2015-06-13 01:20:45 	" The top two comments on a tumblr post are always something along the lines of:

* *wow*
* *this is fucking thought provoking*
* *this is the deepest thing I've ever fucking read*
* *truth*

Who are these people
 "	0
   	 2015-06-13 14:07:32 	 ;) 	0
 [Marketing] Paying your monthly bills (All welcome) 	 2015-06-19 02:06:05 	  	0
   	 2015-06-19 05:49:04 	 Thanks for the feedback! I'll add this one in as an option.  	0
   	 2015-06-22 14:04:01 	 Wow that is some mild annoyance 	0
   	 2015-06-27 01:31:26 	 Someone please explain this to me (non-American here). 'Man shalt not lie with a woman as they do a man, it is an abomination' - this seems to be the go-to argument. But they're referencing homosexuality which has been legal for more than 50 years. To me this is not the point in case, today's ruling is a victory for civil liberties and equal rights, not actually being gay. Or am I wrong here? 	0
   	 2015-06-27 01:33:53 	 Can someone help me out? (non-American here). 'Man shalt not lie with a woman as they do a man, it is an abomination' - this seems to be the go-to argument. But they're referencing homosexuality which has been legal for more than 50 years. To me this is not the point in case, today's ruling is a victory for civil liberties and equal rights, not actually being gay. Or am I wrong here? 	0
   	 2015-06-27 01:40:07 	 I thought so. So why are some Christians so up in arms and using homosexuality as their argument? Seems if they have a problem with being gay they should protest that instead of marriage? Marriage has never been a solely Christian tenement so I feel I must be missing something here......??? 	0
   	 2015-06-27 01:54:18 	 That just made the verse super funny to me 	0
   	 2015-06-27 02:03:34 	 Ah yes I see. Whoops! 	0
   	 2015-06-29 13:27:38 	 Cain married his twin sister, and had children with her, and Abel had children from his twin sisters. It is indeed mentioned in the bible (Genesis, chapter 5, verse 4) that Adam and Eve had also daughters: And the days of Adam after he had begotten Seth were eight hundred years: and he begat sons and daughters. 	0
   	 2015-07-12 01:53:29 	 What the f...where am I?? 	0
   	 2015-07-13 12:32:18 	 That's what happens when you wear burlap sacks for shoes OP 	0
 4G Wifi Router as an alternative to ADSL2+ Router? 	 2015-07-14 05:17:00 	" Hi guys,

Located in BNE, Australia. I have been having huge problems with ISP traffic congestion on my ADSL2+ network between the hours of 5-10pm, which I understand is peak traffic time. What is frustrating me is that there appear to be few other options available for a steady data transfer rate at all times.

My wired connection runs at 10mbps during the day, then drops as low as 0.5mbps to 2mbps at peak times, making streaming video difficult.

Is a 4G WIFI router a viable alternative? I get download rates of 100mbps over the 4G cellular network at peak times and this would be far more preferrable.

Does anyone have any experience with this sort of thing? "	0
 4G Wifi Router as an alternative to ADSL2+ Router? 	 2015-07-14 05:27:00 	" Hi guys,

Located in BNE, Australia. I have been having huge problems with ISP traffic congestion on my ADSL2+ network between the hours of 5-10pm, which I understand is peak traffic time. What is frustrating me is that there appear to be few other options available for a steady data transfer rate at all times.

My wired connection runs at 10mbps during the day, then drops as low as 0.5mbps to 2mbps at peak times, making streaming video difficult.

Is a 4G WIFI router a viable alternative? I get download rates of 100mbps over the 4G cellular network at peak times and this would be far more preferrable.

Does anyone have any experience with this sort of thing? "	0
   	 2015-07-18 03:02:00 	 /r/thathappened  	0
   	 2015-07-20 05:11:33 	 Ayy-oh! 	0
 I really want to buy Bloodborne and enjoy it. Need advice! 	 2015-07-21 08:38:58 	" Hi everyone,

This game is so highly rated and looks amazing, but I would really love to know why it is that you like it so much. I really want to buy this game and like it, but the idea of constantly dying and reloading in games doesn't really sound like my cup of tea, it just sounds like punishment.

Do you really die every 5 seconds like people say? And do you have to be an amazing hardcore gamer to be able to play? Are the lowered difficulty levels?

Any advice is much appreciated!
 "	0
   	 2015-07-21 08:48:42 	 Thanks for your advice VonStreff. Yes I must say I have been put off by the Dark Souls reputation but great to know that Bloodborne is still enjoyable. And I suppose 1 death per hour isn't bad! 	0
   	 2015-07-21 12:31:17 	 Thanks everyone for your great advice. I'm going to pick the game up and get stuck in, and bear with it a while. Can't tell you how appreciative I am for your comments. 	0
   	 2015-07-21 12:34:51 	" Thanks for your advice Scrubstadt.  By the way, this:

If you accept that dying will happen, and try your best to learn from your deaths, the deaths themselves will become less frequent.

is a badass quote. "	0
 Dumbleburn 	 2015-07-22 12:52:40 	  	0
   	 2015-07-22 12:54:56 	 Credits to floccinaucinihilipilification on tumblr at [http://floccinaucinihilipilificationa.tumblr.com/](http://floccinaucinihilipilificationa.tumblr.com/) 	0
