title	date	text	class
   	 2013-10-06 18:23:47 	" Looks like Stacy will get the bulk of the carries:

https://twitter.com/jthom1/status/386880914292105216 "	0
   	 2013-10-10 06:53:32 	" This is my internal dilemma.  As much as I love technology, I know whatever I decide to buy will just promote a business model that includes exploiting another human being.  The only way to stop this is to just not buy from companies who are complicit in this type of behavior. And that is why I've started to purchase second hand items.  It doesn't directly support firms who allow for these awful working conditions, I end up buying the product  at a cheaper price, and I'm not being completely wasteful and adding demand for a new product that really isn't that much different than the one that came before it.  

Also is there a site or subreddit that keeps track of companies that force their workers to work in such awful conditions? Is there a site or subreddit that keeps track of the companies that do the exact opposite and pay their employees respectable wages or even living wages for producing all these consumer goods?

EDIT: And this is why I also don't necessarily bitch about prices on products.  There is a limit I am willing to spend on something but bitching about prices is just silly.  The price of a product is a derivative of its cost and demand.  If I want to buy something new that is cheap it most likely means that the cost of labor associated to it is cheap, which in turn means that person or people who created this product are most likely not being paid a sufficient amount to make the item. "	0
   	 2013-10-11 04:25:40 	 Lets hope. 	0
   	 2013-10-11 04:32:31 	 And Randle is soooo stupid. 	0
   	 2013-10-11 04:34:13 	 Didn't Cruz benefit from this rule 2 years ago as well? I think it was against the cardinals. 	0
   	 2013-10-11 04:42:36 	 Shocking the VP of Officiating defends the decision by the officials. 	0
   	 2013-10-11 04:53:07 	 Has the Bears run defense been this mediocre this year? 	0
 David Wilson may be out for the season with spinal stenosis. 	 2013-10-11 21:59:34 	  	0
   	 2013-10-11 22:08:44 	 Dude get over it.  It is just fantasy football, this on the other hand is a pretty serious and career threatening diagnosis.  Show some empathy. 	0
   	 2013-10-11 22:53:36 	 I wouldn't say RB2 just yet.  This was the first game that the giants oline looked competent but that could just be a result of the bears defense being incompetent.  Also Andre Brown should be back from his injury after the giants bye.  	0
   	 2013-10-11 23:15:38 	" Update on the situation: https://twitter.com/ConorTOrr/status/388765847554383872

From rotoworld:
""That's not the way it was presented to me,"" Coughlin said. The Giants' coach gave a ""vague timeline"" on Wilson's return at 3-4 weeks, although none of this really matters until Wilson gets a second opinion on his neck during Monday's visit with specialist Dr. Robert Watkins. Wilson owners should still fear the worst, but keep Wilson rostered until the Watkins results are known "	0
   	 2013-10-12 01:22:50 	 If someone has the luxury to drop a lot of cash on fantasy football then he doesn't have much to bitch about.  	0
   	 2013-10-12 03:58:15 	 Which the week the giants come off their bye :) 	0
   	 2013-10-14 19:41:44 	 I think it could be a misprint. Ian rappaport, on twitter, is saying that he's getting an mri on his foot. Either way we still have to wait for more info.  	0
   	 2013-10-15 04:11:03 	 Pretty similar wr group in a 16 teamer, except I have Fitz instead of Cruz. I actually got Marshall and Blackmon in trade. I ended up trading Moreno Steve Smith and Broyles for those 2 plus Jerome Simpson. I feel like the trade worked out well for both sides.  	0
   	 2013-10-15 04:40:42 	 The biggest issue with the healthcare in the US is that it is a for profit industry. Ideally the development and applications of medicine should be motivated by benefitting the well being of humanity not concerned with increasing cash flows.   But unfortunately people just aren't that intelligent or empathetic,  especially in the US.  	0
   	 2013-10-15 18:07:13 	 Yesterday was the first time this season that the Chargers were so balanced.  They have consistently been a pass first team during their 5 other games.   	0
   	 2013-10-15 18:40:49 	" Chiefs D, Moreno, Fred Jackson, Reggie Bush, Julius Thomas, Jordan Cameron, Desean Jackson, Gordon, Blackmon, and Allen. Although the latter 2 still have a small sample size of success this year.

I would also put Peyton Manning and Jimmy Graham as steals.  These guys were drafted in the 2nd or 3rd round and are probably worth a top 8 draft pick. "	0
   	 2013-10-15 20:25:59 	" I think it would be ""pretty dumb"" to jump to the conclusion that the Chargers would run it like that based off of a one game sample size against a bad run defense.   From what we have seen ALL season, not just one game, the Chargers are more likely to be passing more than they will be running it.  

As for Allen's value, he should be a top 30 WR.  It is a positive that he did well despite the fact that the team went so run heavy.  I'm not saying he will put up the same numbers he has had the past 2 weeks but he will be a solid WR3 for standard 10 team leagues. "	0
   	 2013-10-16 03:06:58 	 I feel like a simple, but costly solution concerning player health and safety would be that the NFL just covers the cost of medical expenses for each player for life after they retire from the sport.  I feel that is a fair compromise considering NFL players do not get guaranteed contracts and that the NFL owners do nothing.  The players provide the entertainment, not the owners and not the other NFL executives.  I just really wish the NFLPA was a better run organization and actually used that reality as leverage. 	0
   	 2013-10-16 22:59:47 	 We have the inalienable right to say and express any idea we want.  If an nfl player is willing to deal with the consequences (ie fines or media/fan attention), he should say whatever he wants.  I really don't see how this is a slippery slope. 	0
   	 2013-10-23 07:25:37 	" You can a VPN in the Netherlands and then go to gamepass.nfl.com and watch all the games there for free.  The NFL as an attempt to spread football has offered free game streams there.

You could also just use an antennae to watch local games in HD.

Check out [r/cordcutters](http://www.reddit.com/r/cordcutters/) for more info regarding ditching cable. "	0
 Trying to build a sub $800 gaming rig for friend. What do you guys think? 	 2013-10-26 08:59:25 	" Hey everyone! I'm trying to build a gaming rig for my friend.  He wants it to be under $800 including the price of the monitor.  He plans on playing Elder Scrolls Online and BF4 at 1080p.  Here is what I've quickly come up with.  All opinions are appreciated:

[PCPartPicker part list](http://pcpartpicker.com/p/1TjOA) / [Price breakdown by merchant](http://pcpartpicker.com/p/1TjOA/by_merchant/) / [Benchmarks](http://pcpartpicker.com/p/1TjOA/benchmarks/)

Type|Item|Price
:----|:----|:----
**CPU** | [AMD FX-6350 3.9GHz 6-Core Processor](http://pcpartpicker.com/part/amd-cpu-fd6350frhkbox) | $124.99 @ Newegg 
**CPU Cooler** | [Cooler Master Hyper 212 EVO 82.9 CFM Sleeve Bearing CPU Cooler](http://pcpartpicker.com/part/cooler-master-cpu-cooler-rr212e20pkr2) | $29.99 @ NCIX US 
**Motherboard** | [Asus M5A97 R2.0 ATX AM3+ Motherboard](http://pcpartpicker.com/part/asus-motherboard-m5a97r20) | $94.99 @ Newegg 
**Memory** | [G.Skill Ares Series 8GB (2 x 4GB) DDR3-1600 Memory](http://pcpartpicker.com/part/gskill-memory-f31600c9d8gab) | $63.75 @ Newegg 
**Storage** | [Western Digital Caviar Blue 1TB 3.5"" 7200RPM Internal Hard Drive](http://pcpartpicker.com/part/western-digital-internal-hard-drive-wd10ezex) | $58.99 @ NCIX US 
**Video Card** | [MSI Radeon HD 7950 3GB Video Card](http://pcpartpicker.com/part/msi-video-card-r79503gd5ocbe) | $179.99 @ Newegg 
**Case** | [NZXT Source 210 Elite (Black) ATX Mid Tower Case](http://pcpartpicker.com/part/nzxt-case-s210e001) | $46.62 @ Amazon 
**Power Supply** | [SeaSonic 620W 80 PLUS Bronze Certified ATX12V / EPS12V Power Supply](http://pcpartpicker.com/part/seasonic-power-supply-m12ii620bronze) | $59.99 @ Newegg 
**Monitor** | [Acer G236HLBbd 60Hz 23.0"" Monitor](http://pcpartpicker.com/part/acer-monitor-umvg6aab01) | $119.99 @ TigerDirect 
 | | **Total**
 | Prices include shipping, taxes, and discounts when available. | $779.30
 | Generated by PCPartPicker 2013-10-26 02:56 EDT-0400 | "	0
   	 2013-10-26 09:03:57 	 I agree.  I would like to keep MIR to a minimum.  But I would have to ask my friend. 	0
   	 2013-10-28 04:30:05 	 Since when has the US government been concerned over the privacy rights of its citizens? 	0
   	 2013-10-29 05:11:03 	" Unfortunately he was taken for x-rays.  
Link: https://twitter.com/MikeGarafolo/status/395035855368101888
 "	0
 Stacy taken for X-rays 	 2013-10-29 05:12:55 	  	0
   	 2013-10-29 05:41:34 	 According to the post game press conference, Fisher vaguely stated he has a sprained ankle. 	0
   	 2013-10-29 05:47:17 	 No details at the moment. 	0
   	 2013-10-29 15:23:22 	 He suffered it in the 2nd to last drive.  He had a couple of good runs at the beginning of the last drive and then came in for that last atrocious play. 	0
   	 2013-11-01 03:11:47 	 I havae both in a 16 team league and prefer Stacy mainly beacaue we know what his role is and will be going forward. Who knows what Arians plans to do with Ellington.  Also the Rams oline looked fantastic against seahawks front 7.  Meanwhile a week before the Cardinals oline looked absolutely awful against the same seahawks front 7. 	0
 Staced God ROS ranking 	 2013-11-04 18:02:02 	" This is the list of ROS ranking for RBs coming into Sunday from FantastPros: http://www.fantasypros.com/nfl/rankings/ros-rb.php 

The only RBs I'd rather have (in no particular order) would be AD, charles, McCoy, Lynch, Forte, Bush, Morris, Lacy, Gore, Moreno.  So I would have him at 11.  What do you guys think? "	0
   	 2013-11-05 15:58:39 	 Im 8-1, in a 16 team league and setting up for the playoff.  I'm looking to trade for a qb and was targeting Rodgers.  What would a fair offer be? I'm willing to trade Eric Decker, Spiller and Ellington.  Would 2 of the 3 be fine? Also the other team is 3-6 and only has reggie bush as a viable player. 	0
   	 2013-11-05 16:02:56 	 Yes you should 	0
   	 2013-11-05 16:36:09 	 Why would it be vetoed? I'm not colluding, I'm attempting to buy low on a player who looks to be out for 3 weeks. 	0
   	 2013-11-05 20:53:14 	" It depends on the severity of the break.  I do remember Ryan matthews needing 4-6 weeks to recover from it last year.  Either way there is no definitive timetable atm.  That will come later on in the week with more tests scheduled for Rodgers, according to a radio interview he just did.  Here's a link by from Bill Barnwell's twitter: http://www.texnews.com/1998/cowboys/ftwaik0914.html Aikman needed 6 weeks to come back.  But again there still isnt enough info and at this point there is just alot of speculation.  

I was tempted to buy low on him earlier on but after hearing the interview I've grown hesitant.  Might just have to settle for Big Ben in a trade. "	0
 ROS: Erick Decker or Antonio Brown and why? 	 2013-11-06 17:09:40 	 I'm leaning towards Brown at the moment.  He gets more targets plus I feel like the Denver Broncos will slow down. 	0
   	 2013-11-06 19:42:44 	" I'm pulling off a big trade in a 16 team league.  I'm 8-1 and looking to get and upgrade at QB and maximize my starting lineup for the playoffs.  

I have Glennon, Vick and alex smith at QB.  RBs are Stacey, Lacy, Spiller, ellington, cj anderson and johnathan franklin.  WRs are Brown, Decker, and Keenan Allen. TE is graham.

 I'll be packaging Allen, Ellington, Alex smith, cj anderson, and either Decker or Brown for Andrew luck, Dez Bryant, Steve Smith, David Wilson and Robert woods.  So I'm stuck deciding who I would rather have for the rest of the year, Brown or Decker "	0
   	 2013-11-06 20:02:13 	 I could do an Ellington for Big Ben trade. But I think I would still prefer the starting lineup that the previous trade would produce.  I'm in no rush to make a trade.  It's just that I feel the need to maximize my starting lineup.  Having Decker, Spiller, or Elington on my bench seems like a waste.  And also most other teams seem hesitant to let go of their QB1. 	0
   	 2013-11-06 20:03:17 	 Also thanks for the help 	0
   	 2013-11-06 20:29:46 	 Fair points.  I do feel like I should wait a week or 2 before deciding on making such a drastic move. EJ manuel is also a FA so I may drop someone for him.  I ended up making another thread to hopefully get some more input on this.  But again thanks! 	0
   	 2013-11-06 20:30:47 	 Hhaha I just responeded to your other comment.  And I complete forgot about the trade thread. Ill just move this over there then. 	0
   	 2013-11-06 20:33:03 	" I am currently 8-1 and looking to upgrade at QB and maximize my starting lineup potential for the playoffs. The playoffs are weeks 15-17. The top 2 seeds get a bye, I am the 2nd seed and am facing the top seed this week.
My current roster is as follows:

QB: Alex smith, Mike Glennon, Vick (EJ Manuel is on waivers as well)

RB: Eddie Lacy, Staced God, Spiller, Ellington, CJ Anderson, Johnathan Franklin

WR: Antonio Brown, Keenan Allen, Eric Decker, Mike Brown

TE: Jimmy Graham

DST: Titans K: Hartley

Standard Espn scoring

The trade is as follows: I'm giving up Allen, Ellington, Alex Smith, CJ Anderson and either Antonio Brown or Decker (still unsure on which one, any help with that would also be nice!)

I will receive: Andrew Luck, Dez Bryant, Steve Smith, David Wilson, Robert Woods.

I also have a trade offer of Big Ben for Ellington waiting in the wings if this trade doesn't happen.

So what should I do?

Thanks for anyone who bother reading this. And thank you even more for those who would even bother answering! "	0
   	 2013-11-06 21:40:57 	 I feel the same way but the other person is adamant in involving Allen.  	0
   	 2013-11-06 21:41:53 	 Got 1.  But the more I think about the more I feel like ill wait a week before deciding on a trade.  This isn't something I need to do. 	0
   	 2013-11-06 22:07:25 	 1 qb, 2 rb, 2 wr, 1 te, 1 te/wr/rb, 1 dst, 1 k 	0
   	 2013-11-06 23:59:56 	 You dont need Spiller to get 20 carries a game to be great.  He's efficient when he gets the ball.  And I'd rather have him not get the ball that many times since he has had injury issues throughout his college and nfl career. Also the Bills run alot of plays due to their up tempo run oriented offense, so a split with Jackson isn't anything to worry about.  Even with jackson, Spiller was getting more than 18 touches a game when he was healthy the first 4 games.   	0
 Dez Bryant back at practice and looking pretty good 	 2013-11-08 18:13:36 	  	0
   	 2013-11-09 22:18:00 	" I think you may be over reacting to the Rodgers injury.  We have seen good RBs do well with bad QBs, ie Stacy, AD, Charles, etc.  Obviously it would be better to have Rodgers at QB but I trust McCarthy to come up with a good offensive game plan.  He is a good coach, he had Favre and Flynn (albeit in a small sample size) look good in his system.  Lacy's schedule is just as easy Morris'. While the redskins o-line is probably better, the packer's o-line has been pretty solid at run blocking.  

With all that being said, I view both Morris and Lacy pretty similarly.  They are probably anywhere in the 8-12 range in RB rankings.  "	0
   	 2013-11-10 03:43:34 	 That's fair.  	0
   	 2013-11-10 16:54:04 	 I understand that we shouldn't get hyped up about Johnson, he probably will get the same amount of work that Tate had with Foster in the lineup.  But Tate is injury prone, so Johnson does have value. 	0
   	 2013-11-10 16:58:51 	 Vereen.  Johnson is nothing more than a Tate handcuff. 	0
 What is Aaron Rodger's Trade value? 	 2013-11-13 03:45:23 	 I'm 8-2 and trying to set my team roster up for the playoffs (weeks 15-17).  I was wondering if I should give the Rodgers owner Luck for Rodgers and tannehill.  I really have no idea how to evaluate Rodgers for ROS value considering the timetable for his return is so muddled. 	0
   	 2013-11-13 03:59:16 	 I do think that's a trade you should make.  The drop off between Smith and Allen isn't as great as the increase going from Johnson to Charles. And carolina is still a very good defense so losing KC isnt that big of a deal. 	0
   	 2013-11-13 04:00:24 	 Yea it is a 16 team league and was planning on picking Fitzpatrick and McCown to play the matchups till Rodgers came back. 	0
   	 2013-11-14 18:38:07 	 Graham with one foot is still better than every TE in the league.   	0
   	 2013-11-15 18:16:01 	" I'm not too worried about the foot.  Yes it will always be in the back of my mind, but is there really a better replacement for him?  Maybe Gronk, but he is also an injury risk every time he gets onto the field.  Graham will have his snap counts limited as this is an injury that needs to be managed but it's not like he didn't perform the other weeks he was limited.  In regard to last week specifically, it looks like his limited snap count, especially in the red zone, was based on the Saints game plan not his injury.  Here is a full article on the subject matter:

http://espn.go.com/blog/nflnation/post/_/id/100078/saints-graham-adjusting-to-limited-role "	0
   	 2013-11-15 18:56:44 	 Are you sure? Didnt Gates play with a torn one a few years back? 	0
   	 2013-11-16 06:07:37 	 The big cost there is joining the military. 	0
   	 2013-11-21 06:54:54 	 Thats a pretty cool chart by FO.   	0
   	 2013-11-21 07:04:42 	 It all depends on who your other receivers are.  I know ppl are excited about what Brown has done the past couple of weeks but that was against 2 awful defenses.  Haden is really damn good, brown is probably in the mid-teens for WR this week. 	0
 Knowshon spotted with crutches in the locker room. 	 2013-11-25 07:09:57 	  	0
   	 2013-12-02 06:16:23 	 Wilfork was healthy at the time, NE run defense has been non-existent since his injury.  Like you noted Spiller was unhealthy during the Miami game so.  Pitt is a better run defense than JAX according to DVOA coming into this week: http://www.footballoutsiders.com/stats/teamdef  That Pitt game, the whole Bills offense was just awful, it was Manuel's first game back from his knee injury.  It was just good to see Spiller play with the same explosiveness he had last year, even when he came back after limping off the field.   	0
   	 2013-12-07 08:44:32 	 Android mini pc's are currently available.  This product doesn't sound much different than those.  The biggest difference, and an important one, is that it does come directly from Google so quicker OS updates will be available. 	0
   	 2013-12-07 09:50:12 	 Yea there is that possibility. However there are apps that let you use either a smartphone or tablet as a remote for the android mini pc.  I currently use the droidmote app on my galaxy s3 or nexus 7 to control an asus tf700t connected to my tv.  There's also a cheapcast app that emulates certain features of chromecast (ie Youtube casting) that one could also use.  	0
   	 2013-12-18 23:21:09 	 I thought adults knew better... 	0
 Eddie Lacy should play. 	 2013-12-26 20:46:40 	" McCarthy just said, in his press conference, that Lacy ""should play.""   "	0
 Just graduated w/ BS in accounting but want to pursue career in Data Science/Analytics 	 2014-01-10 21:52:26 	 I just graduated with an accounting BS from CUNY Hunter, but dont want to pursue a job or career in that field.  I am more interested in the data science/analytics and visualization field.  I have taken math and stats courses (Calc 1, a basic Sats course, and an Econometrics course), and I have also taken a Comp Sci 1 course, which taught some C++.  I am currently doing some self-learning focusing on Python (Learn Python the Hard Way), R (Courseras Computing for Data Analysis), and Databases (Stanfords Intro to DB MOOC) and later moving onto Caltechs Learning from Data course.  Im not sure if Im wasting my time or I am better off going back to school and take more Comp Sci and Math courses.  Any advice or insight would be greatly appreciated. 	0
 Just graduated w/ BS in accounting but want to pursue career in Data Science/Analytics (x-post cscareerquestions) 	 2014-01-10 23:04:36 	  	0
   	 2014-01-11 01:13:35 	 I do have projects in mind, and have thought of participating in a Kaggle competitions as I go forward in my studies and improve. However, since I don't have the proper educational background would all that be enough to convince a potential employer to hire me? 	0
   	 2014-01-12 07:55:09 	 Good luck with your interviews! And thanks for the responses everyone. Your insights have been quite helpful.  I think I will end up going back to school in the fall to take a few comp sci courses to have a better foundation in that field, as well as taking a couple more math classes (calc 2 and linear algebra).  From that point I hope to apply to a grad program.  In the meantime I will try to learn as much R, Python and data science/ ML concepts in order to develop my own projects and try my hands on a few Kaggle competitions.  Hopefully this works out well, and thanks again. 	0
   	 2014-01-31 23:17:44 	 A single payer system in the US would go a long way in solving this issue.  	0
   	 2014-02-01 10:26:16 	" All valid points and you are right to say that a single payer system may not be the most efficient system for the US. I can't say what system would be more efficient.  I do think that the US needs tighter control over its healthcare system, with the ACA the country is moving in the right direction.  The top 3 (Hong Kong, Singapore, and Japan) most efficient systems do have tight controls over their systems even though the implementations of each system are quite different from on another.
Sources:
http://www.huffingtonpost.com/2013/08/29/most-efficient-healthcare_n_3825477.html 

http://www.bloomberg.com/visual-data/best-and-worst/most-efficient-health-care-countries
 "	0
 Why are officers in Ferguson without badges on their uniforms? 	 2014-08-19 07:46:46 	  	0
   	 2014-09-02 06:26:29 	 [Here's](http://www.si.com/nfl/2014/08/28/josh-gordon-suspension-browns-nfl-legal-options) a solid read in regards to Gordon's legal options. 	0
   	 2014-09-08 04:30:11 	 Me too, for Philip Rivers  	0
   	 2014-09-08 17:46:06 	" The NFL is lying about not seeing the video from inside the elevator.  Here is a quote from [this](http://mmqb.si.com/2014/07/29/jordan-gross-weight-retirement-panthers/2/) artice by Peter King: 

""There is one other thing I did not write or refer to, and that is the other videotape the NFL and some Ravens officials have seen, from the security camera inside the elevator at the time of the physical altercation between Rice and his fiance.""

EDIT: More [info](http://deadspin.com/someone-is-lying-about-whether-the-nfl-saw-the-ray-rice-1631901404) from Deadspin "	0
   	 2014-09-13 00:18:27 	" Article with images of son's injuries:
http://minnesota.cbslocal.com/2014/09/12/adrian-peterson-indicted-for-child-abuse/ "	0
   	 2014-09-13 00:28:45 	 Local news article with images of his son's injuries: http://minnesota.cbslocal.com/2014/09/12/adrian-peterson-indicted-for-child-abuse/ 	0
   	 2014-09-17 01:13:16 	 Looks like Vikings may change their minds: https://twitter.com/ProFootballTalk/status/511995714600452096 	0
   	 2014-09-18 18:30:08 	 This is fantastic! 	0
" Adam Teicher on Twitter: ""Jamaal Charles is practicing with chiefs today. An interesting turn of events. Looked OK to me"" "	 2014-09-18 20:43:27 	  	0
   	 2014-09-18 21:15:52 	 According to Reid, it wasn't a severe sprain, but had the component of a high ankle sprain. [Source.](https://twitter.com/ChiefsReporter/status/511566349550624768) Apparently it didn't have the 4-6 week component of a high ankle sprain. 	0
   	 2014-09-21 08:40:13 	" Here is some play-by-play data that's available: http://www.advancedfootballanalytics.com/2010/04/play-by-play-data.html

This is for all of 2013:
https://www.spreadsheet-sports.com/free-tools/2013-nfl-play-play-data-excel/


There is also this fantastic database:
https://github.com/BurntSushi/nfldb

As for seasonal player data check:
http://www.pro-football-reference.com/download/
Pro football reference will probably give the stats you are looking for. They also have college stats.

And if you are willing to pay for data there is this:
http://www.armchairanalysis.com/data.php

EDIT: More data, also includes combine data: http://nflsavant.com/about.php
 "	0
   	 2014-09-29 05:54:31 	 It all depends on what you can get for him of course.  Before this weeks games I was able to package him, Matt Ryan and Ertz for Gronk and Aaron Rodgers.  You could probably do better after today's game.  You've seen his best game of the year so if you want to flip him for something else go right ahead. 	0
   	 2014-09-29 08:12:51 	 There's that, but it isn't enough for local governments, hence all the tickets. 	0
   	 2014-10-01 04:40:15 	 Well I traded him the previous week. I sent him, asiata, and ertz for Rodgers and Gronk.  I felt good about the trade when it happened, less good when asiata scored 3tds, okish when Gronk got a garbage time TD, slightly better now that Ryan has lost 3/5ths of the his oline (including Sam Baker).  Also a heads up for Ryan owners, he plays 1 less home game this year b/c of the london game so that's another negative for him, as he does play better at home than on the road.  Also I wouldn't bank on his WRs to stay healthy for the year either.  Julio Jones was the biggest injury risk at the WR position coming into the season: http://sportsinjurypredictor.com/top-injury-risks-2014/  	0
   	 2014-10-01 18:23:13 	 footballoutsiders.com does a good job rating defenses.  They also rate olines and dlines. 	0
   	 2014-10-02 06:57:00 	 Would love to see this analysis done for previous years as well.  While this is interesting information, it is still a small sample size. 	0
   	 2014-10-02 08:22:15 	" Well profootball reference has weekly stats in this format: http://www.pro-football-reference.com/years/2012/week_1.htm

They also have a link to copy it in CSV format.  From there you could just convert the raw numbers into fantasy points.

As for the copying and pasting, if you don't have any programming experience try using web scrapers like this one: https://chrome.google.com/webstore/detail/web-scraper/jnhgnonknehpejjnehehllkliplmbmhn?hl=en

Not sure if that specific one is good but try using something like that to save yourself from having to copy and paste everything.

Also if ya don't know how to program you should try out Python or R, both have a good community and a fair amount of tools for statistical analysis.  "	0
   	 2014-10-03 21:29:08 	" 12 team, non ppr
Currently 3-1

QB: Rodgers, Rivers

RB: McCoy, Morris, M. Ball, R. Mathews, Helu

WR: A. Brown, Cruz, Wallace, Hopkins, Gordon

TE: Gronk

D/ST: Broncos

K: Bailey "	0
   	 2014-11-27 16:42:16 	" Bought the CB2 on monday, thank god for discover price protection
Edit:

Best buy has it [too](http://slickdeals.net/?sdtid=7432318 sdop=1 sdpid=72206178 sdfid=9 lno=1 trd=BestBuy+for+279 u2=http%3A%2F%2Fwww.bestbuy.com%2Fsite%2Ftoshiba-13-3-chromebook-2-intel-celeron-4gb-memory-16gb-solid-state-drive-satin-gold%2F8790147.p)

As does [bh photo](http://www.bhphotovideo.com/bnh/controller/home?O= sku=1084081 gclid=CImh1sGSmsICFeNaMgod53IAww is=REG Q= A=details) but you need to wait 1-2 weeks, and you may be able to avoid tax "	0
   	 2014-11-28 04:57:43 	 It's silver. 	0
   	 2014-11-29 22:07:05 	 Yea I'm hoping everything goes well.  I was debating whether to go through Best Buy's Customer Service or Discover's.  I decided on going through Discover to see how the experience was, in order to do you what you said for next year's BF deals.  Worse comes to worse I only lose $50, which I was already willing to spend on this chromebook anyways. 	0
   	 2014-12-05 07:49:01 	 Yea it's pretty nice.  Love the screen and the speaker.  Elementary OS runs pretty well on this laptop. However, I do wish it was just a bit more powerful as I have had some stuttering issues with 1080p vids on youtube. 	0
   	 2014-12-11 07:12:29 	 Performance is just fine outside of video playback.  It can't play certain youtube videos at 1080p which is dissappointing.  It also can have some stuttering issues when playing back video on a 2nd monitor and doing something on the laptop screen.  I am looking forward to future iterations of this laptop with better CPU. 	0
   	 2014-12-12 01:35:30 	" I don't think it's flash, I use youtube magic actions and force HTML5 playback on videos.  Most 1080p vids playback well, but there are just some that just stutter, like this one [here.](https://www.youtube.com/watch?v=2QRqPPFREx4 index=2 list=UUXGgrKt94gR6lmN4aN3mYTg)

As for when I'm running ElementaryOS I have stuttering issues all the time when trying to run play youtube videos.
 "	0
   	 2014-12-13 01:03:03 	 You can run a Linux distro via crouton on the Toshiba CB2.  I'm running Elementary OS via crouton right now and runs pretty well. However any chromebook with an Intel Bay Trail processor won't be able to run Linux via Chrubuntu. 	0
   	 2014-12-15 05:15:55 	 The CB2's screen isn't just better based off just the higher resolution. The CB2's screen covers [98.5%of sRGB color gamut and has a Delte-E score of 1 (0 is the best)](http://www.laptopmag.com/reviews/laptops/toshiba-chromebook-2) while the Air covers [63.3% of the color gamut and has a Delta-E of 2.5.](http://www.laptopmag.com/reviews/laptops/apple-macbook-air-13-inch-2014)   	0
   	 2014-12-31 01:39:35 	 How would I get this to work if already have Elementary OS installed via crouton? 	0
 Is it possible to get a Toshiba CB2 to work with Korean 1440p monitor? 	 2015-01-15 22:12:56 	" I recently purchased [this](http://www.amazon.com/gp/product/B001TH7T2U/ref=oh_aui_detailpage_o02_s00?ie=UTF8 psc=1) HDMI to DVI adapter in order to use my Toshiba CB2 with my [QNIX 27"" 1440p monitor](http://www.amazon.com/QNIX-QX2710-Evolution-LED-Monitor/dp/B00BUI44US).  I've been unable to get it to work.  I was just wondering if anyone else was able to get their CB2 working with a 1440p external display. Thanks. "	0
 Playoff QB visualization 	 2015-01-30 04:35:14 	 I created [this](https://savvas.shinyapps.io/qb_shiny/) interactive graph of QB playoff performance based on DVOA since 1989.  All the data comes from [this](http://www.footballoutsiders.com/stat-analysis/2014/nfls-best-playoff-quarterbacks-dvoa-and-dyar) Football Outsiders article.  [Here's my code.](https://github.com/savvastj/qb_shiny) Let me know what you guys think of it.  I'm open to suggestions on how to make it better. 	0
 Playoff QB Performance based on DVOA 1989-2013 (x-post from /r/nfl) [OC] 	 2015-01-30 06:07:53 	 I created [this](https://savvas.shinyapps.io/qb_shiny/) interactive graph of QB playoff performance based on DVOA since 1989.  All the data comes from [this](http://www.footballoutsiders.com/stat-analysis/2014/nfls-best-playoff-quarterbacks-dvoa-and-dyar) Football Outsiders article.  [Here's my code.](https://github.com/savvastj/qb_shiny) Let me know what you guys think of it.  I'm open to suggestions on how to make it better. 	0
   	 2015-01-30 22:58:55 	 No, not atm.  The graph is just sorted in alphabetical order. 	0
   	 2015-01-30 22:59:31 	 Thanks. 	0
   	 2015-01-30 23:02:44 	 Glad you enjoyed. And yeap he was real bad. 	0
   	 2015-02-12 03:16:01 	 Yes! 	0
   	 2015-02-15 07:01:05 	" I was just trying to figure out how to do this as well and found the solution.

1. To change the default open the file manager app on chrome os. 

2. Then click on the pdf you want to open, but don't actually open it. 

3. On the bottom right of the file manager app there should be a drop down menu that allows you to select which pdf viewer to use.  You can  also change the default pdf viewer from the same menu as well.

 "	0
   	 2015-02-19 04:08:32 	 This is pretty cool.  Is there a an easy way of scraping the shot charts data?  I know it's possible, the guy who made [this](http://peterbeshai.com/buckets/app/#/playerView/201935_2014) was able to do it. 	0
   	 2015-02-19 08:11:32 	" On the Tosihiba CB2 FHD Netflix doesn't give me any problems.  Youtube tends to stutter during the first couple of seconds and then is fine.  However Youtube videos that run at 60fps are unplayable.

EDIT:  In regards to the youtube stuttering, using magic actions for youtube, I enabled flash player playback which got rid of all the stuttering, even 60fps 1080p videos. "	0
   	 2015-02-22 04:25:10 	 Is there a website or dataset that keeps track of the funding for scientific studies/publications? 	0
   	 2015-02-23 08:18:40 	 I'd agree with you, but [Joey Crawford](https://www.youtube.com/watch?v=a2SYIrUnf5Y t=1m24s) exists [so...](https://usatthebiglead.files.wordpress.com/2012/12/tim-duncan-tony-paker-guns-joey-crawford1.jpg) 	0
 Can't start elementary OS. 	 2015-02-25 18:10:14 	" I can't start elementary OS. I keep getting the error: X: cannot stat /etc/X11/X (No such file or directory), aborting.

This happened after I updated my Chrome OS.  Could the update have broken my chroot?   "	0
   	 2015-02-28 00:30:19 	 It's a step in the right direction but why limit it to only the last 2 minutes of close games? 	0
   	 2015-02-28 00:35:31 	 Would be nice to know the name of the official who made the call. 	0
   	 2015-02-28 02:48:53 	 The ref data on basketball reference just indicates the effects of the whole crew that a ref happened to be a part of.  Keeping track of individual ref calls or non calls would allows us to get a better idea of the tendencies of each individual ref.  I just think having that information would be nice and would lead to some interesting analysis.  And I don't know about the whole mob material thing, if a ref does perform poorly he/she should be criticized the same way players are when they perform poorly.   	0
   	 2015-02-28 03:04:10 	" It's not helpful to just show info regarding one youth football league without comparing it to other leagues and other sports. There's been a general decline in youth sports, not just football.

http://www.wsj.com/articles/SB10001424052702303519404579350892629229918

[Chart form the article.](http://si.wsj.net/public/resources/images/P1-BO944A_YOUTH_G_20140130180004.jpg)


 "	0
   	 2015-02-28 07:28:49 	 perhaps... 	0
   	 2015-02-28 23:09:11 	 I'm not saying that there isn't a connection between the two. I do think that there is a high probability that there is some connection.  I just wanted to point out that other sports are experiencing a similar decline and that there are other possible factors in play that have led to a decline in the participation rates of those sports. 	0
   	 2015-03-05 03:23:25 	 If you want to program locally it is best to install crouton and then install eclipse.  As for an online IDE you can try this: http://ideone.com/ but I can't vouch for how good it is as I haven't used it. 	0
   	 2015-03-05 19:08:27 	" [Actually the nfl does admit officiating mistakes.](https://www.google.com/search?btnG=1 pws=0 q=nfl+admits+officiating+mistake) 

While I do agree the larger sample size of plays/possessions/games allows more room for error by the NBA officials, it doesn't mean they are more competent at their jobs and it doesn't mean that their bad calls don't have an equally significant impact on the game.  The bad calls nba refs make are just less obvious and their impacts are less obvious.

A few bad ticky-tack fouls on a player early on in the game does alter how they play and limit their playing time. A recent example that comes to mind is Lebron James against the Pacers in last years playoffs.  

Plus the nba empowers their refs to give technical fouls and kick guys out for ""showing up the refs."" Which can lead to [Joey Crawford.](https://www.youtube.com/watch?v=a2SYIrUnf5Y#t=1m25s) The nfl can give out personal foul calls but they rarely kick guys out of games, and if they do it is for throwing a punch not hurting a referee's feelings.

There was also a recent [game fixing scandal in the NBA regarding one of its refs.](https://en.wikipedia.org/wiki/2007_NBA_betting_scandal).  And the NBA completely absolved Tim Donaghy. Also before the NBA got Sportsvu for the whole league, the Sportsvu cameras actually collected data on the refs.  But afterwards the NBA actually stopped collecting or reporting that information. Check out this [bit for the BS report with Haralabos Voulgaris](https://www.youtube.com/watch?v=1s1TVQhDYgg#t=47m) that covers the Donaghy scandal and the Sportsvu data.  So all this hoopla over the ref transparency reports is just a bunch of bullshit.  If the NBA really cared about transparency they should not have stopped collecting or reporting the Sportvu referee data.

Here are two lists of controversies involving officiating from both leagues:
https://en.wikipedia.org/wiki/National_Football_League_controversies#Controversial_calls
https://en.wikipedia.org/wiki/National_Basketball_Association_criticisms_and_controversies#Conspiracies

In the end officiating is equally terrible in both sports. It could be because it is a hard job, or it's hard to judge good or bad officiating (we seem to notice bad officiating but we rarely compliment or notice good officiating),  maybe the refs are just incompetent, or some combo of each. I would like both leagues to be more transparent when reporting on referee performance and I want both leagues to lessen the impact of bad officiating on the games.  But that is hard to do and probably unlikely when both leagues want to constantly change/add/enforce rules that lead to less/safer physical contact between players for the sake of increased offensive output.  Because we all know more offense means more viewers, which means more revenue for the leagues.
 "	0
   	 2015-03-06 08:06:17 	 Try running those 60fps videos using flash.  I used to have issues with stuttering but then used Youtube magic extensions and set all youtube videos for Flash. 	0
   	 2015-03-06 18:15:50 	 No I rarely have any problems with RAM.  If I ever do it's when I'm running Linux via crouton and I am programming using R while having a big data set loaded into RAM.  The biggest issue that I see is that when I switch over to Chrome OS, old inactive tabs will auto refresh when I switched back to viewing them.  That's pretty much it. 	0
   	 2015-03-09 02:18:24 	 I use the magic actions extension and just fore player type to flash. No stuttering after that. 	0
   	 2015-03-10 04:44:59 	 There are observable differences between the brain structures of males and females.  For example women tend to have a higher percentage of grey matter, while men have more white matter.  [Here's the wikipedia page that covers the differences.](https://en.wikipedia.org/wiki/Neuroscience_of_sex_differences) There's even a bit about how men and women are wired differently. 	0
   	 2015-03-10 05:13:30 	" That's fair. But by saying ""there's no evidence that they are wired differently"" you seem to be implying that there aren't physical differences between male and female brains. "	0
   	 2015-03-23 03:17:28 	" R has its uses in stats.  But like every programming language it has its faults.

If you want an alternative to R, may I suggest Python.

Here is the official tutorial: https://docs.python.org/2/tutorial/

Here is a link to the IPython documentation, which allows you to better interact with Python:
http://ipython.org/ipython-doc/stable/index.html


Here are some resources that will introduce you to stats using Python:

http://work.thaslwanter.at/Stats/html/index.html

http://greenteapress.com/thinkstats/

Theres also these resources for bayesian statistics using Python:
http://camdavidsonpilon.github.io/Probabilistic-Programming-and-Bayesian-Methods-for-Hackers/

http://www.greenteapress.com/thinkbayes/
 "	0
   	 2015-03-28 22:45:21 	 Worked for me thanks! 	0
   	 2015-04-25 18:42:40 	" Here is the full list of pokemon: http://pldh.net/gallery/the493

I wish they made these into t-shirts or hoodies. I would definitely buy a few.
 "	0
   	 2015-05-01 21:40:31 	 [Here's the FAQ and Wiki](https://www.reddit.com/r/androiddev/wiki/index) from /r/androiddev  	0
   	 2015-05-01 21:45:12 	 Your welcome, I hope it's helpful. 	0
   	 2015-05-02 03:47:31 	 You should try and see if you could retake the class at a local public college during the summer and transfer those credits over to your current school.  I would assume that would be more affordable, if it is doable. 	0
   	 2015-05-02 07:33:39 	 Just a heads up you can run a linux distribution on a chromebook using crouton.  This way you can run a full operating system.  I currently use crouton to run elementaryOS and I'm able to program in Java and C++ for my classes. 	0
 Fix for Youtube 60fps stuttering 	 2015-05-03 09:44:02 	" I had issues with youtube videos stuttering on my Toshiba CB2.  To fix this issue I would usually force youtube to playback using flash, but now I'm [this chrome extension](https://chrome.google.com/webstore/detail/h264ify/aleakchihdccplidncghkekgioiakgal?utm_source=chrome-app-launcher-info-dialog
).  It fixed the stuttering problems I had when using HTML5 to playback 1080p 60fps videos.  

EDIT: It also seems to have resolved any stuttering issues I had playing back 1440p and 4k videos on youtube (not that it matters on a 1080p display). "	0
   	 2015-05-03 17:47:37 	 Youtube loads the video up at t either 1440p or 4k. But then the video is downscaled to fit your screen.  Technically it is supposed to look better, but I can't really tell the difference. 	0
   	 2015-05-03 18:58:47 	 I don't have any issues with Netflix. 	0
   	 2015-05-03 19:03:57 	 I was using Magic Actions to force flash player on youtube, that resolved most of the stuttering.  Thanks for the tip about turning MP4/AVC on, I'll check it out. 	0
   	 2015-05-04 04:47:47 	 It may not be as speculative, but it is just as petty.  As much as we all love football, it's still an entertainment business.  Both TMZ and Schefter both report information regarding the entertainment world, it's just that TMZ reports on a wider variety of entertainment businesses while Schefter focuses on the NFL. 	0
   	 2015-05-05 05:08:40 	 Not sure if this will help as it pertains to hiring scientists, but maybe you can get some ideas from it: http://treycausey.com/hiring_data_scientists.html 	0
 Here's How Often ESPN Draft Analysts Use the Same Words Over and Over 	 2015-05-07 03:11:56 	  	0
   	 2015-05-07 05:48:22 	 Silicon Valley 	0
 Interactive Data Science tutorials from O'Reilly 	 2015-05-07 18:15:03 	 O'Reilly has put up [these](https://beta.oreilly.com/learning) interactive tutorials if anyone is interested.  They seem pretty interesting. 	0
   	 2015-05-09 05:36:25 	 The youtube stream also allowed for easy chromecast playback. 	0
   	 2015-05-10 20:50:07 	" FGM seems to be a problem in that part of the world.  
Check out the data from unicef: http://data.unicef.org/child-protection/fgmc 

Does anyone have data for other parts of the world? "	0
   	 2015-05-10 21:24:40 	 How about this: https://automatetheboringstuff.com/ 	0
   	 2015-05-11 00:33:43 	 Should have been a tech and Bulls ball: http://www.nba.com/analysis/rules_12.html?nav=ArticleList 	0
   	 2015-05-15 05:33:22 	" Everything works well if you have the right extensions set up.  I made a thread regarding fixing some of the stuttering for Youtube videos here: https://pay.reddit.com/r/chromeos/comments/34p7ru/fix_for_youtube_60fps_stuttering/

Check it out it you are interested.

I've been using since about the end of November and it has done everything I've needed it to do.  I installed a linux distro to use for my programming course this semester.  It's been fine running everything I need.  I've only had some lag issues with one of IDE's (Eclipse) I've used in class.

The main complaint I have is that the build quality is not good.  The two corner screws under the laptop, by the screen, are gone.  They would constantly become unscrewed. I lost the first two that came with the laptop and two others that I replaced them with.  So now I just don't even bother.  

But that screen.  Can't find a laptop with a better screen at this price.  Just a heads there can be some color shifting when viewing it from certain angles, like from the top left or top right.  Looking at the screen directly from the left or right doesn't really cause any serious color shifting. "	0
   	 2015-05-19 07:26:06 	 Do you have any reading suggestions that do a good job blending theory and practice? I'm starting my summer break so I would love to do at least one summer project involving computer vision (and motion/speed tracking).  	0
   	 2015-05-24 16:53:26 	 It wasn't just the media.  Main push actually came from the players.  If the NBA didn't do anything there was a good chance the players would protest and not play. 	0
   	 2015-06-20 01:56:00 	 [Here is the link to the study.](http://archpsyc.jamanetwork.com/article.aspx?articleid=2319711) 	0
   	 2015-07-09 06:13:26 	 You could also use [chrome magic actions](http://www.chromeactions.com/) and enable MP4/AVC.  That should get rid of the stutter, plus you get a bunch of other useful features. 	0
   	 2015-07-09 06:23:30 	 I used the Toshiba CB2 FHD this past semester for my OOP Java and OOP C++ classes and it worked out ok for me. Eclipse was a bit laggy, but I usually found myself working in Sublime Text 3.  This summer I've been using it to program in Python (using IPython notebooks) and R (using RStudio) and it has been working well for me.  My main issue is the limited on board storage, even though I've got a 64GB sd which does help a bit, I would have loved to have had 32GB in onboard storage vs the 16GB .  Oh I'm running elementaryOS Luna (Ubuntu 12.04) via crouton. 	0
   	 2015-07-19 21:21:15 	 First, what do you mean by power? And how can we compare the power of both? 	0
 FCC Poised to Approve AT Ts $49 Billion Acquisition of DirecTV 	 2015-07-21 23:12:18 	  	0
