title	date	text	class
   	 2014-02-12 20:31:38 	 The Fresh  Prince of not-so-Bel-Air? 	0
 My gf broke up with me a few weeks ago. I'm over it now. Today on V-day i decided it is time to give her a call. 	 2014-02-14 19:48:55 	  	0
   	 2014-02-14 20:28:37 	 Newspaper ignizzle 	0
   	 2014-02-14 20:51:44 	 OK, i should have been more precise. **NOW** i'm over it. 	0
   	 2014-02-15 18:38:03 	" When you walk through the garden
you gotta watch your back
well I beg your pardon
walk the straight and narrow track

Tom Waits - Way Down In The Hole  "	0
   	 2014-02-16 16:33:13 	 The Otherland Series by Tad Williams. It was so hyped but its crappy. Have read all 4(?) books, it was so hart to read till the end cos i wanted to know, if there is a twist or something. Pro tip: read the first half oft the first book and the last half of the last. Thats enough (if you habe to read it anyway) 	0
 New U.S. Science Commission Should Look At Experiments Risk Of Destroying The Earth 	 2014-02-16 21:32:51 	  	0
 Fighting Over Darwin, State by State | Pew Research Center's Religion   Public Life Project 	 2014-02-17 15:51:38 	  	0
   	 2014-02-19 21:39:09 	 dental caries  	0
   	 2014-02-19 21:47:49 	" Snow Patrol - Chasing Cars

Greys Anatomy 
http://youtu.be/Z3bOEWSBUFY "	0
" TIL in switzerland as a police officer it is ok to call an Algerian ""foreign pig"" or ""dirty asylum seeker"" "	 2014-02-21 22:12:42 	  	0
 TIL More than 1,000 Yeats ago 'Ulfberht' made high-quality steel swords which remained unparalleled until the Industrial Revolution 	 2014-02-22 00:50:34 	  	0
   	 2014-02-22 23:34:17 	 Yours. 	0
 10 Oscar Winners Whose Speeches Were Under 11 Words 	 2014-02-24 21:02:18 	  	0
   	 2014-02-27 22:52:52 	 And everybody like: 'yeah!' 	0
   	 2014-02-28 19:17:47 	" From the bar to the bedroom I'm swimming in the neon 

Lighted pictures of a redhead, plasticoated hot on 

And sometimes when that mirror shows 

The smile of disbelief 

Stained signature of nightmares 

They're stolen by the thief 

I'm back on the borderline 

Yes I'm back on the borderline 
 "	0
   	 2014-03-05 17:38:03 	 Hehe, nice! :thumpsup: 	0
   	 2014-03-06 23:28:07 	" Is this the same tribe who also made the pattern from the dudes Cardigan?

As Seen Here: http://imgur.com/TcnHYD6 "	0
   	 2014-03-07 09:58:34 	" *Rise and shine, Mister Freeman. Rise and shine;

Not that I wish to imply that you have been sleeping on the job- no one is more deserving of a rest and all the effort in the world would have gone to waste until... Well... Lets just say your hour has come again...- The right man in the wrong place can make all the difference in the world; so wake up Mister Freeman; Wake up and... Smell the ashes.*  

P.S. why is it not *italic*? I don't get this... "	0
   	 2014-03-07 12:53:37 	 Welcome anyway! 	0
   	 2014-03-07 12:57:38 	" FYI, it's from the movie 'The Medusa Touch'. 

IMDB: http:://www.imdb.com/title/tt0077921/ "	0
   	 2014-03-07 13:18:05 	 I love that you love this girl. 	0
   	 2014-03-07 13:37:32 	 Why don't YOU start, OP 	0
   	 2014-03-07 17:56:59 	 Same as the flags: www.huffingtonpost.com/2013/07/03/american-flags-china_n_3540287.html 	0
   	 2014-03-07 18:00:16 	 Some men just want to watch the world burn! 	0
   	 2014-03-07 21:51:21 	 I'm not sure what i see here...? 	0
   	 2014-03-07 22:20:32 	" Is it a lake or windshield or what?  

But it looks beautiful! "	0
   	 2014-03-07 23:55:10 	 Well, looks like a robot face.  	0
   	 2014-03-07 23:59:20 	 Cool. (Double word sense) 	0
   	 2014-03-08 00:03:10 	 Is she in the Guinness Book for the longest legs yet? 	0
   	 2014-03-08 15:09:11 	 Perfect focus! I like this 'glow' in her hair. 	0
   	 2014-03-08 19:37:22 	 Not bad for a Smartphone. Was it a Sony? Which one? 	0
   	 2014-03-08 19:48:39 	" Thanks for the answer. I will buy me a Sony soon. I like to take pics in the go.  
Nice pics btw. The last one with the drops is my fav. "	0
   	 2014-03-08 20:11:05 	 No, Z1 compact. It has to fit in my pocket ;) 	0
   	 2014-03-08 23:35:24 	 Buha! I'm so jealous. I always wanted something this...old  	0
   	 2014-03-08 23:39:05 	 Very cool! Is it in England? 	0
   	 2014-03-08 23:41:52 	 Ha ha! Was it the first one in history? 	0
   	 2014-03-09 00:27:22 	" Hehe, well played Sir! But actually no joke occurs to me.  

Yo momma is so old...? "	0
   	 2014-03-09 09:56:03 	 They grabbed a coffee? Black of course. 	0
   	 2014-03-09 10:00:39 	 With a view to her boobs, it's not completly before. But she looks better in these days for sure 	0
   	 2014-03-09 10:01:40 	 No, it's marvelicious! 	0
   	 2014-03-09 14:31:50 	 FYI, it's the Shavit electric superbike. It is a final graduation project of an industrial designer from Shenkar college of design and engineering in Israel. The objective of his project is to design the ultimate everyday sportbike. This electric superbike has been designed with unique adjustable riding position system.  	0
   	 2014-03-09 14:34:58 	 Ha ha, this looks so german! Am i right? But not bad anyway 	0
   	 2014-03-09 22:47:18 	 As far as i know, it has been a study only. With no running engine. But here is the concept Video: http://youtu.be/5Nrk1p-TiWk 	0
   	 2014-03-10 21:26:36 	 This is awesome! Some pictures remind me of a fairy tale. I can't put my finger on it but some affect me deeply. 	0
   	 2014-03-10 21:28:52 	 Nice! Are they sold as magnets? For my fridge. 	0
   	 2014-03-10 21:40:28 	 Thanks for the info! Do they ship to germany? :-D 	0
   	 2014-03-10 21:53:19 	" Then I will check back in a year or so. I think they will lead a multinational concern at this time.
 "	0
   	 2014-03-13 21:01:49 	 Oh yes, he loved doing it. Here is another one: http://oi58.tinypic.com/10dcoba.jpg 	0
   	 2014-03-14 22:46:32 	 Bad idea. Fingerprints are easy to copy: www.wired.com/threatlevel/2008/03/hackers-publish/ 	0
   	 2014-03-15 09:49:32 	" Asset forfeiture: http://en.wikipedia.org/wiki/Asset_forfeiture
The feds keep a portion for administrative costs, and the rest gets sent back to the department where they use it to purchase equipment and training for their drug program.  "	0
   	 2014-03-15 15:51:59 	 You're welcome 	0
   	 2014-03-15 21:54:50 	 To many hearts... 	0
   	 2014-03-22 00:48:10 	 Damn. He simply IS the man: http://oi61.tinypic.com/241sgf4.jpg 	0
 Soon you can harvest Light From The Sun, Moon and Clouds. 	 2014-03-22 09:41:21 	  	0
   	 2014-03-22 09:43:25 	 They have colected the money on indiegogo and start production soon: http://www.indiegogo.com/projects/rawlemon-solar-devices 	0
   	 2014-03-23 00:31:40 	" It isn't. Commercially available solar cells have an efficiency of 17 to 20 percent, so there is only one fifth of the energy going into electricity. This is even under laboratory conditions. Rawlemon indicates they already be able to achieve an efficiency of more than 50 percent with the glass ball collectors right now. On a squarefoot photovoltaic surface, the prototypes already produces as much electricity as conventional systems generate with a much bigger surface - they are four times as effective.
[Picture](http://i.imgur.com/LkMRYmi.png) "	0
   	 2014-03-23 01:07:28 	 *nelsonvoice*: Ha Ha! 	0
   	 2014-03-23 01:08:44 	 Don't say so! He will kill a Stark! 	0
 At first i was like: Damn you mother**! But than i was like: Not bad! 	 2014-03-23 18:17:26 	  	0
   	 2014-03-27 19:20:31 	" [Dave Matthews - Grave Digger](http://www.youtube.com/watch?v=AYnmAiH6BLo)

*Ring around the rosey  
 Pocket full of posey  
 Ashes to ashes  
 We all fall down  *

 *Gravedigger  
 When you dig my grave  
 Could you make it shallow  
 So that I can feel the rain  
 Gravedigger*   "	0
 'The Matrix' comes true: Generator uses the human body as an electrode to power portable electronics 	 2014-03-27 20:27:37 	  	0
   	 2014-03-31 23:56:24 	 Or he is Rick James. 	0
 Samsung Researchers Celebrate Promising Graphene Breakthrough - A new manufacturing technique could accelerate use of the world's strongest material in computers and other products. 	 2014-04-06 16:20:14 	  	0
   	 2014-04-10 18:05:24 	" I followed the discussion here and raise by [Karl Jatho](http://www.karl-jatho.com/html/we_were_the_first.html) 

http://en.wikipedia.org/wiki/Karl_Jatho "	0
 The Heartsmith | Its not how much we give but how much love we put into giving.  Mother Teresa 	 2014-04-10 22:48:26 	  	0
 TIL: Wine isn't as complicated as i thought 	 2014-04-12 19:19:14 	  	0
" TIL There is a new Xtreme Sport -invented by some germans-. It's called ""Hockern"" (freestyle sitting) "	 2014-04-13 14:24:28 	  	0
 What if Tim Burton had drawn Pokemon? Here are the results. 	 2014-04-18 13:41:43 	  	0
 TIL In 1676, the Sultan of the Ottoman Empire wrote a letter to the Cossacks of the Zaporozhian Host who lived in Ukraine. He had failed to defeat them on the battlefield, so he sent off a demanding they submit to his rule. The reply was a stream of invective and vulgar rhymes. 	 2014-04-19 00:20:16 	  	0
   	 2014-04-19 00:33:07 	 [Oh, and there is a famous painting of this scene by Ilya Repin](http://www.wikipaintings.org/en/ilya-repin/the-reply-of-the-zaporozhian-cossacks-to-sultan-mahmoud-iv-1891) 	0
   	 2014-04-19 00:37:34 	 http://i.imgur.com/xvgpToy.png 	0
 TIL Rap music originated in the medieval taverns of Scotland rather than the mean streets of the Bronx and Brooklyn, an American academic has claimed. 	 2014-04-19 00:48:37 	  	0
   	 2014-04-26 00:53:26 	 After 9 years in development, hopefully it would have been worth the wait. 	0
   	 2014-04-26 01:05:28 	 http://i.imgur.com/ObESSWP.jpg 	0
 TIL Exactly 50 years ago on the 1st May 1964 BASIC ( Beginners All-purpose Symbolic Instruction Code) was born 	 2014-05-01 10:19:48 	  	0
   	 2014-05-01 10:23:09 	" 
Quote from Wikipedia:

BASIC(anacronymforBeginner's All-purpose Symbolic Instruction Code) is a family ofgeneral-purpose,high-level programming languageswhose design philosophy emphasizes ease of use.

In 1964,John G. KemenyandThomas E. Kurtzdesigned the original BASIC language atDartmouth Collegein New Hampshire. They wanted to enable students in fields other than science and mathematics to use computers. At the time, nearly all use of computers required writing custom software, which was something onlyscientistsandmathematicianstended to learn how to use.

 "	0
 These 22 Far Away Perspectives Of Famous Places Will Change The Way You See Them Forever 	 2014-05-03 00:53:57 	  	0
" Possible image of Jesus discovered in ancient Egyptian tomb- ""We could be dealing with a very early image of Jesus Christ,"" Egyptologist Josep Padr said. "	 2014-05-03 01:04:20 	  	0
 ELI5: When it's cold i can see other people's breath. Why is it, i can't see their farts? 	 2014-05-04 00:36:28 	 This is a question bothering me a long time. I mean, it's body temperatered air in both cases. 	0
   	 2014-05-04 00:50:58 	" It's a myth. Joints produce that crack when bubbles burst in the fluid surrounding the joint.

Joints are the meeting points of two separatebones, held together and in place by connective tissues and ligaments. All of the joints in our bodies are surrounded by synovial fluid, a thick, clear liquid. When you stretch or bend your finger to pop the knuckle, you're causing the bones of the joint to pull apart. As they do, the connective tissue capsule that surrounds the joint is stretched. By stretching this capsule, you increase its volume. And as we know from chemistry class, with an increase in volume comes a decrease in pressure. So as the pressure of the synovial fluid drops, gases dissolved in the fluid become less soluble, forming bubbles through a process calledcavitation. When the joint is stretched far enough, the pressure in the capsule drops so low that these bubbles burst, producing the pop that we associate with knuckle cracking.

It takes about 25 to 30 minutes for the gas to redissolve into the joint fluid. During this period of time, your knuckles won't crack. Once the gas is redissolved, cavitation is once again possible, and you can start popping your knuckles again.  

[ The common claim that cracking one's knuckles causesarthritisappears unsupported.]( http://en.wikipedia.org/wiki/Cracking_joints#Effects)

 "	0
   	 2014-05-04 01:02:23 	" Well, in this case it would be possible to see a ""wet"" fart. But i never did. "	0
   	 2014-05-04 01:37:19 	"  If you are watching naked people in cold weather fart on a regular basis, I assume you would see something.

Just tried to google something like that (video:naked people farting in cold weather). I was not successful. You are wrong as long you are not proofing you're right. "	0
   	 2014-05-05 21:26:32 	 We have clearence, Clarence! 	0
   	 2014-05-06 00:02:42 	 Wow! I found the long lost 4th face expression from Nicolas Cage! 	0
   	 2014-05-08 18:00:17 	" One factor is that the Senate thought Caesar wanted to be king and all powerful, the evidence for this is that 'He was happy to be treated like a God' and that 'From that time on Rumours spread that he wanted to be king'.

Another reason was because the Senate thought he was too popular, the evidence for this is that 'Caesar was liked by all the other Generals and 'He led the Army on expeditions that no other General would even dare to consider'. Also 'He was their leader, their idol, the one they were aspired to please.' This links to the paragraph above because he was so popular that many people wanted him to be king.

One other factor for his murder is that the Senate were afraid of his military power; the evidence for this is that 'He was undefeated in battle and that he was respected by the other entire Generals'. In addition to this, one of the army's brave men came forward and said 'He was the greatest warrior of all time, why would any soldier wish to have him dead? He was the bravest man I knew and I don't think that there's a braver man all over the world.' This links to the paragraph above because the senate were afraid of him due to the fact that most people loved him.

The most important reason why the Senate murdered Julius Caesar was because Caesar ignored the wishes of the senate; the evidence to this is that 'They had never forgiven him for entering Rome against their wishes'. Also, Caesar ignored their wishes because some senators hated him. Furthermore, a young woman aged 27 stated 'I am so glad that he ignored the senate's wishes for him not entering Rome because if it wasn't for him the army would not have enough courage or hope to go any further. I couldn't thank him enough for being an amazing General and he will be sorely missed over all of Rome.'

Just before Caesar went to the Senate his wife warned him and asked him not to go but he refused not to go, she said this 'You mustn't go! I fear that something bad is going to happen, I sense a death will occur tonight! Please don't go, I'm begging you'. "	0
   	 2014-05-08 22:28:49 	 [Oh yes!]( http://youtu.be/CzYHllLv_IE) 	0
   	 2014-05-14 15:02:32 	 ...which is nice. 	0
 TIL The inventor who almost killed mankind (Thomas Midgley, inventor of CFC -chlorofluorocarbon-) was was actually killed by another one of his inventions. 	 2014-05-17 00:13:45 	  	0
 If i ever became a chef this would be my hat 	 2014-05-17 00:23:51 	  	0
   	 2014-05-17 13:20:32 	 Oops, didn't see that. ;) 	0
   	 2014-05-17 20:22:27 	 In this two years, what has helped you the most? 	0
   	 2014-05-18 07:12:42 	" What are the first words in your notebook? (The ones in which you describe your condition to yourself)   

And what do you do with a full notebook? Keep it? "	0
 Apple doesn't want to sell the female masturbation App HappyPlayTime in the iTunes app store 	 2014-05-20 14:58:15 	  	0
 LPT: The ultimate hint to get a HUGE amount of Karma 	 2014-05-20 20:50:08 	  	0
   	 2014-05-26 23:31:26 	" [Examples](http://www.dialektkarte.de)   
[Map](http://www.mr-kartographie.de/uploads/pics/Dialekte-_in_Deutschland.jpg) "	0
   	 2014-05-29 02:50:00 	 http://youtu.be/IL2YRDzpTL4 	0
 A lesson everyone should learn: liking isn't helping. 	 2014-06-02 22:42:01 	  	0
   	 2014-06-02 22:46:25 	" [ Be A Volunteer. Change A Life.](http://www.crisisrelief.org)

 "	0
 Mabel Cody the niece of Buffalo Bill Cody, organized and promoted a Flying Circus. Here she is in an Auto to Plane Transfer in the Year 1921 (the plane is a Curtiss JN-4) 	 2014-06-08 00:35:55 	  	0
 Mabel Cody the niece of Buffalo Bill Cody, organized and promoted a Flying Circus. Here she is in an Auto to Plane Transfer in the Year 1921 (the plane is a Curtiss JN-4) 	 2014-06-08 20:50:29 	  	0
   	 2014-06-18 00:11:01 	 The heat is on 	0
 Spying Together: Germany's Deep Cooperation with the NSA 	 2014-06-18 21:06:23 	  	0
 Banned Skittles Commercial 	 2014-06-26 20:57:08 	  	0
 Never shown Elvis Presley Pictures from 1956. Shot by Alfred Wertheimer. 	 2014-06-26 21:09:12 	  	0
 No! This is Patrick! 	 2014-06-26 23:06:26 	  	0
 A small reminder. It's five days to go and LeVar Burton Raised 4 Million Dollars for 'Reading Rainbow 2.0'. Here is an Interview with LeVar on the project. 	 2014-06-26 23:35:15 	  	0
   	 2014-06-26 23:42:05 	 https://www.kickstarter.com/projects/readingrainbow/bring-reading-rainbow-back-for-every-child-everywh/ 	0
 Crytek UK's Staff No Longer Going To Work 	 2014-07-04 16:02:14 	  	0
 NSA Experts: 'National Security Has Become a State Religion' --- In an interview, Edward Snowden's lawyer, Jesselyn Radack, and former NSA contractor Thomas Drake discuss the reasons behind the American spying agency's obssession with collecting data. 	 2014-07-04 21:34:44 	  	0
 Cloaked 'assassin' spooks German town 	 2014-07-05 12:08:17 	  	0
   	 2014-07-05 12:16:38 	 [Here are some pics](http://www.spiegel.de/fotostrecke/fotostrecke-116600.html) 	0
 Cocaine! I fucking love it! 	 2014-07-06 00:27:57 	  	0
 TIL in 3 days is an once in a lifetime situation 	 2014-07-06 00:55:56 	  	0
 Twins. Watching the fire. 	 2014-07-06 01:06:00 	  	0
 Retaliation for Spying: Germany Asks CIA Official to Leave Country 	 2014-07-12 23:05:04 	  	0
 Gorgeous Vintage Advertisements for Heroin, Cannabis and Cocaine 	 2014-07-12 23:16:17 	  	0
 10 Easy Ways To Recognize Liars 	 2014-07-12 23:49:45 	  	0
   	 2014-07-13 01:36:22 	 There is a second movie?! 	0
 Germanwings is pretty sure... 	 2014-07-13 15:25:20 	  	0
 Germany in the World Cup 	 2014-07-13 18:19:08 	  	0
 Back in his days the BPM was nearly warp speed! 	 2014-07-16 21:49:11 	  	0
   	 2014-07-18 21:11:29 	 Who? 	0
   	 2014-07-18 21:28:02 	 [I always smile](http://youtu.be/pFdBUcqfPrA) 	0
   	 2014-07-23 19:40:50 	 I raise by germans Subway to Sally: http://www.myvideo.de/watch/5801258/Kleid_aus_Rosen_Subway_to_Sally 	0
   	 2014-07-25 19:33:59 	 I hope it will have a Red vs. Blue moment... 	0
 Rarely Seen History: Racism and Nazism (15 pics) 	 2014-07-25 22:13:35 	  	0
 Be....happy ! 	 2014-07-25 22:29:31 	  	0
 Ebola virus comes to Lagos, Nigeria - A 10 Million City 	 2014-07-25 23:24:45 	  	0
 Ex-Israeli Security Chief Diskin: 'All the Conditions Are There for an Explosion' 	 2014-07-31 19:56:17 	  	0
 Cold Paradise: US Struggles with Wave of Underage Immigrants 	 2014-08-01 23:02:24 	  	0
   	 2014-08-03 08:09:57 	 Sure. The GoPro black does 120 fps. So, no problem.... 	0
 Google engineer builds ultimate LAN party house 	 2014-08-03 17:33:05 	  	0
 According to recent studies frequent orgasms, at least 100 per year, can increase Life Expectancy by 3 to 8 years. 	 2014-08-03 17:46:43 	  	0
 Scientists solve 2,000-year-old mystery of the binding media in China's polychrome Terracotta Army 	 2014-08-03 23:36:51 	  	0
 Wiretapped: Israel Eavesdropped on John Kerry in Mideast Talks 	 2014-08-03 23:45:39 	  	0
   	 2014-08-04 15:44:18 	 Very interesting. Thanks for sharing the Link! 	0
 Scientists sure: the Homo floresiensis - wich has been described as the most extreme human ever discovered - suffered from Down Syndrome 	 2014-08-05 11:15:59 	  	0
 A little monkey riding a little pig 	 2014-08-05 23:03:39 	  	0
   	 2014-08-06 09:31:29 	 Ha ha! Nice! 	0
 Daft Punk + Beastie Boys - Intergalactic Planet Get Lucky 	 2014-08-06 16:14:38 	  	0
 The psychology of color 	 2014-08-07 23:51:27 	  	0
 [Wp] Jim Morrison and Janis Joplin meet for the first time. It ends up Joplin smashing a bottle of whiskey on Morrison's head after growing angry over his suggestive behavior toward her. Morrison is only more attracted to Joplin afterward and pursued her for weeks. 	 2014-08-08 22:06:57 	  	0
 I am so hungry i could eat a horse! 	 2014-08-10 00:54:26 	  	0
   	 2014-08-10 07:19:08 	 [Try some Bratwurst!](http://i.imgur.com/C96jODT.jpg) 	0
   	 2014-08-10 17:19:30 	 Why not? Maybe she is from Scotland. I heard things like this happend all the time over there. 	0
 Ebola Outbreak | They found Patient Zero: an African 2-Year-Old 	 2014-08-10 18:58:33 	  	0
   	 2014-08-12 11:05:45 	 Where is the flickr app? How can i bring it back? 	0
   	 2014-08-13 13:36:31 	 Urghhh...Sorry Tori but you are so fugly! 	0
   	 2014-08-13 14:03:59 	 Everybody who wants a little inside view to this theme should watch the documentary [Gasland](http://www.filmsforaction.org/watch/gasland_2010/) by Josh Fox 	0
   	 2014-08-13 15:13:59 	 Yep, that's the one 	0
   	 2014-08-14 00:34:40 	" Sometimes that shark....he looks right into ya. Right into your eyes. And, you know, the thing about a shark hes got lifeless eyes. Black eyes. Like a dolls eyes. When he comes at ya, doesnt seem to be living until he bites ya, and those black eyes roll over white and then ah then you hear that terrible high-pitched screamin. The ocean turns red, and despite all the poundin and the hollerin, they all come in and they rip you to pieces. 

So, eleven hundred men went in the water; 316 men come out and the sharks took the rest. "	0
 LPT: Reduce Jet Lag by changing your watch as soon as you board the plane. This can have a subtle but potent psychological effect on your mind, helping it to ease in to the new time zone hours in advance. 	 2014-08-19 18:10:46 	  	0
   	 2014-08-19 19:24:55 	 Yesterday i lost my Wi-fi password. 	0
   	 2014-08-20 18:34:39 	 .. but on meth, it is! 	0
 ELI5: (x-post) - http://m.imgur.com/a/NJBuH | I have no idea what he is talking about. But i want to understand. 	 2014-08-20 23:21:18 	 http://m.imgur.com/a/NJBuH 	0
   	 2014-08-20 23:43:48 	 Well, yes thank you. I am familiar with the concept and i know that the data storage capacity of this device is equal to 1,024 bytes. But i don't get the function of this thing...uhm...nevermind 	0
 This Guy Makes Something Awesome With Colored Pencils...And It Doesn't Involve Drawing 	 2014-08-21 00:10:36 	  	0
 TIL Muammar Gaddafi had a strange fascination with Condoleezza Rice and wrote her a song called Black Flower in the White House. 	 2014-08-21 00:23:28 	  	0
 Well, uhmm...nice Sofa! 	 2014-08-21 00:48:29 	  	0
 Emperor Augustus stables in Rome to be reburied due to lack of funding 	 2014-08-21 00:57:44 	  	0
   	 2014-08-21 19:21:48 	" [She described Moammar Gadhafi's crush on her as ""weird and a bit creepy""](http://edition.cnn.com/2011/11/03/us/rice-gadhafi/) "	0
   	 2014-08-21 23:44:00 	" Damn it. This reminds me of season two of ""The Wire"". "	0
   	 2014-08-23 00:03:44 	 Does he nominate another person/-s or is the chain broken here? 	0
   	 2014-08-23 00:23:47 	 Cocaine is a hell of a drug! 	0
   	 2014-08-25 22:16:47 	 *Holy dog shit! Texas? Only steers and queers come from Texas and you don't look much like a steer to me, so that kinda narrows it down.* 	0
 [Text] The Starfish or You can make a difference 	 2014-08-25 22:49:23 	" Once upon a time there was a wise man who used to go to the ocean to do his writing. He had a habit of walking on the beach before he began his work. One day he was walking along the shore. As he looked down the beach, he saw a human figure moving like a dancer. He smiled to himself to think of someone who would dance to the day. So he began to walk faster to catch up.

As he got closer, he saw that it was a young man and the young man wasn't dancing, but instead he was reaching down to the shore, picking up something and very gently throwing it into the ocean.

As he got closer he called out, ""Good morning! What are you doing?""

The young man paused, looked up and replied, ""Throwing starfish in the ocean.""

""I guess I should have asked, why are you throwing starfish in the ocean?""

""The sun is up and the tide is going out. And if I don't throw them in they'll die.""

""But, young man, don't you realize that there are miles and miles of beach and starfish all along it. You can't possibly make a difference!""

The young man listened politely. Then bent down, picked up another starfish and threw it into the sea, past the breaking waves and said- ""It made a difference for that one."" "	0
 Shanghai to San Francisco in 100 minutes by Chinese supersonic submarine 	 2014-08-27 23:34:19 	  	0
 Schrdinger's cat caught on quantum film 	 2014-08-27 23:40:27 	  	0
   	 2014-08-31 09:04:31 	 So...you are technically dead?  	0
   	 2014-08-31 09:14:49 	 Source? 	0
   	 2014-08-31 09:18:59 	" If you lock your keys in the car and the spare keys are at home, call someone at home on their cell phone from your cell phone. Hold your cell phone about a foot from your car door and have the person at your home press the unlock button, holding it near the mobile phone on their end. Your car will unlock!  
  
Edit: your car must have remote keyless entry, of course "	0
   	 2014-08-31 09:38:48 	" [The Graduate](http://en.wikipedia.org/w/index.php?title=The_Graduate_%28soundtrack%29). 
  
Naughty Mrs. Robinson in her leopard print mini skirt...   
Anxious Benjamin...  

It's nice to allow the music to take you back to the movie and imagine the scenes. Simon and Garfunkel are brilliant. "	0
 TIL Humans have spent longer playing World of Warcraft (over 6 million years) than we have existed as a species separate from chimpanzees 	 2014-08-31 23:20:17 	  	0
 NASAs Mars rover Opportunity set for memory reformat 	 2014-09-01 16:12:52 	  	0
 For the first time, our region of the universe has a map and a name 	 2014-09-03 21:05:26 	  	0
 Hipster Village: Berlin Nightlife Grows Up 	 2014-09-05 20:56:40 	  	0
   	 2014-09-07 22:44:02 	 FTFY, Schwanz Brothers. 	0
   	 2014-09-08 16:32:33 	" This week in science: Urughu from the South-Cave invented the ""wheel"".  "	0
   	 2014-09-08 17:33:56 	 [Maybe your whish comes true](https://www.kickstarter.com/projects/1524806320/hoverbike) 	0
 Top Gear to launch in France after Jeremy Clarkson banned from driving on roads 	 2014-09-09 17:19:41 	  	0
 Bob Dylan, Smokey Robinson, Billy Joel and more than two dozen other artists will sing their favorite Paul McCartney songs on The Art of Paul McCartney, a massive tribute project due this fall. 	 2014-09-09 17:21:56 	  	0
   	 2014-09-11 20:49:20 	" To quote Benjamin Franklin:  

""Those who surrender freedom for security will not have either one.

 "	0
   	 2014-09-14 07:38:35 	 Look at his name... 	0
 Remove total surveillance from the Internet: European project pretty Easy privacy is going to restore privacy for everyone 	 2014-09-15 10:54:16 	  	0
   	 2014-09-15 11:18:41 	" [Oh, and they need money!](https://www.indiegogo.com/projects/pep-pretty-easy-privacy#main)  

More Info about the project (c p from their indiegogo Website):  

What is pep?

Pep
changes the default for written digital messages from unencrypted and unprotected to anonymized and encrypted.

Pep
is open source and available as free software.

Pep
provides end-to-end encryption, peer-to-peer without central infrastructure. Our objective is to revolutionize the security industry by making privacy and security available to everyone. And that with no hassle!

Pep
is zero-touch, secure and private communication on your own servers and on any hosted communication platform, like Microsoft Office365, Gmail, WhatsApp, Facebook Messenger, Twitter Private Messages, SMS, . "	0
 How the check engine light can affect your fuel economy 	 2014-09-16 00:03:34 	  	0
 Optical Illusion Magic Trick 	 2014-09-16 00:14:09 	  	0
 A Belgian Rapist and Murderer Has Won the Right to Be Euthanized 	 2014-09-16 06:22:38 	  	0
   	 2014-09-16 08:19:31 	 Nope. Actually i don't know what napa is. 	0
 Here is an Indian on an Indian, circa 1910 	 2014-09-16 18:08:21 	  	0
 Entangled 'Photon Triplets' Could Speed Up Telecommunication 	 2014-09-18 22:13:41 	  	0
 Yin and Yang  	 2014-09-18 22:27:40 	  	0
 Im at a Wedding. Look at this! Stones! AMA 	 2014-09-20 00:27:44 	  	0
   	 2014-09-21 22:53:06 	 Hmm. I'm tired cos it's late here. But i read the topic: Found out i had a whore 30 yrs ago....time to go to bed. 	0
 Interview with Bundesbank Head Jens Weidmann on Euro Crisis 'The Euro Crisis Is Not Yet Behind Us' 	 2014-09-24 18:31:34 	  	0
   	 2014-09-26 19:21:58 	 No, you're not. Cos you're not THAT guy. 	0
   	 2014-09-26 19:23:34 	 Hmm. You have a point here. 	0
   	 2014-09-26 19:25:40 	" Selfie 2.0   
 "	0
 Diana Rigg, late 60s 	 2014-09-30 20:06:46 	  	0
" Sundar Pichai, Google SVP of Android, Chrome and Apps announced at Google ""Atmosphere"" that in future Versions Google Now could listen to your complete conversations. This means your telephone calls and your private talks. [Google now part starts at 2:19] "	 2014-10-02 22:07:05 	  	0
 You may be interested in this: how the CDC is looking for contact persons of the U.S. ebola patient 	 2014-10-02 22:40:16 	  	0
   	 2014-10-03 11:55:37 	 [Stromae - Papaoutai](http://youtu.be/d5X4iAAE0uU) 	0
   	 2014-10-03 16:55:17 	" Janis Joplin once said ""Don't compromise yourself. You are all you've got."" 
Your thoughts on this quote? "	0
   	 2014-10-03 18:20:49 	 http://imgur.com/njxGbIR 	0
 Ello is a viable alternative for the Facebook-weary 	 2014-10-03 18:45:56 	  	0
   	 2014-10-04 07:59:16 	 This is so brave! Bending the neck in the last moment... 	0
   	 2014-10-04 08:07:55 	 Not octopussy? 	0
   	 2014-10-05 08:18:52 	" I am wondering why Yat-kha was not mentioned yet. It is the Band with the most influence from western music. Their music is a mixture of Tuvan traditional music and rock.   
[Yat-kha - come along](http://youtu.be/nR9fvhQdU00)   
[Yat-kha - Kaa Kem](http://youtu.be/F4IwxzU3Kv8)   
[Yat-kha - Black magic woman](http://youtu.be/q6DP1aFeHbs) "	0
 Walter Rhrl and his Audi | insane driving skills (onboard montage) | Rally Group B ca. 1985 | this is how to drive a stick shift! 	 2014-10-08 17:58:01 	  	0
   	 2014-10-08 19:01:20 	 Hachi: A Dogs Tale 	0
 Digital Jihad | Inside Islamic State's Savvy PR War 	 2014-10-08 22:37:50 	  	0
 TIL The sauce that Ray Liotta was stirring in Goodfellas is actually the sauce of Scorsese's mother. She had made it specifically for the actors. 	 2014-10-09 18:10:37 	  	0
 Why is there still no trace of flight MH 370? In an interview, Sir Tim Clark, head of Emirates Airline, is sharply critical of the investigation thus far. He believes someone took control of the plane and maintained it until the very end. 	 2014-10-10 20:27:52 	  	0
   	 2014-10-10 22:40:19 	" No Probolem.   
   
This is my favourite word from now on! Probolem!   

Got a Probolem? No Probolem!

 "	0
   	 2014-10-11 00:34:37 	" Just to get this right....""date"" is a synonym for ""fuck"", right? Right. "	0
 Psychedelic Raoul Duke (Johnny Depp) painted by Nicky Barkla 	 2014-10-16 21:26:25 	  	0
 Look at her! 	 2014-10-16 21:39:31 	  	0
 Here you see a crowd celebrating Arizona's first gay marriage (pic by Megan Finnerty via twitter) 	 2014-10-17 22:15:05 	  	0
 None of the regular awws but here you have a sleeping Capybara 	 2014-10-19 18:53:46 	  	0
 TIL There is a species on earth which is known to live forever. This small jellyfish leads a regular cycle of life, but it can revert back to its initial state  a polyp colony. The process is referred to as transdifferentiation, and it basically makes the jellyfish unable to die. 	 2014-10-19 20:41:20 	  	0
   	 2014-10-19 21:06:45 	 Crisp! You should buy a bluetooth ELM / OBD / PLX Adapter and install [Torque](http://torque-bhp.com/) 	0
   	 2014-10-19 21:48:49 	 Allright then. Very cool gadet. 	0
 Strange signal in X-ray spectrum from sun hints at elusive dark matter 	 2014-10-21 00:16:25 	  	0
 TIL the name 'Earth' is an English/German word, which simply means the ground: eor(th)e and ertha (Old English) and erde (German). 	 2014-10-22 23:16:39 	  	0
 LPT To make a Telemarketer stop calling you requires you to say one sentence: Please put me on your do not call list. 	 2014-10-23 20:40:55 	" Dont say Dont call me again or similar. This will lead them to ask why. Be polite but firm. If they ask why or wont do it right away, remain calm and repeat, I want you to put me on your do not call list.   

Its illegal for a company to keep calling you if youre on this list. Unfortunately, it is not illegal for charities or political parties. But most of those run seasonal campaigns, so at least your lead will be put to rest for three to 11 months. "	0
   	 2014-10-23 21:08:58 	" Sweet cheeks are made of this  
who am I to disagree   
I travelled the world and the seven seas   
everybody's looking for something   "	0
   	 2014-10-23 21:20:16 	" The noise when you open up a new glas of Nutella. ""Chhhhrrrrrrk"" "	0
 The Zombie System: How Capitalism Has Gone Off the Rails 	 2014-10-23 22:12:02 	  	0
   	 2014-10-24 20:11:07 	 I simply love him :-D 	0
 THIS is couchporn 	 2014-10-25 15:27:43 	  	0
   	 2014-10-25 15:31:53 	 Put it next to [this](http://i.imgur.com/SqHxExV.jpg) couch and watch the reactions. 	0
   	 2014-10-29 06:56:38 	 You better call Saul! 	0
 French Kiss 	 2014-10-29 21:00:28 	  	0
 'Interstellar' Early Reviews Are In, But Are They Stellar? 	 2014-10-29 21:14:31 	  	0
 SIMPLIFY.THATSH.IT | With this Website you can create random modern art by simplifying images to their core elements. 	 2014-10-30 10:27:07 	  	0
   	 2014-10-31 18:03:16 	 I hope he did play [this song](http://youtu.be/w24Xd8fVlTU) 	0
 The Notorious B.I.G, ca 1977 	 2014-11-02 00:23:03 	  	0
 Germany's New Right The Unholy Alliance of Neo-Nazis and Football Hooligans 	 2014-11-04 17:25:18 	  	0
 NASA's Curiosity Mars Rover Finds Mineral Match 	 2014-11-04 21:58:24 	  	0
 Mystery solved: Where the penis comes from 	 2014-11-05 19:52:03 	  	0
 In August of 1985, Ebony magazine attempted to predict what Michael Jackson would look like in the year 2000 	 2014-11-05 22:26:08 	  	0
 The birthplace of the Islamic State of Iraq and Syria has been identified as Camp Bucca, a detention centre run by the United States during the Iraq war 	 2014-11-06 18:49:00 	  	0
 Buster Keaton was a crazy mofo! Crew members threatened to quit and begged him not to do this scene. The cameraman looked away while rolling. A six ton prop, it brushes his arm as it comes down, and he doesn't even flinch. 	 2014-11-06 21:17:58 	  	0
   	 2014-11-07 09:00:54 	 It makes me Happy, too.  	0
 47-Million-Year-Old Pregnant Mare Sheds Light on Ancient Horses 	 2014-11-08 23:07:12 	  	0
   	 2014-11-09 07:37:58 	" Here you go:   

http://i.imgur.com/S9R1fji.jpg   
With size comparison "	0
 It's now less than two days till the highlight of the rosetta mission. Here is ESA astronaut Alexander Gerst demonstrate how Philae will land on the surface of comet 67P/ChuryumovGerasimenko. 	 2014-11-09 23:52:36 	  	0
   	 2014-11-10 16:31:47 	 Here you see why the Oxford comma is so important! 	0
 Rage quit. Level: expert 	 2014-11-10 18:57:41 	  	0
 The most complicated handmade watch, the Henry Graves Supercomplication, has been sold at auction for 20.6m Swiss francs ($24 million) 	 2014-11-11 22:20:22 	  	0
 xkcd: Landing 	 2014-11-12 12:54:49 	  	0
   	 2014-11-12 17:37:54 	" I just read ""genetically modified cops are the future"" and was thinking: wtf?! "	0
 As a part of a Swiss gallery exhibit the Random Darknet Shopper is an automated online shopping bot which is provided with a budget of $100 in Bitcoins per week. Once a week the bot goes on shopping spree in the deep web where it randomly choses and purchases one item 	 2014-11-12 19:15:09 	  	0
   	 2014-11-13 10:29:38 	" The ""weight"" of Philae on the comet is ~4 gramm which is converted ~0,00881849049 lbs "	0
 Rosetta mission: First picture of Philae space probe's rocky comet landing spot 	 2014-11-13 11:58:30 	  	0
   	 2014-11-13 21:36:12 	 Life in Lubbock, Texas taught me two things: One is that God loves you and you're going to burn in hell. The other is that sex is the most awful, filthy thing on earth, and you should save it for someone you love. 	0
" Hercules"" the elephant is the new king of the jungle after the youngster drove off 14 lions earlier this month in Zambia. "	 2014-11-14 17:31:45 	  	0
 Greatest mathematician of the 20th century and the most important scientific mind you've never heard of: Alexander Grothendieck dies aged 86 	 2014-11-14 22:20:18 	  	0
 Single woman who failed to find love after dating for six years decided to marry herself and even proposed in the park 	 2014-11-15 13:22:05 	  	0
 Here you can see the Philae battery voltage falling fast a few hours ago - Goodnight Sweet Prince! [sorry for potato quality; Source: ESA via twitter] 	 2014-11-15 15:51:23 	  	0
   	 2014-11-15 17:05:04 	 I just read this post in the rhythm of [Nancy Sinatras Bang Bang](http://youtu.be/T5Xl0Qry-hA). It works! 	0
   	 2014-11-16 12:12:35 	 Damn it! It looks like a perfect landing spot. To bad that the harpoons didn't work. 	0
 Interview with Henry Kissinger on State of Global Politics | Henry Kissinger is the most famous and most divisive secretary of state the US has ever had. In an interview, he discusses the limits of American power. He says he acted in accordance with his convictions in Vietnam. 	 2014-11-17 22:40:25 	  	0
 Philaes Incredible Comet-Landing Sequence Shows Up In Fresh Rosetta Images 	 2014-11-17 22:58:44 	  	0
 Rosetta Probe Directly Discovers Organic Molecules on Comet 	 2014-11-17 23:31:30 	  	0
   	 2014-11-17 23:47:58 	" I deleted the previous post, because the link hit a paywall.   
And the title isn't misleading. Read the fourth paragraph. It says ""... COSAC was able to 'sniff' the atmosphere and detect the first organic molecules after landing.""

 "	0
   	 2014-11-18 00:36:25 	 No probolem 	0
   	 2014-11-18 00:53:06 	" Yes, it is possible. [Here you have it first-hand](http://www.dlr.de/dlr/en/desktopdefault.aspx/tabid-10081/151_read-12176/#/gallery/17219) from the lander Project Manager Stephan Ulamec:   
   
'Contact in the coming year

Stephan Ulamec believes it is probable that in the **spring of 2015**, the DLR LCC will once again communicate with Philae and receive data about how the lander is faring on Comet 67P/Churyumov-Gerasimenko. In the **summer of 2015**, it might be possible that temperatures on the comet will allow Philaes battery to be recharged. ""The orbiter will continue with its overflights to receive any signals from the lander once Philae wakes up from hibernation."" ' "	0
 Open Whisper Systems partners with WhatsApp to provide end-to-end encryption 	 2014-11-18 20:29:26 	  	0
 FIFA chief Sepp Blatter's statement regarding the decision to hand evidence from the 2018 and 2022 World Cup bidding processes to the authorities. 	 2014-11-18 20:41:35 	  	0
 In a small german town you can play now Streetpong! It can be played during the red phase at traffic light on a touchscreen display. The opponent can be anyone on the other side of the street who is also waiting to cross the street. 	 2014-11-18 20:53:13 	  	0
 Not very funny. But i didn't know where to put this: Yin and Yang of world hunger 	 2014-11-19 22:52:23 	  	0
 Now there's no escape from CCTV... Researchers reveal software that can track people as they walk from camera to camera in real time 	 2014-11-19 23:07:56 	  	0
 IBM Brings Open Data Tech To Ebola Fight 	 2014-11-20 00:17:01 	  	0
 Thai protestors arrested after giving 3-finger Hunger Games salute 	 2014-11-20 07:05:49 	  	0
" Maniac Mansion creators announce Thimbleweed Park. | The old-time LucasArts veterans who created Manic Mansion, Day of the Tentacle, The Secret of Monkey Island and Zack McKracken have got together on Kickstarter, where they're whipping up support for an ""all-new classic adventure game"". "	 2014-11-20 20:21:01 	  	0
 WhatsApp Powered Toy Connects Kids Fighting Cancer To Their Loved Ones 	 2014-11-20 21:38:11 	  	0
 WhatsApp Powered Toy Connects Kids Fighting Cancer To Their Loved Ones (x-post; r/upliftingnews) 	 2014-11-20 21:42:46 	  	0
 Philae/Rosetta Mission | The Sound of Touchdown - Sensors in the feet of Rosettas lander Philae have recorded the sound of touchdown as it first came into contact with Comet 67P/Churyumov-Gerasimenko 	 2014-11-20 22:26:01 	  	0
" TIL The ""most succinct word"" is Mamihlapinatapai. It allegedly refers to ""a look shared by two people, each wishing that the other will offer something that they both desire but are unwilling to suggest or offer themselves"" "	 2014-11-20 23:43:56 	  	0
 This anti-drug special forces soldier, burning sacks of marijuana near the city of Curuguaty in the Canideyu department of Paraguay 	 2014-11-21 17:00:44 	  	0
 World's First Zero-Gravity 3D Printer Installed on Space Station 	 2014-11-21 18:22:18 	  	0
   	 2014-11-21 21:05:50 	 Hello, my name is Turing. Wanna chat? 	0
   	 2014-11-22 00:18:54 	 I see what you did here! 	0
 Korean artist Ho Yoon Shin creates delicate sculptures with paper that appear to vanish when viewed from certain angles. 	 2014-11-22 00:22:56 	  	0
 Yes, finally! A keyhole for drunken people. 	 2014-11-22 00:29:13 	  	0
 Old truth be told 	 2014-11-22 00:43:04 	  	0
 Meet Honey Bee, The Amazing Blind Cat and Hiking Companion 	 2014-11-22 00:46:58 	  	0
 Happy D.......Boobs! 	 2014-11-22 01:42:18 	  	0
 Here you see....actually nothing. 	 2014-11-22 01:49:43 	  	0
   	 2014-11-22 04:05:23 	 It's not me. 	0
   	 2014-11-22 08:54:20 	" Hi,   
could you please tell me where i should have post the pic? And in my opinion, the picture is neither a strikt political post nor just text.   
I does definitly not fit into r/jokes   
Sincerely, test_subject881 "	0
   	 2014-11-22 09:48:35 	 Ok. Thanks anyway. 	0
 Big Wave Surfer (Loc: Nazar, Portugal) 	 2014-11-22 16:16:16 	  	0
 This is cruel 	 2014-11-22 21:37:25 	  	0
 A censorship towel 	 2014-11-22 21:59:19 	  	0
 LPT Put your name on your android device just in case it gets lost. Android has a feature that lets you put your name, Email address and an alternate phone number on your lock screen. Just go into Settings menu  Security  Screen Security  Owner Info. 	 2014-11-22 22:13:34 	  	0
   	 2014-11-22 22:15:52 	 http://i.imgur.com/YVbaUeK.gif 	0
 For a better start in life start COLA earlier! (1950s ad) 	 2014-11-23 17:39:18 	  	0
   	 2014-11-23 17:52:40 	 Can confirm. [ISS detector](https://play.google.com/store/apps/details?id=com.runar.issdetector) is awsome! 	0
 Lab-Grown Penises May Show Up Way Sooner Than You Thought 	 2014-11-23 18:05:23 	  	0
   	 2014-11-23 20:35:37 	 I was hoping for the comments ;-) 	0
 It's Christmas! Be part of the Dinner Party 	 2014-11-24 17:44:41 	  	0
   	 2014-11-25 23:15:02 	 Who was the camera guy? 	0
 Ferguson shooting grand jury documents | The Associated Press has obtained a copy of the testimony and evidence presented to the grand jury that declined to indict Ferguson Officer Darren Wilson in the fatal shooting of Michael Brown 	 2014-11-25 23:41:50 	  	0
   	 2014-11-25 23:55:56 	" ""Grand Jury Volume 5"" is the interesting part. "	0
 3D printer on ISS makes humorous first print: a new part for itself 	 2014-11-26 15:08:01 	  	0
 Germany backs law demanding at least 30% women in top boardrooms 	 2014-11-26 20:06:59 	  	0
   	 2014-11-26 22:28:42 	 You lucky bastard! 	0
 Star Trek-like invisible shield protects Earth from 'killer electrons' 	 2014-11-27 22:36:49 	  	0
 What a difference a mirror can make 	 2014-11-28 21:02:59 	  	0
 It may only be a matter of weeks before the first ebola patients in West Africa can be treated. - Medical researchers are frantically testing new drugs and vaccines in the hope of slowing down the Ebola epidemic. Thus far, results have been promising. 	 2014-11-29 14:00:53 	  	0
   	 2014-11-29 19:53:05 	 Slice of Life 	0
 First known official Batmobile up for auction! 	 2014-11-29 20:39:12 	  	0
 TIL There is an App that lets subway riders in NYC replace station ads virtually with artworks 	 2014-11-29 22:59:28 	  	0
   	 2014-11-29 23:10:26 	 This is a point 	0
 TIL Once the filming of Rambo was completed, the movie underwent a screen test. It included the original ending as written by David Morrell. In this ending Rambo committed suicide by shooting himself after Trautman refused to shoot Rambo. The audience went nuts, so they changed the ending 	 2014-11-29 23:32:58 	  	0
 TIL J.J. Thomson won the Nobel in Physics (1906) when he showed electrons were particles. His son won it in 1937 for showing that electrons are waves. 	 2014-11-30 00:52:19 	  	0
 The Microsoft staff in 1978 	 2014-11-30 01:04:52 	  	0
 The cast of Star Trek stand in front of the first Space Shuttle, Enterprise (1979) 	 2014-11-30 01:39:33 	  	0
 TIL The world's oldest tree has been found on a mountain in central Sweden  and it is still growing (it sprouted from the ground soon after the last ice age 9,500 years ago) 	 2014-11-30 02:02:01 	  	0
 slap...slap...slap...slap... 	 2014-11-30 02:05:25 	  	0
 The cast of Star Trek stand in front of the first Space Shuttle, Enterprise in 1979 (x-post; oldschoolcool) 	 2014-11-30 02:15:46 	  	0
   	 2014-11-30 02:16:30 	 It is! 	0
   	 2014-11-30 19:59:21 	 Didn't know that. Thanks for the Info! 	0
 World's Oldest Computer Antikythera Mechanism is More Ancient than Previously Thought 	 2014-12-01 20:58:09 	  	0
 Origins of Human Alcohol Consumption Revealed - Human ancestors may have begun evolving the knack for consuming alcohol about 10 million years ago, long before modern humans began brewing booze, researchers say 	 2014-12-01 22:08:30 	  	0
   	 2014-12-01 22:59:36 	 Thanks. I thought sometimes it's good to pay attention to the little things that happend in the world. 	0
 Arnold Schwarzenegger on the day he received his American citizenship, Sept. 16, 1983 	 2014-12-05 23:14:58 	  	0
 Only in Japan...you can buy a thumb Extender for Phone Touchscreens 	 2014-12-06 00:01:42 	  	0
   	 2014-12-06 17:59:18 	 Did anybody mentioned the glass yet? Look at it! It's huge! 	0
 Albert Einstein's office. Photographed on the day of his death. 	 2014-12-07 04:48:49 	  	0
 TIL Humans are deuterostomes, meaning that the hole that become your anus develops before any other opening. Which basically means at one point you were nothing but an asshole. 	 2014-12-07 05:07:28 	  	0
 Model T elevator Garage. Chicago 1930s. 	 2014-12-07 05:52:24 	  	0
   	 2014-12-07 19:04:38 	 Holly shit! That's massive! 	0
 Almost entirely forgotten: last month was the 100-year anniversary of the first bra - One hundred years ago, on Nov. 3, 1914, the United States issued a patent for the first modern bra. Amazingly for the time  1914  it was made by a woman in her twenties, Mary Phelps Jacob 	 2014-12-08 21:27:42 	  	0
 Internationally renowned Russian opera singer Anna Netrebko has donated 1m roubles (12,000; $19,000) to a theatre in rebel-held eastern Ukraine and posed with a rebel flag. 	 2014-12-08 21:30:19 	  	0
 These Realistic Renditions of Cartoon Characters Are Creative, Creepy, and Childhood Altering 	 2014-12-08 22:39:59 	  	0
 Complete Tiny Dinosaur Skeleton Discovered In South Korea 	 2014-12-09 21:15:31 	  	0
 TIL The word pencil comes from a Latin word meaning 'small penis'. 	 2014-12-09 21:48:32 	  	0
 Quantum teleportation reaches farthest distance yet (15.5 miles ~25 kilometers) 	 2014-12-09 22:06:07 	  	0
 And a Childs Robot Shall Lead Them | This Christmas, give your children the ultimate leg up  a toy that will teach them how to code 	 2014-12-09 22:32:16 	  	0
 Highline world record broken | Between two limestone cliffs in China the slackline pro Alex Schulz extended the existing highline world record of Jerry Miszewski by 70 metres to 375m! 	 2014-12-10 19:00:33 	  	0
   	 2014-12-10 22:56:30 	 It's all fun and games 'till someone loses an eye! 	0
 Congress Passes Bill Granting Unlimited Access To Private Communications Of Every American Without Legal Process 	 2014-12-12 18:02:27 	  	0
   	 2014-12-12 22:38:19 	" ..or built like [this guy](http://i.imgur.com/D4tpemJ.jpg)

That's Matthias Schlitte. He was born with a rare genetic defect that makes his right forearm bone 33 percent larger than his left. "	0
   	 2014-12-13 00:14:21 	 [Dat ass!](http://i.imgur.com/kH92RQ4.gif) 	0
   	 2014-12-13 01:01:52 	 [wahgabbll](http://i.imgur.com/N48HN9j.jpg) 	0
 Apple hires more audio experts  is an offline Siri on the way? 	 2014-12-13 01:09:37 	  	0
 A pipe bomb gone wrong 	 2014-12-13 02:03:37 	  	0
 It is hard to imagine a wealthier set of guests than those invited to the home of Silicon Valley venture capitalist John Doerr in 2011. Together they represent companies worth nearly $1 trillion. 	 2014-12-13 23:07:11 	  	0
 One cube, two cubes....three cubes? 	 2014-12-13 23:17:23 	  	0
 Heres Sony Lawyers Letter Telling Publishers to Stop Publishing Leaks 	 2014-12-15 09:59:12 	  	0
   	 2014-12-16 21:58:05 	 That's fugly! 	0
 Chan Kwok-Hung, cinematographer, drowns on set of Jackie Chan film 	 2014-12-17 21:40:55 	  	0
 German Christmas tree, made out of...beer! 	 2014-12-18 12:24:12 	  	0
 Known for his superyacht designs that incorporate supercars, Swedish-based designer Eduard Gray of Gray Design has revealed a new 75m superyacht called Xhibitionist 	 2014-12-19 13:29:59 	  	0
   	 2014-12-19 13:31:17 	" [Here's the website.](http://graydesign.se/4/xhibitionist/)   
[...and here another great pic](http://i.imgur.com/dpAtM9H.jpg?1) "	0
   	 2014-12-19 13:50:22 	 It is beautiful. And cool: in the big side view pic hold your hands on high of the waterline. Now it's a car! 	0
   	 2014-12-19 15:25:11 	 10 	0
 What will happen to the person who breaks the '10'- combo in the 'When a male gymnastic coach tries uneven bars' r/video post? 	 2014-12-19 16:29:01 	  	0
   	 2014-12-19 16:30:54 	 I'm pretty sure he or she will be downvoted to hell. 	0
 What if North Korea would track the current insulting pictures/memes back to this forum and hack it? 	 2014-12-20 00:21:59 	 Is reddit prepared? What are we gonna do without it? OMG, won't somebody please think of the children?! 	0
   	 2014-12-20 00:29:45 	 You are an amazing volunteer! Thank you for everything. I just hope you continue to be so hardworking and helpful to many needy people. God bless you more each day!  	0
 Illustrator Adds Funny Cartoons To Strangers Instagram Photos 	 2014-12-21 17:54:48 	  	0
" The Miss World competition will no longer feature a swimsuit competition, the organisation announced | The national director of Miss World America explained: ""The organization has decided to take itself out of the swimsuit world because it isn't the path they're trying to take."" "	 2014-12-21 21:13:40 	  	0
 South Korea nuclear plant operator says hacked, raising alarm 	 2014-12-22 10:52:48 	  	0
 Jerusalem Post: Yazidi women dragged by their hair, sold into sex slavery by ISIS for $25 	 2014-12-23 01:21:32 	  	0
   	 2014-12-23 02:04:05 	 http://i.imgur.com/zHDsGtX.jpg 	0
 TIL under good conditions for preservation, poop can stink even after 700 years. 	 2014-12-23 02:25:18 	  	0
 North Korea's Internet Back After 'Hard' Crash 	 2014-12-24 02:25:29 	  	0
 Tenderness 	 2014-12-24 02:34:06 	  	0
   	 2014-12-24 23:56:48 	"  ""People say I'm difficult and sometimes that's a badge of honor.""   

-Bill Murray "	0
   	 2014-12-26 02:03:19 	 Well,  actually i Like her. This picture i would hang 	0
 Federal Chancellor of Germany Angela Merkel staffers laptop infected by US/UK spy malware 	 2014-12-29 12:47:01 	  	0
 A 13-year-old girl, hunting with a golden eagle in Mongolia. Photographed by Asher Svidensky. 	 2014-12-30 20:54:39 	  	0
 TIL The movie 'Harry Potter and the Order of the Phoenix' had lost $167 million. Fo' sho! (more info in the comments) 	 2014-12-30 22:02:05 	  	0
   	 2014-12-30 22:03:08 	" On paper.    
   
This goes back to tricky Hollywood accounting. They doing it all the time. Heres a basic example of Hollywood Accounting: A studio makes a movie. The studio distributes the movie itself, and although the distributor is technically a separate company, they both belong to the same parent company. Also, the distribution arm sets whatever fees it wants. If they want to charge themselves eleventy quintillion dollars for distribution, they totally can. Then, even if the film earns billions of dollars in box office receipts, theyre still technically in debt (to themselves) and thus havent turned a profit.    
   
[That is btw the reason why David Prowse, the guy who was in the Darth Vader costume in the original trilogy of Star Wars has never been paid for Return of the Jedi because it hasnt turned a profit after nearly 30 years. Thats after dozens of home video and theatrical re-releases.](http://www.slashfilm.com/lucasfilm-tells-darth-vader-that-return-of-the-jedi-hasnt-made-a-profit) "	0
   	 2014-12-31 09:29:48 	 Die Mutter des Fragestellers 	0
 New analysis of carbon isotopes shows: people 30,000 yrs ago did consume mammoth in large quantities. But their dogs got reindeer. These new results provide evidence that mammoth was a key component of prehistoric life and that dogs were already there to help. 	 2015-01-01 19:51:35 	  	0
   	 2015-01-01 23:33:41 	 PARTS OF HIM, CORAL. 	0
   	 2015-01-01 23:47:36 	 http://i.imgur.com/SqHxExV.jpg 	0
   	 2015-01-01 23:48:10 	 /r/couchporn 	0
   	 2015-01-06 00:46:06 	" upvote for visibility.   
   
and dude: when you are going through hell, keep on going. Never never never give up. "	0
 Prehistoric Easter Islanders Didn't Experience a Simple Collapse, Say Researchers 	 2015-01-06 15:43:04 	  	0
   	 2015-01-07 21:00:17 	 Where exactly are they filming in Austria? 	0
   	 2015-01-07 21:58:49 	 Thanks 	0
   	 2015-01-07 21:59:16 	 Ahh, OK. Thank you for the info. 	0
   	 2015-01-08 08:41:58 	 Googled the Restaurant. Very Nice location. Thanks for the Info! 	0
 Je Suis Charlie 	 2015-01-08 11:53:07 	  	0
   	 2015-01-08 11:54:41 	 A picture by Magnus Shaw 	0
   	 2015-01-08 12:17:22 	 Yes i know who created the peanuts. But this picture -with this content - was made by the cartoonist [Magnus Shawn](https://www.twitter.com/themagnusshaw) 	0
 Jackie Chan's son Jaycee jailed for six months by Chinese court after guilty plea to drugs charge 	 2015-01-09 08:01:51 	  	0
 Oil glut spurs top traders to book supertankers for storage at sea | he collapse of global oil prices has prompted commodity traders to start hiring supertankers because they can make a profit from stockpiling crude oil at sea. 	 2015-01-09 08:10:04 	  	0
   	 2015-01-09 17:40:03 	" Repairing your old stuff rather than throw it away is a movement over here in Europe. We have [Repair Cafs](http://en.wikipedia.org/wiki/Repair_Caf) in a lot of Citys. It is Seen as a counter draft to our   throw-away society.   


btw, try and google ""planned obsolescence"". You will be surprised what you will find "	0
   	 2015-01-11 00:02:54 	 And that rug really tied the room together! 	0
   	 2015-01-12 18:49:51 	 http://i.imgur.com/s76Sy37.gif 	0
 Heather Thomas, 1981 (Jody Banks; The Fall Guy) 	 2015-01-13 23:47:56 	  	0
   	 2015-01-15 22:17:55 	" ""...and now use the loofah!"" "	0
 Gorbachev Warns of Decline in Russian Western Ties over Ukraine | In an interview, former Soviet leader Mikhail Gorbachev discusses the dangers of poor relations between Russia and the West in the Ukraine crisis, saying there is a danger that things could get worse 	 2015-01-17 15:17:53 	  	0
 One...two... 	 2015-01-17 22:11:54 	  	0
   	 2015-01-18 07:26:14 	" ""It rubs the lotion on its skin!"" "	0
 TIL Project Habbakuk was a plan by the British during the Second World War to construct an aircraft carrier out of ice for use against German U-boats in the mid-Atlantic. 	 2015-01-18 19:00:19 	  	0
   	 2015-01-18 22:12:43 	 It's a fake. OP made one mistake in the first thread. ;-) but it is entertaining 	0
   	 2015-01-18 22:23:21 	 :-D 	0
   	 2015-01-18 22:38:06 	" [Something is rotten in the state of Denmark](/s ""There is one PI. He is following his wife. But at the same time he can see what his sister in law is doing at Starbucks?-- See the 12:26pm post"") "	0
 A series of recommendations to reform copyright law in the European Union has been published by Julia Reda, Pirate Party MEP and rapporteur for the Legal Affairs Committee 	 2015-01-19 16:42:38 	  	0
   	 2015-01-22 23:22:22 	" Is it Verne? It's Verne!   

'Hey Verne!!' "	0
 NASA, Boeing, SpaceX Discuss Plan for Launching American Astronauts from the U.S. in 2017 	 2015-01-23 21:59:08 	  	0
 Well done street art 	 2015-01-23 22:46:31 	  	0
 Human-like hand use in Australopithecus africanus | Modern human-like hand postures consistent with the habitual use of tools appeared about half a million years earlier than the first archaeological evidence of stone tools. 	 2015-01-24 00:29:31 	  	0
 Is Germany Still in the Race for Australias Biggest Arms Deal of the Century? | Angela Merkel is aggressively pushing for Germany to win a contract to build 12 submarines. 	 2015-01-24 00:34:31 	  	0
 Reddit, what is the best drinking toast you know? 	 2015-01-24 00:51:11 	  	0
   	 2015-01-24 00:52:13 	" I like: Heres to the nights well never remember with the friends well never forget.

 "	0
 It's dangerous to go alone... 	 2015-01-24 07:04:15 	  	0
 Daytona Beach, 1957 	 2015-01-24 07:22:15 	  	0
   	 2015-01-24 09:39:35 	 Classic 	0
   	 2015-01-24 09:41:37 	 Well, does not work for all occasions 	0
   	 2015-01-24 09:42:19 	 I like this one 	0
   	 2015-01-24 09:42:40 	 Amen. 	0
   	 2015-01-24 09:43:37 	 The 2nd one is deep, man. 	0
   	 2015-01-24 09:48:10 	 Simple and unambiguous. I like it. 	0
   	 2015-01-24 09:57:32 	 Yeah. So manly! 	0
 The only purpose of this device is to drive people with OCD completely nuts. 	 2015-01-24 13:03:42 	  	0
   	 2015-01-24 14:05:48 	 Sorry. Really. I was thinking to flag this NSFL.  	0
   	 2015-01-24 14:40:55 	 Well, but that is not even!  	0
   	 2015-01-24 16:48:58 	 Thanks for the Info. Nice to know the City is still cool nowadays. 	0
   	 2015-01-24 19:49:47 	 Ain't nothin' wrong with that! 	0
 TIL Michelangelo illustrated his grocery lists so that his illiterate servants would know what to buy him. 	 2015-01-25 22:45:23 	  	0
   	 2015-01-28 20:48:23 	 Ay! Ay! Ay! 	0
   	 2015-01-29 06:04:55 	 Look how happy he is! 	0
   	 2015-01-30 19:16:13 	" [The mexican bomb hammer](http://youtu.be/_BWiJAHRavE)   

First the preperation and then... gets me always "	0
   	 2015-01-30 20:43:53 	 btw, where is this guy who promised to draw a Mohammed every day? Does he have a sub or something? 	0
 Carl Djerassi, developer of birth control pill, dies at 91 	 2015-01-31 16:31:11 	  	0
   	 2015-01-31 18:35:47 	 Read the 'Roma sub rosa' novels by Steven Saylor. It's set in ancient Rome and populated by noteworthy denizens thereof. The series is noted for its historical authenticity. I love the series and it is a entertaining way to approach the topic. 	0
   	 2015-01-31 19:07:06 	 I am laughing so hard right now. Epic! 	0
   	 2015-02-03 17:17:03 	 FYI, this drug is used to treat [Paroxysmal nocturnal hemoglobinuria](http://en.wikipedia.org/wiki/Paroxysmal_nocturnal_hemoglobinuria) 	0
 Reddit puts its cryptocurrency plans on hold 	 2015-02-03 18:55:23 	  	0
 I am convinced that a chameleon is black in total darkness. But i can't prove it. 	 2015-02-06 19:59:14 	  	0
   	 2015-02-06 20:15:43 	 I don't have a chameleon. Unfortunately.  	0
   	 2015-02-06 20:44:20 	 pics or it didn't happen! 	0
   	 2015-02-06 21:08:19 	 Hah! We have proof. They turn black! 	0
   	 2015-02-07 11:02:15 	" http://i.imgur.com/BiVcL1d.jpg

Let's go! "	0
   	 2015-02-08 22:55:55 	 When someone you love becomes a memory, the memory becomes a treasure. 	0
   	 2015-02-10 22:03:03 	 Looks like Hill Climb Racing with the Monster truck on the moon 	0
   	 2015-02-11 07:28:20 	 Exactly! 	0
   	 2015-02-11 07:28:53 	 2500 points! 	0
   	 2015-02-11 07:29:37 	 My first thought when a saw this 	0
   	 2015-02-12 20:11:03 	 OK. Who makes the x-post in /r/gonewild? 	0
   	 2015-02-12 20:44:23 	" He did go a long way:   

http://i.imgur.com/RDyHNF8.png "	0
   	 2015-02-12 21:15:58 	 Giorgio A. Tsoukalos 	0
" Rare Find of Embracing Neolithic Couple Found in Diros Cave | ""It is possibly the oldest grave to have ever been found, according to Giorgos Papathanassopoulos, who has led excavation work at the Diros site. "	 2015-02-13 12:47:02 	  	0
 Now you know why! 	 2015-02-13 13:48:51 	  	0
   	 2015-02-13 13:50:22 	" It was another source. I was cross reading. 

Edit: [Here it is](http://www.ekathimerini.com/4dcgi/_w_articles_wsite1_1_12/02/2015_547214) "	0
   	 2015-02-13 15:23:53 	 Here, have an upvote fellow stranger. 	0
   	 2015-02-13 18:11:57 	 That's why i posted it in /r/funny and not in /r/gaming. It's a joke i found in another corner of the Internet and i thought it is really funny! 	0
   	 2015-02-13 18:44:18 	 I did a search and could not find anything.  	0
   	 2015-02-15 16:41:40 	 He will be going Chris Brown on you for this! 	0
 New film footage reveals potential 'killer blow' to King Richard III * University of Leicester video shows injury on inside of skull 	 2015-02-15 20:13:11 	  	0
   	 2015-02-16 23:15:22 	 [Oi Va Voi - A Csitri Hegyek Alatt](http://youtu.be/U9RgXSUZtO4) 	0
" Israeli Prime Minister Candidate Isaac Herzog says in an interview the country's people are ""fed up"" with Benjamin Netanyahu's ""politics of fear."" If elected, he says he wants to ""reignite"" the peace process and is prepared to negotiate with the Palestinians. "	 2015-02-18 20:47:17 	  	0
 TIL The so called 'Vyne Ring' (also referred to as the Ring of Silvianus) may have been Tolkiens inspiration for his 'One ring' 	 2015-02-19 19:12:19 	  	0
 Guten Tag! Today we demonstrate the proper use of a Zollstock. 	 2015-02-19 21:15:40 	  	0
   	 2015-02-19 21:34:20 	 Yep. Till it snapped.  	0
 TIL There is difference between jail and prison 	 2015-02-19 21:46:51 	  	0
 Perfect 	 2015-02-20 23:25:30 	  	0
   	 2015-02-21 22:21:23 	 Sorry wasting your time 	0
   	 2015-02-23 19:37:42 	 Reality is an illusion that occurs due to lack of alcohol. 	0
   	 2015-02-24 05:50:53 	 Nice! I like it. 	0
   	 2015-02-26 19:30:29 	 Well done reddit! It's a good choice. 	0
 Thank you, reddit. Your efforts led to an historic FCC ruling and this note from the President of the United States 	 2015-02-26 22:02:04 	  	0
   	 2015-02-26 22:20:10 	 Thanks for the heads up. But i think this belongs here. I mean, man! A note from the President! 	0
 Medieval Chess-Piece Workshop Unearthed in England | Northampton's medieval chess workshop 'first to be found' 	 2015-02-27 17:30:20 	  	0
   	 2015-02-27 18:17:27 	" RemindMe! 30 days ""Is this dude still nonsmoker?"" "	0
   	 2015-02-27 18:27:34 	" ""In one of the stars I shall be living. In one of them I shall be laughing. And so it will be as if all the stars  were laughing  when you look at the sky at night""   

     - The little Prince, Antoine de Saint-Exupery "	0
 Leonard Nimoy, 1948 English HS Yearbook Boston 	 2015-02-27 19:19:58 	  	0
 [Image] Leonard Nimoy's last tweet 	 2015-02-27 20:25:53 	  	0
   	 2015-02-28 08:44:35 	 Please don't downvote this guy. He was polite and just made a Statement. Nothing wrong with that. 	0
   	 2015-02-28 21:56:50 	" When you remember me, it means that you have carried something of who I am with you, that I have left some mark of who I am on who you are. It means that you can summon me back to your mind even though countless years and miles may stand between us. It means that if we meet again, you will know me. It means that even after I die, you can still see my face and hear my voice and speak to me in your heart.
For as long as you remember me, I am never entirely lost. When I'm feeling most ghost-like, it is your remembering me that helps remind me that I actually exist. When I'm feeling sad, it's my consolation. When I'm feeling happy, it's part of why I feel that way.
If you forget me, one of the ways I remember who I am will be gone. If you forget, part of who I am will be gone. "	0
   	 2015-02-28 22:19:19 	" And so are you.   

Please stop all this hatin'. Peace   
P.S. Thanks for the 'dude'. Means a lot to me. "	0
   	 2015-03-01 17:55:16 	 I know. But i was drunk. ;-) 	0
 Fastest Star Ever Seen Will Escape from the Galaxy 	 2015-03-05 22:15:45 	  	0
 SPIEGEL Cover Story: How Silicon Valley Shapes Our Future 	 2015-03-06 15:19:09 	  	0
   	 2015-03-06 20:32:57 	 Hmm, it is not in the R's.... 	0
   	 2015-03-08 19:58:36 	" Well, my ass ain't the same   

-Bigger?   

Yeah.   

-Ain't nothin' wrong with that! "	0
 Measles doubter must pay doctor 100,000 | A regional german court has decided that a biologist must pay a doctor 100,000 after the resolution of a bizarre dispute over the very existence of the measles virus. 	 2015-03-12 18:10:08 	  	0
 Saskatchewan scientist finds oldest set of twins | It is the first evidence of a mother who likely died in childbirth 7,700 years ago 	 2015-03-18 16:25:47 	  	0
 Holocaust-denying bishop Richard Williamsons consecration of bishop in Brazil is considered illegitimate and incurs an automatic excommunication of both men 	 2015-03-21 11:02:24 	  	0
   	 2015-03-22 10:02:12 	 Tehehehe, Dds Bg 	0
 [Image]In three words I can sum up everything I've learned about life 	 2015-03-23 22:10:14 	  	0
 Apple Is Hitler Says Chinese Ceo | Jia Yueting, the billionaire founder and CEO of Chinese internet video site Leshi TV (LeTV), has compared Apple to the Nazis in a poster teasing the launch of LeTVs new smartphone. 	 2015-03-27 12:20:55 	  	0
 Jury rules against Reddit interim CEO Ellen Pao in Silicon Valley gender bias case 	 2015-03-28 23:11:43 	  	0
 TSAs Secret Behavior Checklist to Spot Terrorists 	 2015-03-28 23:35:42 	  	0
 Archaeologists find grave of a Celtic prince in Lavau, France 	 2015-03-31 14:50:16 	  	0
 French filesharers to be banned from flying? | A proposed European Directive threatens the ability of French filesharers to use airlines 	 2015-04-01 22:27:20 	  	0
 An Air Force pilot escapes the wreckage of his plane in this short film called Fragment | This short film will send a shiver up your spine... 	 2015-04-02 21:19:19 	  	0
   	 2015-04-02 22:03:31 	 Oh! That's deep. 	0
 Caught Between History and Modernity: The Persian Paradox | Iran Is Much More Modern Than You Think an Essay by Erich Follath 	 2015-04-06 15:58:52 	  	0
   	 2015-04-09 21:52:15 	" An American investment banker was at the pier of a small coastal Mexican village when a small boat with just one fisherman docked.  Inside the small boat were several large yellowfin tuna.  The American complimented the Mexican on the quality of his fish and asked how long it took to catch them.

The Mexican replied, only a little while. The American then asked why didnt he stay out longer and catch more fish? The Mexican said he had enough to support his familys immediate needs. The American then asked, but what do you do with the rest of your time?

The Mexican fisherman said, I sleep late, fish a little, play with my children, take siestas with my wife, Maria, stroll into the village each evening where I sip wine, and play guitar with my amigos.  I have a full and busy life. The American scoffed, I am a Harvard MBA and could help you. You should spend more time fishing and with the proceeds, buy a bigger boat. With the proceeds from the bigger boat, you could buy several boats, eventually you would have a fleet of fishing boats. Instead of selling your catch to a middleman you would sell directly to the processor, eventually opening your own cannery. You would control the product, processing, and distribution. You would need to leave this small coastal fishing village and move to Mexico City, then LA and eventually New York City, where you will run your expanding enterprise.

The Mexican fisherman asked, But, how long will this all take?

To which the American replied, 15  20 years.

But what then? Asked the Mexican.

The American laughed and said, Thats the best part.  When the time is right you would announce an IPO and sell your company stock to the public and become very rich, you would make millions!

Millions  then what?

The American said, Then you would retire.  Move to a small coastal fishing village where you would sleep late, fish a little, play with your kids, take siestas with your wife, stroll to the village in the evenings where you could sip wine and play your guitar with your amigos. "	0
   	 2015-04-10 18:08:11 	 [Exactly](http://www.independent.co.uk/life-style/gadgets-and-tech/news/tv5monde-hack-staff-accidentally-show-passwords-in-report-about-huge-cyberattack-10168475.html) 	0
 Android tablet delivers airstrikes in four minutes 	 2015-04-11 12:10:55 	  	0
 California-based Raytheon engineers Ulvi Yurtsever and Steven Wilkinson say that any interstellar spacecraft travelling that fast would leave distinct light signatures in its wake. This should be visible with current technology. 	 2015-04-12 10:35:29 	  	0
 Impressive image of a shell shocked US Marine (Vietnam, Hue, 1968) by Don McCullin 	 2015-04-18 22:35:42 	  	0
 TIL The oldest known pants in history are 3300 years of age. Here is a pic. 	 2015-04-18 23:24:44 	  	0
 Here is an idea for George R. R. Martin 	 2015-04-18 23:45:59 	  	0
 So true! 	 2015-04-19 00:00:55 	  	0
   	 2015-04-22 21:18:09 	 http://i.imgur.com/IwR9vJL.jpg 	0
   	 2015-04-23 17:33:42 	 One of the best TL so far! 	0
 Google pulls the Nexus 7 tablet from its online store | In case you were on the fence about grabbing one of Google's affordable Nexus tablets, you'd better jump off it pretty soon 	 2015-04-25 13:38:27 	  	0
   	 2015-04-25 15:55:10 	 Huh?! 	0
   	 2015-04-25 17:36:34 	 Didn't know that. Thanks for the info. 	0
   	 2015-04-25 18:25:51 	 I think it is still a very good tablet. [but don't trust me](http://www.pcadvisor.co.uk/reviews/tablets/3465478/new-nexus-7-review-2014/) 	0
 SABRE engine concept passes US Air Force feasibilty test | Reaction Engines Ltd - Press Releases 	 2015-04-28 23:15:02 	  	0
   	 2015-04-29 16:53:11 	 Every account on reddit is a bot except you. 	0
   	 2015-04-30 20:34:29 	 The same goes for Houses! ppl don't get it.... 	0
   	 2015-04-30 20:38:47 	 Here, have one. 	0
 TIL near Waxahachie, Texas are abandoned remains of a particle Collider. The system, known as the Superconducting Super Collider, was intended to be the world's largest particle accelerator, with a ring circumference of 54 miles. It would have had five times the energy of even todays LHC collisions 	 2015-04-30 23:56:20 	  	0
   	 2015-05-01 00:14:42 	 Yep, congress killed the project after $2 billion had been spent. Too sad. 	0
   	 2015-05-01 12:43:00 	 Strange but....no, just strange. 	0
 Times Square at nightfall, 1911 	 2015-05-01 13:06:18 	  	0
 Apollo 16 astronaut Charles Dukes family photo left behind on the moon in 1972. I like the fact it's still there. 	 2015-05-03 01:14:28 	  	0
   	 2015-05-03 01:23:38 	 You mean that Virgin Records guy. But yes, he is probably planning a coup. 	0
   	 2015-05-03 01:26:36 	 Don't know. Go ask /r/askscience 	0
   	 2015-05-09 23:51:58 	" Yes....!    

and i'm like 3000 miles away "	0
   	 2015-05-10 00:13:09 	 I don't know why, but on one hand i am completetly sad cos the tree died. But on the other hand i am more that happy cos the tree lives on in such a... tremendous way. 	0
 Japan astronaut Aki Hoshide uses a digital still camera to expose a photo of his helmet visor during extravehicular activity, 5 Sept. 2012. 	 2015-05-11 20:32:58 	  	0
" TIL In the mid-1960s, Slumber Party Barbie came with a book called ""How to Lose Weight."" One of the tips was ""Dont eat."" "	 2015-05-11 20:45:14 	  	0
   	 2015-05-11 22:43:43 	 It's easy if you know how! 	0
 Spiders sprayed with water containing carbon nanotubes and graphene flakes have produced the toughest fibers ever measured 	 2015-05-13 18:45:01 	  	0
 Clean Bandit - Rather Be ft. Jess Glynne [Electronic] 	 2015-05-13 23:48:06 	  	0
" Fannie Mills, also known as ""The Ohio Big Foot Girl."" She had a condition known as Milroy Disease, which caused her feet to grow to an abnormally large size. "	 2015-05-14 00:15:51 	  	0
 nice ploice man 	 2015-05-14 00:26:12 	  	0
 TIL a paper released by a CMS (Compact Muon Solenoid) and LHCb (Large Hadron Collider beauty) collaboration has more than 3000 authors. This is what science is about! 	 2015-05-14 07:50:30 	  	0
 Bomb threat at Heidi Klums 'Germanys next Topmodel' live broadcast. Right now they are ecavuating a arena where 20.000 people are. 	 2015-05-14 22:08:43 	  	0
   	 2015-05-14 22:18:05 	 No one knows. It just happened. 	0
 Giant Conger eel (weighing 130lb, after it was gutted) caught off the Plymouth coast 	 2015-05-15 15:55:00 	  	0
   	 2015-05-15 16:04:51 	 And old, i assume. But i could not find an estimate. 	0
   	 2015-05-15 23:42:07 	 /r/retiredgif 	0
 Record Labels Sue 'New' Grooveshark, Seize Domains 	 2015-05-16 14:47:26 	  	0
   	 2015-05-18 18:46:55 	" Always pass on what you have learned.
 Yoda "	0
   	 2015-05-18 22:58:57 	 But a Yoda quote it is. 	0
   	 2015-05-18 23:48:10 	 Meet Joe Black. Brad Pitt as a main character and....BAM! 	0
   	 2015-05-19 21:36:17 	     - Elbert Hubbard 	0
 Spiegel Magazin: Interview with Iranian Foreign Minister Mohammad Javad Zarif - 'We Will Have Differences with US No Matter What' 	 2015-05-20 08:43:41 	  	0
 Tracing the dynamic life story of a Bronze Age Female | Bronze Age Egtved Girl found in Denmark came from the Black Forest 	 2015-05-22 13:01:29 	  	0
 Johnny Cash giving the middle finger during his San Quentin prison performance, 1969 (Jim Marshall) 	 2015-05-23 00:12:11 	  	0
   	 2015-05-23 08:13:47 	 Nice! 	0
   	 2015-05-24 21:52:13 	 Hey! He-Man had the cat! 	0
 The Eiffel Tower, 1925 	 2015-05-24 23:25:53 	  	0
   	 2015-05-24 23:55:08 	 [Oh yes](http://i.imgur.com/2zeV1wH.gif) 	0
 A young children of the Dukha tribe (on the border of Mongolia and Russia) sleeping on a reindeer [Hamid Sardar Afkhami] 	 2015-05-25 00:12:35 	  	0
 Golden Gate Bridge Under Construction, 1937 	 2015-05-25 08:27:11 	  	0
   	 2015-05-25 12:25:11 	" First i was thinking to reply is a bad idea. But then i remembered Ralph Emerson who once said: he who is not everyday conquering some fear has not learned the secret of life.  

And i was like, fu*k it. This one is for you, OP! "	0
 Lethal Interpersonal Violence in the Middle Pleistocene | 430,000-Year-Old Skull Could Feature Oldest Evidence of Murder 	 2015-05-27 20:45:39 	  	0
   	 2015-05-27 22:25:34 	 I am laughing so hard right now. Thank you. 	0
   	 2015-05-27 22:46:51 	 This is nuts! 	0
 Soldier in Russia's Troll Army Sues Her Ex-Employer 	 2015-05-29 13:08:05 	  	0
   	 2015-05-29 15:00:59 	 Very good. Made me smile :thumbsup: 	0
   	 2015-05-29 20:19:42 	 Hell yeah! He really is 	0
   	 2015-05-31 07:33:23 	 Why is everybody laughing in the interview? What did she say? (my french is not that good) 	0
 Google's Project Vault and Abicus Aim to Kill the Password 	 2015-06-01 12:26:47 	  	0
 Nasa and Verizon plan to monitor US drone network from phone towers 	 2015-06-04 20:40:07 	  	0
   	 2015-06-06 21:26:50 	 This is sooo cute. Love it. 	0
 PsBattle: The super-muscly Kangaroo Roger flexing (from the Kangaroo Sanctuary in Alice Springs, AU) 	 2015-06-08 16:51:53 	  	0
   	 2015-06-08 20:07:29 	 Hrhr. But it's not his cock. It has no hair! 	0
   	 2015-06-08 20:51:04 	 Do you want to get killed? Because this is how you get killed. 	0
   	 2015-06-13 23:42:37 	 Chapeau! 	0
 [Video] The Year of Pluto | Watch this hour-long documentary from NASA about the New Horizons mission 	 2015-06-15 22:42:44 	  	0
 These painters are good. Really good. 	 2015-06-17 20:09:50 	  	0
   	 2015-06-17 20:16:37 	 But...but....it's just his voice. 	0
   	 2015-06-17 21:26:21 	 Amen! 	0
   	 2015-06-17 22:02:41 	" A mask tells us more than a face.   

Oscar Wilde "	0
 A Middle Triassic stem-turtle and the evolution of the turtle body plan | New turtle fossils shed new light on evolution of its shell 	 2015-06-24 19:48:20 	  	0
 Savoury Recipes and the Colour of the Tlatelcomila Human Bones 	 2015-06-25 10:48:42 	  	0
   	 2015-06-26 23:28:17 	 Uhh, this is dark....i mean dazzled with light. 	0
   	 2015-06-26 23:44:47 	 https://i.imgflip.com/ngfuy.jpg 	0
   	 2015-06-28 00:49:01 	" For the foreign folks: 6 inches = 15,24 centimeters

 "	0
   	 2015-06-28 00:51:17 	 lul! 	0
   	 2015-06-28 22:28:17 	" He IS a time traveler. Once he said:   

 'I see stuff from the future, and Im such a futurist that I have to slow down and talk in the present.' "	0
 You can't be much cooler than Alan Shepard (Americas First Man in Space) as he puts on his Navy Mark IV Spacesuit, 1963 	 2015-07-01 21:15:57 	  	0
   	 2015-07-01 22:38:29 	 You see? Cool as f***! 	0
 Since reddit make its money by monetizing the user traffic... 	 2015-07-03 10:24:37 	  	0
 Found this beautiful image from the start of the Space shuttle Atlantis. Actually it is from the 135th and final mission of the American Space Shuttle program. With this, Atlantis closes the book on the Space Shuttle Program. 	 2015-07-05 11:38:03 	  	0
   	 2015-07-05 14:09:57 	 But you got that going for youwhich is nice.  	0
   	 2015-07-05 14:18:55 	" *Any goal worth achieving involves an element of risk.*   


- Dean Karnazes "	0
   	 2015-07-05 14:29:26 	" But in times like today with all the economic problems it has to be a legitimate questionif space exploration is worth the cost.

 "	0
   	 2015-07-05 14:47:23 	 Nervermind. I thought that reference would be easy to understand. 	0
   	 2015-07-05 15:00:07 	" Don' t get me wrong. I am on your side. Someone much smarter than me (Dr David Livingston) once said, and i quote:   

*Manned space exploration is absolutely worth the investment. Its not just about what we learn out there in space, or about ourselves, or how to be a better steward of precious Earth. Its about how we live here on Earth together and what type of future we want for ourselves and children. Manned space exploration is the path to how we build a better life for ourselves here on Earth, and how we can give hope and provide inspiration for our youngsters to grow up, do the schoolwork, and accept the challenges that await them to make our world even better. Whatever we spend on manned space exploration is a bargain and our investment will be returned to us many times over, both quantitatively and qualitatively. From my perspective, we are getting this value at a bargain, as if we were all going to the dollar store for an end of the year sale.*   

But we both don't fund NASA. I still hope the journey into space will continue and Roscosmos and Nasa actually will be working together on the programme of a future space station. "	0
   	 2015-07-05 15:06:57 	" This is confusing me. I found the pic on the official NASA website right here i think http://spaceflight.nasa.gov/gallery/images/shuttle/sts-135/ndxpage1.html  

I apologize if i got this wrong.
 "	0
 Eric Holder: The Justice Department could strike deal with Edward Snowden 	 2015-07-07 12:23:53 	  	0
   	 2015-07-07 23:15:57 	 Grats. Is looking great. 	0
   	 2015-07-08 23:08:53 	 https://i.imgur.com/YdMhUh.jpg 	0
   	 2015-07-09 15:15:10 	" Why is it tagged nsfw? There is nothing to see...   

http://i.imgur.com/RvtXZrS.jpg "	0
 On this day 30 yrs ago, the Greenpeaces Rainbow Warrior was bombed by french government commandos 	 2015-07-10 11:33:47 	  	0
   	 2015-07-10 11:42:26 	 [Here are some backgroundinformations about the bombing](https://en.wikipedia.org/wiki/Sinking_of_the_Rainbow_Warrior) 	0
   	 2015-07-11 00:42:11 	 OK. Now as a song. We need the song guy over here! 	0
   	 2015-07-11 07:33:42 	 Thank you. I'm feeling better now.  	0
   	 2015-07-13 20:59:35 	 Gnihihi...very good! 	0
   	 2015-07-13 21:46:19 	" *And I think it's gonna be a long, long, time  
'Til touchdown brings me 'round again to find   
I'm not the man they think I am at home   
Ah, no no no   
I'm a rocket man   
Rocket man   
Burnin' out this fuse   
Up here alone* "	0
 TIL Jim Morrison named his Band after a quote by William Blake: *If THE DOORS of perception were cleansed, every thing would appear to man as it is... ...infinite.* 	 2015-07-18 07:52:27 	  	0
 New world record: 0-100 km/h in 1.779 seconds 	 2015-07-20 21:53:32 	  	0
 Skeleton of Alexander the Great's Father (King Philip II) Found 	 2015-07-21 12:52:37 	  	0
   	 2015-07-21 15:49:39 	" Here is a quote from another article:   

More convincingly, however, was the analysis of the male skeleton. He was judged to be around 45 when he died, matching the age at which Philip was killed, but he was also found to have suffered a severe wound to his knee three years before his death.

This is consistent with reports of Philip's life: ""As Philip was returning to Macedonia from the Scythian campaign against Ateas, the Thracian tribe of Triballoi met him and refused to allow him passage unless they received a share of the spoils,"" the researchers wrote. ""Hence, a dispute arose and afterward a battle, in which Philip received so severe a wound through his leg by a lance that his horse was killed by it.

Analysis showed the male in Tomb I had leg bones with a stiffened knee joint, signs of bone fusion and a hole through the knee indicating a piercing wound. ""Therefore, Philip's lameness is conclusive evidence for the identification of one tomb occupant as Philip."" "	0
   	 2015-07-21 20:39:00 	" I have two!   
 
One in my tablet and another one in my phone. "	0
