title	date	text	class
   	 2013-11-07 22:27:55 	 I just want to say im sorry this happened to you, and it seems like you have a positive outlook about it. hope you're doing well!  	1
   	 2013-11-07 22:39:46 	 that's precious. 	1
   	 2013-11-17 04:46:04 	 your bone structure makes me swoooon. keep doing what you're doing 	1
   	 2013-11-21 17:21:21 	 THAT ALL GRAD SCHOOL IN AMERICA WAS FREE. kk  	1
   	 2013-12-05 22:21:39 	 this shit is good.  	1
   	 2013-12-07 02:12:57 	 I totally get you about the gym thing. Same boat. I think some confidence would look great on you, like the almost smile in the second picture. Keep your head up! 	1
   	 2014-01-14 04:29:20 	 Being in the army. After meeting some Israeli soliders, being in the IDF seems so badass but i know i wouldnt be able to handle actually being in boot camp  	1
   	 2014-01-14 04:32:27 	 we both worked in a bagel shop, he told me to take out the trash and in the back was Prom? spelled out in bagels...it worked 	1
   	 2014-01-14 04:35:07 	 i would do very illegal things for a Midtown reunion. very illegal.  	1
   	 2014-01-14 18:37:43 	 medication, and depression recovery blogs (shut up, most are cheesy but there are some good ones out there)  	1
   	 2014-01-14 18:39:53 	 funeralformyfat.tumblr.com  	1
   	 2014-01-20 05:48:37 	 http://www.reddit.com/r/IAmA/comments/nmmjr/iama_man_who_had_a_sexual_relationship_with_his 	1
   	 2014-01-22 02:38:46 	 State Champs and Transit 	1
   	 2014-01-22 03:50:10 	 no problem!! seeing Transit's acoustic show next week cant wait 	1
   	 2014-01-24 03:41:25 	 i hear ya  	1
 guilt with insurance 	 2014-01-24 03:54:15 	 I want to go back into counseling. I am miserable right now: not enjoying anything, over compulsive eating, not wanting to take my meds etc. but I'm on my parents insurance and I feel so guilty for burning through it if I go back to counseling. What if something bad happens (god forbid) but the insurance is all burnt out because of me?  	1
   	 2014-01-26 02:05:07 	" ""theres no points in heaven for suffering""
 
it blew my mind at the time "	1
   	 2014-01-26 19:53:38 	 second this but with Stick Around 	1
   	 2014-02-02 16:19:18 	 tampons 	1
   	 2014-02-03 02:05:44 	 Michael Cera  	1
   	 2014-02-05 19:40:31 	 How do I stop mourning the end of Weeds? /help  	1
   	 2014-02-05 19:43:14 	 Get any tattoos recently?  	1
   	 2014-02-05 19:55:46 	 i am so jealous  	1
   	 2014-02-05 20:04:23 	" Educational background? 
Awesome stories, btw "	1
   	 2014-02-05 20:45:58 	 i almost screamed aloud in english class.. 	1
   	 2014-02-05 22:07:53 	 i did, and im obsessed. you have good taste :)  	1
   	 2014-02-06 02:41:34 	 hahaa i didnt yet...i tried once but im taking this message as a sign to try again 	1
   	 2014-02-06 05:12:55 	 stressed as shit.  	1
   	 2014-02-06 05:17:02 	 need not find a cure for everything that makes you weak- city and colour 	1
   	 2014-02-06 05:20:11 	" How did you get out?
also, congratulations on getting out  "	1
   	 2014-02-06 05:22:32 	 hm. valid point, I think I knew just by growing up in society that that was one of the uses of smoking. I was at a point where none of other coping mechanisms were sufficient  	1
   	 2014-02-06 05:35:44 	 no way. was in a bad environment/situation, and when that was resolved i stopped  	1
   	 2014-02-06 05:37:34 	 thanks for sharing. im a crisis counselor and getting a male's perspective in your situation is harder to come by. sorry for what you've been through and congratulations for getting the heck out!!  	1
   	 2014-02-06 05:54:23 	 yeah no thats totally helpful. right on.  	1
 The Wonder Years meme (thought of this in the shower) 	 2014-02-06 06:10:47 	  	1
   	 2014-02-06 20:44:58 	 Kevin Breel was supposed to talk about effective social media use at TedXyouth, because depression and suicide was too serious/deep. He talked about it anyway, it spread like wildfire on the internet and now he's touring the nation. Any thoughts?  	1
   	 2014-02-06 21:13:08 	" A Home Based Program Worker for a branch of The Arc
-i got kicked out of a nursing home bc the people working at the agency were fucking morons and didnt have an appropriate professional relationship with the home
-nursing homes smell like poop and diaper all the time and hearing people moan was something that happened constantly
-had a client with ID who the supervisors didnt teach her that it was inappropriate to call me 30 times a day (literally)
-was manipulated into working with a client with a lot of medical problems who needed her colostomy bag (poop bag) changed, her period pad changed, i had to lift her and wasnt nearly strong enough/prepared
-was told to spend 6 hours with a client with basically no idea what to do 

its endless. if you live in central PA and are in the human services field, talk to me before getting a job.. "	1
   	 2014-02-07 16:54:20 	 Russa's Toughest Prisons on netflix  	1
   	 2014-02-08 01:19:33 	 it was awful. i didnt know for about 2 years (he was confused). felt completely helpless. and like there was no one else that would know me like they did.   	1
   	 2014-02-08 01:22:25 	 pop punk and best friends  	1
   	 2014-02-08 01:27:43 	 accutane...boy was that a bitch and a half. but never got it again. one helluva drug.  	1
   	 2014-02-08 23:07:41 	" Taken from Salt by Nayyirah Waheed:

If
the ocean
can calm itself,
so can you.
we 
are both
salt water,
mixed with 
air.  "	1
   	 2014-02-08 23:08:15 	 theres spaces which make it look better i just cant do it 	1
   	 2014-02-09 05:01:45 	 Assisting them casually or in a work atmosphere? just curious! 	1
   	 2014-02-09 06:20:36 	 Yeah I hear you. May I ask what field you're in? That's awesome. 	1
   	 2014-02-10 03:12:52 	 BLESS 	1
 Online Fitness Coaches? 	 2014-02-10 03:49:12 	" Hi Loseit!

I was wondering if anyone has or has ever tried an online fitness or weight loss coach. I was curious about how much it costs and anything else you are willing to share about the overall experience?
 "	1
   	 2014-02-10 20:50:53 	 breaking bad spoilers 	1
   	 2014-02-10 23:12:18 	 hahah damn it.  	1
   	 2014-02-11 21:00:17 	 i have to picture like a feature length freaking film in my head until i pass out. but it works.  	1
   	 2014-02-17 19:17:08 	 I cried in the middle of dunkin donuts.  	1
   	 2014-02-17 20:12:56 	 seven. years.  	1
   	 2014-02-24 04:35:46 	 I got my tonsils out last summer and it was the most painful thing ever and this is my worst nightmare LOL I am so sorry.  	1
   	 2014-02-24 04:37:32 	 It's kind of a funny story  	1
   	 2014-02-24 05:06:38 	 Depression is caused by a chemical imbalance in your brain. So even if you're consciously trying to be happy/positive, your brain won't let it last. The chemical imbalance causes you to have low mood 	1
   	 2014-02-24 05:41:22 	 I have the same problem. Let's go we're in this together  	1
   	 2014-02-24 19:29:48 	 breathe. lots and lots of oxygen. 	1
   	 2014-02-28 22:14:47 	 Hot water music-trusty chords 	1
   	 2014-02-28 23:06:37 	 I bought jessica simpson HairDo clip in extensions and i love them. im on a college budget so i got the synthetic kind, but i believe she has real hair ones too. got them off amazon! my only complaint is the netting/weft thing is a little big for my head, but i make it work.  	1
 Trying Out Jessica Simpson HairDo Clip in Extensions 	 2014-02-28 23:44:07 	" I have a hard time growing out my hair without it getting for lack of a better word, gross. Been toying with the idea of extensions for awhile, and finally let go of some cash. I'm still learning how to blend them and how to make them look best, but its been fun and overall im pretty pleased with them! These are synthetic. 

[My short hair](http://imgur.com/OZiih4R)

[With them in](http://imgur.com/MVmGbEw)

[One More](http://imgur.com/2dwhsqv)
 "	1
   	 2014-02-28 23:56:21 	 how do you work out? 	1
   	 2014-03-07 07:17:41 	 Proud of you! 	1
   	 2014-03-11 02:13:07 	 proud of you 	1
   	 2014-03-11 21:49:42 	 super 7  	1
 Reddit, what should I buy with my upcoming paycheck? 	 2014-03-12 01:26:25 	 I am a 20 year old female college student. I'm already planning to buy a ticket to see Midtown reunite.  	1
   	 2014-03-12 01:35:51 	 haha, you have no faith in me.  	1
   	 2014-03-12 16:37:15 	 slap activated butt light. sold.  	1
   	 2014-03-12 19:49:25 	 jfc. 	1
   	 2014-03-14 00:41:34 	" you were my middle school wet dream. this is awk. sup? got any tattoos?
 "	1
   	 2014-03-14 00:48:01 	 what was your educational level? what did you do there? 	1
   	 2014-03-14 00:50:21 	 will you take me on warped tour with you? ill provide endeless tacos  	1
   	 2014-03-14 00:52:59 	 anything about nutrition.  	1
   	 2014-03-14 01:03:16 	 sweet. cya then.  	1
   	 2014-03-14 01:06:15 	 marry me? 	1
   	 2014-03-19 22:11:25 	 if your gut feeling says no  	1
   	 2014-03-19 22:17:51 	 London Landscaping, London Total Lawn Care, London Lawn Professionals, 	1
   	 2014-03-22 21:22:52 	 birthday party host at a bouncy place. i got to jump in moon-bounces and obstacle courses the whole time o hell yeah 	1
   	 2014-03-23 00:36:48 	 Prime 	1
   	 2014-03-24 00:29:06 	 ellen degenerous  	1
   	 2014-03-24 01:11:43 	" he screamed ""IM A VIRGIN"" "	1
   	 2014-03-24 01:14:58 	 suicide calls  	1
   	 2014-03-24 01:16:07 	 yeah, we became best friends, i fell in love. it sucked.  	1
   	 2014-03-24 03:02:27 	 the woman at this new place is a fucking nut. calling this now  	1
   	 2014-03-24 03:05:23 	 brendon would fucking shine in a musical  	1
   	 2014-03-24 03:09:21 	 chris wearing this wig doe 	1
 Recirculating This Again Because It's My Favorite Thing. Kevin Breel TedXTalk 	 2014-03-24 03:16:49 	  	1
   	 2014-03-24 20:12:46 	 he doesnt like you 	1
   	 2014-03-27 04:15:22 	 Not quitting a job sooner  	1
   	 2014-03-27 04:17:23 	 Talking about their fucking diets  	1
   	 2014-03-27 04:21:16 	 BRUSHING MY TEETH  	1
   	 2014-03-27 04:26:00 	 The kid in the neighbor did just one hit of the gluten and became addicted!!!!!  	1
   	 2014-03-31 03:17:24 	 20f. You're attractive. Hi.  	1
   	 2014-04-02 05:41:18 	 warped here u come 	1
   	 2014-04-03 07:41:41 	 You can buy crabs. Like the std/i.  My friend found this out I don't wanna know why 	1
   	 2014-04-03 07:45:21 	 I got to Penn State and then the Sandusky scandal happened ha ha ha ha ha  	1
   	 2014-04-03 07:55:46 	 I went down to where they were happening and witnessed it but didn't do much. It was insane the amount of riot police they had brought in looked like a whole fucking army  	1
   	 2014-04-03 07:57:46 	 Club coco bongo  	1
   	 2014-04-03 07:59:50 	 Bless 	1
   	 2014-04-03 08:05:35 	 Shit. Well here I am bitchez 	1
   	 2014-04-04 06:11:56 	 It was insane. There were flying midgets  	1
   	 2014-04-07 05:30:31 	 i have clinical chronic depression and id rather be alive than dead 	1
   	 2014-04-07 05:36:01 	 im just here to say wow yep agreed 	1
   	 2014-04-08 21:03:29 	 Sorry I'm new to the sub. Won't happen again.   	1
   	 2014-04-09 20:06:54 	 most schools have a counseling center. start there. 	1
   	 2014-04-14 00:55:23 	 Introverts get their energy from being alone, and extroverts by being around people  	1
   	 2014-04-14 00:58:37 	 Always hold the door open! 	1
   	 2014-04-16 20:47:50 	" Does your hair look sexy pushed back?

(sorry) "	1
   	 2014-04-17 01:03:43 	" Ned Vizzini. So, so much. 

I read It's kind of a funny story after being diagnosed with depression. I was 16 and it gave me hope. It was semi based on his own experiences......and then he committed suicide.

still gives me chills "	1
   	 2014-04-17 06:02:42 	 thanks for sharing this with me 3  	1
   	 2014-04-20 04:04:34 	 hugs. ive been there. i swear on everything it gets better.  	1
   	 2014-04-20 04:07:02 	" for me, its like:
depression makes me not care at all
anxiety makes me care too much

i end up stuck in the middle, ricocheting between the two. it sucks.  "	1
   	 2014-04-20 04:16:13 	 honestly, i love Adventureland and Zack and Miri Make a Porno. and Supertroopers.  	1
   	 2014-04-20 04:16:46 	 fetal 	1
   	 2014-04-20 04:25:56 	 u r nuts 	1
   	 2014-04-20 04:57:54 	 it really, really depends where you are. nobody carries guns in either of the town im from and i feel 100% safe. at college, i walk home by myself through downtown at 4am and im fine! 	1
 AM Tattoos! 	 2014-04-20 05:03:33 	 Can you show me your Andrew Mcmahon inspired tattoos? I love looking at them and I've seen all the ones on google :)  	1
   	 2014-04-20 17:49:28 	 you put it into words, for real.  	1
   	 2014-04-21 15:04:19 	 gorgeous! 	1
   	 2014-04-22 07:34:43 	 5 and Billy Joel. All I remember is wanting him to play downeaster alexa 	1
   	 2014-04-22 07:35:12 	 Wat 	1
   	 2014-04-29 05:56:10 	 Is my ugliness boootthhherring you?! 	1
   	 2014-04-29 05:59:00 	" Ace Enders-motion

Holy feels. "	1
   	 2014-04-30 05:05:19 	" I was 16. I was sitting on a plane and my mind was RACING and I was on the verge of tears, which was a common occurrence for me. I was looking around and realized this probably was not normal and everybody else on the plane wasn't going through this. I told my mom I needed help. 

I'm 20 and doing ok now :) there's just one last unhealthy behavior I'm sorting out

Thanks for asking "	1
   	 2014-04-30 05:07:18 	 It's going down, I'm yelling Tinder 	1
   	 2014-04-30 05:10:12 	 Arrested development  	1
   	 2014-04-30 05:37:11 	 Do you feel the pressure to marry Jewish? It's so real over here in jersey 	1
   	 2014-04-30 05:39:15 	 Hopefully. If I see any more flower headbands imma flip  	1
   	 2014-05-05 05:47:15 	 Crop top and high waisted shorts for the love of everything holy a crop top should not be the same price as a normal shirt anway????? 	1
   	 2014-05-05 06:03:00 	 20f and you sir, are attractive  	1
   	 2014-05-05 06:19:38 	" ""I'm confused about my sexuality"" "	1
 Justin, the wedding is on Tuesday.. 	 2014-05-06 21:08:52 	  	1
" This came from an ""authentic"" restaurant.. "	 2014-05-06 21:42:13 	  	1
   	 2014-05-07 04:43:25 	" it was a little too close to a swastika for me know what im sayin
 "	1
   	 2014-05-13 04:00:31 	 Thank you. You put it into words. 	1
   	 2014-05-13 04:01:54 	 Every damn day. Thanks for putting it into words  	1
 Self Care? 	 2014-05-13 04:12:56 	" Hey guys,

I was wondering what everyone's favorite or go to self care is when they are feeling down. I used to go to eating, but now thy a I'm seeing a nutritionist and trying to stop binge eating I'm looking for new ways to promote self care within myself.

Thanks for any advice in advance "	1
   	 2014-05-13 04:29:45 	 Thank you very much  	1
   	 2014-05-13 04:32:38 	" Yeah, this is me, always. It's where the awful assumption ""people aren't depressed they're just lazy"" comes from. I think getting engrossed in tv or not harmful thoughts pushes away the bad thoughts. Or sometimes I can't clean my room because I physically can't get up and do it, not because I don't want to. It sucks when people don't understand. I think it's good you're recognizing it at least  "	1
   	 2014-05-13 04:45:31 	 Hey..sorry things are so rough right now. You must feel at a complete loss. Have you ever gotten professional help for this? 	1
   	 2014-05-13 04:59:14 	 Yeah the mom thing sounds about right :( so I'm thinking about things that don't cost money...it may sound silly but are there any support groups in your area for people with mental illnesses? Sometimes just being around people that feel similarly could help tremendously ya know  	1
   	 2014-05-23 04:58:33 	 Ace Enders-Motion 	1
   	 2014-05-23 05:28:25 	 ill definitely check out Best Deceptions. Glad you liked the song, it wrecks me.  	1
   	 2014-05-23 05:28:42 	 really well put. i relate to this tremendously. dont end it, we cant lose any more of us.  	1
   	 2014-05-23 05:38:03 	 christ this song is good. yes i agree. i have a spotify playlist called you're feeling emotional and when answering your question it was hard to decide which one to write hah ;)  	1
   	 2014-05-24 03:45:41 	 I love being alone but I'm lonely  	1
 They need to make a function to clear out matches 	 2014-05-25 03:30:36 	 for real it would make it so much easier 	1
   	 2014-05-28 05:36:07 	" honestly rn mh370 

actually or jonbenet "	1
   	 2014-05-28 05:42:07 	" ""its too hot"" ""its too cold"" 
people will never be satisfied with the damn weather "	1
   	 2014-05-28 05:42:59 	 eerie!!! 	1
   	 2014-05-28 05:46:55 	 not me. but my best friend literally called yesterday to say he bought condoms, soap, and paper towels. only those 3 things.  	1
   	 2014-05-28 05:58:11 	 i am sorry. hahah im a college student and every damn winter people act like theyve never seen snow before 	1
   	 2014-06-09 07:02:19 	 S a m e  	1
   	 2014-06-09 07:10:43 	 You uncultured swine  	1
 Can someone take away the snapchat caption? I would be forever grateful. 	 2014-06-12 18:37:37 	  	1
 Really? NSFW 	 2014-06-12 18:45:10 	  	1
   	 2014-06-12 19:35:05 	 nailed it 	1
   	 2014-06-12 21:00:30 	 Ha so I can use it on other forms of social media without the thing across my face  	1
   	 2014-06-12 22:26:56 	 ....you can stop being an ass now 	1
   	 2014-06-12 22:28:09 	 Hahaha no worries. I was trying to think of something funny to reply to the first one but I'm sick and all out. You rule.  	1
   	 2014-06-12 22:57:08 	 ...I forgot  	1
   	 2014-06-12 23:01:07 	 Won't happen again, haha 	1
   	 2014-06-12 23:29:55 	 You are rad, too.  	1
   	 2014-06-12 23:55:21 	 You betcha 	1
   	 2014-06-13 06:54:21 	 Oh hello  	1
   	 2014-06-13 07:00:11 	 That's not you tho? 	1
   	 2014-06-13 07:04:33 	 A+ 	1
   	 2014-06-13 07:05:09 	 Mazel tov 	1
   	 2014-06-13 15:19:27 	 Oh my god. That didn't even cross my mind  	1
   	 2014-06-14 06:51:48 	 I'm 21f from nj, also diagnosed with depression. Hearing a males point of view on it would be pretty neat I think.  	1
   	 2014-06-15 06:43:31 	 That sounds awesome  	1
   	 2014-06-15 07:00:57 	 The best way I can describe it is it feels like you are drowning underwater and you look around and everyone is breathing fine.  	1
   	 2014-06-16 06:55:26 	 Mmmm no haha. Screenshot before the swiping!  	1
   	 2014-07-02 06:34:38 	 Lol I told her my cousin was pregnant and was moving in with our family and I had to be around to help. None of that was real life.  	1
 [TOMT][Song] You don't ever want to see me again, so you won't. 	 2014-08-04 00:24:18 	" As I was getting over a heart break, a song appeared in my head and I can't for the life of me remember what it is or where it came from. I'm imagining a male's voice, like a singer/songwriter maybe, singing ""you don't ever want to see me again, so you won't."" Theres a chance it could be ""I don't ever want to see you again, so I won't"" My google searches came up empty. Anything? At some point I found a John Mayer song with similar lyrics but that wasn't it.  "	1
   	 2014-08-04 00:31:42 	 ha, not quite. but thanks for the try! 	1
   	 2014-08-05 01:41:52 	 no, thanks though!! 	1
   	 2014-08-05 01:42:11 	 im not a usual Morrissey listener, but maybe?!?  	1
   	 2014-08-17 04:48:24 	 Beautiful story. You look fantastic!  	1
   	 2014-08-17 04:52:37 	 Stunning transition. Stunning.  	1
   	 2014-09-11 18:39:22 	 i love this design so much  	1
   	 2014-09-23 17:47:58 	" wake up, no bitches.
watch TV, no bitches.
cook, no bitches. "	1
   	 2014-09-23 17:48:57 	 the zoo was fun. holy bad parenting 	1
   	 2014-10-08 23:13:28 	 the first season sucks and then it becomes comedic gold, i promise 	1
   	 2014-12-29 07:39:56 	 Smallville? 	1
 ELI5: Why do I need to take my birth control at the same time every day? 	 2015-01-07 02:27:29 	" I suck at this aspect but I'm trying real hard to get better at it. 


note: I searched the archives and none of the ELI5's were specifically about this. Thanks in advance!  "	1
   	 2015-01-07 02:54:17 	 easy enough, thank you! 	1
   	 2015-01-07 02:55:11 	 im only on month 2 so hopefully it gets better but seriously not a bad idea 	1
   	 2015-01-07 02:55:42 	 thanks, makes sense! 	1
   	 2015-01-07 02:56:37 	 alright sweet. its mostly me freaking out if its like 2 hours late once in awhile so that helped 	1
   	 2015-01-08 06:13:56 	 Self care.  I keep a check list of things I should do every day i.e. brush my teeth, make sure my hair is presentable, put on lotion. Helps so fucking much 	1
   	 2015-01-15 02:46:01 	 I was just gonna say!! I work in a prison and we need these  	1
   	 2015-02-02 01:24:23 	 I swiped right. Dating now for awhile and I can't imagine a life without him  	1
   	 2015-02-02 01:25:48 	 Marathoning ink master and eating chocolate pudding  	1
   	 2015-02-02 01:29:34 	 Everything in some cities in Israel are also bomb shelters (bus stops, kids playgrounds) and just seeing soldiers everywhere i mean everywhere you turn. Oddly feels safer.  	1
   	 2015-02-02 01:33:17 	 Self care I can't emphasize it enough. Make sure you brush your teeth and light candles and change into pajamas and clean your environment etc etc 	1
 Just wanted to share my studio apartment! 	 2015-02-02 01:47:04 	" [1](http://i.imgur.com/JgbFsMN.jpg)    

[2](http://i.imgur.com/OvwIZht.jpg) "	1
   	 2015-02-02 03:06:57 	 This was right after I moved in I have Christmas lights now :-) thanks for the tips! 	1
   	 2015-02-02 03:07:24 	 Apartments in college towns are the biggest rip offs -___- 	1
   	 2015-02-02 03:07:43 	 Ahhhh you're going to have a god damn blast 	1
   	 2015-02-03 00:20:51 	 lmao thank u  	1
   	 2015-02-10 04:42:00 	 Stop subtweeting me 	1
   	 2015-02-11 03:30:39 	 Pregnancy scares  	1
   	 2015-03-14 23:11:33 	 State college, PA  	1
   	 2015-03-14 23:14:46 	 Quicksand  	1
   	 2015-03-16 03:35:42 	 I feel annoyed because all the other women are ass deep in diet culture. I don't fucking care how many calories you had today 	1
   	 2015-03-16 03:37:13 	 A drug addict that got her into two car accidents  	1
   	 2015-03-19 03:25:52 	 I just started an internship and every single one has started a conversation with me or around me about weight loss like omfg let a girl live 	1
   	 2015-03-23 04:21:19 	 Ok thank you because my boyfriend needs 2 and this just made my stomach sink 	1
   	 2015-03-26 22:39:29 	" My coworker was getting married. After the ceremony when they came outside to greet their guests, the bride's great uncle had a heart attack and died. Turns out as a joke the brother of the bride got the couple a card for his wedding that said ""sorry for your loss.""  "	1
   	 2015-03-26 22:42:04 	 Bush did 9/11 	1
   	 2015-03-31 00:27:31 	 hi i love ths 	1
   	 2015-03-31 03:39:39 	 Yeah this! went to a school bc I fell in love with the campus and energy but turns out the Greek life is massive and it makes the school shitty  	1
   	 2015-03-31 23:36:36 	 Jesus. Interesting timing because I am a mercer county native just graduating from college and currently working in a jail, so I was looking at opportunities back in jersey. They said the male officer was monitoring the female alone?? Which isn't a thing at the facility I work at. Even if a male counselor wants to meet with a female there needs to be someone else in the counseling wing  	1
 Say Anything-Narcissus 	 2015-04-10 03:34:22 	  	1
   	 2015-04-24 01:11:08 	 Went winter break 2013-2014 on an AEPi trip (I'm a girl). Left out of Newark, NJ. Let me know if I can answer anything  	1
   	 2015-04-24 01:16:41 	 Run the day, don't let the day run you  	1
   	 2015-04-24 01:18:55 	 Get right in the middle of the crowd no matter how uncomfortable it is  	1
   	 2015-04-24 02:51:33 	 OH yeah go in the direction of the crowd....dont fight that shit youll die  	1
   	 2015-04-24 02:56:42 	 mine too! 	1
   	 2015-04-24 02:57:00 	 the face he makes when he's sleeping  	1
   	 2015-04-24 03:01:27 	" ...agreed.
.....very agreed.. "	1
   	 2015-04-24 13:24:27 	 The fraternity.  It was a coed trip and I just applied to every one i was eligible for and they put me on it 	1
   	 2015-04-26 04:53:48 	 I needed to hear this today. Thank you. 	1
   	 2015-04-26 04:59:09 	 Scientology  	1
   	 2015-04-28 03:57:08 	 Even if they're a shitty company, you're still going to help the people you're going to help. I feel like every place has its bad politics in some way or another. My vote is yes--you'll still be doing all you can to help your clients  	1
   	 2015-04-28 04:10:38 	 Buzzfeed got one of their numbers for a list off my tumblr and linked it I felt pretty cool for a hot minute  	1
   	 2015-04-28 22:07:30 	" http://www.buzzfeed.com/crystalro/brilliantly-cheesy-ways-couples-say-i-love-you#.bwaMdlrnK 

#6 is a link to my tumblr, it was my project gift to my boyfriend they posted (omg why is this so big i cant reddit)  "	1
   	 2015-05-01 03:47:19 	 the trick is to make it like a casual conversation, being uptight wont help them connect with you.  	1
   	 2015-05-02 02:49:58 	 I've had shitty psychiatrists who told me to go on weight watchers and to stop taking medications other doctors prescribed. Sorry for your luck :( you don't deserve that! 	1
   	 2015-05-02 04:54:44 	 Abso fucking lutely me. No advice here, just know you're not alone in this. It drives me nuts I can't even enjoy when I feel good because I'm waiting for it to not last  	1
   	 2015-05-05 05:57:08 	 Central PA here some came to us! 	1
   	 2015-05-07 02:00:16 	 Happy fucking birthday. Do something nice for yourself  	1
 Postseason- Ducks Fly Together 	 2015-05-18 18:16:09 	  	1
   	 2015-05-18 23:37:02 	 seeing you guys @ the archway might be my favorite past time...just sayin'  	1
   	 2015-05-19 18:59:32 	 I moved back to Jersey after I graduated a few weeks ago -____-. But I'll be back.  	1
   	 2015-05-25 06:34:36 	 Bless. 	1
   	 2015-05-26 21:43:32 	 CentreMarriage.com is the website for Centre Marriage  Relational Therapy with Shane Landherr (MMFT). My friend worked with him and he was great. He is also starting a non profit called Your Marriage Matters.  	1
   	 2015-05-29 02:14:08 	" me too. im pretty sure beckett's tweet was like ""this is a farewell show"" and it didnt sound very promising :/// "	1
   	 2015-05-29 02:15:39 	 oh my god shaant is actually the worst. had to unfollow him on IG/snapchat/twitter etc.  	1
   	 2015-05-30 20:00:48 	 Marni(e) by itself is a common jewish name, pretty sure its just marnie! 	1
   	 2015-06-01 02:24:49 	 im cis and wished i look like you ahahahah. way to go! 	1
   	 2015-06-01 03:25:06 	 AMERICAN DREAMS. 	1
   	 2015-06-01 05:23:36 	 This show is the reason I have faith in the world oh my fucking god  	1
   	 2015-06-01 05:26:12 	 You little shit  	1
   	 2015-06-01 23:04:01 	" The Almost-Say this Sooner
Say Anything- Peace Out  "	1
   	 2015-06-08 05:31:37 	 Scrapbooking. So many cute lil stickers I want...and paper...and paper cutters....and the pictures being printed...and the scrapbook itself  	1
   	 2015-06-08 05:54:28 	 Sisterhood of the traveling pants where Carmen is yelling at her dad. Hits too close to home maybe  	1
   	 2015-06-09 22:00:37 	 dude i love this 	1
   	 2015-06-11 04:55:32 	 i have no criticism but i just wanted to say i love the color pairs you chose  	1
   	 2015-06-11 04:58:00 	 I saw him in PA and I liked his solo set so much better than full band...(sorry roaring 20s). it was so intimate and fuck  	1
   	 2015-06-11 05:01:44 	" (raises hand) 
irritability's a bitch "	1
 Hi Everyone 	 2015-06-11 20:09:02 	" My former psychiatrist would always always tell me I needed to work out more, and it only triggered me to do the opposite. I've switched doctors (for reasons unrelated), we took me off meds, and this is my third day at the gym. I'm feeling great and wanted to introduce myself. 

My goal is to lose the extra weight added on during the height of my Depression, and keep my mood regulated. 

Here goes nothin'  "	1
   	 2015-06-12 02:00:39 	 thanks! i definitely will  	1
   	 2015-06-12 02:00:48 	 you as well!! thanks! 	1
   	 2015-06-12 02:01:02 	 hahaha starting off strong! 	1
   	 2015-06-14 05:48:02 	 It's really hard to tell with this picture. With your hair styled and wearing nice clothes I can picture you to be attractive. None of your features make you ugly  	1
   	 2015-06-14 05:53:12 	 Any therapist/psychologist. Holy balls. 	1
 Hozier (indie rock, blues) Covers Ariana Grande's One Less Problem at Bonaroo 	 2015-06-15 23:54:48 	  	1
   	 2015-06-15 23:56:06 	 Dave Matthews Band. I dont know why but the sound of his voice makes me cringe. Pair that with talking about ~sexy things~ and its intolerable 	1
   	 2015-06-19 04:10:37 	 Less stimulation. I do this lots  	1
   	 2015-06-19 04:19:08 	 PRIME 	1
   	 2015-06-19 04:26:46 	 Real shudder  	1
   	 2015-06-21 02:58:00 	 It can get pretty loud in the car when this comes on  	1
   	 2015-06-21 21:38:19 	 BUT I AM CLEANING UP SO WELLL 	1
   	 2015-06-23 18:46:44 	 im not quite shirt how I feel about this  	1
   	 2015-06-24 00:55:09 	 update: english hard  	1
   	 2015-06-29 03:08:36 	 In the county jail i worked at in PA, you would write a request slip to the counselor/case manager in charge of workers. at that facility, you could do inside work even if you werent sentenced, but needed to be sentenced for outside work. Be nice to the counselor! dont write 2000 requests, be patient. if they didnt get back to you in a week, write another. good for you for wanting to work, itll definitely make your time go faster. 	1
   	 2015-06-29 03:30:05 	 hows your mental health care, expenses wise?? 	1
   	 2015-06-29 22:17:12 	 Holy shit 	1
   	 2015-06-29 23:35:16 	 They only care in the US if you're suicidal, and even then you still have to pay the treatment costs. I have to pay 3,000 dollars out of pocket before my insurance will even look at my mental health treatment (diagnosed major depressive disorder). Sorry she won't take her meds, thats frusterating. that combined with therapy could really do wonders 	1
   	 2015-06-30 00:10:57 	 underarmour tysm  	1
   	 2015-06-30 00:12:12 	 go. personally, seeing all their social media about the trip while youre stuck working would drive me nuts 	1
   	 2015-06-30 02:19:42 	 Ran into an ex person after almost a year of no contact. It was unexpected. We made eye contact and then just kind of stared at each other. The customer who he was helping was just looking back and forth at us  	1
 Have Mercy-Hell 	 2015-07-01 03:27:51 	  	1
   	 2015-07-01 04:23:22 	 Please don't ever let the power go to your head. The worst I've seen in law enforcement were guys and gals on some sort of sick power trip because of they're position  	1
   	 2015-07-02 02:38:52 	 By any chance is she a student?  	1
   	 2015-07-02 02:43:01 	 I would love this too 	1
   	 2015-07-02 02:49:26 	 alright in that case id google non profit legal aid/organizations in your area. i saw an attorney this past winter due to no heat in my apt and they laid everything out on the table--all the options, consequences, etc.  	1
   	 2015-07-03 03:01:18 	 wow. this hit me.  	1
   	 2015-07-03 03:12:46 	 holy shit, yeah. winter was always bad but i am so sick of hearing people talk about winter seasonal depression. the summer is also worse for me than the fall/spring tends to be.  	1
   	 2015-07-03 03:22:14 	 ditto. saw them at bamboozle and then went to college and found out they were the high school band of some girl on my floor  	1
   	 2015-07-07 23:20:52 	 Hey, I'm proud of you. You need this. Sending good vibes. 	1
   	 2015-07-07 23:24:33 	 You've put into words, thank you.  	1
   	 2015-07-12 02:42:59 	 The amish 	1
   	 2015-07-12 23:10:13 	 I am so successful, and I am also severely depressed. Comparisons with depression are useless, because everyone's is so different. Your feelings are valid! 	1
   	 2015-07-12 23:11:15 	" I once heard ""it's okay to grieve the time you lost to your mental illness"" 

I hope this helps "	1
   	 2015-07-13 00:06:37 	" hey! so it sounds like youre having cyclic thoughts, i get these too. something that has helped me (i had ones regarding death too) is everytime you realize you have these thoughts, acknowledge it. you can consciously then change the subject, and acknowledge that youre ""just worrying"" your brain is allowed to wander, its what it does, and recognizing that youre doing it without pulling your emotions into is helpful. hope something in this ramble helps.    "	1
   	 2015-07-13 00:49:11 	 giggled at Ty(ler) Pennington. anyway, this is beautiful. 	1
   	 2015-07-14 01:07:05 	 Check out r/glitch_in_the_matrix. They'll appreciate this  	1
   	 2015-07-15 02:39:23 	 not a psychiatrist though. but thanks for the reassurance, im going to try to explain to her how im feeling next time, but honestly probably wont confront her about what she said--unless im feeling brave in the moment  	1
   	 2015-07-15 02:41:59 	 ah thanks, im conflicted cause apart from this incident i really liked her. i think i need to be more assertive in letting her know how i feel 	1
   	 2015-07-16 00:20:30 	  i love writing and do it frequently. now im wishing i wrote as soon as i got home from it. thanks for the suggestion 	1
   	 2015-07-16 00:21:44 	 jesus. that must be exhausting starting and ending with new ones like that. necessary, obviously. just exhausting. hope it turns around for you. ill speak up with this one   	1
   	 2015-07-16 00:23:17 	 for the love of christmas christ. im resentful about everything lmao so youre right i definitely would. i have this week to grow some balls and figure out what the hell to say  	1
   	 2015-07-16 00:24:53 	 ugh i know youre right. im just so confused like we had 3.5 sessions that were going great why bother do this???? it literally broke all of my trust for her. im so gd sensitive to begin with  	1
   	 2015-07-16 00:28:02 	 yes yes yes yes even up to like very recent decisions where im like YEAH THIS WILL BE GR8 and then a week later im like fuck me  	1
   	 2015-07-16 00:31:24 	" hey man, sorry to hear everything is so shitty for you. its shitty on my end too. have you ever considered/tried going to therapy? just asking because it wasnt listed on your post and it may be something else that you can try to turn this doom around 

here if you need to talk! "	1
   	 2015-07-16 00:33:35 	 Is there any way you can get set up with a vocational rehab counselor? like at your county's visual impairment center? they might have information and guidance about this stuff  	1
   	 2015-07-16 00:36:55 	" hey! welcome. i did the same thing sort of i went to a pediatrician for really bad tension in my neck and joints that i knew was caused by depression. when she suggested i do yoga, my mom took me to a psych. 

anyway, ive had a few stints in therapy since then, and some have been great. definitely look into SOME kind of help, theres no reason you need to be suffering (at least not without trying something)
 "	1
   	 2015-07-16 00:41:49 	 Can't say I didn't think it haha  	1
   	 2015-07-16 00:46:10 	" Ah gotcha. What I do sometimes when I'm really bad is make myself a self care checklist. So everyday I have to brush my teeth, get dressed, eat a healthy breakfast lunch dinner, do 30 minutes of any kind of body movement a day, and check to make sure my environment is cleanish. That way no matter how bad my day is, I still accomplished those (positive) things. 

 "	1
   	 2015-07-17 04:32:35 	 You're neat. I like you.  	1
   	 2015-07-19 23:58:20 	 Hey, bud. I had a similar experience where I was someone (an ex that things should not have ended but they did) I had zero contact with for a year after things ended. I was in a relationship, but the interaction alone made me question everything in my life, left me unable to stop crying for days, and gave me my first real suicidal thoughts. It's been a few weeks though, and I came out on the other side. I don't really have any advice (other than to keep talking it out) but I just wanted to let you know to keep breathing and you'll make it out too, eventually. Your mind will focus on some other worry and it'll pass. Here if you need anything  	1
 Me and my boyfriend get competitive in the signed books at Goodwill game 	 2015-07-20 00:05:07 	  	1
   	 2015-07-20 03:30:19 	 Hahhahahha. Also works with trivial pursuit. Every damm goodwill.  	1
   	 2015-07-20 03:30:50 	 When I see the other person checking every hardcover in the store I'll know it's you  	1
   	 2015-07-20 13:49:59 	 We've only found 2 but it's not like we go to goodwill every week, not even every month. Sometimes you'll freak out and then realize it's just an inscription from a grandma or something  	1
