title	date	text	class
   	 2015-07-10 05:58:24 	" I would download it if not for this

modify or delete the contents of your USB storage
read the contents of your USB storage


Other  

full network access
 "	0
 Computer crashes with error Driver IRQL not less or equal 	 2015-07-10 06:34:25 	 My computer started crashing with error Driver IRQL not less or equal after I downloaded a non compatible network driver. It is an old computer and I anyways need a new one but I have some files (and my reddit password) stored on it. Can anyone help? Thanks. 	0
   	 2015-07-10 06:49:28 	"  where would you move to 

You mean where would you be deported. "	0
   	 2015-07-10 07:05:55 	 Windows 8. Can I disable the driver from BIOS?  	0
   	 2015-07-11 00:42:14 	 Friday. Slow news day.. 	0
 A yearlong analysis by the FBI has concluded that controversial photographs showing the torture of Syrian political prisoners are authentic, providing powerful new evidence to support charges of extensive human rights violations by the regime of Syrian President Bashar Assad 	 2015-07-14 22:13:29 	  	0
   	 2015-07-15 18:23:30 	 After 9/11 U.S. Fire Administrator David Paulison described a list of useful items in case of a chemical, biological or radiological terror attack. In his advisory Paulison recommended plastic sheeting and duct tape to seal the windows. To me this sounds like a ludicrous suggestion. How effective would plastic and duct tape be against a  chemical or biological attack? 	0
   	 2015-07-15 18:45:58 	" The Israelis manufacture specialized gas masks called ""bardas"" for people with beards. "	0
 What may be the world's oldest fragments of the Koran have been found by the University of Birmingham 	 2015-07-22 03:07:53 	  	0
 Kerry: Iran leader's vow to defy US very disturbing if its policy 	 2015-07-22 05:07:52 	  	0
