title	date	text	class
 Dog, watercolor, 9x12, arches watercolor paper 	 2016-12-11 07:17:00 	  	0
 Snake, watercolor, 9x12, arches watercolor paper 	 2016-12-11 18:09:20 	  	0
 Black Window, watercolor and colored pencils, 9x12, arches watercolor paper 	 2016-12-11 20:32:03 	  	0
 Painted elephant, watercolor, 9 x 12, arches watercolor paper 	 2016-12-12 07:07:36 	  	0
   	 2016-12-12 07:09:00 	 This was a painting I did several years ago, a person bought it and I just found out after 2 years he was finally able to get it custom framed, I thought I'd share 	0
 Golden orb weaver, watercolor, 9x12, arches watercolor paper 	 2016-12-12 15:32:32 	  	0
   	 2016-12-12 15:33:18 	 Since ppl thought the black widow was creepy, I thought I'd post another spider 	0
 Most adorable baby squirrel, watercolor, 5x7, fabriano watercolor paper 	 2016-12-12 17:22:13 	  	0
 Phoenix, watercolor, 9x12, arches watercolor paper 	 2016-12-13 02:00:43 	  	0
   	 2016-12-13 02:01:32 	 Phoenix painting I did, can't remember if I posted last time I used Reddit or not, so here you go 	0
   	 2016-12-13 07:18:18 	 Glad you like it, feel free to pick up a print of it if you'd like at mkt.com/jqstringer , or check some more of my stuff at instagram under jqstringer  	0
 Majestic tiger, watercolor, 11x15, fabriano watercolor paper 	 2016-12-13 15:43:14 	  	0
 T-rex illustration, pen ink watercolor, 9x12 on arches watercolor paper 	 2016-12-15 00:03:02 	  	0
   	 2016-12-15 00:19:17 	" YouTube

Mind of watercolor,
James Gurney,
Zimou Tan,

Watch their watercolor stuff.

Proko,
Jeffrey Watts,

Watch their drawing stuff.

Teoh Yi Chie, Owens Art,

Watch their watercolor supply reviews.

Get good stuff, practice, draw from life. "	0
 Owl illustration, pen ink watercolor, 9x12, arches watercolor paper 	 2016-12-15 18:06:18 	  	0
 Giraffe, watercolor, 9x12, arches watercolor paper 	 2016-12-16 03:00:43 	  	0
 Momma and baby hippo, watercolor, 9x12, arches watercolor paper 	 2016-12-17 16:55:17 	  	0
 Baby ducks, watercolor, 11x15, fabriano watercolor paper 	 2016-12-18 19:02:20 	  	0
 Bought some books today, feel like I'm gonna be in a world of sadness later. 	 2016-12-21 07:00:05 	  	0
 Just a small mouse painting, watercolor, 5x7, fabriano paper 	 2016-12-21 07:05:59 	  	0
   	 2016-12-21 15:20:25 	" I agree with you, this was a little practice thing I did at work. I'm actually really surprised it's as popular as it is, I thought any of the other paintings I posted would have been better received, but people like what they like.

And yes it's wet on wet, do a clean outline, fill in the colors, light colors first and then darken them up for detail. 

I'll have to find some other little sketch paintings to put up on here.  "	0
 Another little mouse painting, watercolor, 5x7, fabriano paper 	 2016-12-21 16:08:58 	  	0
   	 2016-12-21 16:14:50 	" Here's a second one

https://i.imgur.com/oQYaGYG.jpg "	0
   	 2016-12-21 20:24:12 	 Why don't you check out my other paintings I've posted. This was a watercolor sketch I did while at work. Also someone else already mentioned this not being a highly technical painting which I agreed with.  	0
   	 2016-12-21 20:36:39 	 It's a 5x7 painting of a small mouse  	0
   	 2016-12-21 20:41:21 	 The color is good, I'd say just work on the drawing part of it and you'd be pretty set. 	0
   	 2016-12-21 21:55:31 	 Yes, if you check my profile I have several other paintings I've posted 	0
   	 2016-12-22 00:45:40 	 This is really good, I wonder if it's digital or an actual painting 	0
   	 2016-12-22 08:22:03 	" Well you did a really good job, I had a really hard time telling. 

Or, whomever did the painting did a really good job. "	0
   	 2016-12-22 16:28:52 	 This is really good, I'm always impressed when someone gets something really good from acrylic, and this surprised me a lot. 	0
   	 2016-12-26 01:31:19 	 I love animals, I mainly paint them though for my art business because that's what sells, my main subject I enjoy is figure study 	0
 [Homemade] no wife, friends or family after Christmas chicken soup and biscuits. 	 2016-12-26 18:06:25 	  	0
 [Homemade] crock pot chicken soup and, [not homemade] dinner rolls 	 2016-12-26 19:37:04 	  	0
 [Homemade] crock pot chicken soup and dinner rolls 	 2016-12-26 20:20:22 	  	0
 Nothing special, pencil, unknown size, on sketchbook paper 	 2016-12-28 22:57:59 	  	0
 Mistake, ink, 18x24, bristol paper 	 2016-12-29 05:42:41 	  	0
 Practice, charcoal, 18x24, bristol paper 	 2016-12-29 05:59:32 	  	0
 Random nude sketch, conte, 9x12, paper 	 2016-12-29 06:29:25 	  	0
 Nude study, charcoal, unknown size, bristol paper 	 2016-12-29 07:23:29 	  	0
 Random nude sketch, conte, 9x12, paper 	 2016-12-29 07:27:58 	  	0
 Vampire lady, watercolor, 9x12, arches watercolor paper 	 2016-12-29 07:33:06 	  	0
 Nude male, watercolor, 9x12, arches watercolor paper 	 2016-12-29 07:38:54 	  	0
 Nude female figure study, watercolor, 9x12, arches watercolor paper 	 2016-12-29 07:53:58 	  	0
 Rocks, oil on canvas, unknown size 	 2016-12-29 08:01:20 	  	0
   	 2016-12-29 14:48:16 	 I feel it's safe for work as well lol. And yes it was like an hour or so painting from a life drawing session.  	0
   	 2016-12-29 15:02:16 	 The frog is really good, the background not so much. I'd like to see what this looked like with just the frog.  	0
   	 2016-12-29 16:03:05 	 Probably is 	0
   	 2016-12-29 17:32:01 	 Fair.  	0
   	 2016-12-29 18:06:39 	" Bristol paper is essentially...thicker paper. It comes in smooth (hot press), textured (cold press), and vellum (smooth on one side, rough on the other). 

Hot press is smooth because the heat in the rollers smooths out the edges, cold doesn't.

I don't think there is a smoothest paper because all bands and what not offer smooth versions. For example, I use watercolor paper, which is a thicker paper and designed to soak up water. So when I use Arches brand, the paper is 100% cotton, so it's extremely strong and good for all mediums. 

But I could also use bristol, which is good for most mediums, but, it's not as strong as cotton. Both though offer a smooth and rough version. It's just on what you like and want to do. 

If you like traditional stuff, maybe textured, if you like illustration and super high detail, maybe smooth.  "	0
   	 2016-12-29 18:41:11 	 Probably parchment paper, or painted on wood.  	0
   	 2017-01-02 07:17:06 	 I really want to thank /u/almathden for the photo, hopefully I'll get to work on something else soon with you 	0
 Redhead boudoir, 3.5ft x 5ft, watercolor and color pencil, on watercolor paper 	 2017-01-02 16:38:16 	  	0
   	 2017-01-02 16:43:39 	" I really want to thank /u/almathden for the reference photo, hopefully I'll get to work on something else soon with you

 "	0
 Cabal, $10 gouache, 5x8, watercolor paper 	 2017-01-05 07:07:05 	  	0
   	 2017-01-05 07:07:38 	 Trying out gouache for the first time 	0
 Rat, watercolor, 5x7, watercolor paper 	 2017-01-06 00:31:48 	  	0
 Self portrait looking in mirror, oil on canvas 	 2017-01-06 08:20:04 	  	0
 Had to improvise for a doggie coat 	 2017-01-08 08:31:31 	  	0
 David Copperfield, $10 gouache, 5x7, watercolor paper 	 2017-01-10 03:05:10 	  	0
 [OC] Nightcrawler, final pencils, 19x24, bristol paper 	 2017-01-11 06:07:32 	  	0
 [OC] Nightcrawler finished pencils, 19x24, bristol paper 	 2017-01-11 06:17:32 	  	0
 Just a cute small dog on a rock 	 2017-01-13 19:07:19 	  	0
   	 2017-01-14 23:42:10 	 Took me about a day or two to draw it up, I'm currently painting it right now, trying really hard not to mess it up 	0
   	 2017-01-15 00:23:04 	 It's gouache, and I mean yeah they affect the pencils because I'm going over the pencils with paint.  	0
 [OC] Nightcrawler, 2nd layer of gouache and colored pencils, work in progress, 19x24 on bristol 	 2017-01-18 09:47:33 	  	0
 [OC] Nightcrawler, paint and colored pencil, layer 4, almost done, gotta figure out a background and do some touch up work 	 2017-01-19 07:50:03 	  	0
   	 2017-01-19 19:49:06 	 Not sure, I've been working on it for past week though, I'd say maybe like 20hrs or so so far 	0
 [OC] Finished!!! Nightcrawler, gouache and colored pencil, 19x24, bristol paper 	 2017-01-22 10:08:52 	  	0
 [OC] Nightcrawler, gouache and colored pencil, 19x24, bristol paper 	 2017-01-22 10:33:01 	  	0
 [OC] Nightcrawler painting I did, thought it'd fit here 	 2017-01-22 11:35:37 	  	0
   	 2017-01-22 20:27:22 	 Hey there, it's 19x24 inches.  	0
 Was told you might like this, nightcrawler painting I did, gouache and colored pencil, 19x24 	 2017-01-23 10:16:03 	  	0
   	 2017-01-25 19:07:27 	" http://m.imgur.com/82zN1YE


Try that one, lol  "	0
 Warrioress and beast, pencil, 11x17, bristol 	 2017-01-25 23:24:58 	  	0
 [OC] Warrioress and beast, pencil, first attempt at fantasy art 	 2017-01-25 23:32:23 	  	0
 [OC] Warrioress and beast, pencil 	 2017-01-25 23:35:03 	  	0
   	 2017-01-25 23:35:24 	 Hope this is ok here  	0
   	 2017-01-26 00:26:25 	 I don't think it is either 	0
   	 2017-01-26 00:27:25 	" Scantily clad women and big monsters, I figured it a staple in fantasy artwork 

Or lemme rephrase, I figure it's a classic combo, ex. Frank Franzetta "	0
   	 2017-01-26 00:52:21 	 I know, lol, I'm working on my drawing skills, I'll have something else up in a couple days 	0
   	 2017-01-26 04:12:40 	 No, I'm leaving this as a pencil sketch, I really need to pump up my drawing game, then I plan on redoing this and adding watercolor 	0
   	 2017-01-26 04:15:30 	 I'm going to redo this here in the next couple weeks, after looking at it and some fantasy art sketches, I really need to bump up my drawing game. Also I'm going to use your advice on making it larger format, there was more to the cat I wanted to show. Unfortunately fantasy art isn't something I've done before, and I tried to do this whole thing without reference photos, and it came out pretty ok imo, but it can be better. 	0
 Never read Sanderson before, or much high fantasy, picked up Elantris 	 2017-01-27 22:06:02 	 First chapter blew me away with how drawn in it made me. Pretty excited to sink my teeth into this book. 	0
   	 2017-01-28 00:01:18 	 I was actually going to get the first Mistborn book but opted for this one instead, I thought I'd try a stand alone novel before starting a series. 	0
   	 2017-01-28 03:29:23 	 I actually just went to half price books and picked up book 1 and 2 of Mistborn. But what I've read so far of Elantris is pretty awesome.  	0
   	 2017-01-28 07:58:30 	 I was told The Stand was one of Stephen King's best, I didn't really like it that much, too much politics, not enough end of the world, it makes me nervous for The Road and Swan Song 	0
   	 2017-01-28 08:02:19 	" I am legend by Richard Matheson, after reading it I was upset because I waited so long to read it because the movie was garbage, but the book was fantastic and I have no idea what that movie was supposed to be.

Also American Psycho, it made me cringe a lot later in the book, but I also laughed so much reading that, and I found myself truly concerned about Patrick Bateman  "	0
   	 2017-01-28 08:07:00 	" You read Count of Monte Cristo? I loved that book and didn't want it to end.

Now War and Peace on the other hand, I'm taking very slow, and I'm actually stopping to read other books in my little breaks "	0
   	 2017-01-28 08:14:13 	" I'm always looking for the book Come Closer by Sara Gran, but I never find it, so I just try to build my Murakami collection, or Richard Matheson. 

Also I never read the synopsis, I don't like knowing anything about the book, I just go off of, if the author is supposed to be really good, suggestions made by other ppl, things I've read on here, or lists I've seen..etc.. 

For example, idk anything about Elantris and I just started that the other day, and it's freaking amazing. I just knew Brandon Sanderson was supposed to be an amazing high fantasy writer. "	0
   	 2017-01-28 19:11:18 	 The Jungle by Upton Sinclair, was under the impression it was about slaughterhouses, come to find out it's socialist propaganda 	0
   	 2017-01-28 19:16:29 	" Why not Clive Barker?

Also, came to see Murakami, was not disappointed. "	0
   	 2017-01-28 19:33:50 	" Good luck, I couldn't do an e-reader, I know I wouldn't use it, I'd buy too many books on there, and it'd be just like the television, I'd start a show/book, lose interest and flip to the next channel. I did the same thing when I played videogames, I'd play my physical stuff but none of the digital stuff, I didn't feel it was real, plus I get tired of looking at screens. 

For me, with a real book, I guess I feel since I went out, and purchased the book, and am physically holding it, that I've mentally committed myself to reading it. "	0
" ""Too long without a woman"", charcoal, 18x24, newsprint "	 2017-01-31 09:39:42 	  	0
" [OC] ""Too long without a woman"", charcoal,18x24, newsprint "	 2017-01-31 09:41:31 	  	0
   	 2017-01-31 09:43:56 	 I recently posted a warrioress picture, was told I had my proportions off, here is another attempt at fantasy art, trying to up my drawing skills.  	0
   	 2017-01-31 15:30:46 	" Sorry about the confusion, this wasn't supposed to be another warrioress picture, this was supposed to be another fantasy themed picture, more of a seductive elven woman.

And yes, she's mostly nude, because right now I'm focusing on retraining myself in figure study. Also this picture is supposed to give into the stereotype that fantasy art is supposed to be pointy ears and boobs, the title ""Too long without a woman"", is a play on the fact that people believe nerdy guys draw sexy women because they can't get girlfriends. 

I posted this in fantasy because, I'm working on improving my artwork and the feedback I get from fantasy is much better than the feedback I get from art, and also because I'm trying to work on doing fantasy artwork, although it may be lite themed in this picture.     "	0
 The dark man, charcoal, 11x14, toned paper 	 2017-02-03 09:56:22 	  	0
 This Stephen King bookmark 	 2017-02-06 19:39:11 	  	0
 Found this in a Clive Barker book 	 2017-02-06 19:50:02 	  	0
   	 2017-02-06 20:09:12 	 It's just printed 	0
   	 2017-02-06 20:53:40 	 You know what's up 	0
   	 2017-02-06 20:56:26 	" It's definitely in my list, I'm reading all the stuff leading to Scarlet Gospels.

Hellbound Heart,
Great and Secret Show,
Everville,
Scarlet Gospels.

I think that's the right order.  "	0
   	 2017-02-07 00:27:00 	 I should have that story in Cabal. I'm literally pumped for all the reading, Clive Barker is a beast in what I've read from him so far. 	0
   	 2017-02-07 03:28:12 	 Dear god I wish, XD  	0
   	 2017-02-07 19:03:43 	" Imajica is actually the next book I'm going to read once get done with what I'm on right now (war and peace).

Me and a couple co workers are gonna get through the whole thing together "	0
 My 6 darlings, watercolour, 11x17, bristol 	 2017-02-08 09:24:43 	  	0
 War and Peace, Anthony Briggs version, errors in the text? 	 2017-02-10 03:40:42 	" Just wondering if anyone else has found errors in the text, now I'm not a smart man lol, but I've noticed little things here and there and there was one page, I don't remember which, which had several errors. I feel like this book was edited just fine for the most part, but some of it feels like they might have just kinda given up for the day. 


Page 430.

Denisov clapped him on the shoulder, and started pacing rapidly up and down the room without looking at Rostov, something he often did at times of high emotion. 'Oh weally,' [*she*] said, 'you Wostovs are such a cwazy bweed,' and Rostov could see that Denisov had tears in his eyes. 


Now that's just a small example, but Denisov being called a she took me out of the story. There's many more examples I've come along while reading, but this one is just where I'm at in the book. 



Has anyone else noticed this w/ this edition? Is there a way to let the publisher know, would they care? 


Also I find this kinda funny because I haven't actually met someone who has read War and Peace, so it makes me think maybe the editors didn't read it either. Though that's a bit of an exaggeration since it's like 1400 pages they're editing and people do make mistakes. "	0
 The yellow wallpaper questions....spoilers. 	 2017-02-11 03:42:25 	" Just finished this and boy was it amazing. I get that the story is about her being trapped and having a mental breakdown, and I'm wondering, was the ending left open ended for the reader to experience the mental breakdown as well leaving them unsure of what exactly happened?

To me, I think she hangs herself and it's her shadow creeping around the room. Because in the beginning of the story she talks about this being ""dead paper"" so I figured she's dead telling the story. 

But then I also think she just accepts the room and becomes one with it but also being free.

But then I think she's just walking around the room, but if that's the case, she can't get past the bed to circle the room, so thats why I think she's dead because her shadow can fit nicely in the corners and what not.

So...I'm confused, but it was an awesome read. "	0
   	 2017-02-11 07:58:04 	 Please tell me where anywhere in my post is there a real name, a username, or a profile pic 	0
 Way to be subtle Reddit 	 2017-02-11 08:09:51 	  	0
   	 2017-02-11 08:55:25 	 I can't quite remember what part 160 pages would be at, but I know part 2 of the book was a lot of build up and then part 3 took it home for me. But it is also later in the book when more stuff with the sand worms start happening. 	0
   	 2017-02-11 08:58:42 	" Metamorphosis is amazing, and I just read The yellow wallpaper and that was good. Clive Barker books of blood are good and Stephen King's short stories are good.

I really like short stories when I read them, but I have this weird thing where I don't feel like they're real books, idk why. "	0
   	 2017-02-11 09:02:13 	" That seems about right, Gatsby was pretty short and Frankenstein isn't too long either.

Both good choices though, Frankenstein is my personal favorite book of all time ^^. Just check the books to make sure they're not abridged, I know Count of Monte Cristo gets cut down a lot, so if you ever go for that one, remember it's around 1300 pages not 800 lol. "	0
 Just a quick trip to half price books 	 2017-02-11 09:28:22 	  	0
   	 2017-02-11 17:18:34 	" I have no idea, I've never messed with the settings, maybe try the cards feature, or raise your text to medium, or click the thing that loads images and gifs in the app.

Those are all the things I have clicked on mine "	0
   	 2017-02-11 23:49:57 	 Jonathan Livingston Seagull 	0
 Does anyone know who the translator is for the 1947 Doubleday edition of the Divine Comedy? 	 2017-02-15 05:39:14 	 I picked up this copy for 4 bucks and was just wondering who did the translation. 	0
 To me Nier was the saddest game I've ever played 	 2017-02-15 06:17:03 	" When I first heard of Nier nobody could explain what it was or what made it special. Everything about it was generic, but it still had something to it.

But I want to break this down for people unfamiliar with it. The sorry starts off sparse, in fact when you beat it, nothing is really explained, until you start a new game. Now there are 4 different endings to the game, but here's where Nier shines, slowly unveiling the story. 

See your first play through, you're the hero doing hero things and fighting the bad guys, fun stuff right, oh there's a giant wolf Ha, easy fight.

Beat the game.

Second play through, wait...what, why do these things I'm killing have backstories, wait...what am I doing.

Third play through...wait...no..Roc...

Fourth play through...I hate literally everything.

I don't want to spoil too much, but I know when people talk about their saddest games, I don't ever see this one mentioned.

Do you have any hidden gems or unknown games that you feel hit you emotionally?


https://en.m.wikipedia.org/wiki/Nier_(video_game) "	0
   	 2017-02-15 06:27:30 	" As far as I know there's only 4 endings, and the true ending, well...let's just save you might have to make a ""sacrifice"" of your own (save file) "	0
   	 2017-02-15 14:08:52 	" I believe you're right, the ""e'en"" is the same. The copyright stuff in the book was very sparse, basically just says who the illustrator is.

I already own o copy of The Divine Comedy, it's translated by someone named Oakley I believe, I never made my way through it because poetry is difficult for me, but I felt with what I skimmed over in this version, it was easier for me to understand, so hopefully I'll finally make my way through. "	0
   	 2017-02-18 06:07:12 	" If you don't mind horror Clive Barker's  ""books of blood"" are what put him on the map and they're amazing, in fact I just picked up the last one I needed today so now I have all 6. 

So they're titled like this

Books of Blood 1-3

Inhuman condition

In the flesh

Cabal

Have fun, he's a beast at writing.   "	0
   	 2017-02-18 06:10:42 	" Amazon.com

Alibris.com

Half price books

Goodwill


We have half price here and I usually pay like a couple bucks for a book. "	0
 The longest book that you've read? 	 2017-02-18 06:50:43 	" As I'm beginning to see the finish line of War and Peace (only 600 pages left) it got me wondering, what's the longest book others have read?

For me, at least until I finish this, it was Count of Monte Cristo, which I think is still around 1277 pages, this being 1388, and hopefully one day it'll be In Search of Lost Time.

Also what's your strategy for tackling these huge tomes, if you have one. For me I write the day I start on a little bookmark and then the day I finish, this was stated December 1st and hopefully will be done before the end of February. "	0
   	 2017-02-18 09:22:48 	 How is Battlefield Earth? I have it but haven't even looked inside it yet lol 	0
   	 2017-02-18 09:33:37 	 I've actually been wanting to read the bible at some point, but there's so many different versions of it and I'd want the chapters that they took away with it. I'll have to ask on here sometime if there's a complete copy of the entire thing 	0
   	 2017-02-18 15:12:20 	" Eli5

Why would any of the book be cut out and not used by certain sects, if it's all part of the book? "	0
   	 2017-02-18 17:18:20 	 I actually saw the first book of that series yesterday, it was huge, I thought about getting it lol but I still have to finish Elantris and get through the Mistborn trilogy. Though....I might opt for Warbreaker before Stormlight 	0
   	 2017-02-18 17:19:44 	 I'm reading the Anthony Briggs version, which one did you read? 	0
   	 2017-02-18 17:22:14 	" I have this on my bookshelf and I'm kinda terrified to start it because I tried reading Huntchback of Notre dame, and I just couldn't get past how overly descriptive things were, I think I got like 200+ pages and just quit. 

Though I work with a guy who swears by Les Mix and states is the greatest thing ever written. "	0
   	 2017-02-18 22:15:32 	" If you need stuff in short bursts give Books of Blood by Clive Barker a try, all short stories all amazing. Lol I try to recommend it every chance I get.

Also stick with Count of Monte Cristo, it's such a fantastic story, I read that thing in like a month because I couldn't put it down "	0
 Sometimes $7 can get you a lot, thank you half price books 	 2017-02-18 23:53:00 	  	0
 Half price is having a sale, roughly $10 for all 4 things 	 2017-02-19 00:00:34 	  	0
   	 2017-02-19 01:01:20 	" I literally just bought this today with Warbreaker lol, I posted in r/brandonsanderson 

But idk how long it'll take me to get to it "	0
   	 2017-02-19 01:47:49 	 Yep, in fact I've only read about 100 pages from Elantris, that the most so far from Brandon Sanderson I've read at all, I'm trying finish up War and Peace right now and then I'm jumping into the Cosmere  	0
   	 2017-02-19 04:12:09 	 I bought Hunt for Red October which I haven't read yet, I'm not sure how I'd do with military fiction, but I wanted to give it a shot. 	0
   	 2017-02-19 07:06:09 	 I have this, though I didn't enjoy The Stand too much, but I've heard Swan Song is much better, more end of the world and less politics lol. I've also heard it's really weird as well. If like Swan Song though I want to get some more of Robert Mccammon's stuff, I heard Boy's Life was really good 	0
 Your eyes never stop looking, even when they're closed they're just looking at the inside of your eyelid 	 2017-02-19 10:29:27 	 [removed] 	0
   	 2017-02-19 21:06:13 	 Lol then think of it like I bought Way of Kings for $7 and got Warbreaker for free ^^ 	0
   	 2017-02-19 21:11:26 	 They have a James Joyce day or something like that where they have a whole day at a pub with everyone getting through Ulysses 	0
 [OC] Bunny Riders sketch 	 2017-02-20 20:39:25 	  	0
   	 2017-02-20 21:25:46 	 these are normal sized rabbits w/ fairy sized riders 	0
   	 2017-02-20 21:55:43 	 I haven't read Watership Down, this is from an idea I have for a story I'm working on, I'm trying to get some ideas for the world out there so I can start to work from them.  	0
" [OC] preliminary sketch painting ""The Suicider"" "	 2017-02-21 08:54:46 	  	0
   	 2017-02-26 02:06:45 	 I literally had that happen to me on the first chapter of Elantris and the first couple pages of Small Gods 	0
 If anyone is looking for a top 100 list 	 2017-02-26 02:27:40 	 [removed] 	0
   	 2017-02-26 02:32:36 	" Clive Barker

Murakami

Brandon Sanderson

Lol that should cover horror, fiction and fantasy "	0
   	 2017-02-26 02:43:42 	" I try really hard not to know anything about a book going in, I just want to know if people think it's good and if it's worth reading. For example, I have flowers for algernon, and not even kidding, I have no clue what its about, but it's supposed to be a really good story. 

But I knew the terrible things that were supposed to happen in Lord of the flies, so when said stuff happened I wasn't hit as hard as I wished. 

I had no idea what Death of a salesman was about, and when I got it I didn't even know it was a play, and I read it and was almost torn apart from everything that happened. :( "	0
   	 2017-02-26 05:22:31 	 Isn't the entire Discworld franchise comedy fantasy novels, like 40 books total.  	0
   	 2017-02-26 08:27:44 	 Literally almost done with War and Peace, like 200 pages left. And what I like about it is, it's not really about the war, I mean it's in there and it's a catalyst for the story, but the title is all symbolism for the struggle the characters are going through during all these events.  	0
   	 2017-02-26 08:31:21 	 I am legend, I tried so hard to stay away because the movie was horrendous, but my god that was a good book and I have no idea how Hollywood messed up so badly.  	0
   	 2017-02-26 08:39:36 	" Jekyll and Hyde is only about 100 pages long. 

I go to book store and just check if they're abridged or not, I guess you could do that to get a page count and compare to a kindle book, but I don't know how kindle stuff works. Though at the bookstores, like half price, there's usual several copies of the same things, find the biggest one and look at the page count. 

For example, I've seen a ton of like 800 page copies of Count of Monte Cristo, but that books around 1300 pages. I think 1277 to be a little more specific. 

If kindle let's you select publishers, go with penguin cause I think everything is unabridged. 

Also try this

http://commonplacebook.com/art/books/word-count-for-famous-novels/

It should have a decent sized list of word counts for classics. Or not, I'm on cell phone and can't see the whole thing. "	0
   	 2017-02-26 08:48:35 	" I liked this quote, and I'm sure Stephen king will go in the history books if for nothing else besides many of his books being best sellers. He created a whole little universe inside Maine pretty much, and his ideas are pretty good. But, that being said, when you write like a million things, not all of it's good, so it is what it is. 

Now poor Dean Kootz probably has just as many, if not more books than Stephen king and literally no one knows any of his stuff. And I bet you can name 5-10 Stephen king books without even having to try hard.

It

The Stand

Carrie

Cujo

Salems lot

Pet Semetary

Misery

Green mile

Shawshank redemption

The shinning

Children of the corn

Apt pupil

Stand by me (the body)

The mist

Dark tower  "	0
   	 2017-02-26 08:54:13 	 I haven't met one other person irl besides me, who saw this movie, I loved it, and no one I know had ever even heard of it 	0
   	 2017-02-26 14:54:39 	 Naaa shinning, the one where the kid attacks ppls legs 	0
   	 2017-02-26 21:11:13 	" I take the small yellow legal pad, I start from the bottom, count 4 lines up and tear horizontally. It's the perfect size, I then write on the little yellow bookmark the day I start reading, and then I'll write the day I'm finished. 

I keep the side that has the date written on it facing towards the book on the opposite page from what I'm reading so when I close the book I remember which side I was on.

For example, reading page 98, I'll have the bookmark on page 99, with the date facing down on page 99, so if I close the book and open later, I see the date is on the page 99 side and then know I was reading page 98.

Yes, it's dumb, but it works.    


http://i.imgur.com/fLZqhuA.jpg

I felt this needed a photo reference
 "	0
   	 2017-02-26 23:47:26 	 Discworld series and Books of Blood 	0
   	 2017-02-26 23:52:04 	 Maybe they have deals with the publishers, I know the day Norse Mythology, or whatever that book is called, came out, half price books had them for sale at 20% off, which I'm assuming no-one went out, bought it, and immediately traded it in to half price.  	0
   	 2017-02-26 23:55:04 	 I think I'm going to buy these books, I enjoy getting collections and going on scavenger hunts at half price, plus I should actually read them at some point 	0
   	 2017-02-27 01:18:09 	 The shining, I really enjoyed it but it wasn't scary. 	0
   	 2017-02-27 01:21:04 	" Why don't you try this, I made a post about it lol which no one even looked at XD


""Centaur made a top 100 novels of all time list. It deals with the more traditional kind of classic novels, and this website 

http://www.listchallenges.com/centaur-editions-the-100-greatest-novels-of

has all the books and allows you to check off your progress as you go. Anyway I thought I'd share if anyone was looking for one. Also you can find this on Amazon ""


 "	0
 Has anyone bought the complete 1-14 set from Amazon? 	 2017-02-27 01:55:19 	" https://www.amazon.com/Complete-Wheel-Time-Set-1-14/dp/0765376865


Is there anything special about it, or is it just all the books shipped to you? 

I'm debating whether to just pay up front lol or go scavenger hunting at half price. "	0
   	 2017-02-27 03:22:23 	 I think I might just go scavenger hunting, I know half price has the hardcovers around 7 bucks each and paperbacks are probably like 3 bucks. 	0
   	 2017-02-27 07:47:47 	 Just checked Amazon, hardcover for first book is $10 cheapest :( 	0
   	 2017-02-27 18:44:06 	" I think this same thing when people say

I'm cute

I'm fun

I'm nerdy

I'm weird

I'm quirky

I'm like really smart

I'm amazing at this thing

I'm this thing or that thing


And I just think...no you're not, because if you have to say you're this thing, you're not.

It's especially bad on dating sites when you see someone say, ""I'm just a real cute down to earth funny nerd.""  



*Also people who say

I'm the nicest person you'll ever meet, I'm not an asshole

I'm not racist

I'm not homophobic

I'm not gay

I just don't understand why people have to try and justify who they are instead of letting other people figure it out.

** And people who say

I never lie

Trust me

I hate talking about myself

I always get a lot of attention

I don't know why everyone compliments me, like complete strangers just seem to want to come up and tell me something nice all the time

Animals love me, (which is a damn lie because cats are dicks and love no one, they only allow you to be near them)
    "	0
   	 2017-02-27 19:00:35 	 I remember this scene from Employee of the Month 	0
   	 2017-02-27 19:26:17 	 When I checked Amazon.co.uk the complete set had the picture of what you're talking about, but I can't find anything about that cover, so I have no idea, but I'll be at half price today so if I see any copies of the simple covers I'll try to see if I can figure out what they are and where they're from 	0
   	 2017-02-28 02:34:13 	" HG Wells, War of the the worlds, is usually always on top 100 greatest novels of all time lists, along with Dracula and Frankenstein.

Also Dune is highly regarded. "	0
 I finally finished War and Peace yesterday, no spoilers 	 2017-03-01 03:48:56 	" What an amazing amazing book. I loved the story, all the characters, well most of them, but I didn't like any if the philosophy, or I should say not all of it.

I will say though my absolute favorite character in the book was Denisov, I thought he was the most decent of everyone, his accent and his little charming self really sold him.

I will also say that the title War and Peace isn't about the war, though the war is in there, it's about the internal struggle the characters are facing during the story.

Now the boring part, well only one really, the second epilogue, I would say, if you going in for the story part of the book, avoid the second epilogue because it has nothing to do with the story and is all philosophy on history.

That being said, I know it's the most talked about book that nobody reads and I cannot understand why, the book was not boring, except for second epilogue, it didn't feel like anything dragged on, and I think Tolstoy captured what being a human and all your errors is all about perfectly, I also feel that there was way too much relatable material in the book that is going on now. 

Who else read this? Did you glisten with joy when you finished? Did you cry? Laugh? Weep? Do you know someone else irl who has read this? Cause I don't lol. "	0
   	 2017-03-01 03:52:26 	 Listen to it, I can understand it when I read it for the life of me, it's written to read well and in a certain style, I can't do that, I listened to paradise lost on YouTube, and understood it right away.  	0
   	 2017-03-01 05:20:01 	 I just didn't like the second epilogue, it came to a point where I was like, I get it, people don't know how to write about history lol. That was my only real complaint 	0
   	 2017-03-01 05:22:15 	" I started December 1st, so 3 months, but i also read 5 other books in that time.

The philosophy is the actual book book isn't bad, if you wanna read about Napoleon invading Russia then you might get what he's talking about better, it's just the second epilogue I had a problem with, he talks about the way history is written and just kinda beats a dead horse, but the rest of the book is amazing. "	0
 Without spoilers, what's the fastest paced Brandon Sanderson book? 	 2017-03-03 04:12:45 	 Out of curiosity 	0
   	 2017-03-03 04:29:23 	" Hmmm classic literature maybe, I enjoy everything overly detailed and the fact that most of what's actually happening isn't actually shown, it's all layers and the experience of the story comes after it's been indulged as a whole.

Moby Dick

 War and Peace

Count of Monte Cristo

Frankenstein (if it's considered classic literature) "	0
 Why isn't horror a more popular genre? 	 2017-03-03 08:04:44 	" Barnes and noble doesn't even have a horror section and half price books usually only has one small area. I think people enjoy reading horror, but maybe not. I have a buddy of mine who writes horror books and he says it's a very niche market. But people enjoy horror movies right? Anyway it was just something I was thinking about, when I go to half price and browse the little horror section I know that even if it's something I haven't heard of, it's still horror. But at the bigger stores it's just mixed with fiction or scifi, and it might make it harder to just come across a new horror book you've never heard of.

Do you think it's a popular genre? Do you have a favorite scary book? Recommendations for authors? "	0
   	 2017-03-03 09:46:04 	" The horror section of that lists has it down 26% which was much more than any other genre, I think the second highest loss was 15%.

Which just goes to prove my point that horror is not a popular genre.  "	0
   	 2017-03-03 09:50:32 	" I think Stephen king himself said he never identified as a horror writer, but more of a suspense writer. I think most of his stories just have some kind of supernatural element to them. 

That being said his jfk book, 11/23 whatever it is, is supposed to be amazing and I don't think that's an actual horror book, though it's listed as horror because he wrote it.  "	0
   	 2017-03-03 16:54:12 	 I'm making my way through Books of Blood right now, I'm reading a couple stories when I need a break from whatever big book I'm reading at the moment.  	0
   	 2017-03-03 17:08:46 	" I don't have internet at home and cell phone speed is too slow to play lol, but I believe this is where he talks about how he doesn't consider himself a horror writer.

https://youtu.be/l8TkQvdJVbc
  "	0
   	 2017-03-03 18:39:37 	" This was me like a year or 2 ago, I needed a change, I quit videogames, quit watching tv and made myself read.I stared slow, now I'm at like a book or two a week, I don't have a tv or at home internet anymore and I don't even miss them.

I started with books I've already seen the movie for, Dracula was the first, that way I had an idea of what was going on. And then slowly gravitated towards things I never saw the movie for 1984, Moby Dick, and then the momentum just kinda takes over, I think once you actually start getting into reading regularly your brain starts comprehending things easier and your imagination becomes more vivid.

So, maybe start with books they made movies out of. I know someone recommend I should try some easier books like Jurassic Park lol and I've yet to get to it, though I do have it. "	0
   	 2017-03-03 18:44:37 	 Hmmmmm, I remember the part, but I don't remember exactly why he goes to the island, I want to say that he was told the hunting was amazing there by someone, which I'm sure Dantes told to tell him, but it could also be just by chance, but I don't think it was cause his little steward person is talking about all the goats. I do know everything is explained or at least hinted at as to how everything came to be.  	0
 A question about Elantris 	 2017-03-03 19:06:51 	 So I'm getting to the halfway point and I was just curious about the chapter breaks, and maybe it's explained later on, but they're the magic symbols right? Also there's an alphabet for the symbols or meanings behind them right? So, do the chapter breaks tell you anything? Is there a hidden message or anything? I know in the chapter where he's learning about the light Aon, that chapter had the same symbol. 	0
   	 2017-03-03 21:07:52 	 So I actually started with the 5th one, In the flesh, I read through all that in a day or so, but when ooh went back and read the first actually story The Book of Blood, it makes everything so much better since it explains the reasons for all the short stories 	0
   	 2017-03-03 21:23:55 	 I have them all but haven't made my way through, high fantasy is b kinda tough for me because it can sometimes drag, but if you're looking into it you should probably try some of the newer fantasy books, ASOIAF (game of thrones) or maybe the Mistborn series, I believe those go fairly quickly. 	0
   	 2017-03-03 21:42:49 	" Also any of the Discworld books should be a quick and light read, I think the top three are

Small Gods

Mort

Guards! Guards! "	0
   	 2017-03-03 23:08:33 	" American Psycho really messed with me, the movie is nothing compared to the book.

I'm reading through Psycho right now and it's pretty unsettling, it's short like 120 pages. 

And at home I have The Exorcist which I'm actually pretty terrified to start. "	0
 I just read an entire novel in one day, Flowers for Algernon 	 2017-03-10 09:39:22 	" Now I've read books in one day before, but smaller things like Heart of Darkness, Yellow Wallpaper, Psycho. But this was my first novel in one day, usually it takes me 2 or 3 days, but I couldn't stop. I wasn't actually intending to read this right now, I just wanted a small book to take with me to the dog park and right away I was sucked in. It flew by and my heat was ripped completely out of my chest by the end of it. I have never felt such sadness, and I think it could be the best book I've ever read, so far.

I just don't know what I could even begin say about the story and what it's done to me, and I feel almost a small guilt that I haven't read it before. 

Whether you know what the story is about or not, read it, just consume it and then step back and take a look at yourself and just think for a bit.

Any thoughts on the story? Anyone read a novel in a day? "	0
   	 2017-03-12 05:35:53 	" ""In that case"" he said ""death must have come as a blessed relief"" "	0
   	 2017-03-12 05:40:10 	 I finished war and peace a couple weeks ago, it's amazing, skip the second epilogue, but the rest is phenomenal 	0
   	 2017-03-12 08:49:17 	" This annoys me, I read 1984 a couple years ago and I was like, yeah I can see some of that, but now people are going crazy for it,  like it's some brand new thing, and I'm just thinking....No, this stuff has kinda been happening for awhile now. 

But, it is what it is, I better read The Handmaids Tale before the story gets ruined for me by everyone talking about it. "	0
   	 2017-03-12 19:13:38 	 The book is like 300 pages 	0
   	 2017-03-12 20:07:00 	" I want to read Redwall and that's considered YA. I don't know if I actually own any YA books, nor do I browse the YA section at the bookstore. 

I think the thing comes down to people might not consider it worth reading, or maybe it's thought of as just filler. Like, what would teens know about good writing. But that being said, I haven't read any as far as I know, though couldn't Discworld be in that category? The lite fun books. 

I know some people who read only YA stuff and they compare it trashy romance novels where it's not refined in anyway it's just something to pass the time.  "	0
   	 2017-03-13 20:29:51 	" **Imajica, Clive Barker**

Me and several co workers are going to make our way through it, should be a fun journey.      "	0
   	 2017-03-14 02:48:15 	" Here's a whole lists of classics



http://www.listchallenges.com/centaur-editions-the-100-greatest-novels-of




Every classic I've read had stuck with me one way or another, I don't know how to explain it, it might seem boring but it's what happening behind the scenes that makes the story really stick out. Like War and Peace, it really deals with the internal struggles of the characters more than the actual war. "	0
   	 2017-03-14 02:52:15 	 I like these lists to some extent because it gives me new suggestions. Since I doubt read book synopses I don't ever know what I'm getting into, so if I'm like hey I want a good horror story then I'll look up lists for horror stories, are the authors they talk about and read up on the author and find what book really sticks out for them and check that out.  	0
   	 2017-03-14 06:11:23 	" Frankenstein is probably my favorite book of all time.

Yellow wallpaper was good.

I've only read about a chapter but Tale of Genji is good and considered the first novel ever written and it was written by a lady. "	0
   	 2017-03-14 06:12:57 	 Can I ask why this is like the 10th why adults should read YA post I've seen this week? 	0
   	 2017-03-14 06:31:54 	 I think I'll check it out if it isn't too heavy on the military action and develops the characters. This is the second time I've heard about this book recently.  	0
 What part of the chicken has the most feathers? 	 2017-03-14 07:33:12 	 The outside. 	0
   	 2017-03-15 20:51:34 	" Didn't they change Roland in the Dark Tower series for the t.v. show? Also tulip in preacher t.v. show, they changed her from a white girl to a black girl. I didn't see anyone get upset about that. 

I think this goes both ways.  "	0
 Does anyone have a holy grail, or just that book you never find anywhere? 	 2017-03-16 02:06:37 	" So all my book shopping is done completely in store and usually a 2nd hand bookstore, I don't use Amazon or any other online retailer, and there are always certain books I'm always on the lookout for and just never find. I was told by a friend that Come Closer by Sara Gran was an extremely terrifying book, and yep, never seen a copy. 

Now yes,I know most bookstores will order you a copy and what not but I think for me it's the thrill of the hunt. So lately these have been the ones eluding me.

Windup bird chronicles

Voices from Chernobyl

Stormlight Archives book 2

Mort

*The eye of the world

Cutting edge (short horror stories)

The way some people die

*Redwall

What about everyone else? Any thing you just don't ever see?


Edit. found The eye of the world today 

Edit 2. found Redwall  "	0
 Different books, same cover art, same author, different spelling of last name. 	 2017-03-16 06:19:25 	  	0
   	 2017-03-17 07:27:04 	 Didn't this person just post about why you should read The eye of the world?  	0
   	 2017-03-18 05:26:04 	" It's like 1400 pages, get the penguin deluxe edition, penguin doesn't abridge their books. 

Also, don't let the size intimidate you, it's kinda big, but there are bigger books out there. I think the P V translation, the one with the soft blue cover, is around 1100 pages, I'm not sure how, probably spacing and different font and different translation, but that might be a good option if you want to trick yourself into a smaller book.

Also, War and Peace is freaking awesome, I'd say skip the second epilogue and just enjoy it, it's amazing and epic and sad and powerful and tragic and everything you can imagine.  "	0
   	 2017-03-18 06:29:28 	 I buy mainly used books so sometimes they're not in the best shape, Moby Dick literally tore in half down the spine while I was reading it and I had to tie it back together. Some of the pages of 1984 fell out while I was reading it.  	0
   	 2017-03-18 06:30:59 	 Old man and the sea because Hemingway writes like a 5 year old. 	0
" Weird or ""Wtf? This thing exists"" type books "	 2017-03-18 06:58:17 	 So recently I discovered that Redwall, yes the fantasy story about small furry animals, has a cookbook, and I was taken back to why this even existed, a cookbook on fake food that is in a fantasy novel. Do they also have a Lord of the Rings cookbook? A Wheel of Time first aid guide? To me it seemed odd and I wanted to know what kind of strange, unusual or out there books have you come across? 	0
   	 2017-03-18 07:01:36 	" I haven't come across anything too terrible....yet, American Psycho was pretty rough at points, but I've got some Jack Ketchum to read and that's supposed to be pretty bad and unrelentless, I have a copy of The girl next door, so we'll see.


Also TIL that Gone baby Gone was a book.    "	0
   	 2017-03-18 07:35:35 	 Reading about Chuck Tingles books makes the Redwall cookbook not seem so strange at all....you've literally corrupted my entire view of books with one little post...I just...can't even.... 	0
   	 2017-03-18 15:05:21 	 I have not, I just recently picked up the first book. But even looking at that list of literary cookbooks I'm still baffled as to how these are things, but I guess people want to eat fictitious food  	0
 [OC] The yellow Scaab, watercolor 	 2017-03-18 20:20:10 	  	0
 The yellow Scaab, watercolor, wc paper, 8x15 	 2017-03-18 20:23:27 	  	0
   	 2017-03-18 23:37:17 	 Thank you, the little dagger was supposed to be a thumb tack, but I don't know if it really came out that way  	0
   	 2017-03-19 00:22:35 	 Mouseguard, Redwall, you know cute high fantasy.  	0
   	 2017-03-19 00:23:56 	 Instagram Jqstringer, not much fantasy stuff but I'm working on it 	0
 [OC] The salt elder, watercolor 	 2017-03-19 21:28:17 	  	0
 [OC] The yellow Scaab, watercolor 	 2017-03-19 23:36:40 	  	0
 [OC] The salt elder, watercolor 	 2017-03-19 23:53:35 	  	0
   	 2017-03-20 03:25:21 	 He's around salt, not on it, he's the keeper of the salt 	0
   	 2017-03-20 03:26:16 	 I'm going to make some pretty soon, I wasn't intending too but this painting and my last one have gotten a lot of attention so I'll start making prints 	0
   	 2017-03-20 08:22:14 	" The difference between my characters and mouseguard or redwall, is that my characters take place in our world, there weapons are human items, a nail, fish hooks, thumb tack, razor blade.

Though redwall and mouseguard are inspirations, these characters are a separate entity.

And yes I know they used a hook in mouseguard. "	0
   	 2017-03-20 08:24:07 	 Not a lot of fantasy stuff...yet, but instagram jqstringer, though I should have the same stuff posted on here as well 	0
   	 2017-03-20 17:48:11 	 Instagram jqstringer 	0
   	 2017-03-20 18:05:12 	" My little characters adventure in the yard of their previous home, so the salt elder is a high council and protective of the salt, basically rock salt that spilled in the back yard.

I'm now working on a story about these little guys and their adventures in our human world "	0
   	 2017-03-20 18:53:50 	 I haven't figured that part out yet 	0
   	 2017-03-21 15:05:00 	" I thought it was amazing the whole way through, I just tore through that thing.

But I like to break it down like this for the ending.

The book is essentially about a weird rich uncle who helps his nephew get stoned and laid. "	0
 What constitutes as young adult? 	 2017-03-22 01:42:22 	" So a friend of mine let me borrow a book called The Book Thief, which I haven't read so no spoilers please, he told me a little about it and I know they made a movie, so in my mind I have a semi rough idea of what the contents are. 

Now today I was in half price books and I decided to go to the YA section to look for some Redwall books, and while I'm back there what do I see? Copies of The Book Thief, and I'm a bit confused because I was telling myself ""I've seen this book on top books you should read lists, my buddy suggested this book and he's not a YA reader"" and so I asked him and he said it wasn't a YA book. 

So I'm assuming it's somewhat on the same level and tone as maybe Lovely Bones, a fairly serious book that isn't over the top explicit, and that's not considered YA. 

So with all the YA posts I've seen on here lately I thought I'd join the bandwagon and ask, what constitutes a book as YA, are there any that you don't consider YA that are considered YA? Or vice versa? "	0
   	 2017-03-22 01:47:35 	 Am not reading the post, am not reading the comments, read the title and I feel the book was just ruined for me.....can people not put spoilers in their titles 	0
   	 2017-03-22 02:27:54 	 **Imajica, Clive Barker** 	0
 What's the most expensive book you've bought? 	 2017-03-22 03:37:03 	" Since I do most of my book buying at half price books I'm usually saving a pretty good amount on my reading material and I don't know if I've really ever bought a new book. I usually think about $10 is on the high end and I'm usually reluctant unless it's something I've really been looking for. Though I paid $50 for the ASOIF set new from Barnes and noble, they had it on sale for 50% off, the little leather bound set, but for one single book I think the most I paid was $18, and it was for the three book version of 1Q84. 

What's the most expensive book you've bought, or I guess even just own? "	0
   	 2017-03-22 03:41:31 	" What about Guts from Chuck Palahniuk? The main character in that story is a teenager, does that count as YA?

http://chuckpalahniuk.net/features/shorts/guts "	0
   	 2017-03-22 04:34:27 	 I've been thinking about buying one of Stephenson's book, cryptonomicon, I always see it but I'm not sure if I should 	0
   	 2017-03-22 04:55:06 	 That's a nice copy of Dune 	0
   	 2017-03-23 00:47:52 	 Every time I mention Jonathan Livingston Seagull to someone they've never heard of it, though I think it was pretty popular.  	0
 [OC] The spider queen 	 2017-03-23 23:53:11 	  	0
 [OC] The spider queen, watercolor 	 2017-03-23 23:53:41 	  	0
 The salt elder, watercolor, wc paper, 8x15 	 2017-03-23 23:57:14 	  	0
   	 2017-03-24 04:26:46 	 No only what I've posted on here, I'm actually now making a story of them, so I'll probably be away for awhile, but I want to do one more, a genesis inspired one  	0
   	 2017-03-24 04:29:45 	 Probably the spider's  	0
 Questions for Brandon...If he reads this 	 2017-03-24 04:41:00 	" Or anyone else I suppose, so lately I've been posting some fantasy art on here of some little mice characters I've made up, and people seem to enjoy than, so I've been coming up with a story idea and I was just wondering if I could get any tips on how to bring a little mice world alive. I've got some general ideas for the overarching story, what the purpose is for why things are happening, the world the little mice are in and all that, I just don't know how to push it into more than an idea. 

So Brandon, if you read this, lol would you mind talking to me a bit. If you don't read this, would anyone who is familiar with his work and world building have any good resources or ideas on how to build a story? "	0
   	 2017-03-24 04:48:03 	 There should be 3 total pictures I've posted on here of my little mice characters, and the band genesis lol, just a kind of fan shout out thing 	0
   	 2017-03-24 05:46:02 	 I don't even have internet at home, just my phone, but I'll have to check it out, thank you  	0
 [OC] Mice can't dance 	 2017-03-24 06:24:11 	  	0
   	 2017-03-24 06:25:34 	 This is my thank you to r/fantasy, I didn't realize my little mice were going to be a hit and now I'm working on a story for them, so I'm going to bid you all farewell for awhile while I go and work on this. I'll see you in the fifth dominion.   	0
   	 2017-03-24 07:09:16 	 Instagram jqstringer though not much fantasy stuff is on there 	0
   	 2017-03-24 18:19:31 	 I just made the characters up, so I'll be making prints before too long, I'll post again when I have them ready 	0
   	 2017-03-25 07:56:41 	" I remember color theory, you just use the primaries, yellow red blue, you can make almost everything from those, minus white.

To darken say red, use green, to darken yellow use purple, to darken blue use orange. To make black mix all to make brown then mix in more blue. 

Drawmixpaint made a good video about limited palettes. 

With watercolor though I use several different reds, blues, greens yellows and browns, it's a little too much to do all your mixing with the watercolor. 

But with gouache or oil, I only use the primary colors, if you look at my past posts I did a Nightcrawler painting that only used primary colors.  

Edit:
https://m.imgur.com/82zN1YE

Here is my Nightcrawler painting, only used primary colors.  "	0
 So....what is the price of a switch? 	 2017-03-26 05:49:31 	" So I think the price is $300 but every website has it listed somewhat differently, so I thought I'd check gamestop because even sold out they'd at least have the price up, well gamestop's website only has a $522 bundle listed and I think most the stuff bundled isn't even out yet. Amazon has them listed for about $400 and I stopped checking after that, Nintendo's website says $299,  but the retailers all have different prices and Nintendo doesn't have a way for me to just order off their site.

The sucky thing is I'm not even trying to buy one right now, I'm literally just trying to window shop. I was thinking maybe in May, but now lol I'm kinda over it all. I just wanted something that wouldn't require me to have a tv, might as well get a vita and just play ps1 games lol. "	0
 Sky Rider, watercolor, wc paper, 8x12 	 2017-03-26 19:19:29 	  	0
   	 2017-03-27 08:10:58 	 I liked Moby Dick, though I didn't like the whaling chapters, I wanted the story not the context on how things are done. 	0
   	 2017-03-27 08:21:18 	 Game of thrones, it's been like 2 years....I've only got 250 pages left...But I just never seem to get around to finishing it off...and I still have 4 or 5 more books to go in the series. 	0
   	 2017-03-27 08:22:15 	 Just skip the whaling bits and focus on the story. 	0
   	 2017-03-28 05:29:25 	 Old man and the sea, because Hemingway writes like a child 	0
 Have you read all the books you own? 	 2017-03-28 05:34:01 	 I've recently discovered I have over 100+ books I own that I haven't read. So I've cut myself off from the bookstore for the rest of the year and hopefully will knock out a lot of the smaller stuff. I feel this is ridiculous for me not to have read everything I own and I want to know if other people do this as well, maybe not to point of 100+ unread books, but still. Or does anyone have more than me that they haven't read? 	0
   	 2017-03-28 05:44:14 	 All the sci fi stuff is pretty short, I'd say most around 350 pages, I can knock those out in a couple days, so maybe besides the Stephen king stuff and big huge books I have, I can get through most of it 	0
   	 2017-03-28 06:56:47 	" Frankenstein was really got me into reading, but recently Flowers for Algernon might have topped that, it was the first full length novel that I finished all in one day. 

One thing I like to do is read books that they've made movies out of and then spout the differences, I just recently read Psycho and it blew my mind how amazing it was. Also I have Jaws, The Exorcist, First Blood (rambo), Jurassic Park, and several other big movie books, they're quick and fun.

Also Brandon Sanderson really got me into fantasy so maybe check out some of his stuff.

And Richard Matheson and Clive Barker really got me into short stories, also Clive Barker is probably one of the most amazing writers out there.

Also Haruki Murakami is really good, and I think Cormic McCarthy is considered one of the greatest living writers right now.

But, here's a list of books by everyone I mentioned and a couple others that you might like.

Weaveworld - Barker

Imajica - Barker

Books of blood - Barker

Norwegian wood - Murakami

Windup Bird Chronicles - Murakami

The Road - McCarthy

Blood Meridian - McCarthy

Mistborn trilogy - Sanderson

Hell house - Matheson

I am legend - Matheson

The collector - John Fowels

Do androids dream of electric sheep - Philip K Dick

Dune - Frank Herbert

Frankenstein - M. Shelley

Flowers for Algernon - Daniel Keyes

These should be fun reads, for me at least they were, just a simple start.   "	0
   	 2017-03-28 07:23:07 	" The abortion scene was the most evil thing in that book to me lol. It didn't have any blood or gore, but it showed how vile he could be and his mockery of the girls suffering by leaving baby items, it still make me wince thinking about it.

Though, I loved the book and when it got extremely gross and disturbing I honestly was cracking up at a lot of the ridiculousness of it all, and thankfully I read it after I saw the movie so Christian Bale was in my head the entire time, which was amazing.    "	0
   	 2017-03-28 08:03:00 	" So I read a really long book and then several smaller books, I just finished War and Peace earlier this year, it's like 1400 pages, took me 3 months to get through it, I'm halfway through Imajica (850 pages) and I've only been reading it for about 10 days. 

Which is dumb because I read Flowers for Algernon in one day (300+ pages) and it's taken me 10 days to do that with Imajica, which is even more dumb because if I could do 300+ a day War and Peace should have only taken me like 5 days.

But what's even more dumb, is while I was reading War and Peace, I read 5 other books as well.

So, I think it all depends on if you're into the story or not.  "	0
   	 2017-03-28 08:08:41 	" I was gifted a ton of his books, though I've only read The Shining and The Stand, I liked the shining much better. 

I'm more interested in his short stories and I traded in like 15 of the books which I didn't think I was going to read :/

But I'm excited for Dark Tower, I liked the comic, the next of his actual novels I'm going to read is IT, also I just bought 11/22/63 for like 3 bucks. "	0
   	 2017-03-28 08:13:51 	" So I love the ""Story"" part of story, and even his thoughts on history I didn't mind. But what left a sour taste, and don't worry no spoilers, was that I was so connected to the characters that when I finished the first epilogue I was thankful that I could have a little more time with everyone in epilogue part 2, but no, the second epilogue is just his philosophy on history. Which if I would have know the story story was done at the end of the first epilogue, I would have tried to hold onto it a little longer.


So OP if you want the story part, only read the first epilogue :)  "	0
   	 2017-03-28 08:18:01 	" I told myself I was only go read 3 discworld books, there is no way I can get invested into something that huge lol, so the three I picked up were

Guards Guards

Mort

Small Gods

I am excited to read them at some point  "	0
   	 2017-03-28 08:28:35 	" I'm going to go with War and Peace here, though I've never meet irl anyone else who has actually read it. But I will say that people get it wrong for a couple of reasons. 

1) most people who haven't read the book, don't even know what it's about, not even a basic concept of it, they've just heard it's really boring.

2) people who do know what it's about, think that's it's all about war, and it's not, not even close.

So, yes there is war, and yes it's a catalyst for the story, but the title is symbolism. The ""War and Peace"" in War and Peace is the internal struggles of the characters, basically, being a human being, having your ups and downs and the complications of life and loving and love and loss, disappointment, pain, struggles, sorrows, sacrifice, you name it it's in there. And it's also about his philosophy and the struggle he has with history and the way things are told and the complications of telling of these leaders and how things have been played out and how things will shape the future. "	0
   	 2017-03-28 08:49:46 	 I don't think I've ever read a cyberpunk book before, just looked this guy up and I think I'll be getting me a copy of Nueromancer, it seems to be the one he's known for.  	0
   	 2017-03-28 16:13:37 	 I have never met anyone who's ever even heard of communion lol.  	0
   	 2017-03-28 17:35:11 	 Metamorphosis by Kafka 	0
   	 2017-03-29 05:47:27 	" I wouldn't use it enough to justify the cost.

I wouldn't even be getting another ps4 but these 4 games are calling to me. 

Now I'll also have to get a tv... "	0
   	 2017-03-29 05:51:58 	 Do you know if any of these games would require an update before they can be played? I know when I used to have a ps4 and get a new game sometimes the game would day my system didn't have the latest update and I couldn't play until it updated  	0
   	 2017-03-29 23:39:06 	 All the Michael Jackson touching kids stuff was in the news and I was scared he was going to sneak into my bedroom window. 	0
 What got you into reading? 	 2017-03-30 08:48:26 	" Mine was the start of a divorce.

I wasn't much of a reader, in fact I didn't even fit into that 1 book a year category, I fit into the Netflix and videogames all the time facebooking category. But as the ex wife and I were starting to have troubles in our marriage I needed to get away from it all and I started reading. It helped me escape the pain I knew was coming and allowed me to sit and enjoy whatever last moments we were going to have together. Inevitably the divorce did eventually happen and the moving and the separation, and when we parted ways I was just done with everyone and everything, I got rid of my videogames, told her to keep the big tv and deleted my social media. I said goodbye to it all, and I read. It started slow and was tedious, but it became part of my normal day. The lessons I've learned from what I've read helped me understand better about who I am and the divorce, the way people work and think, and just made the coping easier for me. I'm at about a book or two..or three a week that I read, still no tv, still no social media, and really I just browse r/books mostly now.

So, what brought you into the world of books? "	0
   	 2017-03-30 18:09:38 	 Possibly, we got to a point where we didn't do very much and just sat around a lot. Also just different people and wanting different things out of life.  	0
   	 2017-03-30 18:11:56 	 Check out my post history to see my small mice paintings I've done on here, redwall inspired 	0
   	 2017-03-30 18:13:09 	 Check out my post history to see my mice fantasy paintings 	0
   	 2017-03-30 18:18:33 	" Started with Dracula, Moby Dick, Frankenstein. 

I still kinda stick w/ classics, just recently read War and Peace, but right now I'm reading Imajica by Clive Barker, I enjoy his work probably the most, also Stephen King, Haruki Murakami and Richard Matheson.  "	0
   	 2017-03-30 18:20:07 	" We're still friends, sometimes things just don't work out, no hard feelings, can't be upset because ppl want something different. 

And trying to keep my head up about it all...but that's another story for another time.  "	0
   	 2017-03-30 19:25:16 	 I have a copy of Casino at home, also was meaning to pick up a copy of godfather 	0
   	 2017-04-01 08:09:28 	" Don't read about a book you haven't read yet. 

But yes the book is amazing, and I saw the movie first, so if you've the seen the movie just know...It's not really like that, so knowing about Mercedes isn't really that big of a thing in the book because of reasons that you'll find out if you read it...which btw it's amazing. "	0
   	 2017-04-01 08:11:31 	 This is one book I know 100% for a fact I'm never going to read. 	0
   	 2017-04-01 08:17:31 	" One book a month? I'm doing this wrong then, I'm at like a book or 2 a week.

Also I have up technology, minus Reddit every now and again, and I got rid of tv and internet and videogames and I love it. 

It sucked at first because I wanted to watch something or play something, but after awhile I just stopped caring, now I get really really bored if I'm around a tv and I can only stare at a screen long enough for a movie at the theaters which I go like one every 2 months. 

But I see everyone stuck on their phones, everywhere. "	0
   	 2017-04-01 08:19:03 	" I saw the movie, didn't like the premise, and I don't really like the authors writing, so not much there to make me want to read it.

But it's good that it's still relevant for people who enjoy it. "	0
   	 2017-04-02 06:50:53 	 This looks like really bad 3D graphics 	0
 My copy of The Haunting of Hill House has a misaligned cover 	 2017-04-05 21:15:32 	" http://i.imgur.com/g7UfZR4.jpg

So I'm reading through this today and just noticed that my cover is off, it's like it wasn't aligned correctly and should have been centered more to the right. 

Thought it was a little strange, but maybe it happens more often than not. 

Anyone else have any misprinted covers or slightly off? 

Include pictures if you have them. "	0
 Dresden vs Stormlight Archives vs Redwall vs Wheel of Time 	 2017-04-08 04:54:49 	" Really not a versus but, I ended picking up the first book of each of these series and I'm excited about getting into them. I have ASOIAF, Mistborn trilogy and the first 6 Dune books. So my plan was to read each see which I like best and then start to collect the rest, hopefully I'll really enjoy them all.

Right now I think Dresden Files is the one I'm most excited for, it seems like the underdog but everyone who's read it has really enjoyed it.

I'm thinking about also picking up Malazaan and Night Angel, but not sure. 

Without spoilers of you've read these which ones did you like best and are there any other series out there that you really enjoyed.  "	0
   	 2017-04-08 04:59:02 	" Definitely War and Peace, I love that book so much but I never have anyone to talk about it with.

I'd say a second is Flowers for Algernon just because it's the first novel I read in one day "	0
   	 2017-04-08 07:25:34 	 Wow the laundry files sounds fun I'm going to buy the first book soon to check it out lol, thank you 	0
 More than anything else, Rocko's Modern Life dissuaded me from getting a credit card. 	 2017-04-09 23:28:28 	  	0
 I finally finished Imajica, and wow [Spoilers] 	 2017-04-10 03:38:53 	" What a trip, what an amazing amazing fantastical ride that was. I'm just in awe as to what were on those pages. 

This book took me way longer to finish than I wanted it to, and there were parts that dragged a little too long, but those last couple chapters, they just made it all worth it and I almost had tears in my eyes when Pie takes Gentle off into the world of spirits. I know this isn't going to be a book that many will read, but those who have read it, lemme know what you thought.

Also Ease was my favorite character by far though he had such a small role, and even Dowd and Sartori tug at the heart strings when there parts ended. "	0
   	 2017-04-10 04:04:05 	" I've only read Do Androids Dream of Electric Sheep and I really liked that, I haven't thought about trying anything else by him recently except maybe the book they made Total Recall from, and Minority Report. 

I don't think he had any series so you should be able to read whatever in whatever order you want. "	0
   	 2017-04-10 04:38:33 	 What the crud is the sequel? 	0
   	 2017-04-10 04:46:20 	" Imajica is like 850 pages broken up into 2 books, The Fifth Dominion and The Reconciliation, I think you're referring to the second half of the book. 

https://www.amazon.com/Imajica-Fifth-Dominion-Book-1/dp/0061094145


https://www.amazon.com/Reconciliation-Imajica-Book-2/dp/0061094153


What I read has both in there

https://www.amazon.com/Imajica-Featuring-New-Illustrations-Appendix/dp/0060937262
 "	0
   	 2017-04-10 19:38:56 	 Well I think so, but it's a weird book and it gets pretty intense later on, it gets really good when they start going into the dominions. 	0
 [OC] The hound, watercolor, 9x12 	 2017-04-11 03:59:41 	  	0
 [OC] The hound, watercolor, 9x12 	 2017-04-11 04:00:51 	 [removed] 	0
 [OC] The hound, watercolor, 9x12 	 2017-04-11 04:12:43 	  	0
 [No Spoilers] The hound, watercolor, OC 	 2017-04-11 04:15:29 	  	0
   	 2017-04-11 08:56:33 	 He wears his sword on his back, I'm not really sure what the little scabbard is for, maybe just looks lol, but it could be one of the bottomless ones where the sword just hangs out...they have those right? 	0
   	 2017-04-12 00:25:46 	 Because I couldn't draw him correctly in person form lol 	0
 Woot Half Price, $18 all together 	 2017-04-12 04:21:46 	  	0
   	 2017-04-12 06:14:34 	 Commenting because Clive Barker 	0
   	 2017-04-12 06:25:06 	 I have that same copy of IT, I'd yours the Australian version? 	0
   	 2017-04-12 06:46:14 	" I've done this with 3 different books.

Flowers for Algernon

The Handmaids Tale

The Haunting of Hill House

I liked Flowers for Algernon best, it's up there for favorite books of all time. Hill House was...ok.

The Handmaids Tale I enjoyed a lot more than I thought I would and read it mainly because I didn't want it spoiled by everyone talking about it....though the way people talk about it makes me think, they either didn't read it, or didn't understand what it was saying, because the book, despite what everyone plays it out to be, it was not a feminist agenda based book, which I thought it was going to be. But, that's as much as I'll say because, Reddit is Reddit and yeah.  "	0
   	 2017-04-12 06:52:07 	" I'll do John Snow next.

I haven't read all the books, or seen all the series, so looking up got stuff is scary because I might spoil something "	0
   	 2017-04-12 06:55:25 	" Commenting because ""Tor example""....for example...hehe made me laugh "	0
   	 2017-04-12 07:00:05 	 Is this digital? 	0
   	 2017-04-12 07:03:52 	 I just bought a copy if Battle Royale, it's supposed to be a really bloody book 	0
 Where to get signed books? 	 2017-04-12 08:10:55 	" So I'm wanting to get a signed copy of pretty much anything by Clive Barker, and with my luck I'm not going to accidentally stumble upon anything that cool, so is there a site anyone uses or just any good recommendations? I'd also really like to get a signed copy of Swan Song by Robert McCammon. And I guess anything by Stephen King...Murakami, probably a whole bunch of ppl.

Give me tips and suggestions or just show off your treasures. "	0
   	 2017-04-12 08:23:00 	 Commenting for Clive Barker 	0
   	 2017-04-12 08:26:14 	 Commenting for Clive Barker 	0
 Anyone know of decent books about witches? 	 2017-04-12 19:23:58 	 [removed] 	0
   	 2017-04-13 02:42:44 	 Well when I saw it the paper looked indented as if it was written in there by hand, so there's that, but it is what it is  	0
   	 2017-04-15 04:50:45 	 I like how To Kill a Mockingbird isn't on there 	0
 Just finished Solaris, I really enjoyed it but I would not recommend it 	 2017-04-15 08:46:13 	 It was a phenomenal little book, but there are too many issues with it to make it something I'd actually recommend someone to read. Sop I actually started this last year and got like 20 pages in and gave up, I picked it up again a couple days and forced myself though the whole thing, and just wow. The actual story is amazing, the problem is that the book veers too much in certain chapters into the what Solaris is and people's theories about it, and these couple segments really really really slow everything down and it gets so convoluted that you get to a point where you're just reading words and have no idea what's going on. So I think due to that alone I wouldn't suggest it, but the actually story part is very good, deep and emotional, inn really glad I read it and if anyone else has suffered through it, what were your thoughts? 	0
   	 2017-04-16 00:16:33 	 So my copy is a translation of a translation? LOL crazy  	0
   	 2017-04-16 00:18:14 	 I've only seen the movie w/ George Clooney, which I liked well enough, but I do want to check out the original if I ever get the chance, I believes it's in German or some other language, but I don't mind subtitles.  	0
   	 2017-04-16 00:25:26 	 Awesome, I really like foreign films and I can't remember any Russian films that I've seen so this will definitely be added to my to watch list.  	0
 I don't think I'm going to be able to finish GoT 	 2017-04-16 04:44:18 	 Idk why I can't seem to get pay this stupid book, I've been having at it on and off for like 2 years now and I just can't sit down and concentrate on it, I've only got like 200 pages left and it's just....idk, it doesn't fill me with any interest to see it all the way through, I really liked the show the though and purposely stopped watching agro I could read the books, but each chapter being another perspective and nothing really happening is getting to me. But I'm stupid because when the book is good, it's really good, it just hasn't been that good, and I know that things will pick up after I start book 2. 	0
   	 2017-04-16 17:37:03 	 The Thief of Always has pictures between chapters.  	0
 I just read The Thief of Always, what a fantastic book 	 2017-04-17 08:12:38 	 So once again Clive Barker has moved me in such a magical way. This book was an absolute blast, it was a super quick read, really fun and pretty emotional at times. For all his dark gritty over sexualized writing, this book, this children's book he wrote, has to be one of the best stories I've read. I've had a smile on my face the entire time, and I'm busy in awe. It just goes to show how diverse of a writer he is. Such a good book and I cannot recommend it enough. Everyone, do yourself a favor, go out and buy The Thief of Always right now and just devour it. 	0
   	 2017-04-17 08:43:09 	 Most likely Books of Blood by Clive Barker, unless you consider The Thief of Always horror, then I literally just finished that, also by Clive Barker 	0
   	 2017-04-17 17:39:23 	 I haven't read great and secret show or everville yet, those are waiting until I finish Weaveworld and Books of Blood, but, would Scarlet Gospels count since that detective is in it? 	0
   	 2017-04-17 18:32:40 	" Yep, although they don't have to be read in any order, start with the first one because it explains what the Books of Blood are, which makes the rest great

This is the order


Books of Blood 1,2,3

Inhuman condition

In the flesh

Cabal


When you finish Cabal you can move on to Great and Secret Show, then Everville because the character from the last books of blood story is the main character in those books.

Also Imajica is amazing. Also lol what made you pick up Weaveworld? "	0
   	 2017-04-17 18:39:50 	 It's on my to read list, I want to finish off books of blood first though, also Hellbound Heart is really good and I think in Weaveworld the cynobites make an appearance but there's called surgeons, I'll have to get back to you on this when I get through it though 	0
   	 2017-04-17 19:54:20 	 I mention them every chance I get, but I feel that people who are fans are like die hard fans lol, but I also feel most only know him because of Hellraiser. I bet they don't know he also created Candyman (the forbidden).  	0
   	 2017-04-18 02:13:03 	" I have swan song, boys life and gone south, haven't read any yet.

I haven't read Brian Lumey, but I'll definitely check him out "	0
   	 2017-04-18 05:57:58 	 I read this whole book in a single day and I loved it, and become one of my favourites 	0
   	 2017-04-18 06:03:04 	" It depends lol

I read War and Peace (1400 pages) in three months, Imajica (850 pages) in about 2 weeks, The Thief of Always (260 pages) in 2 days, Flowers for Algernon (300 pages) in one day, Elantris (650 pages) in a week, The Shining (480 pages) in 2 days, and The Count of Monte Cristo (1300 pages) in about a month.  "	0
   	 2017-04-18 06:04:10 	 I'm about to read this pretty soon, like within a week or so 	0
   	 2017-04-18 06:07:06 	" I did not like The Stand lol, it was such a disappointment for me and when it was over I very happy that I wouldn't have to deal with out anymore. I got sick and tired of then trying to build a council and regain laws and junk and I wanted it to focus more on the end of the world stuff. The third part was the best, but it was just like, ""Hey here's all this stuff, then hey that guy has a bomb""  "	0
   	 2017-04-18 07:32:59 	" Clive Barker, he writes dark fantasy and horror, but my god he's amazing, I'll probably be through every one of his books this year, I just can't get enough of him. 

Haruki Murakami as well, I don't think anything he's written is bad. "	0
   	 2017-04-18 07:33:38 	 I read a couple books a week now.... 	0
   	 2017-04-18 07:36:21 	" http://www.goodreads.com/book/show/18908205-dante-s-divine-comedy-in-plain-and-simple-english

Though I'd read the whole comedy because why not?

I listened to a YouTube audio book of Paradise Lost and really found it fun, maybe try that with The Divine Comedy  "	0
 After you've already found the book you're looking for 	 2017-04-19 23:56:00 	 [removed] 	0
 What R.A. Salvatore book would you recommend? 	 2017-04-20 06:29:07 	 I've never read anything by him and he has a ton of stuff. I'd like to check out longer of his books but don't know which one would be his best. 	0
   	 2017-04-20 07:57:39 	 I'm trying to keep up with a book a week myself, but I think I'm at like 14-16 this year so far, I kinda stopped counting because sometimes I do a book in a couple days 	0
   	 2017-04-20 15:01:57 	 Really? I thought he was regarded as one of the best. Anyone other authors you'd suggest instead? 	0
   	 2017-04-20 15:03:46 	 I think up be picking up the trilogy soon, I'm interested in reading something in the D D universe, though does he write anything outside of D D stuff? 	0
   	 2017-04-20 19:43:10 	 I bought a Gene Wolfe book recently, Fifth Head of the Cerberus, I wanted to go with something.I've never heard of before, so now I'm pretty excited about checking it out. 	0
   	 2017-04-20 20:22:59 	 Will now be picking up another Gene Wolfe book 	0
   	 2017-04-21 07:14:14 	" I have a double copy of Hell House and I Am Legend, and I Am Legend was way better. I really like his short stories, but though Hell House was a fun read, I wasn't impressed,

*spoilers*


 like literally they kill the ghost with mean words..... /sigh lol, I'm waiting on a haunted house book that's actually scary, hopefully Amityville Horror or Ghost Story will do the trick.

That being said, I love Richard Matheson and I have many of his books and his short stories are awesome.  "	0
   	 2017-04-23 04:37:12 	 I'm not even slightly joking that this will be the next book I buy 	0
 German Shepherd pup, watercolor, 9x12, Arches wc paper 	 2017-04-23 17:28:30 	  	0
   	 2017-04-23 17:36:28 	 So I had uploaded this earlier but I messed up my post and need to redo it, but someone else had mentioned this same thing, so I just now went to look up the Always Sunny painting and it made me crack up, thank you lol  	0
" [Text] ""If you wanna ride a bike, you're gonna get hurt sometimes, even the most professional people get hurt sometimes"" "	 2017-04-23 18:42:07 	 [removed] 	0
   	 2017-04-24 17:59:26 	 I got rid of tv, videogames and internet.  	0
   	 2017-04-26 01:58:57 	 I think I'm at 15 or 16 so far 	0
   	 2017-04-27 07:38:32 	" Idk if it's a new thing because my copies of Great and Secret Show, Everville, Weaveworld and Necroscope all have these and I'm pretty sure those are from the 90s. 

I like them though, especially on Necroscope because it has a picture inside and same with Weaveworld.  "	0
 Just finished The Exorcist, great book but it wasn't scary. 	 2017-04-27 20:07:49 	" So I had put off reading The Exorcist because quite frankly, I was scared to read it. I was getting myself all pumped and yesterday I decided to read through the book. So I started and it moved very quickly and was enjoyable but I was never scared, even at like 2am even while I was reading and all the creepy stuff was happening, I just never felt scared. I was hoping to be terrified, I was yearning for chills down my spine, but nope, nothing. I was told by many people that this book was supposed to be one of the scariest ones out there, so now I'm in a lull because I'm afraid I won't find something to make me...afraid. 

I'm thinking about picking up Legion though because I'd like to see where the author took the story. "	0
   	 2017-04-27 22:19:15 	 I was raised up Catholic though I think I'm probably more on the agnostic side now in my life, but I do believe in God and the devil and demons. 	0
   	 2017-04-27 22:21:02 	 In still trying to find one, the beginning of The Shining was close where Danny was talking to kid inn the mirror, but I think the excerpt from Edgar Allan Poe was more terrifying than that entire book. American Psycho made me feel uneasy, but that's as close add I've gotten. 	0
   	 2017-04-27 23:21:58 	 32 	0
   	 2017-04-27 23:22:31 	 No I've only read fiction really, though I'm thinking about reading The Devil in the White City 	0
   	 2017-04-28 01:04:53 	 It's completely possible, though how long until I'm re-sensitized? Cause I haven't watched tv for over a year now lol nor any real violent movies either 	0
   	 2017-04-29 06:03:29 	 May 9, 2016- June 17, 2016 	0
   	 2017-04-30 06:51:47 	 Half Price Books because.....books are half price. Also you never know what you're going to find since they're all used, well...most are used, some are just overstock. I'm going to check out Book People next week so if they have a used section then we'll see what's up. 	0
   	 2017-04-30 06:56:55 	 I think about Moby Dick on a daily basis and I don't know why, also War and Peace 	0
   	 2017-04-30 20:02:48 	 Now imagine she was white 	0
 Just read The Wolfen..What a fun little story 	 2017-05-01 01:36:57 	" Nothing to write home about, it was very easy to get through and not really any deeper meaning besides what happens. I don't know if I even think it was well written but it was enjoyable. It was my first romp though a werewolf book and it does a good job of explaining everything from both sides of humans and werewolves. 

If you get a chance maybe check it out, only about 200 pages, goes quickly and is fun. "	0
   	 2017-05-01 04:27:15 	 A Time To Kill 	0
   	 2017-05-01 17:30:16 	 Frankenstein 	0
   	 2017-05-01 17:33:06 	" The Girl Next Door

Frankenstein

The Thief of Always

Flowers for Algernon

The Count of Monte Cristo

Metamorphosis "	0
 I read The Girl Next Door last night, just...wow 	 2017-05-01 17:34:25 	 [removed] 	0
   	 2017-05-01 17:50:46 	" You could read Frankenstein by Mary Shelley.

Or Come Closer by Sarah Gran "	0
   	 2017-05-01 17:53:56 	" I'm still looking myself.

The Exorcist did not scare me at all and The Haunting of Hill House was beyond a let down. I haven't read Heart Shaped Box yet.

The two books that have actually made me feel uneasy though were American Psycho and The Girl Next Door.

Also just for good measure, the book Psycho by Robert Bloch was pretty unsettling and cemented Norman Bates as my favorite bad guy ever.  "	0
   	 2017-05-01 20:01:31 	" **The Road, Cormac McCarthy**

Haven't read it yet, gonna plow through it today though, pretty excited.  "	0
   	 2017-05-02 05:57:25 	" Thousands Arms

Lunar Silver Star Story

Legend of Legaia "	0
   	 2017-05-02 17:33:51 	" Reddit








Lol, but The Road by Cormac McCarthy "	0
   	 2017-05-03 17:35:17 	 I remember it was the first final fantasy to take away world maps....which was stupid 	0
 Just finished The Wasp Factory, I get it, but I don't know how to explain it, spoilers 	 2017-05-04 02:18:05 	" So first of all, wtf with this damn book, I mean seriously wtf did I just read. 

Ok so my thoughts, if I'm able to find a way to put this into words. I feel that the story represents a misspent youth and Frank is trying to imitate Eric to some extent. With the animal mutilations, his rituals, his worshipping of the wasp factory itself and it's predictions, the connection he wishes to share with Eric and his hatred of women to find out later he's the thing he hated the most and everything he did was for nothing. I feel that there is an undertone to the story that it's never too late to change even if you're forced into that change. Eric was forced into the change with the maggots in the baby's brains, the father was forced into a change when Frank was a girl and he wanted him to be a boy and when Paul was just dropped off from the mother, and Frank was changed when he found out that he is really a girl. So I think all through story, all of the terrible things that happen are all symbolism for the bad that needs to be let go before you can grow into the person that you really are. Maybe it's also a telling of letting nature take its natural course for example with the wasp factory and the wasps deciding their own deaths. But it also might be about your inner subconscious taking over because there were moments when Frank had clarity and knew certain situations were wrong.

Please, anyone who has suffered through this book, what's your take? "	0
   	 2017-05-04 02:23:17 	" I get the ending, but I didn't like it. The story isn't about the house, it's about that lady becoming obsessed with the house, she became ""haunted"" by it, hence The Haunting of Hill House, so she didn't want to leave, she was in love, enthralled, ravaged by it, so the other people who are just like, ""hey it's a creepy house and you're crazy now lady"" are able to just take in what's happening, the girl was the weak one of the bunch, the easily influenced, so the house took her, and when she was almost to get freedom, she gave it away for love. How many love stories have ended with a character giving everything for lost love?  "	0
   	 2017-05-04 02:27:40 	" Naaaa just go for it, the second Stephen king book I read was The Stand: uncut edition, and that's the longest book he's written, IT is the second longest. Just take it one page at a time, don't get discouraged because it'll take a long time, but just remember, you're reading the equivalent of like 3 books. In fact I think in The Stand there are books 1,2,3 lol. 

Or do like I did, read War and Peace (which is amazing btw) and then just realize pretty much everything else is smaller than that ^^ "	0
   	 2017-05-04 03:54:39 	" ""Do as I say, not as I do""

I didn't like it very much. "	0
 [OC] Jon Snow, watercolor, wc paper, 9x12 	 2017-05-04 06:07:26 	  	0
 [No spoilers] Jon Snow, watercolor, wc paper, 9x12 	 2017-05-04 06:09:51 	  	0
   	 2017-05-04 06:57:12 	 I literally have that same vacuum, just got it last week, $50 bucks brand new  	0
   	 2017-05-04 07:43:33 	" Sometimes books can really put your life into perspective.

For example, The Girl Next Door by Jack Ketchum, though based on true events it's still a fictional book. But after reading that and reading what that poor little girl weren't through, I stopped and told myself ""I can never complain again in my life"" because no matter what happens, I will never have had to go through what that child went through. It also made me realize though I may not be perfect, at least I'm not a monster, the way some people can just fall in line and do those things, no thank you. It helped me gain a new respect for the person I am. "	0
   	 2017-05-05 07:17:57 	" I was a new reader like two years ago, I used books to help me get my mind off a divorce I was going through. I started slow but now I'm at like a book or two a week. I got rid of my tv and home internet and I've gotten out and started doing more stuff, and I've opened my mind and yeah. 

Idk, read to read, don't try to reach a goal if you're just wanting to read. Though lol I read 3 books in the past 4 days and it did make me smile a bit :) "	0
   	 2017-05-05 07:22:03 	" Joe Hill wrote a book called The Fireman.

I'm not really sure what it's about. "	0
   	 2017-05-05 18:01:41 	" I liked how they built the guy up to be this big mythical creature and turns out he's and old withering dying dude.

I feel that it was important for the story to show that even legends can die and I think it parallels with the story, because the story gets you all pumped and then when you meet him there's almost a small disappointment, just like the main character felt. 

Also I enjoy how book shows how someone can just completely lose themselves and take a back seat from the real world. "	0
 So...The Road was a pretty ok book 	 2017-05-06 09:05:36 	" I don't if it's because I saw the movie first or what not, but I felt it was just ok. I don't know if there's something I'm missing, but it was enjoyable, just not this superb masterful work which I was going in expecting. I feel that he's like Hemingway with kinda short to the point stuff, which I suppose is a good thing, but McCarty being one of the top American authors right now, I think I was wanting...a bit more. Though it could just be The Road, I've got All The Pretty Horses on my shelf that I'll read sometime soon and then Blood Meridian when I get a chance to pick it up. 

But it reminds me of The Old Man and The Sea, another Pulitzer prize winner, and another book I went into with high hopes, and another book I felt kinda let down after. Maybe I'm just not smart enough to understand what makes either masterpieces. "	0
 Friends movie, not a real thing, but still fun 	 2017-05-06 18:49:41 	  	0
   	 2017-05-06 19:08:10 	 Airheads 	0
   	 2017-05-06 20:00:32 	" I loved this story so much, I've been trying to find in an actual paperback form but can't since it's usually included in compilations of stuff.

I felt such despair at the end when the one guy was left as a little blob of jelly and just knew he was forever tapped to be tortured. "	0
" Since everyone is doing ""What Books"" post, I thought I'd post one. What Books do you keep procrastinating on reading? "	 2017-05-07 07:18:50 	" I think mine would be Dorian Grey and Island of Doctor Moreau. I'm not sure why I just keep pushing these back, I know both should be pretty good, but I just feel like ehhh they can wait. 

Are there any that you've put on hold for some reason? Are you going to push yourself to just finally sit and read them? Why are they on hold? What are you procrastinating for lol? "	0
   	 2017-05-07 16:41:38 	 I read that earlier this year, definitely one of my favorite books now, I try to recommend it any chance I can because it was stellar, just ignore the second epilogue though lol 	0
   	 2017-05-07 18:52:58 	 I love Moby Dick, when I finally decided to be a reader, it was my second book, it was amazing and I think of it quite often, in fact I'm probably going to re-read it sometime this year 	0
   	 2017-05-07 20:25:41 	 I had a friend suggests The Book Thief and I'm borrowing it, and I can't get into it 	0
 [WP] try your take any writing an iconic scene from a movie, the way you'd write it in novel, let's see if we can get some people trying to same scenes to see how writing differs. Example, the cliffhanging scene from Cliffhanger 	 2017-05-08 18:30:31 	  	0
 My book LPT is never look up anything about something you're interested in reading one day. 	 2017-05-09 05:50:06 	" You'll spoil it for yourself. 

This isn't even slightly a joke, I was interested in seeing what Frank Herbert had to say about Dune and watched an interview, and it wasn't even to Frank Herbert's part yet and the host told what the whole series was about, and it just ruined what was coming after book 1.

Also I looked up something about Old Man and the Sea while I was taking a break reading it, and someone's review gave away the ending I'm their first sentence. 

I was on Reddit and someone gave awww the ending to Gone Girl in their title post lol. 

Last one doesn't really come, but is still true, so have you had anything ruined by just looking up something about what you want to read? Do you have book LPTs? "	0
   	 2017-05-09 17:24:12 	" When Harry Potter was big and someone went around telling everyone Dumbledore died, people were literally crying, it kills the adventure cause you know whats going to happen. 

If you check the Game of Thrones Reddit, it's very strict on not letting people spoil stuff, I think all post have to say of they contain spoilers or not.

What about if you go to read The Wasp Factory and you find out the main character is really a ""...."" the entire time, it would have killed it for the reader.

Or when I read Flowers for Algernon, I didn't know what it was about, but if I read the synopsis or looked anything up, it would have spoiled what was going to happen, and the regression wouldn't have been as impact if I knew it was coming.   "	0
   	 2017-05-09 17:26:16 	 I wad told Piggy died and when I was reading LOTF I didn't get attached to Piggy cause I knew it was coming, if I didn't know, it would have been more impactful.  	0
