title	date	text	class
 Looking to buy 6-8 Airport Expresses.  Best site/strategy? 	 2012-02-02 00:53:54 	 I'm getting ready to hook up my house and a friend of mine's house with speakers and I wanted to use airplay to send music to each room.  I've looked at a couple of sites that said I could find the old model of Airport Express for around $30-$40, but didn't mention a good site to do so.  I've been hitting up ebay, but I forgot what a tremendous hassle that site was.  Does anybody have a recommendation as to where to find these, like maybe a bulk sales website?  Or is ebay still my best option?  Thanks! 	0
   	 2012-02-02 02:30:53 	" Thanks for the advice! I really appreciate it.  I can't wait to get this system up and running.

I did have a few questions:
*When you say ethernet connections, does that mean you have some of your Expresses actually wired to your router?  That does take away a little of the appeal of this system.  I was hoping not to have wires running all over the house.

*When you're not playing music through iTunes, do you use [Airfoil](http://rogueamoeba.com/airfoil/) or a similar program?  I've been listening to Spotify a lot lately.  Also, my roommate and I are musicians, and I didn't want to have to import all of our scratch recordings into iTunes before we listen to them.  Not a big deal, though.  Airfoil seems to be the program a lot of guides are recommending, but I wanted to get your opinion.

*Where did you end up purchasing all your units? 12 outputs sounds awesome, but really expensive if they're all new.  On the other hand, 12 hundred bucks for this much cool functionality is a bargain if you think about how complicated a setup this would be ten years ago. "	0
   	 2012-02-04 21:48:03 	" Man, thank you so much for your in depth replies.  I didn't realize I had quite a few misconceptions about how these Airport Expresses worked.

Last night I sat down and figured out which units I could wire without the cabling looking like a mess, and really the only units that I would need to be wireless would be my office and my bedroom, which I don't really think would be running at the same time very often with the other three units.  I can't really run wire through the walls to hit the office or bedroom, because this is a rental house.  

My friend's setup is going to be a lot of fun, and I can drill wherever I want.  So all the Airport Expresses/Apple TVs will be hardwired.  He's trying to modernize an old Airstream trailer and he wants gadgets hidden everywhere.  I can't wait.

I looked at my current setup, and realized that my router has a max of 150Mbits per second.  We have two laptops running off of the wifi network, and a ps3 wired to the router that usually has a netflix stream playing.

I've decided I'm going to buy the refurbished Express richunclesam was pointing out and just build up this network one at a time.  I'll probably update the router by the time I add the third one.

Have you had any luck adding printers or hard drives to your airport expresses?  "	0
   	 2012-04-29 04:42:02 	 Starship Troopers 	0
   	 2012-05-23 15:37:15 	" Was given the nickname ""Smurf"" by Danny Trejo (I had blue hair at the time).

And I accidentally got sprayed by alien dog blood on the set of Predators.  

I don't think many people can claim either of those... "	0
 Is there anything equivalent to a virus/malware scanner for websites I own?  Plus I need a bit of help... 	 2012-06-07 16:54:27 	" I'm not really a programmer, but I do own quite a few websites for mine and my friend's bands.  They're pretty low maintenance; I usually just install a content management system for them and try to help out if they run into problems.

Recently, one of the bands told me they started getting virus/malware alerts from their browser whenever they visited their site [Stuttermilk.com](http://stuttermilk.com).  I haven't been able to recreate what they were going through.  Does anybody here get a warning when they visit the site?

It got me thinking that I don't visit a lot of my sites often, since it's really only a hobby, there aren't usually many updates to any of the sites and I work 70 hour weeks at my full time job.  Is there an online service that could automatically scan my websites and check for problems, like hijackings and such?

I wasn't sure where to post this, if there's a better subreddit or website for questions like these, let me know.  Thanks! "	0
   	 2012-07-27 14:26:21 	" A few years ago, I was hired to direct the pilot episode of a children's game show. The shoot went great, and there was a lot of promise for the show, like interest from PBS, Nickelodeon, etc.  I had never met the Executive Producer (who put up all the money for the show)  before, but his daughter was a child actor in town who I had worked with before, and he was a volunteer fire fighter, so I thought he was a pretty stand up dude.  

Until we were almost finished with the edit and I got a text from one of the producers to go look at the newspaper. Bam. He had been busted for having a ton of kiddie porn on his computer. 

Apparently he had funded the pilot with money embezzled from the volunteer fire department too. So, you know, double scum. 

Coda: One of the biggest, best projects I've had the chance to direct, and I can't put it on my rsum. Damn.  "	0
 I'm looking for a rugged e-cig that can stand up to a day of working outside. Suggestions? 	 2012-09-02 22:40:09 	 I'm trying out e-cigs again after going back to analogues for a few years. I work outside carrying heavy equipment, and the last time I tried e-cigs, they broke in my pocket. Either the batteries would die from getting sweat in it (I think) or they would snap in my pocket. I'm hoping the technology has improved and they'll hold up a bit better. Any thoughts? If not a more durable e-cig, maybe we could talk about the how you guys carry them when you're out and about... 	0
   	 2012-09-02 23:26:23 	 Wow, that looks awesome!  Pricey, but I'm sure it's worth it.  What kind of atomizer or cartomizer do you use? 	0
   	 2012-09-02 23:29:14 	 What is the BAM? 	0
 Ego Twist owners: how do you carry yours throughout the day? 	 2012-09-07 06:09:19 	 I just got an ego twist and a handful of clearos, and I'm wondering how to carry it around. It seems like it would snap in half instantly if i just had it in my jeans pocket  I was thinking about getting a metal cigar tube, but I wanted to hear what ideas you guys had.   	0
 Does anyone know where to buy a VV e-pipe?  If not, maybe just a good e-pipe recommendation... 	 2012-09-20 02:01:08 	 The guys at work smoke pipes at work after lunch, and now that I've quit smoking,  (Two weeks! Thanks to you guys!) I feel a bit left out. Ideally I could find something with variable voltage that would work with all of the ego threaded things I have. 	0
   	 2012-09-20 22:35:43 	 How much does it cost to commission a pipe from him?  It didn't look like he had anything in stock 	0
   	 2012-11-13 20:19:40 	 Man, that's exactly what I was looking for when I was shopping for my current bike. Looks great! 	0
   	 2012-12-21 09:30:22 	 My good friend was the one fatality. We had drinks in his honor tonight at the Liberty. I can't describe how devastating this is.  	0
   	 2012-12-29 22:55:30 	 Oh, cool!  Was he a camera operator, a director, or something else? 	0
   	 2013-02-04 18:38:08 	 Why transgenderism?  I haven't heard any controversy about that 	0
   	 2013-07-14 17:34:01 	 A three month motorcycle trip through Asia. Still planning everything out, but I've started working 75 hour weeks at my job and saving everything I can.  	0
   	 2013-08-16 22:33:56 	 D. I. T. ? 	0
   	 2013-09-30 07:03:48 	" I just got a new bike, a 2014 bmw 800 gs. Work's been crazy, so I haven't had too much time on it. Hoping to change that soon!

 http://imgur.com/rt4flDd

Here's my old bike, an 86 honda shadow

 http://imgur.com/7NA48cr 

 "	0
   	 2013-10-20 03:35:25 	" I love it. Tested it against the Triumph Tiger 800, which has much more torque. I liked the ergonomics of the gs better, plus it comes with a lot of nice little features. I haven't taken it too far off road cause I wanted it to be nice and shiny for at least a few weeks, but it's been great on the few rough dirt roads I've taken it on. Feeling good about its capabilities, and I can't wait to test it out on some rough stuff

Went on my first bigger trip with it recently out to New Mexico and West Texas, rode about 300 miles a day for 5 days, including riding through that huge thunderstorm last weekend for 7 hours. It rides great, really comfortable. The ABS saved my butt a couple of times, and the heated handlebars are awesome. Handled everything I threw at it

http://i.imgur.com/rbM4Ro3.jpg
http://i.imgur.com/mA80SCE.jpg
http://i.imgur.com/DXct2Ir.jpg "	0
 Looking for a moving light that can replace Jo Lekos for a show 	 2014-01-24 01:21:20 	" I'm the board op for a tv show that uses a lot of Lekos fitted with 800w HMI globes. A lot of times we send out guys up in 135' man lifts with 4 or 5 of them for our night scenes. The weathers particularly brutal today and I hate that we have to send guys up in the air in the freezing rain just to operate them for 8 hours at a time. 

Surely there's a moving light with equivalent output that we could send up instead that I could operate from my board.  I come from the film world and don't know a lot about moving fixtures so any suggestions would be welcome. I'd need to be able to shutter in the beam, change the focus and intensity, and ideally I could zoom and iris in and out.  It's also needs to be close to the intensity of an 800w HMI.

Anybody have any ideas?  Or at least an idea of where to look? You'd be making the lives of some poor shivering kids much more comfortable! "	0
   	 2014-01-24 06:20:44 	 Well, the way we were gonna frame it is that, while we don't need a guy in the condor in those days, the rigging is more complex to get the movers onto the bottom of the condor basket and we could use the extra hands. It is a concern, though.  	0
   	 2014-03-17 18:07:15 	 Same here. I'm on a TV show and we've done 7 straight months of 70-80 hour weeks. I'm ready to get out, but the skills I've learned don't exactly translate to other industries, so I'll kinda be starting from scratch. It sucks, because I love the actual job, but the hours are inhumane.  	0
 Had plenty of time to enjoy the beautiful view in Moab! 	 2014-05-03 03:46:04 	  	0
   	 2014-05-03 03:50:22 	" A closer view of the bike: http://imgur.com/1wGBRyJ

Hit a patch of gravel at just the wrong time in the middle of a switchback. Bailed just in time to see my fairly new 800 gs slide across the gravel and off a cliff. I walked away, the bike made it out okay with some nice battle scars, so not too bad. I was back on the trails in two days  "	0
   	 2014-05-03 06:49:01 	" Bonus album full of pics from better times on the trip (including the aftermath)

http://imgur.com/a/uKrko "	0
   	 2014-05-03 06:52:02 	 It's absolutely incredible out here. We're on a big road trip, and we found ourselves adding a lot of days here just to take in all the sights and trails. We leave for Breckinridge tomorrow.  	0
   	 2014-05-03 17:12:51 	 Couple of bruises, nothing bad. The Gopro footage is crazy! I'd post the video, but I'm still on the road with no computer 	0
   	 2014-05-03 22:18:32 	 Helmet's fine, I bailed at just the right time. Half a second later and I'd have been in the same tree!  Watched a little of the gopro footage, my face when I realized it was still rolling is priceless! 	0
 I'm planning a motorcycle trip across Vietnam for all of September. How badly am I going to be affected by the rainy season? 	 2014-08-11 06:06:56 	" This is the beginning of a six month trip I'm taking across SE Asia. I wanted to start in Hanoi, spend some time in the north, then head into Laos and travel the Mekong river (roughly) and end up in HCMC by the end of September. 

I was supposed to start in June, but life kinda got in the way so I had to push it to September. I know it's not an ideal time to go, but is it bad enough that I should spend September somewhere else?

Thanks a ton to anybody that responds; I haven't had as much time to plan as I was hoping, so I get the feeling I'll be asking you guys a lot of questions in the next month! "	0
   	 2014-09-01 21:34:23 	" Here are two older instruments that are kinda similar:

The Foto Player: http://youtu.be/U0JZszqC7mk  (featuring the ever-excitable Huell Howser!)

Hupfeld Phonoliszt Violina: http://youtu.be/oQMhFJ14hik
 "	0
   	 2014-10-01 18:45:16 	 Well, like Black Panther, but with a transparent suit... 	0
   	 2014-10-17 02:28:09 	 I fly in today and I'm totally down. Nothing like a couple of drinks to chase away the jet lag! 	0
 Need a bit of advice on getting something shipped to HCMC 	 2014-12-01 14:53:41 	" I'm traveling across SE Asia for 6 months and I saw this ( http://www.ravpower.com/ravpower-rp-wd01-filehub-3000mah-power-bank.html ) on a r/gadgets thread. Seems like it would be handy, seeing how dumping footage off of my gopro has been a hassle during the first two months through Vietnam.

 In a few days I'll be in the HCMC area  for about two weeks and I was wondering how Amazon works over here, where I can ship it to (I don't have anywhere booked yet, kinda winging this whole trip), or if anyone's seen something similar to this. 

Just a couple other miscellaneous questions to throw in:
 Is there a Facebook group for HCMC Traveller's/expats? Hanoi Massive was super helpful while I was up north. 

Anyone know where to get a decent waterproof backpack cover? I lost mine somewhere in Da Lat

Anyone wanna drink a couple dozen Ba hoys this week with an utterly lost Texan? I'll be the guy with the oil gushing out of the beat up Honda Win

Edit: Damnit! I just saw the other delivery thread that was just posted, my bad. Still, maybe somebody has some ideas about this thing, specifically.  "	0
   	 2014-12-01 17:12:49 	" Cool, thanks for the advice!

Here's my situation. Sorry that it's pretty wordy:

Right now, in terms of electronics, I have a gopro, a dslr, a portable USB hard drive and an iPhone. What I've been doing up until this point is transferring the pictures and footage from the cameras to the phone via the cameras' built in ""wifi hotspot"" mode, then backing up to Google Drive over the hotel's wifi, but it's problematic.
 
The gopro takes hours to wirelessly transmit footage, the dslr only transmits lower resolution photos, and the Google Drive is entirely dependent on how good the hotel's wifi is, which can vary quite a bit. I've used internet shops to transfer the SD cards to my hard drive, which works out fine, but I'd rather do this boring junk from my hotel room so I can spend my daylight hours exploring.

I started looking for cheap tablets that can do this sorta stuff, and that might be the best option in the end, but when I came across the Filehub, it seemed like the perfect cheap solution. It lets you connect SD cards to portable hard drives and you copy the files over with a File Management app. It's tiny and cheap (I'm operating on a filthy backpacker scum budget), and it has some nice bonus features, like media streaming and, on the latest model ( http://www.ravpower.com/ravpower-rp-wd01-filehub-3000mah-power-bank.html ) you can hook it up to ethernet and make your own hotspot. Would have been helpful in a couple spots. 

TL;dr: I should just suck it up and buy a tablet.  "	0
   	 2014-12-01 17:14:29 	 Cool, thanks! 	0
   	 2014-12-01 17:33:35 	 I kinda figured. I'll be heading to Cambodia next, then Laos, and I'll get to Thailand around February.  I was hoping to get this thing sooner, but I'm guessing Cambodia and Laos would be even more difficult in terms of shipping things to myself.  	0
   	 2014-12-11 04:36:48 	 Geez, this is such a sad story. Nobody should have to go through that. I'm glad you got out of there and that you're doing better.  	0
 Rode into Phnom Penh from Vietnam on a Honda Win. Considering switching to a dirt bike. Any advice? 	 2014-12-29 10:25:27 	" Hello!
I'm in the middle of a six month solo motorcycle trip across SE Asia. So far I've gone from Hanoi, down to Ho Chi Minh, and across to Phnom Penh. I tried going into Laos earlier in the trip, but got denied at the border multiple times, with the guards saying that there is a new law forbidding foreigners into Laos on Vietnamese bikes. 

I'm hoping a Cambodian registered bike will be a little easier to get into Laos, and it would be nice to upgrade from 125 cc's anyway, so I wanted to sell the Win here and upgrade. Has anyone here done this? Any good places or websites I should look at for decently priced, used dirt bikes? Ideally, it would be along the line of a Honda CR 250 for under $800. Any good spots to sell a Win with Viet plates and registration?

Thanks!

PS: is there a Facebook group for expat/travelers in Phnom Penh? Hanoi Massive and Saigon Expats groups were extremely useful when I was in Vietnam "	0
   	 2015-04-15 08:40:14 	 I was confused when I first read it, but the article's saying that the data will be returned to earth, not the probe.  	0
   	 2015-06-05 11:41:20 	" I'm in Cambodia, trying to make the limited equipment I have available work for me.  I wasn't expecting to work on this trip, but I got sucked into a project with my editing laptop back in Texas.  My question:

I bought a laptop where the internal drive has two partitions. Looks like it's 5400 rpm.  Right now, I have Premiere on one partition and my raw footage on the other.  I also have a USB 3 drive that's 5400 rpm that I'm using as a backup.

Is it better to have my raw footage on the same disk but different partition as my OS and Premiere, or should I be working off of the USB drive and use the other partition as a backup?  I'm also doing some light After Effects work, if that matters. "	0
   	 2015-06-05 20:59:32 	 Thanks! That's what I kind of figured. It's been a nightmare keeping healthy backups of everything!  Lots of no name brand or fake brand name hard drives; I'm gonna try to make it to Phnom Penh next week and get some better drives, maybe replace the internal if I can.  	0
 Need suggestions for double feature nights 	 2015-07-22 10:03:23 	 I run a bar in Cambodia, and each night we screen two movies on our back wall.  I've been trying to keep the movies tied together with a common theme, whether it was Dan Akroyd Night (Ghostbusters and the Blues Brothers) to Real Life Infamous Violent Criminal Night (Chopper and Bronson).  Tonight's Music Mockumentary Night (Spinal Tap and Fear of a Black Hat).  I was wondering what you guys would pick for a theme and what movies! 	0
