title	date	text	class
   	 2015-01-30 00:40:54 	 In sex scenes when they 'finish' and they get up and carry like there's no semen trickling down the woman's leg.  	0
   	 2015-01-30 09:13:18 	 A lot of Runescape. 'Going Wildy' 	0
   	 2015-01-30 10:31:45 	 My brother is 18 years younger than me. When he was 6 he asked me why, when he was cuddling his teddy, did his 'willy not stay floppy'.  	0
   	 2015-01-30 10:35:09 	 'MURICA 	0
   	 2015-01-30 13:24:39 	 Getting food in different clothing  	0
   	 2015-01-30 13:27:35 	" 'You study law? You'll be useful to keep around' 

Oh my god! So original! Never heard that in my two years of study!  "	0
   	 2015-01-30 13:29:46 	" 'He's 24 months' 

Your child is 2.  "	0
   	 2015-01-30 17:41:17 	 Old people. They have more memories, more jokes, and more life lessons.  	0
 Someone caption this please 	 2015-02-01 11:37:45 	  	0
   	 2015-02-02 19:15:23 	" Giraffes - 

I've never seen a giraffe, I never want to see a giraffe. They just terrify me. They're colossal, their neck weighs the same as a small car, they have the ability to kill a pride of lions, they also have a 20inch tongue.  "	0
   	 2015-02-02 19:16:32 	 Reddit.  	0
   	 2015-02-02 19:19:19 	" I visited Marrakech in the summer (amazing place) and I heard somewhere that the people begging for food will hoard it. 

There is, I accept, a large amount of poverty in Marrakech but I hear that even families who aren't living in poverty will beg for food. Apparently it's some kind of trophy or achievement. Pizza must be high on their list.   "	0
   	 2015-02-03 01:27:27 	" Getting lost in a foreign country, at night, when you can't speak the language, and have no money. 

EDIT: A story my friend told me was when she was in Mallorca she got so lost and drunk that she was nearly 5 miles from her hotel. Ended up having to sell her sunglasses to afford a taxi back.  "	0
   	 2015-02-03 01:31:18 	" /r/geocaching. 

It's free, fun, gets you outside and there's 2000000 to collect.  "	0
   	 2015-02-03 10:18:56 	 Can you elaborate? 	0
   	 2015-02-03 10:19:26 	 Definitely.  	0
   	 2015-02-03 10:32:56 	" Piblings: gender neutral term to describe one's Uncle and Aunt. Your parent's siblings

'I spent the weekend at my Pibling's' "	0
   	 2015-02-03 11:15:36 	 Rekt 	0
   	 2015-02-03 12:04:01 	 I was expecting a 8 minute long compilation video. Disappointment turned into joy once the ambient music set it.  	0
   	 2015-02-03 15:37:29 	" Jersey Shore. 

Actually, any of the 'Shore' related genre.  "	0
   	 2015-02-03 15:42:39 	" Not something I have to deal with but TEACHERS please check the videos audio is on and that it is going to play. 

Oh and for the sake of our sanity make it full screen. 


AND MOVE THE MOUSE OFF THE SCREEN.  "	0
   	 2015-02-03 21:14:48 	 That is some tremendous initiative from a 14 year old.  	0
   	 2015-02-03 21:50:48 	 Oh stop it you 	0
   	 2015-02-04 01:04:54 	" Kevin at our school lived on a farm. On his last day he arrived in a 4x4 with 3 live pigs in the back. One had the number '1' painted on the back the other two pigs had '2' and '4' on theirs. 

He let them loose around school. There was much confusion as to where the 3rd pig was.  "	0
   	 2015-02-04 01:13:50 	 Does the bear finger the Pope's shitty ass before he cums in the woods?  	0
   	 2015-02-04 01:22:01 	 Is the fly the pope? 	0
   	 2015-02-04 12:16:14 	" My friend had to explain to his teacher that his dog actually DID eat his homework. He even brought a note from home. 

It read: 'Last Thursday night as Sam was sitting down to start his art home work, he found that our dog had someone gained access to his school bag and obliterated most of his work.

Signed X' "	0
 What would be the worst News Headline to wake up to? 	 2015-02-05 22:48:38 	  	0
   	 2015-02-07 10:27:01 	 Telling someone they're sat in your reserved seat.  	0
   	 2015-02-13 12:21:51 	" What happens if you start up a drone IN a no fly zone?
 "	0
 The human has no power 	 2015-02-14 01:33:40 	  	0
   	 2015-02-14 01:39:44 	" ""Aargh! This makes me want to kill myself!""

No it does not.  "	0
   	 2015-02-16 21:35:14 	 Birth control.  	0
   	 2015-02-16 21:37:41 	" Geocaching! 

I'm literally addicted to going outside and ferreting around like a 7 year old doing a treasure hunt.  "	0
   	 2015-02-17 11:39:02 	" Whenever we go for drinks I always set my drink down in front of her and keep hers. 

It's hilarious every time.  "	0
   	 2015-02-17 20:11:51 	 Surveys. Loads and loads of surveys. 	0
   	 2015-02-24 00:10:22 	 r/writingprompts 	0
   	 2015-02-24 01:12:06 	 Dressing up!  	0
   	 2015-02-26 17:07:55 	 Melon makes your semen taste nice.  	0
 What's your best drunk story? 	 2015-02-28 18:41:08 	  	0
 People who have been homeless, what's the most helpful thing I can do for the homeless I pass everyday? 	 2015-02-28 18:53:28 	  	0
   	 2015-02-28 23:45:33 	 Did you speak to her after that?  	0
   	 2015-03-02 16:53:14 	 Can someone please tell me, why didn't Daryl have to turn in his crossbow? 	0
   	 2015-03-02 17:14:04 	" Ah yes I guess. I presumed they'd just taken the knives from the kitchen in their houses. 

Seems ironic they made them give up their guns when a large majority of their kills are from knives or other random objects.  "	0
   	 2015-03-03 12:25:24 	 I had never seen a stair lift in action, I am unbelievably satisfied.  	0
   	 2015-03-04 01:11:55 	 I thought they were protecting one another from each other by handing in the guns inside the walls.  	0
   	 2015-03-04 01:46:16 	 How are they so satisfying?! I'm mesmerised.  	0
 Geocoin on its way from Canada to Germany. (Currently in UK) 	 2015-03-08 19:01:07 	  	0
 Geocaching in the UK is an adventure. 	 2015-03-08 19:52:07 	  	0
   	 2015-03-09 09:19:13 	 GC1QDBW 	0
   	 2015-03-09 09:19:57 	 This one is actually on White Edge. You do have a great view of Stanage from it though.  	0
   	 2015-03-09 09:20:18 	 Yup, White Edge. Beautiful area.  	0
   	 2015-03-09 09:21:34 	 Fascinating.  The only ones I've ever been to have been easily accessible, this has been the most challenging one. I'm going to London next weekend; do you have the GC.  	0
   	 2015-03-09 12:47:53 	 When do they lose the second head?  	0
   	 2015-03-11 01:16:40 	 Lawyer.  	0
 Rockstar's new matchmaking... 	 2015-03-11 20:05:16 	  	0
 Rockstar's matchmaking 	 2015-03-11 20:31:20 	  	0
   	 2015-03-11 22:03:20 	 Any luck?  	0
 Why can't we swim with our eyes open? 	 2015-03-15 10:44:51 	  	0
 Add themavia on PS3. Need heist members! 	 2015-03-17 09:46:29 	  	0
   	 2015-03-17 09:48:50 	 Add themavia. I've done fleeca job but will help you if you can give us a hand with the rest of them?  	0
   	 2015-03-17 10:45:01 	 Sound. I've got uni till 3 GMT but can play after that. Do you have Skype? Cause I don't have a mic.  	0
   	 2015-03-18 14:11:00 	 *tossing* 	0
 Who is James Franco? 	 2015-03-18 21:46:27 	  	0
   	 2015-03-19 00:23:28 	" I too wish more people could see this 
 "	0
   	 2015-03-25 02:10:59 	 It is much funnier posted in this order.  	0
 First beer bong 	 2015-03-25 02:14:02 	  	0
 Wind on a lake. 	 2015-03-28 19:54:01 	  	0
   	 2015-04-01 01:20:37 	 /u/JustinMagill *JamesMcGill* 	0
   	 2015-04-07 14:01:40 	 Thought the kid at the beginning was Walter Jr.   	0
 Netflix humour 	 2015-04-10 10:53:40 	  	0
   	 2015-04-10 10:59:27 	 Oceans Eleven?  	0
 (UK) Undergraduate Lawyer needs help 	 2015-04-10 14:06:49 	" I'm currently a second year law student plodding my way through my degree. 

I know that I want to do my Law Practicing Course (LPC) once I finish my three years and then move onto a training contract. But, I also want a year out to live in News Zealand. 

Would I be best having a year out and then do my LPC which would hopefully be funded through a training contract? Or would I be best doing my LPC straight away after these 3 years and then have a year out and then go onto a training contract? The downside to the latter is that I would have to fund the 10,000 LPC myself. 

How common is it that training contracts fund LPCs? 

Any help/comments/sharing of own experiences would be great. 


(Also posting to /r/uklaw (can anyone recommend a better subreddit)) "	0
 (UK) Undergraduate Lawyer needs help 	 2015-04-10 14:18:25 	" I'm currently a second year law student plodding my way through my degree. 

I know that I want to do my Law Practicing Course (LPC) once I finish my three years and then move onto a training contract. But, I also want a year out to live in News Zealand. 

Would I be best having a year out and then do my LPC which would hopefully be funded through a training contract? Or would I be best doing my LPC straight away after these 3 years and then have a year out and then go onto a training contract? The downside to the latter is that I would have to fund the 10,000 LPC myself. 

How common is it that training contracts fund LPCs? 

Any help/comments/sharing of own experiences would be great. 


(Also posting to /r/needadvice (can anyone recommend a better subreddit)) "	0
   	 2015-04-10 15:23:27 	" It's a lovely idea but I'm already sorted housing wise for next year and it sadly isn't practical for me to just hop countries for a year. 

Thanks for your reply though.  "	0
   	 2015-04-10 15:50:57 	 Touching the void?  	0
   	 2015-04-10 17:20:39 	 Thanks, did you get your LPC funded by a training contract? Is it common for it to be funded by the training contract?  	0
   	 2015-04-11 10:36:19 	 Thanks this has been a great insight! 	0
   	 2015-04-12 09:57:49 	 Thanks for this response I think I will apply in 3rd year for training contracts with my LPC funded. I had gotten so caught up in thinking about what I would do when I finished 3rd year that I had forgotten that I'd receive help applying etc in my third year.  	0
   	 2015-04-14 10:38:43 	  The Family? 	0
 Thailand's do's and dont's 	 2015-04-15 02:50:52 	  	0
 My sister's writing is mirrored. Any ideas? 	 2015-04-15 23:17:47 	  	0
   	 2015-04-18 11:26:53 	 Passion Of The Christ 	0
 25 Dabs in a row 	 2015-04-24 14:40:34 	  	0
   	 2015-04-25 08:55:54 	 I only watched the video because I was hoping for a big thunderous fart.  	0
 Staff introduces axe-wielding robber to the floor. 	 2015-04-25 10:19:51 	  	0
 The view outside Wembley 2014. 	 2015-05-01 11:37:19 	  	0
   	 2015-05-01 12:38:47 	" It was **epic** I had goose bumps throughout. They were just wearing off then Dre came and I nearly fell over with excitement. 

Yeah that is a shame. I was pretty close to the front but it would be cool to see all the angles.  "	0
   	 2015-05-01 20:35:41 	 Just thought I'd add my experience from the day. I had to get a 6am train and when I was waiting for the train 200 miles away I checked Twitter and there were already people queueing outside. After he finished it was like something out of an apocalypse, everyone flooding out of that stadium!  	0
   	 2015-05-01 20:37:00 	 I'll drink to that! 	0
 Panoramas are fun. 	 2015-05-02 08:47:17 	  	0
 Just found my 3 year old sister like this. 	 2015-05-03 16:08:56 	  	0
   	 2015-05-06 13:48:47 	 Looper? 	0
   	 2015-05-15 02:21:17 	 Expendables?  	0
   	 2015-05-16 20:54:24 	 1-99 Hunter tips please 	0
   	 2015-05-17 02:11:59 	 I'm a lifeguard. Weekly someone has to jump in to grab a kid who's lost their balance. Most of the time we just get in a help with the lesson.  	0
   	 2015-05-17 14:00:37 	 It's funny seeing how shocked the kid is when you pick them up and they see a drenched fully clothed man next to them. It's always nice how thankful the parents are too.  	0
   	 2015-06-29 07:42:58 	" Potatis 
 "	0
 ELI5: How many trees do we need? 	 2015-07-16 14:26:30 	" Besides the fact that large forests are aesthetically pleasing and provide wood etc for use; how many trees would we need to survive in relation to the amount of oxygen they provide? 

Is there a way to work this out? 
How much oxygen is already in the atmosphere which would need to be used first before we were surviving off x number of trees? "	0
   	 2015-07-16 14:39:19 	 So if we say there are ~7bn people in the world we need ~49bn trees? 	0
   	 2015-07-16 14:43:56 	 If the world's population moved to Texas it would have the same population density as NYC 	0
   	 2015-07-16 14:45:19 	 There are more combinations a deck of cards can be in that there are seconds since the Big Bang.  	0
   	 2015-07-18 06:43:37 	 Giggidy 	0
 Cheap for a baby 	 2015-07-22 13:02:32 	  	0
