title	date	text	class
   	 2014-05-18 01:32:05 	" Sherlock - Benedict Cumberbatch and Martin Freeman are awesome! A 2 year gap between seasons is far too long though.
 "	1
   	 2014-11-16 12:18:38 	 Yikes! You're ridiculously hot and in my humble honest opinion - heads and shoulders above the rest of the boys on here ;P Keep on keeping on :)  	1
   	 2014-11-21 09:30:28 	 If only I could figure out how to clone you....I'd make a fortune :) 	1
 If you could go back in time for only one hour to relive just one particular moment from your past, what would you do/not do? 	 2014-11-28 12:20:21 	  	1
   	 2014-11-28 13:28:45 	 Did they work? 	1
   	 2014-11-28 13:29:04 	 Were you guys able to recover from it? 	1
 What's a question you are too embarrassed to ask but really, really want to know the answer to? 	 2014-11-28 13:39:16 	  	1
   	 2014-11-28 20:30:44 	 You ABSOLUTELY need to give it a shot before you move away! Good Luck! 	1
   	 2014-11-28 21:17:39 	 A Beef Wellington would impress me! 	1
   	 2014-11-28 21:42:46 	 Good luck!! :) 	1
   	 2014-11-28 21:43:37 	 Bacon. 	1
   	 2014-11-28 21:52:27 	 Not seeking professional help when I first needed it, instead I've wasted years going through periods of depression and self-loathing - not realising that I was the reason for my own unhappiness.  	1
   	 2014-11-28 22:03:03 	 People who don't know how to queue and try to cut the line or stand beside you instead of behind you. 	1
   	 2014-11-28 22:12:28 	" I'm from New Zealand - my impressions of the following states:

Texas - Steak all day everyday
Florida - Key Lime Pie
Louisiana - Creole shrimp, okra and collard greens
Maine - Clam Chowder
NYC - Street vendor hot dogs
Hawaii- Spam
Illinois - Deep dish Pizza

 "	1
   	 2014-11-28 22:25:43 	 It's the simple things in life for me, I'm trying to appreciate what I have and concentrate my energy on the things I enjoy the most in order to find my own inner happiness and contentment. My biggest problem I'm trying to work on is to continue to work towards issues within my circle of influence rather than factors that I have no control over (circle of concern). 	1
   	 2014-11-28 22:51:04 	" Up until the beginning of this year I had been friends with this person for 11 years since our uni days. In hindsight, it was a toxic friendship - I had to constantly walk on eggshells for fear of pissing him off, he constantly had tantrums, was very calculative and he only helped others if it benefited him. Everyone was scared to stand up to him because we didn't want to rock the boat. 

After coming home from a road trip with a group of friends to celebrate my birthday I spoke to a mutual friend about how hurt I was that this friend constantly sulked, got angry and even gave me the silent treatment for a couple of hours. This ""friend"" had told me on my birthday that when friends piss him off, he likes to make them feel like shit. That was the last straw for me, that's not what friendship is about. 
This mutual friend told this guy what I had said and obviously this ""friend"" of mine was royally pissed and started ignoring me while trying to gather a merry band of idiots to turn against me as well. He managed to turn another friend I had known for 11 years against me but was unsuccessful with the others. (We're all in our late to early 30s)

We never patched things up, I was very upset about it all for months but then I started realising that I was finally free of this toxic influence in my life and I could now enjoy the friendships I choose to nurture. It's not about how long you've known the person, it's about the kind of influence they have that matters for example, whether they're positive and supportive people. It's still very awkward when our original group gets together but it's OK, I'm spending most of my time now with wonderful amazing friends. "	1
   	 2014-11-29 13:37:06 	 My ex used to do the same thing except he would ask me to wash and dry his outfit for him!! 	1
   	 2014-12-04 11:12:31 	 Making sure my vag doesn't appear to be munching on my pants in a hungry fashion aka cameltoe 	1
 What's the one thing you remember the most about your first love? 	 2014-12-05 11:19:14 	  	1
   	 2014-12-05 11:24:58 	 Mine had a great laugh. 	1
   	 2014-12-05 11:25:50 	 sorry!! 	1
   	 2014-12-05 11:39:36 	 Alarm clock 	1
   	 2014-12-05 11:42:07 	 A know it all with no integrity and a sense of entitlement 	1
   	 2014-12-05 11:43:45 	 Crime and Guilt - Ferdinand von Schirach... :S 	1
   	 2014-12-05 11:55:58 	 Not weird at all! I can completely relate. 	1
   	 2014-12-05 11:56:30 	 care to elaborate? 	1
   	 2014-12-16 11:17:51 	 Attractive guys crying and watching Transformers...that Optimus Prime... 	1
   	 2014-12-16 11:20:51 	 My mother stood up for my eldest bro when he didn't want to do a blood test to see if he was a bonemarrow match when I was severely ill and needing a bonemarrow transplant...her reasoning - he doesn't want to take time off work.  	1
   	 2014-12-16 11:22:42 	 Unconditional love and support from true friends...and BACON 	1
   	 2014-12-16 11:28:15 	 When I was 23 I was diagnosed with severe Aplastic Anemia (rapid depletion of red and white blood cells as well as platelets) the same thing Marie Curie died of. I was given a pamphlet after my diagnosis that stated 80% of people diagnosed who do not receive treatment die within a year.  	1
   	 2014-12-16 11:28:59 	 Taylor Hanson. Yes. 	1
 How has internet dating worked out for you? 	 2014-12-16 11:50:04 	  	1
   	 2014-12-16 11:59:08 	 Congrats to you both! 	1
   	 2014-12-16 11:59:15 	 Good work! 	1
 What non-subtle signs do you use to show your interest when pursuing someone? 	 2014-12-16 12:00:16 	  	1
   	 2014-12-16 12:04:08 	 No beating around the bush - I like it! 	1
   	 2014-12-16 12:12:02 	 Awesome!! Congrats :) 	1
 What were you thinking when you decided to send that dick pic? NSFW 	 2014-12-16 12:20:24 	 Receivers - what were you really thinking when you got them? 	1
   	 2014-12-16 12:28:45 	 You interpreted the question just fine. Your comment still stands. 	1
   	 2014-12-16 12:46:10 	 Room for one more?? :( 	1
   	 2014-12-17 01:33:37 	 Lonely Hearts Club 	1
   	 2014-12-17 02:58:52 	 Does anyone have any home remedies that actually work to cure a stubborn cold? 	1
   	 2014-12-17 03:52:26 	 Thanks for the advice!! :) 	1
   	 2014-12-17 12:34:32 	 8 years ago I applied for a retail job selling handbags, the store manager told me that there was a promising second in charge role opening in the next few months and because of my experience he had worked hard to negotiate with HR so that I could be paid an additional 10 cents per hour...the pay would have come to $10.20 per hour. I appreciate his efforts but it made the company sound a bit too thrifty. 	1
   	 2014-12-17 12:35:06 	 Carpet Bag Steak 	1
   	 2014-12-17 12:48:35 	" Mr. Burns: Smithers, are they boo-ing me? 
Smithers: Uh...no. They're saying boo-URNS, boo-URNS  "	1
   	 2014-12-17 12:50:22 	 The day after your period ends...FREEDOM!! 	1
   	 2014-12-17 12:54:04 	 Had a coughing fit while bending over my bathroom sink, the angle I was standing at made my back seize up and I ended up damaging the sciatic nerve that runs down my leg and into my foot which meant my left foot was numb for about 3 months. 	1
   	 2014-12-17 13:01:50 	 Bacon 	1
   	 2014-12-17 13:05:11 	 Want You Bad - The Offspring 	1
   	 2014-12-17 13:20:13 	 Lunchtime. 	1
   	 2014-12-18 06:06:43 	 Hmm ok it's similar to when you're busting to go to the bathroom for aaagessss and that feeling when you finally go and you kind of shudder from the relief...kinda like that :) 	1
   	 2014-12-18 06:13:16 	 I heard you bleed heavily for 4-6 weeks after giving birth..is this true?? 	1
   	 2014-12-18 06:15:02 	 hahaha exactly!  	1
   	 2014-12-18 06:15:34 	 woot!  	1
   	 2014-12-19 03:51:00 	" A customer had accidentally paid her bill twice, she lets me know that she wasn't aware she had an automatic payment set up and stated that she was a busy teacher (""grappling with reports etc."") so she picked up the invoice and paid it without thinking. She suggested the ""system"" should be clearer to remind her about the automatic payment. The bill clearly states she has an automatic payment in place and that she does not need to worry about making a payment....no wonder she's grappling with those reports... "	1
   	 2014-12-19 04:53:44 	 I organised it for her, no worries there - just would have been nice to take ownership of her own error. 	1
   	 2014-12-19 04:58:19 	" That's just one that bugged me, I didn't have time to add any of my other stories. There was a time someone wasn't happy with our policies (her bill was very much overdue) she was yelling and swearing for approximately 19 mins straight and after telling her my surname (she asked) she completely lost her shit....""what kind of surname is that?"" blah blah blah and questioning whether I was ""even a New Zealander"" - that stung a little bit.  "	1
   	 2014-12-19 22:22:19 	 https://www.youtube.com/watch?v=S9eAzb-Yuzw 	1
   	 2014-12-19 22:27:55 	 just ridiculous isn't it?! 	1
   	 2014-12-19 22:36:37 	" Avengers: Age of Ultron. 

Also, excited/scared about moving to Melbourne and ""starting over"". "	1
   	 2014-12-19 22:40:14 	" Best acting performance I've seen this year - Jake Gyllenhaal in Nightcrawler.

Of all time - Christian Bale in the Machinist "	1
   	 2014-12-19 22:41:40 	 Raiden (arcade) 	1
   	 2014-12-19 22:45:10 	" Tokyo Gore Police https://www.youtube.com/watch?v=_nAAcYTCibY 
The film's only highlights were - alligator snatch and machine gun pen15 "	1
   	 2014-12-19 23:07:40 	 My immediate family. 	1
   	 2014-12-19 23:08:03 	 Going to the Auckland Art Gallery to check out the light show 	1
   	 2014-12-19 23:08:48 	 Smeared her own shit all over the toilet walls 	1
   	 2014-12-19 23:09:53 	 The kindness of strangers.  	1
   	 2014-12-20 00:02:49 	 Wow! That's pretty cool! Always wanted to try doing a past life regression session myself. 	1
 Students from Massey University (Albany campus) - are any of you still waiting for exam results? 	 2014-12-20 00:05:25 	 I'm trying to see if my mate's bro is full of shit :) 	1
   	 2014-12-20 00:11:07 	" Aye? Her automatic payment had already processed, she went ahead and made another payment through online banking because she didn't read her invoice that stated she didn't have to do anything further - we're happy to refund the second payment back but I don't see how that's our ""system's fault"" that she didn't read the information on her invoice. People have a responsibility as a consumer to read the information they are given for a product/service they subscribe to. "	1
   	 2014-12-20 00:16:55 	 Distractions, time and zero contact 	1
   	 2014-12-20 03:47:38 	 should the results be up for everyone now? 	1
   	 2014-12-20 04:38:29 	 thanks! 	1
 What are your tips for becoming an excellent Team Manager? 	 2014-12-20 17:17:08 	  	1
   	 2014-12-20 17:23:48 	" You had me at ""meat"" 🍗 "	1
   	 2014-12-20 17:31:51 	 I've been losing confidence in myself lately which makes me worried about doing a shit job, so I was hoping for advice on how to be a better leader. Thank you all for your suggestions! 	1
 You wake up tomorrow to a zombie invasion - are you going to find somewhere to stay and wait it out or will you keep on moving? 	 2014-12-23 10:22:06 	  	1
   	 2014-12-23 10:37:48 	" I was on a school camping trip and we had gone snorkeling one afternoon, our guide for the day can't have been more than 5 years older and was smoking hot. I wasn't a huge fan of breathing out of my snorkel so I was slightly panicking. When I saw from my underwater view that everyone was perched on a rock resting I was stoked. I was even more stoked to see that among all the perchers was the smoking hot guide in a wet suit that hugged all the right places. I ""accidentally on purpose"" grabbed his junk as he helped me climb up onto the rock. I was 12. "	1
   	 2014-12-23 10:39:48 	 Shaun of the Dead - great date movie that one! 	1
   	 2014-12-23 10:46:41 	 I don't visit my immediate family because they're cold and miserable people who don't care about anyone else but themselves. I wish I knew what it was like to grow up in a loving home.  	1
   	 2014-12-23 10:53:07 	 I can be quick-tempered and tactless 	1
   	 2014-12-23 11:18:52 	" haha nice!
 "	1
   	 2014-12-23 11:38:18 	 Check out this Greek restaurant - so good we ended up going twice during our road trip - http://www.costastaverna.co.nz/ 	1
   	 2014-12-24 21:30:22 	 Slumdog Millionaire 	1
   	 2014-12-24 21:32:40 	 The movie Shaun of the Dead - watched it on our first date 	1
   	 2014-12-24 21:33:28 	 Bill Murray 	1
   	 2014-12-24 21:40:08 	 Here in NZ - I don't really get why parents let their little kids walk around the mall etc. with no shoes on.  	1
   	 2014-12-24 21:43:40 	 Welfare benefit bludgers: http://www.whaleoil.co.nz/2014/12/pimping-poor-bludger-family-attacks-salvation-army/ 	1
 Does anyone know of any good cockle/pipi picking spots within a few hours drive from Auckland? 	 2014-12-25 01:31:05 	 Cockle Bay is closed for picking until April 2015 	1
   	 2014-12-25 10:02:46 	 Thanks everyone! Hope you had an awesome Xmas! 	1
   	 2014-12-25 10:13:52 	 Done. You're welcome. 	1
   	 2014-12-25 11:10:15 	 I had a PICC line inserted when I was 23 (severe aplastic anemia) right in the bend of my elbow. It was definitely a strange experience that coldness. Hope you're all good now! 	1
 [Serious] Redditors who have experienced sleep paralysis, what do you think is really happening to you? 	 2014-12-25 11:15:22 	  	1
   	 2014-12-25 11:18:53 	 Tampons and sanitary pads 	1
   	 2014-12-25 11:21:26 	" A rough looking homeless guy approached me at the bus stop in the city, I figured he would ask for spare change or a ciggie - he instead asks me ""what's a lovely girl like you doing in a dump like this"". Sweet man made my day. "	1
   	 2014-12-25 11:23:30 	 Finally completing the Bachelor degree I had been stopping and starting for the past 11 years.  	1
   	 2014-12-25 11:43:25 	 Mine are a decent size I guess so I understand that people may stare - regardless of whether I'm showing cleavage or trying to smuggle grapefruits. Don't care and not bothered, I'm proud of them! 	1
   	 2014-12-25 11:44:52 	 Making judgments/assumptions 	1
   	 2014-12-25 11:58:06 	 Consequences. Spent too much time being two-faced and a backstabber, what goes around - comes around.  	1
   	 2014-12-25 12:05:20 	 Josh. I wish I could go back in time and stop myself from screwing things up, I could have had a chance at happiness.  	1
   	 2014-12-25 12:32:47 	 It's cute - post a pic of your cat! 	1
   	 2014-12-25 22:29:45 	 Lack of confidence 	1
   	 2014-12-25 22:34:51 	 I've had lots of experiences that have made me question whether I'm experiencing terrible nightmares or if there really is something happening. I've seen things coming out of the walls, faceless shadow people standing at the foot of my bed staring at me and every single time I can see my room in absolute detail.  	1
   	 2014-12-25 22:42:44 	" My parents transferred me to a new high school when I was 14 and I absolutely hated it. I decided not to go for about a week and a half and just stayed in my room and locked the door. My parents were at work but my bro was still home and he would bang on the door and i'd hide in the closet just in case he came in. 

I had to think of elaborate ways to appear like I had gone to school so one day I decided to throw my backpack out of the window and I climbed out of my second storey bedroom window and was holding onto the window sill trying to decide whether I'd jump onto the bush below or just try to slide my way down somehow. 
Ended up realising how stupid I was being and climbed back in. "	1
   	 2014-12-26 07:42:42 	 Sounds cold but at the same time I really want to say well played!!!! 	1
 What's the most memorable conversation you've overheard from fellow passengers using public transport? 	 2014-12-26 13:22:41 	 I overheard two girls having a bitchy conversation and wondered whether anyone has any good stories about conversations they've overheard. 	1
   	 2014-12-26 13:32:14 	" “The less you respond to rude, critical, argumentative people...the more peaceful your life will become.”
― Mandy Hale "	1
   	 2014-12-26 13:37:07 	 :S I'd feel embarrassed for her and everyone involved too! 	1
   	 2014-12-26 13:56:00 	 HM 	1
   	 2014-12-26 14:03:40 	 haha more more more! 	1
   	 2014-12-26 14:16:31 	 Living in your own place filled with stuff you bought yourself. 	1
   	 2014-12-26 14:17:39 	 Penny Dreadful 	1
   	 2014-12-26 14:23:16 	 Jasmine Tridevil's three breasts - http://www.dailymail.co.uk/news/article-2766603/Meet-massage-therapist-self-proclaimed-hoaxer-claims-surgically-implanted-breast.html 	1
   	 2014-12-26 14:25:13 	 Play Simpsons Tapped Out 	1
   	 2014-12-26 14:31:47 	" We were together for 2 years and lived together for a year. I came home one day to find some of his stuff gone with a note on the table stating this was the hardest thing he's ever had to do but he has to leave and he'll call the landlord to tell her we're moving out. 

To date, my heart has not sunk as dramatically as it did that day.  "	1
   	 2014-12-26 14:35:50 	 Witty sense of humour, humility and a great smile work wonders for me! 	1
   	 2014-12-26 14:38:20 	 this is strangely appealing to me.. 	1
   	 2014-12-26 14:49:52 	" To be honest, if a guy I was into had pics of naked women as their wallpaper - I'd be nervous and intimidated because I wouldn't be able to live up to those ideals. 

In saying that, I appreciate looking at an aesthetically pleasing male body so I wouldn't want to be a hypocrite. "	1
   	 2014-12-26 14:50:51 	 Regrets. 	1
   	 2014-12-26 14:52:47 	 Great advice here - unfortunately, I learnt this the hard way due to a lot of denial on my part. 	1
   	 2014-12-26 14:55:07 	 I completely agree with you - I miss those good ol' days of being so comfortable with someone that you could do/ask weird stuff :) 	1
   	 2014-12-26 14:57:22 	 or Boston Pancake.. 	1
   	 2014-12-26 15:09:31 	 Haha great idea, I'm a girl - would this work for a guy? 	1
   	 2014-12-26 15:10:46 	" I read 2. ""My straw is yellow"" in Ralph Wiggum's voice. "	1
   	 2014-12-26 15:17:20 	 Adipocere 	1
   	 2014-12-26 15:19:03 	 Lol I'll let you know if it works! 	1
   	 2014-12-26 22:25:49 	 I hope there was an applause!!  	1
   	 2014-12-26 22:26:15 	 haha absolutely! Feel free to share more military bus stories! 	1
   	 2014-12-26 22:40:58 	" So many BS self-proclaimed feminists have tarnished the term for me personally. I recently met one who loves to ""fight the good fight"" but actually has no idea what she's fighting for/about - she just makes a whole lot of noise for attention and is a hater when other chicks aren't ""feminist"" enough. Her displays of judgement and hating on other women are sad, ironic and hypocritical.  "	1
   	 2014-12-26 22:44:23 	 Lenny? 	1
   	 2014-12-26 22:46:55 	 Naps and checking for chin whiskers. 	1
   	 2014-12-29 12:14:54 	 In the scene where Thranduil says goodbye to Legolas by gesturing to his heart and then to Legolas who reaches out - was that a typical elvish gesture? 	1
 [Serious]What's the best piece of advice you can give to someone who is turning 30? 	 2015-01-01 12:06:02 	  	1
   	 2015-01-01 13:01:00 	" I've definitely put pressure on myself because I haven't accomplished what I ""should have"" by now - glad to hear things can get better! Thanks for sharing :) "	1
   	 2015-01-01 13:05:51 	" My maternal great-grandmother had ""Lotus Feet"" - her feet were bound from when she was a little girl. Apparently she could scrub floors and run pretty surprisingly fast in those tiny shoes. A pair of her shoes is currently part of an exhibition in a London museum. "	1
 What was your biggest tattoo regret? 	 2015-01-01 21:33:08 	 Pics of tattoos gone wrong are also welcome here! 	1
   	 2015-01-01 21:38:43 	 Great advice!!! Thanks 😃 	1
   	 2015-01-01 22:01:11 	 Medium 	1
   	 2015-01-01 22:04:39 	 Ahh Ned the piemaker, hot as hell that Lee Pace 	1
   	 2015-01-01 22:08:39 	 What were you attempting to cover up? 	1
   	 2015-01-01 22:16:24 	 I have a tramp stamp too...an unintentional asymmetric butterfly. I was 16 at the time. Sadly, it's going to get pretty expensive to cover up  	1
   	 2015-01-01 22:18:49 	 Meatspin 	1
   	 2015-01-01 22:22:12 	 Hate 	1
 Have you had any psychic experiences that you still can't explain? 	 2015-01-01 22:28:37 	  	1
   	 2015-01-01 22:33:50 	 Ouch! 	1
   	 2015-01-01 23:04:28 	 Sounds like you've got the gift, thanks for sharing! :) 	1
   	 2015-01-01 23:08:52 	 Did your third cover up successfully hide the other two? 	1
   	 2015-01-01 23:14:58 	" Attempted to have phone sex when I was 13 with a boy I had a huge crush on. Unfortunately, my dad had picked up the phone downstairs, heard our conversation and started yelling. 
We had a caller ID display so he raced upstairs and proceeded to call my crush back to yell some more. My crush's dad ended up jumping on the phone and our dads yelled at each other. 

A week later I was enrolled in a girl's only school. "	1
   	 2015-01-01 23:18:25 	 Haha that's so awesome!! 	1
   	 2015-01-01 23:21:08 	 Waste of time 	1
   	 2015-01-01 23:29:49 	 Don Johnson  	1
   	 2015-01-01 23:31:23 	 He's also Thranduil  	1
   	 2015-01-02 00:00:06 	 I have a friend who went through the same thing - he rolled with it cos the guy had made him a lamb roast. 	1
   	 2015-01-02 00:01:31 	 Grats on being 9 months sober!! 	1
   	 2015-01-02 00:03:42 	 Pay it forward 	1
   	 2015-01-02 00:26:32 	 Cartwheel landing in the splits 	1
   	 2015-01-02 00:31:34 	 Sleep paralysis  	1
   	 2015-01-02 10:29:57 	 I hear that! 	1
   	 2015-01-02 10:47:08 	 Did you watch the Dead Like Me movie?? 	1
   	 2015-01-02 10:49:00 	 Me too!! Here's mine - http://imgur.com/iB9d1Af 	1
   	 2015-01-02 10:57:09 	 What are you getting? 	1
   	 2015-01-02 11:04:32 	 Such a wonderful yet heartbreaking movie 	1
   	 2015-01-02 11:14:02 	 Did anyone cry in Legends of the Fall? 	1
   	 2015-01-02 11:19:40 	" Interaction with kids/animals - makes my childbearing loins quiver with excitement when I see guys display their caring, playful nature.

And when you try to mash down a semi :) "	1
   	 2015-01-02 11:21:32 	 Salad 	1
   	 2015-01-02 11:22:27 	 Just be yourself and stop trying to please everyone. Love yourself. 	1
 Horror fiction book about a strange guy who takes a bath with a toad, has an incestuous relationship with his daughter while living on a house boat and as an old man he ends up with a young male lover who hacks him into pieces at the end of the book. 	 2015-01-02 11:39:52 	 I read this book back in the late 90s and I have never forgotten how crazy, graphic and messed up it was. It would have been in the same vein as books by Dean Koontz and Richard Laymon. 	1
   	 2015-01-02 13:29:44 	 Even though I'm not quite ready to have children right now I would like to have the option in the near future so yes, it would be very hard. I definitely wouldn't want to try and change the guy's mind if he's already made the decision, that wouldn't be fair at all!  	1
   	 2015-01-02 13:36:03 	 I saw a scene on Youtube from one of his movies, he picks up this chick with such ease and kisses her against a post or wall while her legs are wrapped around him - was sooo damn  hot! 	1
   	 2015-01-02 13:38:05 	 Oohh i'll look for it tomo, has anyone seen him in Soldier's Girl or Possession? 	1
   	 2015-01-02 21:25:55 	 Alexander Skarsgard...such a beautiful man 	1
   	 2015-01-02 23:30:32 	 You're welcome! 	1
 Shout-out to NZ from Lee Pace 	 2015-01-02 23:33:48 	  	1
   	 2015-01-03 02:09:45 	" Ned - Pushing Daisies

Ronan the Accuser - Guardians of the Galaxy

Thranduil - The Hobbit trilogy

http://www.imdb.com/name/nm1195855/ "	1
 [TOMT] [Book] Horror fiction book about a strange guy who takes a bath with a toad, has an incestuous relationship with his daughter while living on a houseboat and as an old man he ends up being hacked to death by his young male lover. 	 2015-01-03 02:26:45 	" I've posted in /r/whatsthatbook but no luck so far.
I read this book back in the late 90s and I have never forgotten how crazy, graphic and messed up it was. It would have been in the same vein as books by Dean Koontz and Richard Laymon. "	1
   	 2015-01-03 02:48:53 	 Just did a quick wiki search and yeah same vein  	1
   	 2015-01-03 17:14:06 	" Not the one but definitely need to put it on my to read list, thanks! If I do find out what it's called I'll let you know. I read this when I was younger so the details are a bit hazy but I remember reading it thinking ooh probably too young for this.
 "	1
   	 2015-01-03 17:14:45 	 Thanks - will definitely give it a go! 	1
   	 2015-01-03 17:15:54 	 Thanks for the tip! 	1
 Looking for the title of a horror fiction novel about a strange guy who takes a bath with a toad, has an incestuous relationship with his daughter while living on a houseboat and as an old man he ends up being hacked/dismembered by his young male lover. 	 2015-01-03 17:18:57 	" I've posted in /r/whatsthatbook and /r/tomt but no luck so far, a redditor suggested I try this page so here goes!

I read this book back in the late 90s and I have never forgotten how crazy, graphic and messed up it was. It would have been in the same vein as books by Dean Koontz and Richard Laymon. "	1
 Redditors who have been single for a while - was it by choice or circumstance? 	 2015-01-04 01:08:29 	 Do you enjoy remaining single or have you been trying to slay the dragons to find the prince/princess with no such luck? 	1
   	 2015-01-04 02:56:29 	 I end up looking at them less out of fear they'll catch on 	1
   	 2015-01-04 04:42:55 	 I appreciate you taking the time to post your reply - thank you for being honest. 	1
   	 2015-01-04 04:43:42 	 I definitely get where you are coming from.  	1
   	 2015-01-04 10:05:40 	 wow lol good on you for sharing!! :) 	1
   	 2015-01-04 12:11:40 	 Agreed! 	1
   	 2015-01-04 12:15:38 	" The Skin I live In

The ABCs of Death

Boxing Helena

House of 1000 Corpses and the sequel The Devil's Rejects "	1
   	 2015-01-05 05:44:56 	" Thank you. 

I went through a period of having to take some pretty serious heavy duty meds for a serious illness (prednisone and cyclosporin) the side effects really messed me up which adds to my fear but you're right - there are a lot of different drugs out there so if something doesn't work, there's always other alternative combos. 

Hope your journey continues to be a safe and happy one! "	1
   	 2015-01-05 05:48:28 	" Update - back to work today. Put on my mask this morning and went about my day acting ""normal"" with the odd occasion of staring out the window thinking. Thinking. That's always been my problem - trying to find ways to switch it off but my mind is always racing and whizzing from one topic to another and then back again. 

Today's motto has been ""fake it til you make it"" and hopefully this wave will pass soon if I keep myself distracted.  "	1
   	 2015-01-05 12:01:25 	" Thank you. 
I find it really hard to get up in the morning, I find myself getting anxious the night before counting the hours of sleep I'll get. I can sleep 12 hours solid and still want more sleep. Ironically, I stay up late because I don't want to sleep. 
Hope things work out for you too! "	1
   	 2015-01-05 12:24:30 	" 1) There are girls who want the attention but get snappy when they're not drawing attention from specific people they are seeking attention from. 

2) There are girls who make the effort to look nice for themselves - a little boost to their self-esteem and not necessarily attention from others although that also helps to boost their confidence. 

3) There are girls who try to one up each other - female competition. "	1
   	 2015-01-05 12:26:31 	 Start up another convo with her!  	1
   	 2015-01-05 12:27:45 	 Why buy the cow if the milk is free? 	1
   	 2015-01-05 22:49:52 	" Exactly! And then if the answer is no you can move on. What have you got to lose? Good luck and let us know how it went!!

In my opinion, when my texts start getting a bit sparse and short i'm actually just politely answering your texts but I'm also losing or feigning interest - I need to stop doing that and just be up front.  "	1
   	 2015-01-05 23:07:24 	" Hey - don't stop doing what you're doing. 
I personally don't think we have a valid excuse to be rude to guys who approach us simply because we're ""not in the mood"" or we're already taken. If you genuinely just want to say hi and start a friendly conversation, there shouldn't be anything wrong with that!

If you're being sleazy/creepy and all up in our personal space too soon and getting touchy/feely - our body language will tell you we're uncomfortable then yeah, chances are you're going to end up getting rejected. Outside of these kind of scenarios - a rude bullshit snappy ""not interested"" is pretty stink. Turn right around and walk away - you just dodged a bullet. 
 "	1
   	 2015-01-05 23:31:02 	 Scared of being rejected 	1
   	 2015-01-05 23:33:01 	 Really wanna test this now now now but i'm at work :( 	1
 [Serious]Redditors, have any of you actually hooked up with a celebrity or come close? 	 2015-01-07 10:20:01 	 Celebrities such as A/B/C/D list actors/actresses; sports stars; musicians etc. 	1
   	 2015-01-07 10:26:07 	 What did you order? 	1
   	 2015-01-12 10:32:17 	 First year at uni -  stressed 18yo, my friends were smokers so I thought i'd give it a shot too. I thought I would be able to easily give up whenever I wanted, I was wrong. Turning 30 soon, I want to quit before I turn 30 but I'm still craving at least one a day.  	1
   	 2015-01-12 10:35:54 	 I guess i'm just too shy when it comes to hitting on guys - I'd rather wait for them to hit on me but if they're shy too it's just a stalemate.  	1
   	 2015-01-12 11:00:48 	 That scene in the Hobbit: The Battle of the Five Armies when Thranduil dismounts off his big gay moose/elk and lands ready to kick some ass. Panty dropper. 	1
   	 2015-01-12 11:05:50 	 Being diagnosed with a life threatening illness while depressed.  	1
   	 2015-01-12 11:26:50 	 Falling asleep hugging a pillow 	1
 Redditors in uniform would you or have you tried to hit on someone while on the job? 	 2015-01-12 13:38:44 	 Firefighters, police, paramedics, military, fast food workers etc. - thank you for your service to the community.  	1
   	 2015-01-15 05:49:56 	 A desk fan. 	1
   	 2015-01-15 05:52:58 	 Patricia Arquette as Alison Dubois in Medium...such a cool lady on the show but seems like such a let down in reality. 	1
   	 2015-01-15 05:56:54 	 Sleepers - Lorenzo Carcaterra 	1
   	 2015-01-15 06:09:40 	 Seven 	1
   	 2015-01-15 06:15:36 	 A lobster perched on a giant eye-fillet steak (rare) wrapped in streaky bacon on a bed of prawns with a side of mushroom sauce and mac n cheese. 	1
   	 2015-01-15 22:51:08 	" Breakfast - Malaysia

Lunch - Japan

Dinner - US "	1
   	 2015-01-15 22:52:59 	 Joseph Gordon Levitt 	1
   	 2015-01-15 23:14:19 	 29, my most important life lessons till now are a) be true to yourself and b) surround yourself with good friends who motivate and support you, don't waste your time being fake or having fake friends.  	1
 What's the strangest dream you've had about a colleague. 	 2015-01-15 23:23:18 	  	1
   	 2015-01-15 23:33:45 	 The Mummy Returns 	1
   	 2015-01-15 23:38:29 	 I'd strongly recommend that you go to a recruitment agency and have a good chat to them about what kind of roles you may be interested in. They may have a bit more insight as to what kind of roles your transferable skills could be beneficial for.  	1
   	 2015-01-15 23:42:21 	 Like this? http://iwonder-all-categories.3025048.n2.nabble.com/file/n3149927/long20nails.jpg  	1
   	 2015-01-15 23:43:00 	 Samurai Pizza Cats 	1
   	 2015-01-15 23:45:22 	 Like Bruce Lee one inch punched me in my ovaries? 	1
   	 2015-01-15 23:48:04 	 Negativity - constantly complaining and whinging throughout the interview.  	1
   	 2015-01-15 23:50:13 	 My mind is in the gutter. I have a habit of bringing down a conversation with inappropriate comments. Sometimes I get a positive reaction but I'm sure most people just think i'm a weirdo.  	1
 What's the strangest dream you've ever had about a colleague? 	 2015-01-16 00:57:17 	  	1
   	 2015-01-17 10:07:41 	 Se7en 	1
   	 2015-01-17 10:09:08 	 Signs 	1
   	 2015-01-17 10:10:17 	 Heroes 	1
   	 2015-01-17 10:10:42 	 Cranium 	1
   	 2015-01-17 14:55:43 	 Last Kiss - Pearl Jam. Sad story executed so well 	1
   	 2015-01-17 14:57:27 	 The Wedding Singer 	1
   	 2015-01-17 14:59:26 	 Buffy 	1
   	 2015-01-17 15:00:46 	 Taiwanese stinky tofu fermented  	1
   	 2015-01-17 15:03:07 	 Into the gutter  sexy fantasies with hot male celebs  	1
   	 2015-01-17 15:04:20 	 Meatspin 	1
   	 2015-01-17 15:06:13 	 Sad Keanu 	1
   	 2015-01-17 15:07:22 	 Express Yourself - Madonna or Like a Prayer 	1
 Has anyone got a success story from taking Roaccutane (Isotretinoin) for acne? 	 2015-01-19 07:16:46 	 My doctor is prescribing me isotretinoin for my skin and I've been told about the nasty side effects. I'm hoping there are some success stories out there to give me a bit of hope. 	1
   	 2015-01-19 10:09:52 	 Maple Syrup 	1
   	 2015-01-20 05:34:55 	 I'm definitely excited to get started on it, to not have to worry about acne anymore..I can only imagine what that's like. Thanks for taking the time to comment :) 	1
   	 2015-01-20 08:19:25 	 What's your favourite meal? I feel like this crucial piece of info has been left out! 	1
   	 2015-01-20 08:52:27 	 Watch About Time while sobbing into a cheese stuffed crust Meatlovers Pizza 	1
   	 2015-01-20 08:54:29 	 Mortal Kombat and Street Fighter 	1
   	 2015-01-20 08:56:06 	 Smile 	1
 Redditors, what's for dinner? 	 2015-01-20 08:57:53 	  	1
   	 2015-01-20 09:01:23 	 Well then you'll just have to wait til you find out what you're having for dinner :) 	1
   	 2015-01-20 09:03:10 	 Chicken sauce? 	1
   	 2015-01-20 09:06:12 	 that sounds amazing!!! 	1
   	 2015-01-20 10:34:31 	 Boob sweat 	1
 If you could get one answer to a question you have about your future, what would your question be? 	 2015-01-20 11:40:46 	  	1
   	 2015-01-20 11:45:19 	 Good luck! Bitch is miserable. 	1
   	 2015-01-20 11:54:57 	" ""I'm truly sorry for all the shit I put you through"". "	1
   	 2015-01-20 11:57:42 	 Marmite or Vegemite sandwich with potato crisps stuffed inside.  	1
 What do you know about New Zealand? 	 2015-01-20 21:05:08 	  	1
   	 2015-01-20 23:39:05 	" 
Pretty well..not sure I'd agree on NZers having an awesome accent though... "	1
   	 2015-01-21 04:01:37 	 A mince and cheese pie from a bakery 	1
   	 2015-01-21 04:17:04 	 I have a massive crush on a colleague who only sees me as a friend.  	1
   	 2015-01-21 10:03:32 	 How much is too much in terms of chicks wearing make up, to the point where you don't find her attractive anymore? 	1
   	 2015-01-21 10:06:56 	 How does it continue to stop acne after your completed dose? 	1
   	 2015-01-21 10:34:57 	 bahaha I can picture this. 	1
   	 2015-01-22 06:03:19 	" I love to laugh and enjoy making others laugh so I'm instantly attracted to someone who is awesomely witty and has a healthy dirty sense of humour.
I also like to burst into song when someone says something that makes me feel like a particular song would be relevent to the situation...when someone gets what I'm doing and sing along...instant attraction! "	1
   	 2015-01-22 06:08:02 	 Lesbians. 	1
   	 2015-01-22 06:13:07 	 Toasted Rueben sandwich with a side of slaw and pickles 	1
   	 2015-01-22 06:26:15 	 LOVE this answer.  	1
   	 2015-01-22 07:45:48 	 This thead would def be an interesting read!  	1
 Do you have any strange or interesting collections? 	 2015-01-22 07:57:06 	 Pictures are welcome! 	1
 What is the worst thing your parent/guardian has said or done to you? 	 2015-01-22 08:46:06 	  	1
   	 2015-01-22 08:57:33 	 :( 	1
   	 2015-01-22 09:00:16 	" My mother told me my eldest brother is her favourite child while I was her least favourite, I was 10 years old.

When I was 13 we were approached by a homeless man who wanted to shake our hands. She got up and quickly walked away while I was left there awkwardly not wanting to touch his hand but not wanting to be rude either. She didn't turn back once to see if I was ok. Later when I caught up to her, she yelled at me for talking to the homeless guy. 

6 years ago I got pretty sick and needed a bone marrow transplant, my eldest brother didn't want to do a blood test to see if he was a match. My mother defended him and explained that he's busy at work and can't take time off. "	1
   	 2015-01-22 09:12:32 	 Upvote for good call 	1
   	 2015-01-22 09:27:12 	" I suspect it may be related to the anger she has towards my father who left us when I was 7 years old. They had huge problems even before I was born and they thought having me would help their marriage. They thought wrong. 

As a teen I figured we didn't get along because I was a typical broody teen but as I got older and moved out I realised it went beyond that, she just really didn't like me. At 29, I'm really sad that we don't have a good relationship. I just don't know what to do.

The silver lining is, as I watch her get colder and more miserable I'm working on being warmer, happier and kinder to others.  "	1
   	 2015-01-22 09:31:37 	" I bid for the drum sticks Justin Bieber used once during a high school visit when he came to NZ, my mate's little sister really wanted them for her 16th birthday. 

Bought it for $30, SUCH A WASTE OF MONEY!! "	1
   	 2015-01-22 09:37:44 	"  Ballad of Ballard and Sandrine

Not this one but will definitely put it on the list! "	1
   	 2015-01-22 09:38:25 	 At this point, any suggestion is a good suggestion! Thanks for taking the time :) 	1
 Has anyone got any suggestions for really good places to eat in Queenstown? 	 2015-01-22 09:51:01 	" Heading to Queenstown with a couple of mates at the end of Feb. We LOVE food so we're open to any suggestions - any cuisine.

Breakfast/brunch/lunch/dinner/supper "	1
   	 2015-01-22 10:05:15 	 Thanks for the tip - we'll add it to the list! 	1
   	 2015-01-22 20:00:01 	 Ixnay on the Hombre - The Offspring  	1
 What's your best tip for getting a discount? 	 2015-01-23 12:26:14 	 That doesn't involve a 5 finger discount. 	1
   	 2015-01-23 23:27:29 	 Letting go of toxic fake friends and deciding to get out of my comfort zone by moving to a new country  	1
 What's your strange addiction? 	 2015-01-23 23:31:19 	  	1
   	 2015-01-23 23:32:48 	 I like eating raw bacon 	1
 What did you do for your 30th birthday? 	 2015-01-24 00:45:48 	 I need inspiration :) 	1
   	 2015-01-24 01:08:25 	 How was the exhibition?? I would love to check it out one day! 	1
   	 2015-01-24 13:34:59 	 Days spent with awesome friends. You know it's been a good day when your stomach hurts from laughing so hard. 	1
   	 2015-01-24 13:41:03 	 Legends of the Fall 	1
   	 2015-01-24 13:47:11 	 Patricia Cornwell 	1
   	 2015-01-24 13:49:36 	 Paul Walker, he seemed like a good dude 	1
 What's the best or worst thing about having boobs? 	 2015-01-24 13:54:37 	  	1
   	 2015-01-24 22:14:41 	" I should probably add my two cents here too. 

Best: Provides a sturdy shelf for balancing my plate on while I'm eating. Some tops/dresses look better with some chesticle shapes. They feel pretty damn good.   

Worst: Lying on my back - they flatten out and leak to the sides, not ideal. In addition to sagging, I'm worried about getting cleavage wrinkles as I age.  "	1
   	 2015-01-27 12:42:47 	 The smell of bacon cooking 	1
   	 2015-01-27 12:45:07 	 Arrogant know-it-alls 	1
   	 2015-01-27 12:47:58 	 Go to a Dr or dermatologist and ask about isotretinoin 	1
   	 2015-01-27 12:52:03 	 Beefcake 	1
   	 2015-01-27 12:53:30 	 Smile at strangers without expecting a smile in return  	1
   	 2015-01-27 12:55:21 	 Lee Pace 	1
   	 2015-01-28 01:50:27 	 People who don't take ownership and blame everyone or everything else for their problems.  	1
 Redditors who work in Customer Service, who are the worst kind of customers? 	 2015-01-29 02:34:51 	  	1
   	 2015-01-29 02:43:27 	 hahahaha desperation... 	1
   	 2015-01-29 03:22:26 	 When are people going to realise that you catch more flies with honey? If you're going to be an asshole, why would we go out of our way for you? I guess there are too many cases of assholes stomping their feet and getting what they want. I get lots of oh yeah well company X is offering me this which is way better...well then sir - why are you still talking to me, why don't you FUCK OFF THEN?! 	1
   	 2015-01-29 23:37:08 	 People who sneeze or cough without covering their mouths when other people are around.  	1
   	 2015-01-29 23:38:40 	 That and people shooting their snot out of their nose and onto the ground like a nose cannon 	1
   	 2015-01-29 23:42:19 	 Being two-faced - I tell myself that I do it to try and keep the peace but really I guess I'm just being fake, pretending I like people when I think they're morons.  	1
   	 2015-01-29 23:47:01 	" These are things that I'm working on:

Distractions and realising you just have to keep on going, the world doesn't stop for you so that you can curl up into a corner and cry. Set yourself little goals and then take steps to achieve them. Give yourself a purpose. 

Learning coping mechanisms so that you can roll with the punches also helps.  "	1
   	 2015-01-30 00:46:59 	 Keanu Reeves 	1
   	 2015-01-31 23:09:59 	 The need to get blood tests done to check my cholesterol levels and the necessity of power naps otherwise I fade pretty quickly  	1
   	 2015-01-31 23:12:34 	 M - Skyfall 	1
   	 2015-01-31 23:13:56 	 My plans if i'm trying to come up with an excuse to avoid going somewhere  	1
   	 2015-01-31 23:16:31 	 Quirky sense of humour, kind heart and a genuinely caring nature 	1
   	 2015-01-31 23:18:14 	 Someone talking about papercuts in eyeballs. Currently wincing :s 	1
   	 2015-01-31 23:19:16 	 March 7th 	1
   	 2015-02-01 00:03:45 	 Back  forearms 	1
   	 2015-02-01 00:31:59 	" We needed to feed 7 of us, after combining all of our chump change (college/uni students) we went to the gas station and bought a 5 pack of ramen and a pack of precooked Sizzlers sausages. 

We cooked the ramen and sausages, added a bit of chilli powder and ate using what cooking utensils we could find at my mate's flat since he only owned one fork.  "	1
   	 2015-02-01 00:51:44 	" I had an experience several years ago when a friend encountered something overseas and brought it back with him, it then proceeded to attach itself to me. 
It would present itself to me as a really strong pungent shit smell right under my nose and no one else could smell it, on three separate occasions - my workplace, outside my friend's house and at my mother's house. 

A psychic who was a friend of a friend told me that it was a trickster and had latched itself onto me because i'm sensitive but don't realise it therefore I can't protect myself. 
I was lucky because this trickster had the potential to do some real damage. She banished it to another plane and cloaked me in protection. 

It was the most bizarre experience I've ever had and I still don't know what to make of it to this day. I sure as hell don't tell many people out of fear they'll think i'm nutso.  "	1
   	 2015-02-01 01:06:19 	 I reckon the unsub is still out there somewhere 	1
   	 2015-02-01 07:56:03 	 She didn't charge at all - she's a friend of a friend who just wanted to help 	1
   	 2015-02-01 08:03:26 	 I haven't watched many Bond films but Skyfall is def my fav out of the ones I've seen. Looking forward to Spectre - coming out Nov 2015 	1
   	 2015-02-01 08:16:00 	 I'm glad Sam Mendes didn't follow on from Quantum of Solace and kinda rebooted instead. 	1
   	 2015-02-01 08:16:15 	 I'm with you on that one buddy!  	1
 What's your theme song and why? 	 2015-02-01 08:31:24 	  	1
   	 2015-02-01 08:36:34 	 Fancy soap - $30 sigh. 	1
   	 2015-02-01 08:37:24 	 I can't ride a bike  	1
   	 2015-02-01 08:39:48 	 Time, good friends and having hobbies helps. 	1
   	 2015-02-01 08:43:07 	" My brothers and I used to get hit with a black leather horse whip. 
I remember being five years old and I was punished for getting sunburnt during a school trip. My mother just watched.  "	1
   	 2015-02-01 08:44:32 	 Gotta work to pay the bills 	1
   	 2015-02-01 08:51:40 	 The Wedding Singer 	1
   	 2015-02-01 09:01:20 	 Ben Folds Five - Brick https://www.youtube.com/watch?v=Wt5EHAqhR1c 	1
   	 2015-02-01 09:01:54 	 In West Philadelphia, born and raised... 	1
   	 2015-02-01 09:10:21 	 Sleepers, Inception, Schindler's List, The Godfather 1 - 2 - 3, The Silence of the Lambs, Saving Private Ryan, Braveheart, Dances with Wolves, The Pianist, Scarface, The Green Mile, Legends of the Fall, About Time. 	1
   	 2015-02-01 09:13:03 	 You're brave, I wouldn't want glitter getting into my japs eye (if I had one). 	1
 Reddit Gleeks - what's your favourite song on Glee? 	 2015-02-01 09:17:59 	  	1
   	 2015-02-01 09:23:34 	 Dammit..that sounds oddly arousing 	1
   	 2015-02-01 09:38:14 	 I've done the same with Give Your Heart a Break 	1
   	 2015-02-01 10:58:48 	 Finding movie trivia and other info about movies i've watched 	1
 Hiya! I'm moving from Auckland to Melbourne on the 1st of June, I don't have cold feet but I am getting nervous - I'd appreciate any tips you lovely folk may have. 	 2015-02-01 11:14:24 	  	1
   	 2015-02-01 11:16:31 	 Now and Then 	1
   	 2015-02-01 11:17:23 	 Jigglypuff 	1
   	 2015-02-01 11:31:30 	 I don't have a job lined up - will start applying in May. I'll be staying with a friend and her family for a bit until I get on my feet. Savings - a bit, moving back home before I move so I can save a bit more. I have a handful of friends there.  	1
   	 2015-02-01 11:32:55 	 Melbourne is beautiful but it's also intimidatingly huge! I'm nervous about finding a job and meeting new people.  	1
   	 2015-02-01 11:58:22 	 Yay for better public transport! I'm not sure how I'm going to survive the extreme temps! I've heard about 41 degree weather over there while I cringe when I'm barely surviving 24 degrees here! 	1
   	 2015-02-01 13:00:15 	 14 	1
   	 2015-02-01 13:03:09 	 /r/totallystraight  	1
   	 2015-02-01 13:06:33 	 Sailormoon  	1
   	 2015-02-01 20:52:07 	 Really? Not moving for another 4 months! 	1
   	 2015-02-02 04:01:28 	 Alright, I'll give it a go - nothing to lose! Thanks. 	1
   	 2015-02-02 04:03:07 	 Overall, are you enjoying it so far? Are Melbournians generally friendly? 	1
   	 2015-02-02 04:34:35 	 Well i'll be heading over shortly so if you ever need someone to talk to, feel free to PM me :) 	1
   	 2015-02-02 05:15:25 	 I didn't know that - with the comments below I'm not sure I should attempt to watch the reboot 	1
   	 2015-02-02 05:33:30 	 Did you go through Seek too? 	1
   	 2015-02-02 10:18:58 	 My fourth toes on either side are bent, its almost like the tips are disappearing so the mid joint is trying to break through the skin. Nasty.  	1
 Which is the best city in the world to retire in? 	 2015-02-02 10:23:24 	  	1
   	 2015-02-02 10:24:31 	 When after seeing them i'd feel pissed off or insecure. 	1
   	 2015-02-02 10:27:46 	 PICC line scar in my inner arm, I learnt how fragile and unpredictable life is - you just have to roll with the punches. 	1
   	 2015-02-02 10:48:29 	 Not finishing my degree sooner, wasted a lot of time and money - maybe things would be better for me now if I had just started getting my shit together sooner.  	1
 Men of Reddit, what do you do to hide a public boner? Nsfw 	 2015-02-02 21:14:06 	 If you're out in public, there's people around and you randomly pop a boner, what's a guy to do?  	1
 What made you smile today? 	 2015-02-02 21:25:48 	  	1
   	 2015-02-02 23:01:55 	 Must be contagious, you just made me smile too :) 	1
   	 2015-02-02 23:02:31 	 What an awesome idea!! 	1
   	 2015-02-03 07:06:01 	 Anything from the Patricia Cornwell Kay Scarpetta series such as Body Farm 	1
 If you turned into the opposite sex for an hour, what would you do? 	 2015-02-03 07:11:19 	 Complete transformation - physically, mentally and emotionally. 	1
   	 2015-02-03 07:20:37 	 Sizzling bacon 	1
   	 2015-02-03 07:43:41 	 Can confirm  	1
   	 2015-02-03 10:54:57 	 This. Meatspin. 	1
 What do you hate waiting for? 	 2015-02-03 20:45:31 	  	1
   	 2015-02-03 20:56:22 	 Listening to Beyonce's music post marriage to Jay Z...sorry Bey fans!! 	1
   	 2015-02-03 20:57:47 	 Titanic - Jack lives 	1
   	 2015-02-03 21:08:40 	" This dude was cool but when he got promoted he started getting really arrogant and cocky. 
He treated his team like shit but kissed ass and flirted with the boss. One night he tried to stick his hand up a colleague's skirt, the boss just moved him to another department to save his ass. "	1
   	 2015-02-03 21:17:48 	" Be prepared to genuinely work hard, sounds clichéd but that's the biggest tip I can give. 
I interview a lot of college/uni students that are so self-entitled it hurts. These candidates also like to think that they're too good for the role. 

There's nothing wrong with getting your foot in the door and then working your way up. "	1
   	 2015-02-03 23:18:47 	 Survivor 	1
   	 2015-02-03 23:21:22 	 WoW: The Burning Crusade, Wrath of the Lich King, Cataclysm and Mists of Pandaria.  	1
   	 2015-02-03 23:23:12 	 Medium - love Patricia Arquette. 	1
   	 2015-02-03 23:25:59 	 Dates. For example, when there's a shot of a headstone I need to work out how old that person was when they died (if there's no mention of an age). 	1
   	 2015-02-03 23:26:33 	 Batman. 	1
 What did you dream about last night? 	 2015-02-03 23:47:15 	  	1
   	 2015-02-04 00:49:27 	 Sounds like a pretty cool movie plot 	1
   	 2015-02-04 04:11:38 	 Not anymore...although I do miss being Guildmaster for the Hello Kitty Adventures Guild....sigh.. 	1
   	 2015-02-04 05:09:08 	" We have some pretty sweet pink tabards too! If I do come back, I'll PM ya for your Real ID haha. 

I haven't read up about Lords of Draenor at all - what are the highlights? "	1
   	 2015-02-04 05:16:28 	 I'd say go for something that is relevant to something she's joked about or talked about - shows you've been listening and that you remembered. For example, I made a joke to a friend stating that nothing says Happy Valentines Day better than a bacon and egg pie...if I got this said pie then I'd think that person was pretty darn awesome.  	1
 If you could work from home and earn a decent salary, ideally what would you be doing? 	 2015-02-04 05:19:26 	  	1
   	 2015-02-04 05:31:41 	 Reinforced the need to seek approval 	1
   	 2015-02-04 05:43:33 	 I hope more people see this thread! Would be an interesting read. 	1
   	 2015-02-04 10:06:02 	 As in the bed started rusting before your eyes? 	1
   	 2015-02-04 10:15:21 	 Hmm maybe have a think about buying something with a kitten print on it? Like I don't know - kitten mittens? Mug? T-Shirt? 	1
   	 2015-02-04 10:17:05 	" I was on Frostmourne, you? 
I used to raid weekly but what I was really super keen on......cooking achievements lol.
My main is an undead Mage :) "	1
   	 2015-02-04 12:15:25 	" Bloody queues...don't miss that!
LOL I was trying to do the same thing!!!! AWESOME

I remember the day I got the Chef title...so much joy. "	1
   	 2015-02-04 12:19:25 	 You need to do some more investigating, the hospital sounds like it has a very interesting history! 	1
 What are you allergic to? 	 2015-02-04 12:20:48 	  	1
   	 2015-02-04 12:33:57 	 Totoro 	1
 What has been the biggest disappointment to you so far? 	 2015-02-04 21:29:50 	  	1
   	 2015-02-04 22:28:43 	" Awesomeness overload. 

1) Do they share any stories with you?? Reminds me of Ed  Lorraine Warren. 

2) What's the name of the hospital? Sounds like an amazing mystery, I want to do a little digging myself too!  "	1
   	 2015-02-04 22:45:38 	 Ok you're going to have to tell me some stories now!! 	1
   	 2015-02-05 07:22:05 	" You need an AMA.
Are you quite sensitive yourself? Your in Vic yeah? I'm moving over in a few months, not a whole lot of activity where i'm from - wonder what I'm going to get myself into over there! "	1
   	 2015-02-06 13:28:49 	 Always carry spares - spare undies and supplies. 	1
   	 2015-02-06 13:30:29 	 The freakin' weekend 	1
 How would your friends describe you in three words? 	 2015-02-06 13:33:07 	  	1
   	 2015-02-06 13:34:27 	 Arteries 	1
   	 2015-02-06 13:37:47 	 I read that as nerdy steak...mmm steak 	1
   	 2015-02-06 13:40:36 	 Liam Neeson 	1
   	 2015-02-06 13:48:16 	 Alcohol. I feel like i'm missing out on a whole lot of fun. 	1
   	 2015-02-06 13:53:14 	 Buffy. 	1
   	 2015-02-06 13:56:29 	" ""Life isn't about waiting for the storm to pass, it's about learning to dance in the rain"" - Vivian Green "	1
   	 2015-02-06 14:00:21 	 What's for dinner? 	1
 What's your favourite burger joint? 	 2015-02-06 14:01:44 	  	1
 What's the most memorable conversation you've overheard in public? 	 2015-02-06 21:07:53 	  	1
   	 2015-02-06 21:27:54 	 Managing acne. 	1
   	 2015-02-06 21:30:47 	 The Lion King. Mufasa and the circle of life. 	1
   	 2015-02-06 21:31:16 	 Forgiving and forgetting. 	1
   	 2015-02-06 21:38:13 	 Giraffe. So I can reach stuff without having to get a ladder or ask someone for help. 	1
   	 2015-02-06 21:44:03 	" My biggest regret is that I didn't try hard enough. If only I had set good foundations for studying hard then. Perhaps I wouldn't have wasted so many years not knowing what I wanted to do and concentrated more on figuring out what I wanted to do.
 "	1
   	 2015-02-06 21:45:43 	 Pizza, when trying to feed a group of hungry people. 	1
   	 2015-02-06 21:48:04 	 Sit in silence and uncomfortably close to a stranger on a park bench, when they inch away you shuffle closer. 	1
   	 2015-02-07 04:37:55 	 Pushing Daisies  	1
   	 2015-02-07 14:08:44 	 The prerogative to have a little fun... 	1
 Which celebrity would you pick to portay you in a movie about your life? 	 2015-02-07 14:15:46 	  	1
 What's your all-time favourite 90's band? 	 2015-02-08 20:50:15 	 Feeling nostalgic  	1
   	 2015-02-08 20:59:09 	 Self-entitled teens 	1
   	 2015-02-08 22:25:02 	 Haha my walls were plastered with Hanson posters when I was a teen....those were the days.  	1
   	 2015-02-08 22:25:14 	 You should NEVER be ashamed. Backstreet Boys = legendary.  	1
   	 2015-02-08 23:40:02 	 The Offspring 	1
   	 2015-02-09 02:53:12 	" ""I've never had a dream come true..."" "	1
   	 2015-02-09 10:49:27 	 This. 1000x agree with this. 	1
   	 2015-02-09 10:54:05 	 People who are pretentious and full of hot air.  	1
   	 2015-02-09 12:29:30 	 Blue 	1
   	 2015-02-09 12:32:08 	 We just co-exist 	1
   	 2015-02-09 12:39:15 	 Roast lamb 	1
 Awkward Redditors, why do you think people assume you're socially awkward? 	 2015-02-09 20:47:53 	  	1
   	 2015-02-09 20:48:46 	 Feel the fear and do it anyway! 	1
   	 2015-02-09 20:52:26 	 For all intensive purposes..... 	1
   	 2015-02-09 20:53:36 	 Spoon 	1
   	 2015-02-09 20:56:45 	 Be my worst enemy  	1
   	 2015-02-09 20:57:05 	 World peace 	1
   	 2015-02-13 13:41:19 	 Food 	1
   	 2015-02-13 13:41:58 	 Jigglypuff has skills 	1
   	 2015-02-13 13:44:58 	" ""Have I made a stranger smile today?"" "	1
 What's your favourite boyband of all time? 	 2015-02-13 13:50:10 	 BSB 4 Life! 	1
 Who's riding solo this Valentine'sDay? 	 2015-02-13 21:12:24 	 Nothing wrong with being Hans Solo 	1
   	 2015-02-13 21:22:33 	 I have a bad habit of overanalysing stupid stuff 	1
   	 2015-02-13 21:23:16 	 Water aerobics  	1
 What's the best/worst thing about your past or current boss? 	 2015-02-13 21:27:51 	  	1
   	 2015-02-13 21:44:41 	 Sounds like a great time!  	1
 What's the worst thing you've walked in on and seen? 	 2015-02-14 23:04:04 	 Once you've seen it, you can't unsee it. 	1
 Kitty's trying to sleep but the light's just too bright for her 	 2015-02-15 11:43:44 	  	1
   	 2015-02-15 11:45:51 	 Britney's trying to get some shut eye while we watch a movie 	1
 Valentine's Day meat medley purchased from the Pakuranga Night Market for only $15! 	 2015-02-15 12:20:37 	  	1
 Carpet Bag Steak (blue) and Peppered Steak (rare) from Tony's Lord Nelson. Steak it off, steak it off! 	 2015-02-15 12:30:45 	  	1
   	 2015-02-15 12:35:27 	 About Time, The Wedding Singer, The Avengers and Pitch Perfect 	1
   	 2015-02-15 12:40:36 	 Running fingers through your hair, maintaining eye contact and a cheeky grin. 	1
   	 2015-02-15 12:44:22 	 Play Simpsons - Tapped Out or Quiz Up 	1
   	 2015-02-15 12:53:12 	 Glitter 	1
   	 2015-02-15 12:59:00 	 But it would be fabulous 	1
   	 2015-02-15 20:55:23 	 Which one is ur fav to go to? 	1
 Malaysian Chicken Laksa, Sambal Chicken and Roti from Mamak 	 2015-02-15 22:23:09 	  	1
   	 2015-02-16 02:28:08 	 Men's shirts, short skirts  	1
   	 2015-02-16 04:28:29 	 Probably my fav one too to be honest, Henderson's pretty good too! 	1
   	 2015-02-18 06:05:09 	 Making friends 	1
   	 2015-02-18 06:06:50 	 Aveeno 	1
   	 2015-02-18 06:07:21 	 Gazuntite 	1
   	 2015-02-18 06:10:54 	 I had a really bad trip that made me feel like I was having an out of body experience and could talk to ghosts. Took me a couple days to feel right again.  	1
   	 2015-02-18 06:11:14 	 Karma 	1
 Redditors, how did you turn that frown upside down today? 	 2015-02-23 10:27:17 	  	1
   	 2015-02-23 10:38:49 	 Freeze time..so I can go back to sleep 	1
   	 2015-02-23 10:47:08 	 Waitress at an Indian Restaurant, I was 16-17 years old and a few members of the staff including my boss would make inappropriate comments towards me and they'd talk about wanting to marry me. 	1
   	 2015-02-23 10:49:52 	 Nope. To sleep, perchance to dream. 	1
   	 2015-02-23 10:55:36 	 Cheese kranskys zapped in the microwave for a little over a minute on high. 	1
   	 2015-02-23 10:57:23 	 Concentrate on the bigger picture - study hard, get good grades and graduate. Forget the other BS, don't waste your time.  	1
 What's the worst thing you have self-diagnosed using Google search? 	 2015-02-24 01:41:53 	 Were you right? 	1
   	 2015-02-24 02:04:21 	 What's your treatment plan? 	1
 Why are you still pining over your ex? 	 2015-02-24 11:35:58 	  	1
 What did you do today that you aren't proud of? 	 2015-03-03 09:27:18 	  	1
   	 2015-03-03 09:29:07 	 A bra. 	1
   	 2015-03-09 11:08:02 	 Pull your pants up - say no to low riding 	1
   	 2015-03-09 11:09:19 	 Past regrets 	1
 What's the worst example of ignorant racism you've encountered or witnessed? 	 2015-03-11 05:40:23 	  	1
   	 2015-03-11 05:45:32 	 Now 	1
   	 2015-03-11 05:46:26 	 Raising Hope 	1
   	 2015-03-11 05:52:26 	 Self realisation and time 	1
 What made you feel anxious today? 	 2015-03-11 06:09:56 	  	1
   	 2015-06-26 06:36:09 	 Sorry - I never asked, was just grateful she could help. I'd imagine she asked her spirit guides for help? 	1
   	 2015-06-26 16:10:27 	 Patricia Arquette  	1
   	 2015-06-26 16:11:30 	 The comforter that hardly gets washed, take that shit and throw it on the ground before you get into bed! 	1
   	 2015-06-26 16:12:55 	 Knowing that person always has your back through good times and bad and this is the first person you'd turn to every time. 	1
   	 2015-06-26 16:14:20 	 T.L.C. with a hologram of Lisa Left Eye Lopez 	1
   	 2015-06-26 16:15:27 	 Season 1 - American Horror Story 	1
   	 2015-06-26 16:15:58 	 Self reflection 	1
   	 2015-06-26 16:17:12 	 Shawarmas! 	1
   	 2015-06-26 16:17:51 	 Stay in a toxic friendship or relationship 	1
   	 2015-06-26 16:19:28 	 Patrick Bateman 	1
   	 2015-06-26 16:23:11 	 Lots of dickheads sprouting 	1
   	 2015-06-26 16:25:51 	 True Romance, Stigmata, Ed Wood, Boyhood, Little Nicky 	1
   	 2015-06-26 16:26:22 	 Justin Bieber 	1
 Do you prefer owning cats or dogs? Why? 	 2015-06-26 16:28:10 	  	1
