title	date	text	class
   	 2017-02-24 22:40:25 	 Collar bones of art   	0
   	 2017-02-25 21:14:17 	 Told you 	0
   	 2017-02-25 22:57:43 	  	0
   	 2017-02-26 10:34:09 	 Welcomz  	0
   	 2017-02-26 21:05:07 	 What if the cat is mimicking bird sounds?  	0
   	 2017-02-27 22:57:20 	 r/trashy 	0
   	 2017-02-27 23:56:40 	 You elusive and majestic motherfucker you.  	0
   	 2017-02-28 06:36:08 	 You look like you could make this exact same pose in a movie scene and when spotted you haul ass with beer in hand. Thats why I said elusive, I make up movie scenes in my head.  	0
   	 2017-02-28 06:37:26 	 This has so many levels to it, the glass, the dark beer, the top in his mouth, make this a meme for Gods sake.  	0
   	 2017-03-01 07:56:10 	 Little teddy butt!!! 	0
   	 2017-03-01 18:57:56 	 Did you assume their genders?  	0
   	 2017-03-02 02:21:01 	 This is amazing!! 	0
   	 2017-03-02 07:17:49 	 True Hero 	0
   	 2017-03-03 04:21:27 	 Always strange how many celebrities knew each other as children, almost like the majority of famous people are just a bunch of richies who continually bask in their own glories.  	0
   	 2017-03-03 05:27:08 	 Biggest load of horse shit ever loaded!  	0
   	 2017-03-03 07:52:42 	 A Women worth all the truth a man can offer.  	0
   	 2017-03-03 19:42:44 	" So, you ban a phrase in favor of one group, yet encroach on another group that identifies with those phrases, because the other group cant get past the part where it is not always about them.....riiiighhhtttttt. Its not even like those things are derogatory or anything. (To my knowledge) 
If I hear of a ladies only type of function or something only women do together to bond, I don't get offended, I simply realize what it is, like ladies night at public functions. 
Maybe change the context of how the words are used and explain how these terms were used in a mostly male run society at one point and then explain to the lame brains that you can simply replace the gender word to fit anyone into the same situation.   "	0
   	 2017-03-04 19:57:48 	  	0
   	 2017-03-04 23:50:26 	 The other frog turns to watch.  	0
   	 2017-03-05 19:35:28 	  	0
   	 2017-03-07 00:12:59 	" I would duel with the strongest of men just to be able to capture her attention for only a moment. 
Why duel when we can write poetry? 
Guess its the need to prove the strength in me, we all alike.  "	0
   	 2017-03-07 19:36:44 	 More like Raccoon solution  	0
   	 2017-03-08 01:27:06 	" Are we not supposed to talk to ambassadors? How would world peace ever be achieved if we never talked to the ""enemy"".   "	0
   	 2017-03-08 01:48:43 	 Good one lolol 	0
   	 2017-03-08 01:51:11 	 Maybe he was advised for other reasons to just keep it private. The question could have been worded in a way where he technically did not lie, this article in itself could be a lie of propaganda. Who really gives a flying pile of cow shit?  	0
   	 2017-03-08 08:03:56 	 She deserves kisses at dusk,under street lights in spring, after a rain, a breeze blowing, saying this time is just for us.  	0
   	 2017-03-08 18:07:50 	 I included only myself in that us....I'm selfish.  	0
   	 2017-03-08 18:10:23 	 Idk about all that now, she deserves a good companion, she deserve many things. The pleasure and served thing realistically could never occur, thats the beauty of life, finding things outside of perfection and calling them such anyways.  	0
   	 2017-03-08 19:30:47 	 My God, the level of cleverness is not even showing up on the radar captain, the sensor is only picking up piles of jealousy and BS.  	0
   	 2017-03-08 19:45:12 	" Cuck:Captain, we are hearing interference, it seems an alien life form is now trying the back peddle technique, turns out the pile of jealousy and bs was a life form of some type. 

Captain:Its advised you DO NOT make direct contact, these lifeforms feed off of radical Liberal behavior and wordage....they are a threat to humanity as we know it. 

Cuck: Yes sir, Captain. 


Captain: God help you and the crew son, transmission out.  "	0
   	 2017-03-08 23:14:23 	  	0
   	 2017-03-09 04:32:00 	 Gods Angel 	0
   	 2017-03-09 14:46:31 	 Repost....again? 	0
   	 2017-03-09 15:36:11 	 I need this specific person in my life!!  	0
   	 2017-03-10 02:01:21 	 What till you get older, and are an older couple, you will see how much sex actually means.  	0
   	 2017-03-11 20:27:39 	 A beautiful thing to behold.  	0
   	 2017-03-12 02:31:08 	 He is probably just saying he prefers her natural look, that opinion is warranted as a choice the same way its hers if she decides to wear makeup. Its like the way women tell us everything is a dick measuring contest....well I guess the same could be said with make up, its always a beauty contest. (Female version of dick measuring)  	0
   	 2017-03-12 16:04:51 	 This whole Sub is NSFW....if you look at shower beers at work.....I mean really?  	0
 Pre-Shower Sierra 	 2017-03-12 16:17:44 	  	0
   	 2017-03-12 16:38:57 	 So who is deleting my posts even after the NSFW tag? 	0
   	 2017-03-12 16:39:42 	 I deleted this one and made a repost properly, and its gone.  	0
   	 2017-03-13 01:52:34 	 Missing.....cap....for....screw 	0
   	 2017-03-13 01:59:41 	 The surprise comes after prison, so I think we all see where this is going.  	0
   	 2017-03-13 21:14:39 	 What a perfect little lady.  	0
   	 2017-03-14 01:01:36 	 My dick 	0
   	 2017-03-14 23:05:14 	 Repost 	0
   	 2017-03-14 23:23:25 	 No, You didn't, saw this a month ago, been saving it huh? Karma farming little shit.  	0
   	 2017-03-14 23:27:47 	 Repost 	0
   	 2017-03-14 23:36:04 	 This was on Reddit like a month ago. Reposter here, got a reposter.  	0
   	 2017-03-15 00:28:47 	 A month old post is lost as far as I'm concerned. Im positive I saw this exact thing before though. Its ok, I get your need for validation from strangers.  	0
   	 2017-03-15 00:38:45 	 Whoa look at that proof....man this proves so much, The lol in most sentences proves the opposite. You're sick, you must be in the full depths of a reddit addiction.  	0
   	 2017-03-15 00:48:43 	" No, projecting little, you reposter in denial. You sick, sick person. Im ashamed of you to my very core, you make me want to slap a full sized wax figure of Rosie O' Donnell. You make me want to eat oatmeal cold, Id fucking straight up eat a bagel and a rice cake with nothing on them because of you. You let me down, you let your team down, frankly, you let all the Gods on mount Olympus down. 

This is why we cant have nice things is because of plebian mofos like you, its not that you reposted, its that you lied to me.  "	0
 Dreamcast from the past. 	 2017-03-15 00:52:15 	  	0
 Sierra Nevada Pale Ale tonight with an Otra Vez for a finisher. 	 2017-03-15 01:09:10 	  	0
   	 2017-03-15 01:17:20 	" https://drive.google.com/open?id=0B3d69HwvYdH4UW1JUW1uWmlQcUk

Lil wee wee shot for the ladies.  "	0
   	 2017-03-15 01:37:39 	  	0
   	 2017-03-15 01:44:01 	 Stone Cold  	0
   	 2017-03-15 10:53:23 	 This was found in an old shed.  	0
   	 2017-03-15 10:56:28 	 Nice repost 	0
   	 2017-03-15 16:32:08 	 It has the feel of Star Trek memorabilia.  	0
   	 2017-03-15 19:54:23 	 I had a full body naked shot they kept deleting, probably because it was a pre shower pic....but I mean come on, there is more to the person than just a dick....you could have at least named the wine or whatever and gotten a full shot.  	0
   	 2017-03-15 20:06:20 	 Reminds me of the Milk Bar for some reason in the Clock Town of Majora's Mask.  	0
   	 2017-03-16 00:46:11 	" True 
 "	0
   	 2017-03-16 02:08:03 	 Oh,you mean like real life and solving global warming, poverty, and hunger issues?  	0
   	 2017-03-16 17:14:06 	 So, I was curious about these leaks, not because I thought they were nudes, but wondering what was so crazy other than the fact they got stolen. So in my search to see what the big deal was, there was a pic that shows what appears to be Emma taking a bath, taking a selfie that shows her nipples. Her face is cut off above the mouth and she is sticking her tongue  out. Looks a lot like her, if it is her, to answer your question, her nipples are of perfect proportion.  	0
   	 2017-03-16 17:32:11 	 All I can say is some crap site called the Fappening.  	0
 90's Assethetics 	 2017-03-16 18:04:53 	  	0
   	 2017-03-16 23:11:21 	 Im sure most are.  	0
   	 2017-03-17 00:03:55 	 Thank you gracious patron, I have more wares if you have coin.  	0
 Baby throwing signs. 	 2017-03-17 01:24:07 	  	0
   	 2017-03-17 01:29:14 	 Low key flicking the bird too, this has to be some gangster genetic code.  	0
   	 2017-03-17 01:52:43 	 Im telling you, ever time I pass by this photo in my Grandmas house I think, damn someone in my family is a st8 G and I don't even know who they are.  	0
 Handy Wacks? Do they make tissues too? 	 2017-03-17 02:09:32 	  	0
 Clean Fluorescence 	 2017-03-17 18:10:13 	  	0
   	 2017-03-17 21:27:45 	 Or tragic, could have been a death, maybe someone spilled some shampoo, while also having a black light on for whatever reason, or an orgy...idk.    	0
   	 2017-03-18 20:18:32 	" Thats a rich persons way of saying don't tax our end, lets tax it on the end closer to the consumer. We work, our checks get taxes taken out, we buy a product, taxes get taken out, we drive on the road we have to buy a tag, we use a cellphone and have to pay FCC charges. Hell you cant even buy something used and not have to pay tax again on that same item thats been bought and taxed already. 
If companies are making all these massive profits, and consumers are living paycheck to paycheck, does it not make sense that taxes are coming from the wrong end?  "	0
 Cold in the Middle. 	 2017-03-18 21:28:13 	  	0
 Cold in the middle. 	 2017-03-18 21:42:00 	  	0
   	 2017-03-18 21:44:29 	 Looks staged   	0
 PuR~p*L 	 2017-03-19 00:14:15 	  	0
   	 2017-03-19 01:13:53 	" Right there with you, about the same amount of time Ive been sober. Never taken meth, but I smoked pot, taken some shrooms and 25i for a while, drank, even smoked that legal shit. I know exactly what the paranoia feeling is like and having psychosis. I had a thing and still do to a degree where I see pictures and have these delusions they are communicating specifically to me in a strange way. Eating raw vegetables not only helps a lot of health problems but its also cheaper, that, plus some motivation from Jesus Christ helped me. Getting in a good mind frame and just refusing to go out without giving this life we have been given some kind of real effort. 
I know people can have their opinions on Pot and all, but even that caused me problems, I had been a long time smoker on and off, even when I didn't do other stuff it was always a battle and a lifestyle that led to negative behavior. 

If you want to get better and be better, you MUST stay away from intoxication of any kind. Maybe get a gym membership, read the daily bible verses the bible app posts everyday, pray....and just show up and work somewhere. Gotta keep the mind busy. 
It is also really important you look into Christ and believe that he died selflessly for man, as an example of our sin, as an example to men. 
All other philosophies give insight, but the biblical one gives REAL results.  "	0
   	 2017-03-19 01:24:34 	 Babe 	0
   	 2017-03-19 02:04:27 	 Sexual intercourse with mechanical devices isn't my thing... 	0
   	 2017-03-19 02:06:47 	 Do you ever not heat something all the way over your fire, or Camp stove? Well now for the low price of 19.99 you can not heat it all the way, IN STYLE.   	0
   	 2017-03-19 02:11:33 	 Wow really? Thanks for the info, ill go take the microwave apart, but first let me do some meth and scratch my skin off thinking about the possibilities.   	0
   	 2017-03-19 02:47:47 	 I think the main point here is the void in most people, as the hot-pocket spins with the drone of the microwave in the background, no heed given to flipping or turning. As soon as the timer goes off, it gets taken far enough away, that even the cold center becomes another mere disappointment in life, so we make due, the coldness of the center passes,in the same way the thought of walking to reheat slipped away into the true cold center, that grasping void.  	0
   	 2017-03-19 03:21:13 	 Leaving a spoon in soup, or whatever you are cooking that is liquid, I hear works well with helping it heat faster.....like really fast. 	0
 What is the MOST annoying thing customers do in the fast food industry? 	 2017-03-19 03:24:39 	  	0
   	 2017-03-19 03:27:09 	" Im not saying that I specifically do not reheat things, I just find the way this content sort of went off into a depth kind of funny. I would wager and say we all have those moments where we say, ah what the hell. 
Although when you do live in that success mindset it tends to drive those what the hell moments down to a minimum.   "	0
   	 2017-03-19 03:28:52 	 To me it is how it was written, rather than the content that is funny, I don't find the meaning of the post hilarious at all, but the dramatization of the matter, very funny.  	0
   	 2017-03-19 03:33:13 	" I hate when they read the menu, know that we sell something, then say, ""do ya'll have that Chicken sandwich for sale""?. "	0
   	 2017-03-19 03:46:43 	 Yeah our managers are always freaking out about the time, yet the approval rating of the food or the quality is at a tremendous low. I got pissed one day and told them that if they didn't focus on speed and they focused on doing the job right, we wouldn't have to worry about time as much. If people couldn't wait they could leave but then the reverse would happen, people would be so happy with the quality they would find a time to come try the food.  	0
 What are some of the MOST unethical work practices you have ever seen? 	 2017-03-19 03:53:07 	  	0
   	 2017-03-19 03:57:44 	 Canadian skanks! 	0
   	 2017-03-19 03:59:19 	 Thats not unethical, calling a human illegal however, is unethical.  	0
   	 2017-03-19 04:00:50 	" I have worked in the Animal Shelter ""non-profit"" sector, I know. Although the chemical they used seemed very quick and painless.  "	0
   	 2017-03-19 13:49:35 	 That rarely ever happens, unless you work in some specific field. Plus they are people too, that deserve jobs. It even says in scripture that no one is illegal anywhere.   	0
   	 2017-03-19 14:13:14 	 Besides man, people are people and if you suck bad enough work ethic wise that you cant get a job because of someone else, you should probably take a look at how well you work and where you go to get a job.  	0
   	 2017-03-19 23:48:26 	 I stole this off of Instagram, not going to lie about it.  	0
   	 2017-03-19 23:49:06 	" http://instagram.com/fappingtosh_plus

Have fun.  "	0
   	 2017-03-19 23:49:13 	 http://instagram.com/fappingtosh_plus 	0
 Fuggin Noice M8 	 2017-03-19 23:53:19 	  	0
 The Game 	 2017-03-20 00:15:18 	 [removed] 	0
   	 2017-03-20 16:34:48 	 The way the other frog turns to watch  	0
   	 2017-03-20 17:55:50 	 Daniel Radcliffe....is that you?  	0
   	 2017-03-20 19:32:12 	 No, it's you 	0
   	 2017-03-20 19:37:18 	 Im glad this happened, we just made a positive interaction. My mostly antisocial life littered with awkward filler comments has finally paid off.  	0
 What is the most spiritual or God like occurrence you have experienced naturally? 	 2017-03-20 19:55:17 	  	0
   	 2017-03-20 19:58:01 	" Natural meaning not ""induced"" not relating to the body being intoxicated and reacting to a poisoned state.  "	0
   	 2017-03-20 20:45:36 	" For me that usually means I listen to what sounds good regardless of genre. Granted the majority of country I do not like, but every now and again I will hear a song that breaks that mold and sounds good. 
I mean in every single genre there are masses of stuff that sound like trash.   "	0
   	 2017-03-21 08:19:15 	 My muse,my flame.  	0
   	 2017-03-21 15:16:37 	 She does date an older IT professional, so maybe you got a shot lol. Hopefully not though, sorry buddy, but I really would like time with her.  	0
   	 2017-03-21 15:24:18 	" I could write a thousand and more just for her, it still would not be enough. 
A thousand and more have been spoken in her name, in vain, to what avail, to what gain? 
She is a distant muse, the object of my desire, my flame. 
It is my sickness, my pacifier, for some long forgotten pain, now it dwells in images out of reach, unseen by the sane, us all much alike, the same.  "	0
   	 2017-03-21 19:53:18 	 Cool, whats my ticket number? How long do you think? Eternity? Thats ok with me, all Ive got is time. My spirit will keep me sustained until we meet.  	0
 Emma 	 2017-03-22 00:55:19 	  	0
   	 2017-03-22 03:42:40 	 This is my all time favorite, always makes me feel better,Reassured even. 	0
   	 2017-03-23 01:11:06 	 AF 	0
   	 2017-03-23 04:52:48 	" The point of dressing provocative to attain sexual attention is of one spectrum, as to loving the aesthetic nature of an outfit or whatever to the other spectrum, of many. I think we should all feel empowered and comfortable to be fully nude, thats true freedom. People will dislike a modest outfit, a provocative outfit, a fully nude image, so really it comes down to this. 
What really finalizes the score, is the intention behind the photo, the thought process and the goal.  "	0
   	 2017-03-23 16:13:29 	 They have even been pasteurized, for your safety, of course.  	0
   	 2017-03-23 16:15:41 	" They probably still got filmed and payed per the contract details. Kind of pointless people who are living well get paid to go out and ""survive"" when they could have paid people who are barely surviving to survive better, man what a world we got going on.  "	0
   	 2017-03-23 16:27:37 	 I posted something on Reddit....Bam, instant Karma.  	0
   	 2017-03-24 00:43:42 	 They already collect much of this data through your email being logged into google while searching along with various other examples. Soon as you buy something on a computer you will forever get promotions for similar items. Opera Add blocker works pretty well.  	0
   	 2017-03-24 00:44:54 	 This sounds like a very Liberal thing to do....you know, open minded to change, total liberal thing to support.  	0
   	 2017-03-24 00:48:12 	" VPN exit nodes in most countries still fall under local laws and collect all kind of user data. Its only good to get around blocks, but as far as safety, yeahhh right. If they have interest in someone, they will tag and track even VPN data, easily. Like if an exit node is in France, go read french internet laws. 

If the VPN company is American they could still totally be tracking and saving all data. If you cant trust things already set up, why do people think they can trust third party companies with privacy? Whats to say there are no set up systems designed to trick people with security? All the while thats how people have been getting caught.  "	0
   	 2017-03-24 00:59:46 	 You don't realize their capabilities.  	0
   	 2017-03-24 01:10:56 	" See you may confuse bad people with decisions of the entire conservative objective. Being a Conservative to me is about doing what works and making those things better, many things are of a value basis for us, the Liberal agenda is about being open to things just for the sake of doing whatever people want, without realizing many peoples opinions are shit. Just because someone has an opinion does not make it worth a single cent. 
Like abortion and legalizing all things for the sake of giving people a decision, I should not have to tell people not to go pick up tar off the road and eat it,  as soon as you tell someone not to do it, now everyone wants to do it cause they saw a buddy do it. Naturally when a few kids die they make it illegal, then you have a mass of dumbasses with signs saying legalize road tar for recreation, compile a lot of pseudo data to support the agenda, completely oblivious to ACTUAL science.  

Thats kind of what I think when I hear Liberal.  "	0
   	 2017-03-24 01:20:54 	 https://wallethub.com/edu/credit-debit-card-fraud-statistics/25725/ 	0
   	 2017-03-24 01:40:33 	 I didn't deny climate change, there you go grouping a group of people with a few people....I bet you are racist as much as you are stereotyper.  	0
   	 2017-03-24 01:50:42 	 Because we are Supreme  	0
   	 2017-03-24 02:47:11 	 People have the choice of condoms and contraceptive but they are too stupid already. Dumb bastards.  	0
   	 2017-03-24 02:57:42 	 You are so mad hahahaha bet you do drugs you hippie.  	0
   	 2017-03-24 06:43:27 	 Oh yeah, because it will be broken so the average Joe will go and use the exploit and rob....the hackers already know the exploits...duhhh 	0
   	 2017-03-24 06:56:14 	 Do you? 	0
   	 2017-03-24 16:36:29 	 The anger is obvious, its funny.  	0
   	 2017-03-24 18:17:40 	 Nahhhhhh  	0
 Pouty face 	 2017-03-25 02:18:53 	  	0
   	 2017-03-28 05:16:22 	 https://youtu.be/99E9fDgZZuE 	0
   	 2017-03-28 05:23:43 	 You're* 	0
 When in Rome 	 2017-03-29 01:31:37 	  	0
 Walk around like I got that 36 inch chain. 	 2017-03-29 01:32:27 	  	0
   	 2017-03-29 05:11:48 	 Ur fukin uncle m8 	0
 Original SadBoy 	 2017-03-29 21:46:49 	  	0
   	 2017-03-30 04:33:13 	 Mmmm moist and misty morning mates  	0
 When a nigga say obtuse 	 2017-03-30 04:39:56 	  	0
 The Original obtuse 	 2017-03-30 04:52:00 	  	0
   	 2017-03-30 16:48:11 	 I think some people have experienced so much trauma and BS, that they process the emotion like anyone else, but the duration at which they do is shorter and maybe less dramatic than most. Possibly their release of chemicals for that emotion might be less because they have been so over burdened with emotional responses in the past. Like going numb, but still feeling the context of the emotion, being able to respond and such yet without much of the overdramatic facial expressions and child likeness of most people.  	0
   	 2017-03-30 16:50:44 	 They didn't kiss their hands and throw them to the sky? I mean I imagine a whole plane full of kiss noises and hands flying in the air with a lot of Italian babble, presumably to the virgin Mary or something.  	0
 Obtuse AF!!! 	 2017-03-31 05:30:34 	  	0
 Drinking is like the fat girl of substances. 	 2017-04-01 00:23:33 	  	0
   	 2017-04-01 01:26:26 	" You sometimes enjoy it, most of the time it ends in regret and a headache. You don't really brag about an alcohol problem unless you are bragging to other alcoholics, not that other substances don't give you issues, but you can drive high and have a good time. Drive with fat girl alcohol in the car and not only will you get a dui but people judge you way more heavily. 
You normally only resort to alcohol or drunkness out of desperation of some sort.....then that throws in low standards and BAM, now you drank the fat girl of substances and are now in a 90's model astro van with Lacy Jenkins.  "	0
   	 2017-04-04 06:24:06 	 Emma Watson 	0
   	 2017-04-05 20:01:26 	 Son of a bitch, I sure am.  	0
   	 2017-04-06 16:19:01 	" Yeah another law, all they will do is fudge paperwork the same way Non-profit no kills do here in America. Worked for one, they are allowed to call themselves No kill yet they cant have above a 10% kill rate.....yet it ran in the almost 50% and above range. Those places are a money laundering tax shelters from hell.  
 "	0
   	 2017-04-11 04:12:52 	 God,....I love this girl 	0
   	 2017-04-16 04:15:13 	 Babe 	0
 Headish 	 2017-04-17 00:17:22 	  	0
 Written in blood 	 2017-04-17 00:18:01 	  	0
 Sociopathic 	 2017-04-17 00:18:43 	  	0
 Look Sharp 	 2017-04-19 00:35:33 	  	0
   	 2017-04-19 06:59:40 	 The A-Bomb leaves the land leveled...clean shaven... 	0
   	 2017-04-19 07:21:05 	 It is fan made I think, found it on Instagram....talented artist. Like the redness under the eye, gives it a particular mood set.  	0
   	 2017-04-19 07:44:41 	 No its not, Harry Got ripped, shun the non believer!!!!! Shunnnnnnnn!!  	0
   	 2017-04-19 07:47:27 	 I call your mom, nightly.  	0
   	 2017-04-19 15:41:25 	 http://instagram.com/wayriding 	0
   	 2017-04-19 15:41:37 	 http://instagram.com/wayriding 	0
   	 2017-04-19 15:41:42 	 http://instagram.com/wayriding 	0
   	 2017-04-19 15:41:58 	 http://instagram.com/wayriding 	0
   	 2017-04-19 17:16:13 	 If you have to put the game to explain it to people, they have never played it anyways. All I had to see was the bottle caps.  	0
   	 2017-04-19 19:30:31 	 Who cares, lets watch this motherfucker burn.  	0
   	 2017-04-19 22:34:26 	 They don't pay me, screw them, if they wanna pay me to find fan art and repost....then I might mention them.  	0
   	 2017-04-19 22:58:33 	 Well thanks to people like you, you can tell them for me.  	0
   	 2017-04-19 23:00:24 	 Thats why its social media, socially I don't agree with having to adhere to others title specifications, most things on reddit reveal all the details in the comments, thats why the comments of reddit are better than the majority of the content.  	0
   	 2017-04-19 23:31:40 	 http://instagram.com/alechugill 	0
   	 2017-04-20 02:03:44 	 Ask 	0
   	 2017-04-20 02:09:35 	 Just like you are being over zealous about it not being in the title, and not simply just asking....instead you try to impose your title specifications on others. To be honest I posted it for people who know the game, im not trying to spread awareness about some old ass game, you're being difficult because you like things your way, and im just telling you im never going to do it even after you tell me. To be honest with you I never even bought or played the game myself more than a few hours...never played anything outside of Elder Scrolls.  	0
   	 2017-04-20 02:12:32 	 How much effort would it take for you to just ask? How much effort and time would that take apart from all the suggestions you leave? After all this time you could have gotten the answer like 30 times.  	0
   	 2017-04-20 02:46:37 	 Bill Nye....yeah id be rude too prolly.  	0
   	 2017-04-20 02:47:06 	 Bill Nye is confused greatly  	0
   	 2017-04-20 02:47:52 	 He seems intoxicated  	0
   	 2017-04-20 03:39:12 	 Making love could be nothing more than staring into her eyes. The things I would give up to spend a day with her, be a pleasure to hear her thoughts voiced into reality.  	0
   	 2017-04-20 05:14:47 	" But I'm not that OP.....also there are multitudes of posts on here with like 20k and absolutely no mention of the title whatsoever. Mine has like 2k and only one person seems to have a particular hard on for title specifications. Im not saying I disagree with the context of what you are saying though. 
Im just used to being somewhat social and staying on top of my posts enough that truly I didn't even consider naming it. Plus I would not know which game to even put as the title, this fan art doesn't really imply which one, at least to my knowledge of those games.  "	0
   	 2017-04-20 05:21:07 	" You might be right, out of 2k likes what I find funny is only  one person finds the need to tell me how I should title my post simply because they feel it will somehow help people discover a game. 
Furthermore, limiting their need to be social and just ask a question to invoke a conversation among people to discover the game instead.  
I guess what im saying is I see your point, yet after much digestion before replying, I see it as something I can easily pass by and continue to do it my way without having to feel as though im a standoffish jackass who only wants it my way. 
In my own perception, my way is equally if not more beneficial. Unintentionally.....but still easily rationalized into something good and completely normal.    "	0
 And so.....it was done. 	 2017-04-22 04:44:35 	  	0
   	 2017-04-22 21:46:43 	 Sparse nights, spent engulfed in satin. 	0
   	 2017-04-25 09:23:19 	 http://instagram.com/lauvdahl 	0
   	 2017-04-25 09:23:29 	 http://instagram.com/lauvdahl 	0
   	 2017-04-25 18:34:36 	 The sword to my affections, the cause for my reflections, the catalyst that triggered my desire for heaven.  	0
   	 2017-04-26 18:50:57 	 You can hear forced? Its understandable not to like a particular line that was thought and written within 1 full minute. I think the comma you used between hell and too sounds forced.  	0
   	 2017-04-26 18:55:21 	" If I had of taken more time Im sure I could have easily thought of something more elaborate. 
The sword to my affection, meaning my affections for her, someone I have never met, getting damaged many times because of this state that I am in, coming to view her, having her as an expectation or a mirage in the Desert.  "	0
   	 2017-04-26 19:03:04 	 To be honest, it would not surprise me if many down votes are from bot accounts or one dude who has 100 fake accounts that just despises something heart felt. At first I had up votes, so some people did like it, some worthless neckbeard comment with no meaning other than animosity gets self voted up more than likely. Reddit is a cheesy place anyways, its typical for a true neckbeard as they say, to go around and trash on everyone else. Words like Cringe and Neckbeard lets you know automatically that the poster is probably a teenager or one of those internet junkies.  	0
   	 2017-04-26 22:06:26 	 Yeah, forced punctuation. Its what people do to seem more intelligent than they are.   	0
   	 2017-04-26 22:17:54 	 Your punctuation might have been correct if you actually talk like that....and if you do, then ill say that would sound pretty weird. I had a college reading level in the 5th grade, so im pretty sure ill be alright.  	0
 Hadouken!!! 	 2017-04-27 06:21:46 	  	0
   	 2017-04-27 08:31:59 	 Looks slightly unnerved to me, a little concerned with a hint, and just a hint, of annoyance.  	0
   	 2017-04-29 03:40:02 	 Repost right after I posted this gets front page status lol 	0
 Saw this in the mall today. 	 2017-04-29 23:11:20 	  	0
   	 2017-05-01 04:42:36 	 Debt, hell of a drug.  	0
   	 2017-05-05 06:12:24 	 In some other place, where this time had not taken its tole, maybe there and then, I could have known the love you had to offer.  	0
   	 2017-05-06 00:41:23 	 Wtf is he doing with my woman?  	0
   	 2017-05-06 00:49:21 	  	0
   	 2017-05-06 01:35:14 	 That doesn't actually bother me, especially considering she seems to stay in relationships and is not filthy or provocative. He looks respectable also, I just wish I had the opportunity to date her, sex is the last thing I think of when I see her.  	0
   	 2017-05-06 01:56:08 	" I can bench press 215 so far lolol.... for real though, she might marry powerful just considering her notoriety, then again it might be best for her to marry humble and consider a more simple life.   
To me she seems like a moderate person, im sure who ever gets to marry Emma Watson will be a hell of a guy.  "	0
   	 2017-05-06 21:52:01 	 It doesn't matter to me, I wont delete my comments because of some NPC mofos.  	0
   	 2017-05-06 21:53:13 	 It is not about approval or anything like that, that was my decided upon response to how I feel.  	0
   	 2017-05-06 21:54:54 	 Im sure all the people here don't know her anymore than I do, hell, she prolly even has similar feelings about personal situations. People who legit care about Karma are pathetic.  	0
   	 2017-05-06 23:00:34 	 Maybe you can shut the fuck up.  	0
   	 2017-05-07 02:12:09 	 I don't delete things like, ever. When I do its because I personally disagree with that I said.....has nothing to do with other people so much.  	0
   	 2017-05-07 04:32:28 	 Just tarred uhv beein ahwayk  	0
   	 2017-05-08 19:03:21 	 I want Emma to help me find a rad Job that I can contribute my time to and earn money while I also make an impact, one I feel is worthy of her affections, that I so desire.  	0
   	 2017-05-09 08:29:54 	 Great job!! Same case here.  	0
   	 2017-05-09 20:34:48 	 Im going to reread this tonight before I go to sleep, the perfect scenario.  	0
   	 2017-05-10 04:13:19 	 This is some Forest Gump shit 	0
