title	date	text	class
   	 2014-04-27 16:31:42 	 :( 	0
   	 2014-04-27 16:36:41 	" Since Braavos shows up in the ""Secrets"" trailer and Ser Davos wrote a letter to the Iron Bank last episode; I'm presuming that is where he and Stannis will be heading to in the next two/three episodes. "	0
   	 2014-04-28 15:00:42 	" [Theory regarding what was happening to the baby:](#g ""It would be interesting if the White Walkers could only turn dead people into Wights, however could turn living people into full-on White Walkers."") "	0
 [S04E04 Spoilers] Something I noticed in the ending of the latest episode. 	 2014-04-29 15:30:38 	  	0
   	 2014-04-29 16:05:43 	 The Night King was the 13th Lord Commander of the Night's Watch. There were 12 White Walkers in the background in this scene, making the one that approached the baby; the 13th. This doesn't necessarily mean anything, however it could be symbolic.   	0
   	 2014-04-29 16:55:40 	" 12345

EDIT: Fuck. "	0
   	 2014-05-02 14:08:28 	 I hate to be that asshole, but doesn't this majorly break rule one? 	0
 What is something you'll always find magical? 	 2014-05-02 14:16:21 	  	0
   	 2014-05-04 16:38:27 	" Even though they didn't have a scene in S4E4, Stannis and Ser Davos are probably already on a ship, [ASOS](#b ""on their way to Braavos."") "	0
   	 2014-05-04 23:15:29 	" Actually, I just realized that Mhysa actually means mother in the Ghiscari language, not low Valyrian.
 "	0
   	 2014-06-18 17:46:08 	 Honestly at the moment I think Miiverse is the best gaming community for a console out there. 	0
   	 2014-09-12 18:17:32 	" sips my slut, please play SCP containment breach - http://www.scpcbgame.com/
 "	0
   	 2014-09-27 22:29:14 	 Pretty solid episode. Didn't really get boring, good/funny writing, introduced a new companion (I like that they're copying Amy and Rory with Clara and Danny), big advancement on the Promised Land mystery in the last scene. Best episode of the series so far. 	0
   	 2014-10-03 22:46:11 	 Timesplitters 2 had an awesome soundtrack, but [this was the best.](https://www.youtube.com/watch?v=O89jzT55ELs) 	0
 Well this is just great... 	 2014-10-06 18:01:31 	  	0
   	 2014-10-07 14:58:32 	 Even though xxPielsTastyxX is correct, the flight time of the entire mission would of only been about a minute long. I attempted launching a large platform craft, however it ran out of fuel as I was hovering over the ocean. Parachutes were then engaged and somehow a big piece of platform and an escape pod survived. 	0
   	 2014-11-03 17:22:36 	 Only in earlier operating system versions. 	0
 What did everyone think of The Babadook? 	 2014-11-08 16:48:08 	 Pretty good horror film that managed to glide away from typical horror film clichs, however I felt the third act went downhill a bit. 	0
   	 2014-11-08 20:46:57 	" After watching the preview of this episode, here is what I think will happen:
Clara is pregnant, that is what she was calling to tell Danny before he died. Danny is going to die in this episode and be converted into a Cyberman. When converted into a Cyberman, something will happen that causes him to retain emotions and memories of Clara, they will then discuss Clara's pregnancy and have a heartfelt goodbye.
Clara's baby will then be the ancestor of Orson Pink. "	0
   	 2014-11-08 22:27:45 	 She probably is still pregnant, in the last scene in the cafe she was about to tell the Doctor something before the conversation turned to Gallifrey. Besides, Orson Pink still needs to be born in the future with Danny and Clara as his ancestors. I'm surprised it wasn't revealed in this episode though. 	0
   	 2014-12-19 18:34:42 	 A word of warning if you purchase those GTX 970s from Amazon UK, don't do it. Take a look at the graph at the bottom of their page, the price is going up and down too often for my liking. I'm presuming however you're going to be buying them from Ebuyer anyway, but just in case. 	0
   	 2015-01-13 01:37:36 	 This ought to be good.  	0
 [Build Help] Question about graphic drivers when upgrading graphics card. 	 2015-01-14 21:31:12 	" I'm upgrading from an MSI GTX 670 to an MSI GTX 970 4GB, my question is that do I need to uninstall and reinstall my graphics driver for this? The issue is that when I check Nvidia's website, the graphics driver for my current GTX 670 is exactly the same as the GTX 970 I'm upgrading to?

Check the supported products section here: http://www.nvidia.co.uk/download/driverResults.aspx/80943/en-uk "	0
   	 2015-03-08 20:21:52 	 Drunk Cersei was one of the highlights of season 2, so I'm pretty hyped for this season. 	0
   	 2015-03-09 19:49:53 	 [Interesting shot](http://i.imgur.com/D5BL3sf.jpg) shows Jorah in the fighting pit/arena [where Dany is later on.](http://i.imgur.com/bnmuiox.jpg) Take note of the Targaryen flag in the background in both photos. 	0
   	 2015-03-09 20:16:06 	 Was taking a look at that picture again, I'm pretty sure you're right. There is a small chance it could be Daario Naharis though. 	0
   	 2015-04-03 17:57:42 	 Man, I want to use these space stations but I can't handle 850 parts. Normally I'd weld these to something like three parts, however there are too many modules on this.  	0
   	 2015-04-29 20:08:20 	 She is a red head. Epsilon tracts talk about red heads 	0
   	 2015-04-30 19:30:22 	 Her influence and rule are two different things. She has direct physical rule over all of Slaver's Bay as of Season 5, that includes Astapor, Yunkai and Meereen. However her influence actually spreads further than that. There is a scene in the latest episode where a group of people pray for her in Volantis, which is much further west. It would be hard to calculate, however I'd say she actually has influence over a large portion of Essos. 	0
 Claustrophobia 	 2015-07-20 19:43:52 	  	0
   	 2015-07-20 19:45:27 	" Film recently released called ""It Follows"". I'd recommend it. "	0
