title	date	text	class
   	 2013-12-25 18:32:54 	 Excellent photo continue to make more and have a Merry Christmas 	0
   	 2013-12-26 06:25:07 	 sadly i also didnt either like alot of people, but we did all say merry christmas and people were quite cheerful, that made my day :) 	0
   	 2014-01-11 20:32:10 	" I agree, the art also doesn't bother me too much but I would like new items.
 "	0
   	 2014-01-11 20:35:02 	 Nice wallpaper, not too big a fan of Thor but it's still very nice 	0
   	 2014-01-13 07:45:56 	 HALF-LIFE 3 CONFIRMED  	0
   	 2014-01-13 19:26:59 	 I would really love to see a Neith background, one of my favorite gods 	0
   	 2014-01-15 12:22:16 	" what game is the review for?
 "	0
 How to get cats? 	 2014-01-23 08:19:02 	 does anybody know how to get cats would love some feedback, thanks. 	0
   	 2014-01-24 22:00:28 	 Thanks for the responses on this great help, now i know how to get more cats :D. Thanks guys, you were a big help. 	0
   	 2014-01-29 15:07:51 	" that would be great for a me, being a bandit, i would paint ""Friendly inside!"" take them hostage then have some fun and then let them go after ransacking them. "	0
   	 2014-01-30 00:13:24 	" Haha the trading in Civ 5 is fucked, I offered the Celts everything I had for a defensive pact, they said no :/

http://steamcommunity.com/sharedfiles/filedetails/?id=200965522

http://steamcommunity.com/sharedfiles/filedetails/?id=200965473

http://steamcommunity.com/sharedfiles/filedetails/?id=200965500 "	0
   	 2014-05-27 15:23:44 	 I honestly would love to see a 2v2 tournament because I only have 1 friend who I really play with, it really sucks that I want to enter but I don't have a team, mainly because of timezone issues so people I do add are all on different times. 	0
   	 2014-06-03 16:54:30 	 I would love the Kali skin because I'd love to have a convention skin and also because It's one of the only good Kali skins. 	0
   	 2014-06-05 09:45:50 	 Neith being my favorite god, I would love this. 	0
   	 2014-06-05 16:16:04 	 Just send me a message over reddit or add me IGN: train_subject8459 and we can talk. 	0
   	 2014-06-05 16:27:38 	 Neith rank 9, going to be first to ten :D 	0
   	 2014-06-07 18:46:58 	 There once used to be a super monster known as Kali, when she went jungling and got all three buffs she would be invulnerable. 	0
   	 2014-06-09 15:30:50 	 What region is it for, NA or EU? 	0
   	 2014-06-10 11:46:26 	" Might be able to get a copy for you, I'll post again if I do so to stop multiple attempts
 "	0
   	 2014-06-10 11:56:53 	 Done and done 	0
   	 2014-06-12 13:58:21 	 Does anybody know if you get a total of 150 gems, or does it stack each time so you get a total of 600? 	0
   	 2014-06-14 12:31:42 	 Your job is to try and help teammates, whether it's bodyblocking basics to save them, or using abilities to help them. Another job of yours is to set up kills for people and try to help them obtain kills. On top of this, you must ward all around, steal objectives with hand of the gods rank 3 and rotate all around helping other lanes and taking mid camps. 	0
   	 2014-06-14 18:21:46 	 Can look at stats here https://account.hirezstudios.com/smitegame/stats.aspx 	0
   	 2014-06-16 14:33:22 	 Which do you think is your favourite god as support. 	0
   	 2014-06-16 14:43:26 	 Who's the god to the right of you (With gold skin)? xD 	0
   	 2014-06-16 17:20:58 	 I had that problem, we fixed it by remaking the party 	0
   	 2014-06-18 18:27:50 	 His 3 (Grasping Hands) already gives a slow 	0
   	 2014-07-14 23:38:32 	 It does seem to be that way, all of the players I've used it with have been friendly and it really helps improve your teamwork, the only downside is when you go to chat and only one other person has it. 	0
   	 2014-07-15 17:19:58 	 As soon as I saw this I thought of the custom W3 maps too, could be good for inspiration. 	0
   	 2014-07-26 08:57:05 	 Support Apollo 	0
   	 2014-07-26 09:13:11 	 I love when people are actually friendly and a lot of fun can come from it, wish I was in that game with you sounded awesome. 	0
   	 2014-08-19 13:47:16 	 I just tend to sit there searching the Smite reddit... like most other people 	0
   	 2014-08-19 14:18:30 	 Mine was stuck there for a few minutes around 7 minutes ago or so, but after a while it started to go up again, so for me all I had to do was wait. 	0
   	 2014-08-19 14:34:03 	" They said on a reddit post that you won't be able to obtain it until after odyssey since that way you would be able to get the skins for 200 gems instead of 600 gems.
http://www.reddit.com/r/Smite/comments/2dz1ro/buying_treasure_chest_for_runexe/

Edit - Link "	0
   	 2014-08-19 16:45:53 	" Guardians ~ Khumbhakarna, Geb and Athena

Warriors ~ Hercules and Sun Wukong

But I mainly just like the Guardians, not a big fan of warriors for support
 "	0
   	 2014-08-20 11:17:38 	 Thought had a question mark next to it :/ but yeah he seems to go in and out, I think he would be just out of the warriors but not really overall in the supports. 	0
   	 2014-08-20 11:29:44 	 Hoping for a Neith skin 	0
   	 2014-08-23 17:06:36 	 P S with Garterbelt is an awesome series... if only they made season 2 	0
   	 2014-08-23 19:12:06 	 When I get a Geb shield on at the last second saving them with the smallest amount of health and they escape (although it generally inspires people to run back in *sigh*) 	0
   	 2014-08-24 05:07:53 	 Keep in mind, this way also helps encourage the support when to ward, generally you should make sure the area is clear before putting down a sentry to clear another in case this happens^^ but as somebody who mains support, it does get annoying being unable to rotate to a fight because that ability was used for a ward. 	0
   	 2014-08-24 05:23:23 	 I play a fair amount of conquest and these all seem normal picks to me but I can still run Neith solo, Ra mid/solo, (Can't jungle). What servers do you play on, NA or EU? 	0
   	 2014-08-24 15:13:27 	 That seems about right 	0
   	 2014-08-25 10:18:38 	 Exactly, I'm getting sick of players who just want a snowball game, who cares if you're down eg 10 kills, if you work together and try you could actually bring it back instead of surrendering. 	0
   	 2014-08-25 14:21:06 	 Before the Cabrakan update in which it fixed itself, I couldn't hear any gods taunts, jokes or laughs. Can you hear any of them for other gods? 	0
   	 2014-08-25 18:38:47 	 Another piece of advice is actives, while beads can be really good, on a support it would be wiser to get something that helps your team, e.g. heavenly agility, shell or creeping curse. And would be nice to get a reply for feedback but can't since it is only for ranked, but looking at your stats you didn't seem to have done bad. If you have any questions feel free to PM me. 	0
   	 2014-08-25 18:42:46 	 Each god has a Gold ~ God Rank 1, Legendary ~ God Rank 5 and recently added in the Cabrakan update Diamond ~ God Rank 10 skins. 	0
   	 2014-08-26 17:15:38 	 The best/main way to join a professional team is to play league and get to somewhere such as masters and get people to notice you. Good luck on your quest to make it big. 	0
   	 2014-08-27 09:54:17 	 Heyo 	0
   	 2014-08-27 10:06:07 	 Well good guy Greg, have you seen... support Apollo?! 	0
   	 2014-08-27 12:13:03 	 Not to be rude or anything, but I could not understand what that meant. 	0
   	 2014-08-27 12:25:35 	 Whilst it is a good idea in thought, in theory it would fail as somebody could always just leave an obvious loss just so that the team doesn't suffer as big a TP loss. 	0
   	 2014-08-27 16:17:04 	 If that happened in rank.. no no, but the reason Apollo can support is the protections he gains from his mez (in case you were wondering). Also, you need to try two junglers, just get somebody who can play safely on ADC and maybe have them play Neith. 	0
   	 2014-08-27 18:21:59 	 You can also find it easier to play with a friend and have them if they video, choose somebody who you'll talk with and will help you lighten up and not feel too nervous. 	0
   	 2014-08-28 09:40:43 	 Whilst it is a good thought, I find that it's just such a waste of water. 	0
   	 2014-08-28 09:49:30 	 Looking at their team, I'm guessing they ran Apollo and Artemis duo? 	0
   	 2014-08-29 19:21:19 	 Would be great if somebody in the community could do this to work with you and create a proper launcher image as not much can be judged with that, although it doesn't seem like a bad idea. 	0
   	 2014-08-30 17:35:29 	 Well I play Aphrodite Solo, I prioritize warlocks sash so that I get get the stacks early and sometimes I like to start with a bumba's mask since the mana regen on that can really help, but otherwise I'd go with a shroud. 	0
   	 2014-08-30 20:34:38 	 Would be awesome if they tested out an all chat like in LoL, then you could talk to each other and compliment them easier. But would need to be used for a bit and get feedback. 	0
   	 2014-08-30 20:36:05 	 What game is it? 	0
   	 2014-08-30 21:34:19 	 It appears it was developed by Ymir, so it must be good! 	0
   	 2014-08-30 21:37:19 	 Kali 1v1 	0
   	 2014-08-30 22:06:13 	 And unlike 4v4 because it's chaotic, the game games go faster, as apposed to just farming, one side team wipes and then it's gg. 	0
   	 2014-08-31 13:09:44 	 Don't worry, Athena is just as good. 	0
   	 2014-08-31 15:57:44 	 I currently have him to mastery 10 and personally feel he is not as fun as the other Guardian's, the thing going for him is the moment when you get a shield off that saves somebody at the last moment. 	0
   	 2014-08-31 15:58:50 	 I miss old Freya when you could build physical items and crit with her. 	0
   	 2014-09-02 15:02:24 	 On top of that, people with actual issues (such as recently my power went out) would suffer for something they couldn't help, which isn't really fair. 	0
   	 2014-09-02 15:17:47 	 But then it's a Hercules support who doesn't need that petty health pot. 	0
   	 2014-09-03 13:20:43 	 Don't forget you can place a ward around the corner so that when the time comes, certain gods will have vision, such as Neith having vision for her ulti 	0
   	 2014-09-03 13:23:14 	 Khumbhakarna, chasing enemies who can't do any damage to you and yawning them over and over is so amusing 	0
   	 2014-09-04 09:39:41 	 Also if he does this, try to save him but don't let him rope you in and get you killed also. 	0
   	 2014-09-05 17:50:10 	 Yeah, but it does make a difference when one team has a Guan Yu and the other team has nobody to heal. 	0
   	 2014-09-10 13:43:03 	 If I see more of these types of posts.... dear lord shoot me 	0
   	 2014-09-10 13:54:45 	 9mm rounds 	0
   	 2014-09-10 14:16:10 	 Atleast make the shot a clean one so I don't suffer for a long time burning 	0
   	 2014-09-11 17:00:35 	 It is wonderful! How much for this piece? 	0
   	 2014-09-13 13:26:04 	 This sounds like a scam... will you do it for 0.03 instead? 	0
   	 2014-10-09 08:28:53 	 You'd be best just playing it anyway and learning, try to explain to people you're trying to learn conquest since you don't play it much, a few will still BM and a few will understand, but even if you go 20-0 there with be somebody going 1-13 who BM's you. 	0
   	 2014-10-10 10:52:46 	 Unless you get in a queue with people like me who want to get support xD, it's a rare occasion to have two people call support. 	0
   	 2014-10-24 22:12:18 	 I shall achieve this skin somehow 	0
   	 2014-11-02 15:17:11 	 Last moment saves as Geb in a premade conquest 	0
   	 2014-11-14 13:18:43 	 I would be a great game to play, although atm not really due to the lag and queues because of the new expansion release, best to give it some time to die down. 	0
   	 2014-11-15 03:27:23 	 Currently 6496 on Frostmourne....BRING IT ON (This could take like 8 hours) 	0
   	 2014-12-02 12:45:56 	" What server was this on?
 "	0
   	 2014-12-09 15:08:28 	 Geb's roll out lasts forever and when roll out is active he ults around him 	0
   	 2014-12-15 09:34:48 	 So I guess we all care! 	0
   	 2014-12-28 14:39:18 	 Need to add a nothing option 	0
   	 2015-01-24 17:44:32 	 Larry the Sea Serpent and Karl the Siege Monster 	0
   	 2015-01-24 18:05:59 	 I would really love the SWC Ares Skin! My favorite god is Geb, his woohoo on G.E.B 1 is glorious and that feeling you get when you shield save is awesome.  	0
   	 2015-01-26 12:55:40 	 I must now do this... I was firetruck to victory~! 	0
   	 2015-01-27 22:27:12 	 I do believe it is just some emotes and the Poseidon and Neith skins.  	0
   	 2015-01-27 22:56:20 	" Well apparently shoes of focus are now first item for supports, get a massive amount of pots at the start and pick up mark of the vanguard
Here is link to how to build support season 2 ~ https://www.youtube.com/watch?v=0lWIFZ_gnFI
Edit: Video link "	0
   	 2015-01-27 23:57:43 	 The not confirmed but supposed date is 11th Feb 	0
   	 2015-01-28 01:39:31 	 Good god, I have no gems to spend and I want that Neith skin 	0
   	 2015-01-28 01:40:29 	 That would be the change over to season 2, which is hoped to be out by 11th Feb last I heard 	0
   	 2015-01-28 01:47:15 	 What server do you play on, because I rarely to never get anybody BMing me and friends when we play in a pre-made (Australian servers) 	0
   	 2015-01-28 03:57:44 	 What server do you play on? 	0
   	 2015-01-28 21:29:14 	 I'm good thanks 3, now if only PayPal did what they said, 3-5 business days instead of their current 7-15 business days *sigh* 	0
   	 2015-01-28 21:30:25 	 You get toughened out in casual conquest, the lack of constant ranked for us makes casuals the new ranked xD 	0
   	 2015-01-28 22:32:01 	 I do believe it's a harpoon. 	0
   	 2015-01-29 00:27:08 	 It will make it so the damage and root duration after hitting the first target won't be reduced. 	0
   	 2015-01-29 02:18:03 	 You could try running an event for female gamers looking to join a team, this could be to help them be recruited and put them in with other players looking to find and team and hopefully less abusive people. I do know that quite a lot of men abuse women over curse and in-game and I feel the professionals would not. (If you get my vibe.) 	0
   	 2015-01-29 02:29:55 	 Happy Cake Day~! 	0
   	 2015-01-29 02:46:57 	 Spliced~! 	0
   	 2015-01-29 06:20:54 	 Could add something like in Battlefield to make own icon 	0
   	 2015-03-23 12:37:38 	 Isn't that what everybody does? 	0
   	 2015-03-27 16:44:56 	 Nah they're harmless, just keep them around as pets. 	0
   	 2015-03-28 05:40:08 	 Who uses guns to stop a drop bear... just got to use some Vegemite behind the ear 	0
   	 2015-03-29 05:33:23 	 Hoxton Breakout Overkill 	0
   	 2015-03-31 12:04:18 	 And this is why we should all love cats 	0
   	 2015-04-02 07:02:03 	 Am I the only one bothered by the fact that her melee is a musket? 	0
   	 2015-04-06 10:47:44 	 The controller with the wire can be used on the PC for games that are difficult with a keyboard, e.g. Skullgirls or Assassins Creed. It also helps with emulators. 	0
 ELI5:Why do men wearing rings attract more women 	 2015-04-06 11:02:52 	 Why do men wearing engagement/wedding rings tend to attract the attention of more women? 	0
   	 2015-04-06 11:03:50 	 **Animal Farm, By George Orwell.** 	0
   	 2015-04-06 11:06:09 	 Tea, I find it more calming/relaxing. 	0
   	 2015-04-06 11:19:36 	 Yes.... you were sleepwalking... 	0
   	 2015-04-06 11:19:45 	 I may have missed something along the line, but what Hel skin is this, and what did you have to do to obtain it? 	0
   	 2015-04-06 11:23:44 	 Ouch, well I wish you good luck in acquiring the skin and hope that HiRez does give you the skin. 	0
   	 2015-04-06 21:17:18 	 He forgot a letter. 	0
   	 2015-04-06 21:24:50 	" I have a tendency to write ""shit"" and because I don't like to edit my work, it stays. "	0
   	 2015-04-07 06:15:47 	 Woops forgot, thanks for that :) 	0
 Odyssey Skins Still Available 	 2015-04-11 13:56:00 	 I was wondering as to why odyssey skins are available in chests, when they were meant to be exclusive to the odyssey event. Did HiRez tweet anything or put up a post giving an insight as to this decision and providing more information? 	0
   	 2015-04-11 14:21:39 	 From my memory, they said that these skins would be exclusive until the event ended, and once it ended, they'd no longer be available :/ .Well thanks for clearing this up, guess my memory didn't serve correctly. 	0
   	 2015-04-11 14:22:22 	 Shame, I wanted to feel special. 	0
   	 2015-04-11 22:23:33 	 How could anybody argue with that. 	0
   	 2015-04-11 22:45:04 	 Or the ability to have odd amount of players, so a 1v2 instead of making it have to be a 2v2 	0
   	 2015-04-11 23:30:48 	 ......Kukukachu, whatcha got there, oh a big, stupid doo-doo head. 	0
   	 2015-04-24 14:09:19 	 Or they could encourage donations and support through that, instead of making me pay $2+ for a minigame that let's me go fishing.... 	0
   	 2015-04-24 14:39:12 	 Sorry I chose that wording, I was playing LoL at the time so I didn't double check it etc. 	0
 ELI5:Why does hair go grew but eyebrows tend not to? 	 2015-04-25 16:55:39 	" Why is it, that a person's hair/facial hair can go grey, but their eyebrows tend not to? Or is it just the people I've seen and they do normally go grey?
 "	0
   	 2015-04-25 18:01:25 	 Depends on the game, but in some games e.g. Battlefield, you should never reload prematurely unless you are 100% sure it's safe, because you could always walk into somebody whilst reloading. 	0
   	 2015-04-26 04:04:06 	 Warlords? 	0
 What do you do to stop from getting bored? 	 2015-04-27 13:09:30 	 I recently stopped playing DayZ and have been thinking of getting back into it, but I just find the lack of goals to be boring. What do you guys do to stop yourself from getting bored, aside from playing with friends. 	0
   	 2015-04-27 15:09:55 	 These are some really cool ideas, I love em'. 	0
   	 2015-04-29 14:41:58 	 Yet less cars. 	0
   	 2015-06-03 16:31:04 	 Fallout 4 trailer just came out.... hype is real. 	0
   	 2015-06-11 10:27:11 	 Though I enjoyed it, I found it to be too linear and restricting, you don't have to work out different ways to solve puzzles, but have to do that one specific thing. 	0
   	 2015-06-11 13:16:17 	 I got to the point where there were roughly a thousand+ misc items outside the entrance to Whiterun. If you looked directly at it, your game would crash. 	0
   	 2015-06-11 13:26:10 	 After my many hours on Payday: The Heist and Payday 2 I've be conditioned to keep my eye out in buildings for the security guards and cameras. 	0
   	 2015-06-17 12:45:48 	" G7F2P-MWYJ9-3HHT4-KMQKF-XY9FZ
Hope you love it~!
Please reply if you get it, so others don't waste time trying to claim it. "	0
   	 2015-06-21 07:40:09 	" Could you provide a source for the irradiated storms, haven't seen anything on them :3.

Edit: Thanks for the sources guys. "	0
   	 2015-06-21 14:09:08 	 People have been complaining that they can't get a Pipboy Edition because scalpers have been buying them up and then selling them for at least double their original price; some going for around $300. 	0
   	 2015-06-22 15:29:17 	 I'd also recommend playing Fallout 3 as supposedly there will be references from Fallout 3 placed into Fallout 4. 	0
   	 2015-06-22 15:57:35 	" Todd Harris said in an interview that he will be one of the companions you can have.

Edit: Source ~ https://youtu.be/DqQqeEgWb7Q?t=8m45s "	0
   	 2015-06-22 16:30:55 	" There is a sample of each on the Fallout wiki.

Edit: Source ~ http://fallout.wikia.com/wiki/Gary_%28clone%29   Found under notable quotes. "	0
   	 2015-06-22 19:09:56 	 Haha woops, was a bit distracted at the time and tried to go off muscle memory :3. 	0
   	 2015-06-22 19:14:32 	 I'd recommend finishing NV and then moving on to FO3, this way you can take the extra time to read notes, look at the little nifty details and take it all in, before moving onto FO3. FO4 doesn't come out for another few months so don't bother rushing, take your time with each and enjoy every little detail you can. 	0
   	 2015-06-22 19:22:06 	 Not only that, but the random events that would trigger as you're walking around are awesome and keep you captivated and intrigued as to what will happen to you next. 	0
   	 2015-06-22 19:22:58 	 Thank you for putting the thought of HD Centaurs into my head... *shivers*  	0
   	 2015-06-22 19:25:57 	 'Yeah what a loser'. Now if you excuse me I have to sit here refreshing the page every 20 seconds looking for new posts for a game that comes out in 140 days. 	0
   	 2015-06-22 19:26:42 	 That's just pure nightmare fuel right there. 	0
   	 2015-06-23 02:18:14 	 Haha, have a clock to enjoy watching the seconds tick away. http://itsalmo.st/#fallout4_mcvnp 	0
   	 2015-07-06 07:30:48 	 They're probably trying to balance it out, because once you slapped it on you were a tank who died to nothing. Also people have theorized that you could have an airdrop, drop you your power armor for when the situation calls for it. 	0
   	 2015-07-06 07:31:39 	 There are also many mods dedicated to raising the companion limit. There's nothing as great as wandering the world with your personal army doing the work. 	0
   	 2015-07-06 07:38:52 	 Sounds like great fun I'm in. 	0
   	 2015-07-06 09:12:44 	 All you need is Boone. 	0
   	 2015-07-06 12:12:06 	 I would work on my strength if it means dual wielding big guns like Fatmans. 	0
   	 2015-07-06 17:19:03 	 Maybe a group of raiders who've taken over the manor and are influenced by all the medieval stuff. 	0
   	 2015-07-07 21:04:45 	 Personally the only one there that I enjoy is the Power Armor one. 	0
   	 2015-07-08 16:40:08 	 Love it.... any chance you could mail me that wall? 	0
   	 2015-07-08 16:50:44 	 Will $2, a broken pen and some blue ink covered lint do? 	0
   	 2015-07-08 17:25:09 	 Dammit, I'm all out! 	0
   	 2015-07-10 12:01:02 	 Explanation of what? 	0
   	 2015-07-10 13:16:57 	 Codsworth will be my going out on adventures companion because I wouldn't be able to handle Dogmeat being injured in fights... also Codsworth can talk to me and stop me from going completely insane. 	0
   	 2015-07-10 15:43:41 	 On the positive side you made it to the toilet in time.  	0
   	 2015-07-11 14:04:06 	 The dude earlier today who showed his mouse pad resulted in me buying one of the two bears highfiving.... HYPE! 	0
   	 2015-07-11 23:18:58 	 You seem like an awesome dad. 	0
   	 2015-07-11 23:23:03 	 He shall make for a great companion in a desolate vault, or a great prop (or a thousand) for a social experiment.While you're at it, you should take up metal working too and make him some power armor. 	0
   	 2015-07-12 11:51:44 	 Amata's my bae.... shame all she ever does is hate you for doing the right thing :(. Really wish they expanded her more as a companion atleast. 	0
   	 2015-07-12 11:57:19 	 One of the major flaws in this is in some of the video's we're shown, they give footage of us in the vault and say events transpire while we're down there :/. 	0
   	 2015-07-12 12:02:16 	 If you watch the Fallout Lore series you'll learn about the water merchants who were able to obtain water that was deep inside the earth that had its radioactivity filtered out by the ground. 	0
   	 2015-07-12 12:05:09 	 Is this in a universe that is excluding Vault 108 and the one true god(s) Gary?! 	0
   	 2015-07-13 10:40:33 	" :O It's the all original, all game changing ""Fall Out..."" "	0
   	 2015-07-15 11:23:54 	 We don't know. Some beliefs are that we're reincarnated (What as is based on how good you were in your previous life), we go to an alternate plane e.g. Heaven/Hell, our souls are trapped on earth forever or until a goal is completed, we're ghosts with a purpose or that we simply die and that's it, nothing happens. 	0
   	 2015-07-15 11:37:47 	 Borderlands, It's funny, not too hard to get the hang of and helps teach the importance of skill and stat point placement. 	0
   	 2015-07-15 15:20:31 	 The bad guys always lose. 	0
   	 2015-07-15 15:30:00 	 The cat? 	0
   	 2015-07-20 15:24:48 	 The control governments have over our lives. 	0
   	 2015-07-21 09:09:20 	 Fuck a monkey. 	0
   	 2015-07-21 09:31:34 	 Reddit was the one that created that fear for me... whoo. 	0
   	 2015-07-21 09:44:50 	 The thumbnail made me think she had a beard. 	0
   	 2015-07-21 09:49:46 	 Ducks are awesome friends and their quacks makes me laugh every time, what isn't to love. 	0
   	 2015-07-21 09:52:07 	 Yet strangely better than anything I could do 	0
   	 2015-07-21 11:17:12 	 Erasing the ending from your mind more than likely won't be possible, but I've read the book and the clues Q picks up on can still interest you. Try to say no to your temptation of googling the ending of a book and remind yourself that it'll just ruin the book, this would be one of those things you can add to your list of experiences. 	0
   	 2015-07-21 14:07:10 	 But what is.... Mars?! 	0
 Nazi Robot Movie 	 2015-07-22 11:48:29 	 A friend and I were talking and were wondering if there is a movie where the Nazis created an army of robots? 	0
   	 2015-07-22 14:33:13 	 The world was created for people my height! 	0
   	 2015-07-22 14:40:05 	 This one is great... [if you'll allow it.](https://www.youtube.com/watch?v=lpKQHpMGMNQ) 	0
