title	date	text	class
 [TOMT] [actor] who looks like Joe Pesci 	 2015-06-26 23:21:22 	" Guys this has been bothering me for a while. I was watching The Usual Suspects and Kevin Pollock reminded me of this actor. He is short (I think), white, has curly hair and I think a receding hairline. For some reason I associate him with a cigar, Joe Pesci and an Academy Award. I think he is smiling wide in his IMDB page. Please please help me out :) 

Edit: GUYS GUYS GUYS: IT IS GARY SINISE (LT.DAN)
I LOVE YOU ALL! "	0
   	 2015-06-26 23:42:43 	 Nope :( 	0
   	 2015-06-26 23:44:26 	" Wait wait wait wait.
GUYS I FIGURED IT OUT. IT IS LT.DAN HOLY SHIT HOLY SHIT FINALLY YOU GUYS ROCK!!!!!!!!!!
 "	0
   	 2015-06-26 23:45:16 	 Close. Thanks anyway, mate! :) 	0
   	 2015-06-26 23:47:20 	 YES! 	0
   	 2015-06-29 22:08:00 	 To give it a purpose! 	0
   	 2015-06-29 22:16:54 	 That's a lot of coincidences; either this is bs or you have some bad karma my friend. 	0
   	 2015-06-29 23:15:50 	 Wow. It's not your fault though, maybe tell Greg you found some picture associated with your account from his phone and that he should check that shit out. This is a funny fuck up. Also, stop going through the shit 	0
   	 2015-06-30 17:24:27 	 How a psychopath thinks. Seriously, I have spent enough time here to know stuff about all this shit. Also, dank memes. 	0
   	 2015-06-30 17:28:50 	 Hunger games. On a global level. Wait that's called poverty 	0
 What bullshit do you have to put up with everyday? 	 2015-07-01 20:58:34 	  	0
   	 2015-07-01 21:10:49 	 Why? How?  	0
   	 2015-07-03 10:47:46 	 Did you ever feel like you were close to reality or death? Do you remember what the coma felt like? 	0
 The Pentagon is finalizing a plan to allow transgender people to openly serve in the military beginning early next year. 	 2015-07-13 23:57:48 	  	0
   	 2015-07-14 00:02:00 	" Ummm wrong thread dude.
Try r/jokes and don't be surprised if you get downvoted "	0
   	 2015-07-14 00:02:46 	 Desktop Tower Defense! 	0
 Little things 	 2015-07-21 01:27:50 	" It is funny how we are so caught up in our lives that we fail to notice the little things around us. The flower we miss on our way to work, the smile we dont return, the homeless guy we miss; the list goes on and on. We are so drawn into these screens around us-the phones in our pocket, the laptops on our table, the watches on our hand- that we never catch the present as it slowly drifts by. Perhaps this is why I failed to notice the little changes around my room, the occasional shifting of the pillows, the curtain moving at night or the random noises at night. I dont believe in the paranormal, never did, and probably never will, but what I witnessed today did change the lens through which I view this world. 

It all started when I got my own room (which is a pretty big deal for a teenager) my room was my home, my shrine, and most importantly, my bubble from the outside world. Did badly on the test? To the room it is. Mum scolding me? To the room I go. The harsh reality of life getting to me? To the room I run. Although I always enjoyed trying to fall asleep while staring at some poster on the wall, I always felt strange going to sleep, something just didnt feel right. I would wake up and forget all about it and then go on staring at some screen, getting updates from people I couldnt care less about, liking my way through social conventions and texting my abstract emotions through an assorted selection of emojis. The day would end and I would just lie on my bed trying to sleep. At first, it was tolerable-the curtains moving, the sounds, the occasional weird shapes in the shadows. 

I tried to rationalize it as much as I could, maybe it was the wind, or maybe it was my exhausted teenage mind that was playing tricks on me, but then things started getting weird. The sounds slowly evolved into the sounds of someone punching, the carpet moving, and the lights giving out for no reason. Like any other teenager, I told my parents and complained to my friends but soon forgot about it when the next season to my favorite show came out. Things got better and I again got lost in the labyrinth of the web. Little things still escaped my ever-decreasing attention span. The screen had become a life support for me and I was glued to it from dusk till dawn.

All that changed today. Today I realized how big the little things were. Today I realized that the carpet moving was not just my brain playing with me, that the punching sound was not the wind, that the lights giving out was not a weird coincidence. Today started out as a normal day, I woke up by the 6A.M alarm on my phone, yawned for a while and then put my feet to the ground. I felt something and looked down to see a hand clenching my right foot. A rush of adrenaline shot through my body and frantically kicked the hand and ran for the door. I turned around before locking it shut and what I saw made me sick to my gut. I saw a man under my bed. He was just lying there, looking me right into my eyes and grinning. I locked the door and ran to my parents. We called the police and he was arrested. They recovered a bag of chips, a blanket and a kitchen knife; he was carrying nothing and had no name. 

This shook me to the bones. It was then I realized that the little things were not little. That someone had been under my bed for the whole time. The punching noises, the curtains moving and the weird shadows were an actual person. And no one knows what he was thinking of, what he could have done.
The police told us that he had escaped from a mental facility and had been on the run for the better part of the month. A month he spent under my bed, right under me, coming and going through the verandah at night.

A year has passed and I still check under my bed each night, notice changes and freak out if I see anything new around me. I don't do this because I am paranoid. I do this because I dont want to miss out the little things.

Because it is the little things that count.
 "	0
   	 2015-07-21 01:58:06 	 Thank you! Means a lot to me. 	0
 [Serious] Reddit, how do you deal with failure? 	 2015-07-21 12:35:36 	 Stuff has being going on and I feel like I have failed too many times. How do you rise when you're down? 	0
   	 2015-07-21 14:16:13 	 Thanks. I try to forget it everyday but it still haunts me to this day. 	0
