title	date	text	class
 What is something you just cannot get Into no matter how hard you try ? 	 2014-10-22 03:59:27 	  	0
 What is your favourite subreddit when nobody is looking? 	 2014-10-22 18:28:29 	 What is your favourite subreddit when nobody is looking? [NSFW] 	0
   	 2014-10-29 01:43:33 	 Hekt 	0
 Convict approved meat! 	 2014-11-11 02:06:06 	  	0
 What's the best joke you can think of? 	 2014-11-11 05:41:37 	  	0
   	 2014-11-12 02:40:13 	" There's graffiti in the alley of the safe house from ""The Creatures"". I don't know if that's always been there, but I know they did that live stream not too long ago. 
Nova's and Sp00ns channels are spray painted on the wall saying one of them sucks.  "	0
   	 2014-11-12 02:57:19 	 That's interesting, I recently started playing this game and I've been watching their videos for a long time. So it was cool to find that little Easter egg  	0
 Which part hurts on your body right now, and how did that happen to yourself? 	 2014-11-21 04:58:53 	  	0
 Let's not stand on ceremony here, Mr. Horton 	 2014-12-03 20:03:54 	  	0
 That awesome feeling when playing Big Oil for the first time 	 2014-12-07 21:48:08 	" Everyone does great following the pro.

Pro lead everyone into the basement.

Everyone bags up every engine.

""What do we do now Mr.pro?""

""Have fun playing doctor you idiots""

Pro throws grenades at us and leaves. 

What an asshole. 

I proceed to lead the team. 

""Grab a bag boys""

I'm the only one who doesn't get knocked down so I take my engine to the helicopter. 

""Restart the game"" everyone says

(It's a pro job)

Waiting feels like forever when I'm all alone. 

.......

..it's the right engine on the first try. Team goes bananas at my luck. 


Best feeling ever "	0
   	 2014-12-07 23:43:39 	" Winnipeg
 "	0
 What was the best way you were ever surprised with a gift? 	 2014-12-19 00:17:28 	  	0
 What is the worst movie of all time in your honest opinion? 	 2014-12-24 05:02:04 	  	0
 My girlfriend torrented music and all album covers had this guys face on it 	 2014-12-31 08:12:42 	  	0
 Reddit, can you give me a bedtime story? 	 2015-01-07 07:07:50 	  	0
 How would you get your keys out of your car if you accidentally locked them inside the car? 	 2015-01-07 16:22:45 	" EDIT:  it's gonna cost 55$ on the spot to get it opened. 
Now I need to find 55$ "	0
   	 2015-01-10 03:38:47 	 What's going on here?! 	0
   	 2015-01-10 06:53:11 	" It's cold here, really cold here. 
I hold my breath when I go outside to start the car.  "	0
 Hate making pancakes.. 	 2015-01-24 18:51:07 	  	0
 She almost cried when I found out it was her lipstick 	 2015-01-31 22:50:23 	  	0
 About that Wonder Trade picture earlier today.... I got a 5IV Scyther on wonder trade, and it was holding a metal coat. 	 2015-02-07 05:18:09 	  	0
 What is the one word you cannot pronounce properly according to other people when they hear you? 	 2015-02-18 19:02:00 	  	0
   	 2015-02-21 02:08:13 	 It probably knows it shouldn't have knocked over that bowl of glitter  	0
 How has your job changed your views? 	 2015-02-21 04:49:23 	  	0
 Reddit, what tips would you give to balance school and work so you don't feel run down everyday? 	 2015-02-24 18:41:59 	  	0
 ...and blue dress 	 2015-02-27 05:45:27 	  	0
 I wonder how your own world would look if every step you took, every second you drove left a colour on the ground that only you could see, and it got darker the more you traveled that path. 	 2015-03-06 21:05:09 	  	0
   	 2015-03-07 07:19:38 	 Is there a blind guy standing there watching them.. 	0
 Can someone help a new ps4 owner out? 	 2015-03-09 21:57:10 	  	0
 My girlfriend says he ruins the album covers from her music, I think it's hilarious 	 2015-03-14 21:44:07 	  	0
 me_irl 	 2015-03-16 19:16:45 	  	0
 I ALMOST forgot to season my food.. 	 2015-03-19 21:28:28 	  	0
   	 2015-04-23 22:02:57 	" Overkill. 
Playing Big Oil with 3 pubs, one of them was a infamy 5 when it was the top, and we just barely finished it. 
Of coarse the highest level guy lead us all the way until the end of the last day when we had to bag up the right engine. 

We all stupidly bagged up each engine (first time playing it) and he got mad and left. Threw some nads at us and left. 

So i grabbed a bag and left for the helicopter and waited while the other guys went down and wanted to restart the mission. 
 
I waited out the storm and handed off the first bag and then prayed to god. And then jt happened, first bag was right! 
The other guys freaked out as I ran and made it out. Ahh, that was good.  "	0
 [Serious] Have you ever had a near death experience because of alcohol and how did it affect your life? 	 2015-05-10 19:20:13 	  	0
 Out of all the things that shouldn't matter to you, what do you care about most? 	 2015-05-18 20:07:57 	  	0
 [ps4] Nightfall. Lvl 30 warlock, just need some help 	 2015-05-20 08:15:26 	 Mmeownow is the name 	0
 [PS4] Looking for group to try VoG, never tried it before and I'd love to get into raids 	 2015-05-23 09:02:59 	 Add my psn: Mmeownow 	0
   	 2015-05-23 18:26:49 	 Thanks man! 	0
 [PS4] looking for a group for VoG, I've never tried it before but I want to get my raid on. 	 2015-05-24 03:19:56 	 Mmeownow is my psn,  	0
   	 2015-05-24 21:24:24 	" Mmeownow
 "	0
 [Ps4] LF5 for Crota's End, it's my first time trying 	 2015-05-24 22:46:30 	 32 warlock, Add Mmeownow and join the fire team. Did vault of glass lastnight for the first time also and it was a great time.  	0
 [ps4]lf2m VoG normal run right now. Just starting 	 2015-05-25 02:55:36 	 Add Mmeownow and join in 	0
   	 2015-05-25 06:08:01 	" Mmeownow 32 warlock
 "	0
   	 2015-05-26 05:20:25 	 Mmeownow 32warlock 	0
   	 2015-05-27 21:47:48 	 Mmeownow 32warlock 	0
 Quick question about PoE and being kicked from it.. 	 2015-05-30 22:22:33 	  	0
   	 2015-05-31 21:32:18 	" Happened to me yesterday too. 
Was at the final round destroying Pilot Servitor on lvl 28 and as soon as he died and exploded, I got disconnected. Really frustrating  "	0
 [Ps4] LF2M for nightfall, 	 2015-06-02 16:23:21 	" Add Mmeownow and join in 
[edit] I got two people meow "	0
 [ps4] LF5M for either raid, I have done VoG but not CE. 	 2015-06-08 09:12:48 	" Add: Mmeownow     Lvl33 warlock
Anybody welcome, I just want to try a raid tonight if I can get the group. So far I'm pretty new to it "	0
 My girlfriend torrented music and almost all the albums came with this guy's face on them. 	 2015-06-08 09:23:05 	  	0
   	 2015-06-08 10:06:58 	 Still going? 	0
   	 2015-06-08 10:12:49 	 Thanks 	0
 [Ps4] LF4M for a casual VoG run 	 2015-06-09 06:15:31 	" Add and join my fireteam 
psN:  Mmeownow

My friend will mail you a handful of rare Canadian pennies "	0
   	 2015-06-10 03:39:13 	 Mmeownow 33 warlock 	0
 [ps4] nightfall, need two more 	 2015-06-10 03:41:12 	" Let's do dis

Add Mmeownow or leave your info "	0
 [ps4] LF4M for a fresh VoG run on HM, kinda casual, we're not amazing 	 2015-06-10 07:12:06 	" Just kidding, We're kinda awesome

Add Mmeownow and join  "	0
 [ps4] LF1M GUARDIAN, VoG Hm atheon 	 2015-06-10 09:24:51 	 Add Mmeownow and join  	0
 [ps4] LF1M nightfall 	 2015-06-16 11:08:56 	 Add Mmeownow and join in 	0
 [ps4] looking for 4 more guardians for a semi-casual VoG hard mode funrun tonight. 	 2015-06-17 08:02:17 	" Add Mmeownow

I'm a 33 warlock and my buddy is a 33 Titan 

We are not good at relic yet
 "	0
   	 2015-06-18 21:09:39 	 My raging bull stopper, Matador 64 	0
 [ps4] Looking for one more guardian to do lvl 34 PoE 	 2015-06-20 23:10:47 	" So me and my friend did lvl 32 on our own but we need another for lvl 34
You don't need a mic. 

Lvl 33 warlock
Add: Mmeownow "	0
 [LFS][PS4] LFG, My friend and I would love to do CE on normal tonight. It would be a first for us. 	 2015-06-21 05:23:13 	" Hopefully we can become the Sherpas in the not to distant future. 

Add Mmeownow    Lvl 33 warlock
And he's a 32 warlock

edit: we have a Sherpa, and two fellow sheep. One more space is available
 "	0
 [ps4] LF1M for a CE normal run 	 2015-06-21 06:38:30 	" Add Mmeownow
 "	0
 [ps4]LF1M for nightfall! 	 2015-06-23 11:03:05 	" Add Mmeownow 
Psn "	0
 [ps4]LF4M for a semi-casual VoG normal mode tonight 	 2015-06-25 07:37:40 	 Post your psn 	0
   	 2015-06-25 07:46:38 	" Add Mmeownow, I got another guardian with me
Semi experienced 
Warlocks 34 and 34 "	0
 [ps4] looking for one more guardian to do LvL 34 PoE 	 2015-06-25 09:05:27 	" Add LucidDreaamer
Two LvL 34 warlocks  "	0
 [Ps4] LF4M for a semi-casual CE on Hard mode? 	 2015-06-25 10:25:46 	 Got two lvl 34 warlocks here wanting to try it out. (Did it on normal once) 	0
   	 2015-06-30 05:14:18 	 What in the actual fuck is going on here 	0
 [ps4]Lf2M for a quick nightfall run 	 2015-07-01 22:06:05 	  	0
 [ps4] LFG, want to run VoG in memory of my friend.. 	 2015-07-02 08:44:23 	" He lost his internet recently and it's really upsetting..

So yeah let's do VoG on hardmode people, I need 5 more guardians.  "	0
 [ps4] Lookin' for a group of 5 to try run CE fresh on HM with me, anyone interested? 	 2015-07-03 19:37:27 	" I kind of want to get better at this raid, never find much groups or have the time 

Add Mmeownow if you're interested 
Lvl 34 warlock  "	0
 [ps4] LF5M TO DO THE VAULT OF GLASS WITH MY NEW TITAN, HE'S NEW 	 2015-07-06 07:24:55 	" Wanna quickly run through NM or be helped through HM, any takers? 

Add Mmeownow 
Lvl 30 Titan. 

I've done it a fair amount of times already  "	0
   	 2015-07-06 07:28:09 	" Add Mmeownow  there's one more who might join with me
I'm lvl 30 Titan
 "	0
   	 2015-07-06 07:28:42 	 There's another group looking for 3 more for NM, if I get in I'll try invite you too 	0
   	 2015-07-06 21:01:48 	" Mmeownow 
Lvl 30 Titan looking to get it done  "	0
 [PS4] looking for 4 more at gatekeeper HM checkpoint, let's do this 	 2015-07-06 21:38:00 	 Add idgamf3 	0
   	 2015-07-07 11:52:16 	 Mmeownow Lvl 30 Titan Lvl 34 warlock 	0
 [ps4] LF2M nightfall run or two maybe probably yeah 	 2015-07-07 11:54:14 	 Lvl 29 Titan and Lvl 34 warlock 	0
   	 2015-07-10 09:15:29 	 Mmeownow 31 titan 	0
 [ps4] Looking For two more for Crota NM, fresh. 	 2015-07-10 09:25:54 	 Message jay_money11 for invite  	0
   	 2015-07-11 00:32:14 	 Mmeownow 32 titan 	0
   	 2015-07-11 01:39:51 	 Hey join us, add gwalchgwyn_ 	0
 [ps4]LF2M for nightfall 	 2015-07-14 23:56:23 	 Add Mmeownow 	0
 [ps44] looking for 2 more for nightfall add Mmeownow 	 2015-07-15 02:02:13 	  	0
   	 2015-07-15 02:03:12 	 Mmeownow lvl 31 titan and 34 warlock 	0
 Homemade bannock with jam and honey 	 2015-07-15 07:12:01 	  	0
   	 2015-07-21 06:46:23 	" I'm up for it 
Add Mmeownow  "	0
 My first attempt at miniature huevos rancheros! 	 2015-07-21 23:08:15 	  	0
 Miniature huevos rancheros topped with quail egg 	 2015-07-22 01:12:44 	  	0
   	 2015-07-22 01:13:46 	 Mmeownow 34 warlock 	0
   	 2015-07-22 04:17:00 	 Mmeownow  	0
   	 2015-07-22 06:55:16 	" Meh, I had tortillas, salsa, a potato, an avocado, and quail eggs. 
I wish I could make the real deal at home "	0
