title	date	text	class
   	 2014-11-30 15:39:50 	 It was really nice to see Youyoute get some good ball time in his last game. :) 	1
 Georgia Southern can't go bowling 	 2014-11-30 17:34:48 	  	1
   	 2014-11-30 18:03:51 	 http://imgur.com/8s4MPqp 	1
   	 2014-11-30 18:06:00 	 Yea I noticed that too hehe but we have had that blue and white uniform style since Erk brought the program back because it was all we could afford. I think it's very classy. 	1
   	 2014-11-30 18:06:34 	 http://imgur.com/8s4MPqp 	1
   	 2014-11-30 18:07:37 	 http://imgur.com/8s4MPqp 	1
   	 2014-11-30 18:43:01 	 Lol 	1
   	 2014-11-30 18:54:28 	 We are in a transitional season since we moved up from the SoCON last year. It's a NCAA rule. We put in a waiver request but we're denied. We have appealed the decision. We are 8-0 Sunbelt Champs and 9-3 overall in our first FBS season. Teams we squished will be going instead of us. :( 	1
   	 2014-11-30 20:36:49 	 Yes. Yes it is. 	1
 You merely adopted the H8... 	 2014-11-30 21:51:10 	  	1
   	 2014-11-30 21:52:42 	 This was my boyfriend's suggestion.  	1
   	 2014-11-30 22:14:34 	 Lmao that would be the boyfriend I credited my post to. Too funny. 	1
   	 2014-11-30 22:40:10 	 No worries, different approaches. :) 	1
   	 2014-11-30 23:16:41 	 Yea poor GSU ball :( 	1
   	 2014-12-01 03:34:41 	 Lol thanks much. It does suck :(  	1
   	 2014-12-01 06:13:14 	 Nope, just a tech fan but thanks for playing slugger! 	1
 Georgia Southern Bowl Waiver 	 2014-12-02 00:46:17 	  	1
   	 2014-12-02 00:48:04 	 I'm not sure what our chances are, but it would be nice. Our boys played their hearts out this season. HAIL SOUTHERN! 	1
   	 2014-12-02 01:03:04 	 Yeah, the stupid rule thing is my main argument. We have met (and exceeded) all the FBS qualifications. We wouldn't have made the transfer if we didn't. I'm bummed out that we are the only conference champs whose season is (probably) already over. I'm bummed out for the senior players who stuck it through the transition, beat Florida in the Swamp, earned an undefeated conference championship, and now have to watch teams they beat go play on the national stage instead. Give me a ONE MORE TIME!!  :) 	1
   	 2014-12-02 01:14:21 	" I believe that just such a situation is what the rule was created to prevent. 

However Georgia Southern has zero transfers and significantly less scholarships than other sunbelt teams, which is why we are appealing. "	1
   	 2014-12-02 01:31:57 	" Georgia Southern was barred from postseason FCS games last year because of the transition, but that was a team wide application. 

This page has some good info for individual athletes.

http://www.athleticscholarships.net/college-transfer-4-4.htm "	1
   	 2014-12-02 22:16:10 	 Yea you're right, got confused. 	1
   	 2014-12-02 22:26:12 	 Plus, Georgia southern has no transfer players in their roster. 	1
   	 2014-12-02 22:37:22 	" Another reason I'd like to see Southern play a bowl: Matt Brieda. 

He's a finalist for the Doak Walker award and more game time can only help his chances. The guys he is competing against all get that extra game. "	1
   	 2014-12-02 22:55:00 	 69-31 was an impressive win IMHO. :P 	1
   	 2014-12-02 22:59:17 	 Source for this? :( 	1
   	 2014-12-02 23:08:45 	 *sadly kicks pebble around* 	1
   	 2014-12-02 23:24:09 	 In your own defense, it was a subtle taunt engineered to target only GaState fans. :) 	1
 Georgia Southern's Offseason Plans 	 2014-12-02 23:52:54 	  	1
   	 2014-12-02 23:56:41 	 Because we miss waaaay too many extra points. 	1
   	 2014-12-03 00:42:37 	" Georgia Southern fans travel VERY well (the University often sponsors bus trips) so that is not a legitimate argument against them playing. 

*kicks stupid rule* "	1
   	 2014-12-03 01:25:00 	 http://gseagles.com/news/2014/12/2/FB_1202141600.aspx 	1
   	 2014-12-03 09:25:34 	 Why thank you :) 	1
   	 2014-12-03 17:42:31 	" Yes Fritz did really well. Our kicking frustrated me, as well as the whole 'drop back six yards to gain two' thing our QBs kept doing. He did awesome, and I could tell he was invested in the boys. But we cannot afford complacency.
 "	1
   	 2014-12-04 04:23:07 	 It's our first season in the FBS.  	1
   	 2014-12-04 16:05:08 	" ""Undefeated Sunbelt Champs Celebrate Season with Pizza Party, Cosmic Bowling"" "	1
   	 2014-12-04 16:49:34 	 Last year they served gator in the dining halls. [True Story](http://ftw.usatoday.com/2013/12/georgia-southern-florida-alligator-dining) 	1
   	 2014-12-04 16:57:17 	 Fried, usually. It is the South after all. 	1
   	 2014-12-04 17:57:02 	 I think when we were FCS we only had rings made for our 6 National Championships, but I could be wrong. I can't find a link anywhere that says one way or the other. 	1
   	 2014-12-04 18:41:10 	 Alright then. Rings all around, gents! 	1
   	 2014-12-04 19:23:41 	 [I'm partial to this for the Championship](http://i.imgur.com/To8hyMm.jpg) 	1
   	 2014-12-04 20:12:31 	 I see what you did there. 	1
   	 2014-12-04 20:41:54 	 Our final NCAA appeal was denied, so I don't see how we can unless some bowl committee just decides to be a rebel. 	1
   	 2014-12-04 22:27:50 	 [We've got the beer pong table covered, you guys.](http://i.imgur.com/dxTWovQ.jpg) 	1
   	 2014-12-04 22:58:02 	 Sunbelt gets four tie-ins next year. CHALLENGE ACCEPTED. 	1
   	 2014-12-05 16:09:11 	 They haven't evacuated the Carroll building, package may be a science project. 	1
   	 2014-12-05 16:22:15 	 According to someone on Facebook with a police scanner, they apprehended a suspect before they gave the all clear. 	1
   	 2014-12-05 16:35:43 	 The old one. 	1
   	 2014-12-05 16:36:17 	 [so the guy was wearing a gorilla mask](http://www.wtoc.com/story/27556260/gsu-police-open-streets-back-up-after-reports-of-suspicious-person) 	1
   	 2014-12-05 16:50:08 	 Me either.  	1
   	 2014-12-05 23:12:20 	" Good article. I asked a groundskeeper if they got hazard pay for football games. He said no. :(

Everyone did get holiday pay, since it was Thanksgiving break. "	1
   	 2014-12-06 02:26:39 	 Pffft we will be in the ACC long before then. :P 	1
 Georgia Southern University Researchers Study Long Term Effects of Concussions 	 2014-12-06 17:22:09 	  	1
   	 2014-12-06 23:05:13 	 I do wish the CBS Sports stream would quit crapping out. ROLL TIDE!! 	1
   	 2014-12-07 01:28:07 	" She's dead, Jim.
 "	1
   	 2014-12-07 02:04:14 	 Time to WRECK THE NOLES 	1
   	 2014-12-07 02:43:55 	 OK Drink get nekkid 	1
   	 2014-12-07 02:45:44 	 No passing, no problem budday 	1
   	 2014-12-07 02:57:27 	 Samesies 	1
   	 2014-12-07 03:08:57 	 Everyone in here like 'WOO GT's OFFENSE' but CPJ learned it at Georgia Southern 	1
   	 2014-12-07 03:12:52 	 Gators. 	1
   	 2014-12-07 03:15:29 	 I believe we face both your flairs next season :) 	1
   	 2014-12-07 03:15:52 	 Truth. Although that game made me sad face. 	1
   	 2014-12-07 03:17:05 	" He didn't learn it at Southern....he just coached it there first

aight "	1
   	 2014-12-07 04:12:47 	" This happens with cameramen inexperienced with the Option
 "	1
   	 2014-12-07 05:22:40 	 Those boys are not giving up... LOVE IT GO JACKETS 	1
   	 2014-12-07 18:46:35 	 Almost like they are rewarding certain conferences for having an actual championship game... Hmmm ;) 	1
   	 2014-12-08 16:13:59 	" The difference is Georgia Southern went 8-0 in conference play and holds an outright championship.

EDIT TO ADD- And we are the first team to have done so since the rule was implemented. "	1
   	 2014-12-08 16:49:26 	" I would attend this game.

However wouldn't Georgia Southern get in trouble? :( "	1
   	 2014-12-08 17:37:44 	 [HAIL SOUTHERN](https://fbcdn-sphotos-f-a.akamaihd.net/hphotos-ak-xpf1/v/t1.0-9/p480x480/10421115_10152812749846855_9028560074656845079_n.jpg?oh=591fc03693b7a45af29c151ac707d387 oe=55017D71 __gda__=1430674023_d16d004edd682d0c816bc97dcbf5c0b9) 	1
   	 2014-12-08 18:10:07 	 LOL @ CrApp State Sheep and Sad Georgia State ball. :) 	1
   	 2014-12-08 18:10:40 	 So we should change it to mountain goats, or what? 	1
   	 2014-12-08 18:11:33 	 Yes, that is also a good one because it shows us being classy in our celebrations. 	1
   	 2014-12-08 20:31:55 	 YES 	1
   	 2014-12-08 20:33:58 	 HAIL SOUTHERN 	1
   	 2014-12-08 20:37:19 	 I think you got down votes because most Georgia Southern Fans don't think very highly of UGA even though we can't really be considered football 'rivals.' A lot of it goes way back to when Erk Russell left UGA to start our program. Some of it has to do with how hard they fought to block us becoming a University as well. We like Tech though. 	1
   	 2014-12-08 20:48:23 	 I read somewhere that ODU wasn't eligible either because of transition. 	1
   	 2014-12-08 20:50:56 	" Georgia Southern was the first team to be undefeated in conference/outright champs in the first year of transition since the rule was made. 

Still sad panda. :( "	1
   	 2014-12-08 21:22:28 	 GREATEST THING 	1
   	 2014-12-08 21:30:02 	 I always implore our defense to squish 'em, but I never claimed to not be weird. 	1
   	 2014-12-08 22:58:57 	 I enjoyed the analysis of this article and I'd like to see the data from other Universities. I feel like this should all be public information for any public institution. 	1
   	 2014-12-09 00:49:56 	" Yeah but they're not all gonna get drafted.
 "	1
   	 2014-12-09 02:06:23 	 If their coaches are not properly educating their players about what a long shot it is (about 3% according to the NCAA website, but that's across all divisions) then they are doing those kids a disservice. I'd really like to know what happens to the kid who stakes all his hopes on getting into the NFL and prepared for no other option. What does he do? Flip burgers? 	1
   	 2014-12-09 02:32:20 	" OK I'm gonna use Alabama, because I work there. [They had eight players drafted in 2014](http://en.wikipedia.org/wiki/List_of_Alabama_Crimson_Tide_players_in_the_NFL_draft).

Their starting kicker, Cade Foster, was not among them. He is now a free agent. 

Players like that, who don't get drafted yet expected to. What kind of a future can they look forward to? What's the likelihood they will get picked up? Do they have skills they can fall back on if not? I'm legitimately concerned. The graduation - employment rate is low enough as it is. I should know I am a (gainfully employed!) recent anthropology grad. :) "	1
   	 2014-12-09 02:36:01 	" I'm glad we could help you guys reach 15,006 average attendance.
 "	1
   	 2014-12-09 02:57:18 	 I bet someone down Auburn way might take him. ;) 	1
   	 2014-12-09 03:12:00 	 All of them. The answer is all of them. 	1
 Your top three /cfbball rushing offenses for 2014 	 2014-12-09 04:36:56 	  	1
   	 2014-12-09 04:45:55 	 Kleinlein is a stand up guy. 	1
   	 2014-12-09 05:05:17 	 NCAA- Not Controlling Athletics Association /s 	1
   	 2014-12-09 06:21:03 	 GSU AD actually reached out to the NCAA about doing it. Betcha can guess what those bastards said. :( 	1
   	 2014-12-09 18:03:40 	 Awesome. That makes me happy. 	1
   	 2014-12-09 18:11:36 	 Hey they did their best to only win by one point. Don't be too hard on em. 	1
   	 2014-12-09 18:12:47 	 Overall an exemplary season for the Panthers. They do a good job keeping Paulson North warm for us. 	1
   	 2014-12-09 18:13:17 	 I get so sad that people still get confused by this. :( 	1
   	 2014-12-09 21:52:14 	 [NO](http://mylolface.com/assets/faces/angry-no.jpg) 	1
   	 2014-12-09 22:59:03 	 [Here this friendly PSA should clear up any confusion](https://www.youtube.com/watch?v=putYM15zC0Y feature=youtu.be) 	1
   	 2014-12-09 23:19:40 	 Why not State of Georgia University Panthers? 	1
   	 2014-12-10 15:36:12 	" When I was at Georgia Southern (I graduated in '12) the football games were free if you paid your athletic fee (about 150? but it included other things like renovation costs and the rec center access too).

I work for the University of Alabama and they run a fac/staff season ticket lottery based on seniority. You have to buy the whole season. "	1
   	 2014-12-10 16:45:41 	 I work for UA Museums. Love it!  	1
   	 2014-12-10 18:53:56 	 Ooh that's neat! I like the buddy ticket idea. I'm sad you can't sit on the hill anymore though. :( 	1
 Coach Willie Fritz Named Sun Belt Coach of the Year 	 2014-12-10 21:10:58 	  	1
   	 2014-12-10 22:11:04 	 LOL I never thought about it that way but you are right. :) 	1
   	 2014-12-10 22:12:08 	 HAIL SOUTHERN :) 	1
   	 2014-12-10 23:38:32 	 Aww sorry Sam Houston Bro. :( We are taking good care of him! 	1
   	 2014-12-12 02:42:07 	 Lol Georgia Southern went 9-3 in their first season in the FBS and came within a score of beating both our ACC opponents this season. We ain't no cupcake team. 	1
   	 2014-12-12 19:55:20 	 Yeah Georgia Southern is just buried in that article. :( 	1
   	 2014-12-15 15:34:58 	 Sun Belt gets a fourth bowl bid next year, and a fifth after that. But Georgia Southern and CrApp State will be eligible so Texas might miss out again. :P 	1
   	 2014-12-15 16:30:33 	" [Next year we get the Cure Bowl in Orlando against an AAC team](http://curebowl.com)

The fifth bid starting in 2016 is actually gonna be on a rotational basis between a handful of conferences.  "	1
   	 2014-12-15 21:51:31 	 We made it to the table of 32. But still... HAIL SOUTHERN 	1
   	 2014-12-16 15:12:52 	 Any of them. :'( 	1
 What happens to bulldogs 	 2015-01-01 05:52:15 	  	1
   	 2015-01-01 06:35:33 	 Well these bulldogs will not be breeding any more per se... :P 	1
   	 2015-01-02 05:30:08 	 Fuuuuuuuuuuuuuuuuuuck 	1
 NUTSSSSSSS 	 2015-01-02 07:03:05 	  	1
   	 2015-01-06 20:16:44 	 Georgia Southern fills Paulson, just sayin. 	1
   	 2015-01-07 05:36:23 	" Username is appropriate
 "	1
   	 2015-01-08 00:12:01 	" Totally read that as Elven Warriors
 "	1
   	 2015-01-13 03:20:57 	" Only if it is hairy arms Rob Lowe.
 "	1
   	 2015-01-15 23:07:26 	 Personally, I always prefer to have my office building locked when someone is there by themselves. Anyone who is supposed to be there can get in with a keycard. I always make sure it is locked whenever I leave someone on their own no matter who it is.  	1
   	 2015-01-15 23:11:07 	" Ohhhhh boy movie night at u/Cheezy_fingers house!

Don't eat the Doritos, tho. "	1
   	 2015-01-16 02:08:44 	 Try an app like My Fitness Pal. It will let you know if you are not eating enough, and you can add your friends on the app for extra encouragement. I lost 40 lbs with it a couple years ago. You can do iiiiiit! :D 	1
   	 2015-01-16 22:37:35 	" Thanks for making me cry at work. ;~;
 "	1
 Minifig trade? 	 2015-01-19 19:21:21 	 Hey guys, I have an extra samurai from set 13 that I'd really love to trade for the fencer. Please let me knew if anyone would like to do this trade! :) Thanks! 	1
   	 2015-01-20 16:07:54 	 Thanks I managed to arrange something and will use that next time :) 	1
   	 2015-01-23 22:55:37 	 So if we booked yesterday, the price shouldn't change, right? First time bookers here, Thanks! 	1
 Carrying Lightsabers at WDW 	 2015-01-24 02:02:58 	" Does anyone know if there is a policy on this? My boyfriend and I are going in May (and we have the Star Wars Character breakfast reserved!) and we were wondering if we could wear our sabers. Thanks! :D

They are high quality dueling sabers, but we would leave the blades in the hotel of course!! "	1
   	 2015-01-24 02:36:34 	 That's awesome to hear to hear! I've never done a character meal before, but we are so looking forward to it! Thanks! :) 	1
   	 2015-01-24 02:38:31 	 Awesome, thanks. We really just wanted to bring the hilts to wear around, since our blades don't collapse. That's an awesome story about the sonic screwdriver! :D 	1
   	 2015-01-24 11:30:09 	" Awesome!! I didn't know you could try more than one thing. :D 

It is a little pricey, but I keep telling myself how many awesome benefits there are to it. :3 

How was the food? "	1
   	 2015-01-24 19:23:27 	 I appreciate the tip! :) 	1
   	 2015-01-25 21:37:33 	 Thanks for the tip. I think that's what we have decided to do. Better safe than sorry! 	1
   	 2015-01-26 18:36:40 	" All of them. You can get GBA ones and play those on the Lite. Start with Fire Red or Leaf Green.
 "	1
   	 2015-01-26 21:38:15 	 On our upcoming trip, we will have two-day passes with Park Hopper, and HS is the only one I plan on visiting twice. :D We love Disney, but we are just as excited about Star Wars!! 	1
   	 2015-01-27 18:25:59 	" I love it! His expression really makes the shot.
 "	1
   	 2015-01-27 18:48:49 	 Star Wars Land (ohpleaseohpleaseohplease) 	1
   	 2015-01-27 18:55:33 	 Rebels is great for families. Not too scary for kids, enough stuff to be interesting to adults too. 	1
   	 2015-01-27 21:21:09 	 Fett. Boba Fett. 	1
   	 2015-01-27 21:23:10 	 I like this idea. 	1
   	 2015-01-27 21:40:49 	 You have to cancel these at least 24-48 hours in advance, so maybe someone is sitting on a reservation until it gets closer and they have to really decide which they want. Keep trying! I was able to make one last week for breakfast on May 6 so it could definitely happen! Keep trying and May the Force Be With You. 	1
 Why do I owe a huge amount on my taxes this year when my income and withholding is unchanged? [USA] 	 2015-01-27 22:28:54 	" Background: I make less than 25K, single lady with no kids. I am not in school, I work full time for a public university. GREAT benefits. 

I owe $470 on my tax return. This is a substantial amount of money for me, and it's going to decimate the small savings I have managed to put by. Last year, I got a small refund. My income and withholding, as stated, has not changed. I'm confused and sad. :( 

I just put everything through a Federal Free Edition on Turbotax, and my only credit was for Student Loan Interest. 

TLDR: ELI5 why it's different so I don't get pissy and mail off a bunch of pennies. Please and thank you. 3

Edit- Changed deduction to credit "	1
   	 2015-01-27 22:33:47 	 Credit! I'm sorry. That's my bad. My only CREDIT was student loan interest. I did take the standard deduction. 	1
   	 2015-01-27 22:34:49 	 That's a good suggestion. I'll try that when I get home! 	1
   	 2015-01-27 22:59:01 	 I have excellent health insurance provided by my employer, which I pay a small amount for each month. Does that cover me? 	1
   	 2015-01-27 22:59:19 	 What else do you need? I'm new at this. 	1
   	 2015-01-27 23:01:47 	 I have more student loan interest this year, because I just rehabilitated them (yay for me!). I haven't finished filing yet, but I did not pick dependent. 	1
   	 2015-01-27 23:02:28 	 Oh, okay. Thanks for explaining. 	1
   	 2015-01-27 23:12:40 	 Can you claim yourself as a dependent? I have never found a satisfactory answer to that. I just learned I can get tax help through my employer so I will go that route too because I don't know how much information I feel comfortable putting on reddit. :) 	1
   	 2015-01-27 23:33:58 	 I changed jobs in 2013, but there wasn't any space between them. That is an awesome tool! Our accountant at work advised me to redo my W4 and I will definitely be using that. Thanks! 	1
   	 2015-01-28 00:42:28 	 Alright, just me then. Thanks! 	1
   	 2015-01-28 00:43:06 	 It says 969.63. I'm beginning to suspect my W4 is not right, and I got lucky last year. 	1
   	 2015-01-28 02:06:47 	 What? No wai. ;____; 	1
   	 2015-01-28 02:08:04 	 Yeah, that's what my W2 says, not counting SS/Medicare. 	1
   	 2015-01-28 15:21:13 	 *claps* 	1
   	 2015-01-29 15:23:18 	 Important question re the new Bluray edition: Did they get rid of Morrison's Boba Fett redub? :/ 	1
   	 2015-01-29 17:19:25 	 [Noooooooooooo!](http://nooooooooooooooo.com) 	1
   	 2015-01-29 17:44:05 	 I haven't been yet, but my SO and I have reservations to Akershus in the Norway Pavilion in May and that looks pretty good. They have a cold bar that everyone has access to and then a nice looking menu you order from. The cold bar has some shellfish, cured meats and cheeses from Scandinavia. There are some wonderful sounding Scandinavian entrees as well that we are excited about! I should mention that Akershus is a Princess meal. 	1
   	 2015-01-29 18:35:38 	 That's awesome to hear! :D Thanks! [[96 DAYS :D]] 	1
   	 2015-01-29 22:58:47 	" I still remember being leashed. :(
 "	1
   	 2015-01-30 02:41:23 	" I don't know I thought it was a good question. 
 "	1
   	 2015-01-30 17:13:15 	 Wishes. And crying during the Wishes. 	1
   	 2015-01-31 00:18:27 	 Yeah it's the nighttime fireworks at MK. 	1
 Build Your Disney Side! Free custom decal from WDW 	 2015-01-31 00:47:44 	  	1
   	 2015-01-31 00:48:00 	 I just made one for my family. It is too cute! :D 	1
   	 2015-01-31 14:24:47 	 Awesome! It takes like 4-6 weeks to get to you. Can't wait to get mine in the mail :D 	1
   	 2015-01-31 15:33:13 	 Or crepes... 	1
   	 2015-02-01 00:48:05 	 The first time I saw it it started just as we were getting to MK from Epcot after watching Illuminations and we saw part from the Monorail and that was awesome! We watched the rest from the plaza near the ticket center. 	1
   	 2015-02-01 00:53:04 	" That's pretty much how Teavana makes their money.
 "	1
   	 2015-02-01 01:15:32 	 Sorry to hijack but do you know when Pirates will be down? Thanks. :( 	1
   	 2015-02-01 01:16:29 	" The only special thing is that HS has tiers for their fast passes, so you can only make reservations for one A ride and 2 B rides. 

Toy Story Mania and Rockin Roller Coaster are both A.  "	1
   	 2015-02-01 01:27:16 	 Etsy is great too. I just got a set of Chewbacca ears there. Find a seller who makes ones you like, then ask if they will do a custom order. 	1
   	 2015-02-01 03:28:22 	 Crossing my fingers for May... 	1
   	 2015-02-01 03:28:35 	 Thanks! 	1
   	 2015-02-01 03:30:51 	 If your party likes movies/Star Wars/Pixar/Muppets then HS. Epcot for international flair! Shopping, food, and awesome fireworks.  	1
   	 2015-02-01 18:58:41 	 You can team up with a partner on Star Wars: The Old Republic. My boyfriend and I are paired up and playing through the Knight/Consular story lines together. It's awesome and you get two story lines at the same time. We also have a Bounty Hunter/Imperial Spy game going. 	1
 Trying to nail down my HS Day Schedule/FP+ 	 2015-02-01 20:45:44 	" Hello friends. I am trying to determine if I am making a HUGE mistake. I think I have decided to risk NOT FP+ing Toy Story Midway Mania. I know, I know! Let me explain.

We have an 8:25 AM Galactic Dine In Star Wars Breakfast Reservation at the Sci Fi Dine In Restaurant for May 6. The park opens at 9. Since I can either FP+ Toy Story or the Rockin Roller Coaster, I think I am going to chance it and take the Roller Coaster since we are so close to Toy Story in the park. I don't want to rush through the breakfast either though so I guess my question is, how soon after 9 AM does the line become unbearable for Toy Story? I have done it before, and it was WONDERFUL and my SO has never done it (and I know he would love it). 

What do you think? Thanks in advance and may the force be with you! "	1
   	 2015-02-02 00:46:46 	 I really appreciate your in-depth reply. I would be more upset missing TS than RnRC, not sure how my SO feels though. It sounds like I should stick with Toy Story! :) Thanks! 	1
   	 2015-02-02 00:46:59 	 Thank you! Y'all have convinced me! 	1
   	 2015-02-02 00:47:25 	 I'm sorry to hear that! I think I have been convinced to get the TS FP! 	1
   	 2015-02-02 00:48:21 	 Good advice. I definitely think the breakfast will be one of the highlights of our trip. Getting the TS Fastpass sounds like the safe option! Thank you! 	1
   	 2015-02-02 01:11:19 	" Coming from a chick here- She's overreacting and does not know how to communicate about what bothers her on an adult level.

Sure it hurts you now and don't let anyone tell you it shouldn't because that's an important part of the healing process. But you will be much happier being with someone who respects you more than that. "	1
   	 2015-02-02 13:20:27 	 No, but that's where it began. She found out something she didn't like about her boyfriend and let it fester until she did something drastic instead of talking to him about it and letting him know how she felt and also trying to see his side of things. I agree that it is a selfish way to be. 	1
   	 2015-02-02 15:25:41 	 Thank you for dramatically correcting my opinion of a person neither of us know anything significant about beyond OP's post. I really appreciate your guidance. 	1
   	 2015-02-02 18:42:36 	 Do you think I am defending her or something? I am confused as to why you are taking this so personally. 	1
   	 2015-02-02 22:12:44 	 So if FDOT needs to hire archaeologists to check the area before they begin the project I will work for on-site room and board and weekend park tickets hehe. 	1
   	 2015-02-02 22:19:50 	 Most good tea shops will have some form or another of a house brand Moroccan Mint.  	1
   	 2015-02-02 22:38:36 	 Oh I am so sad for you hun :( 	1
   	 2015-02-02 22:40:19 	" I always thought it was Luke.

EU post movies Luke. Well, I guess we will see in VII :D "	1
   	 2015-02-02 22:51:18 	 Well there goes that career plan, guess I'll just continue to focus on my PhD then. :o 	1
   	 2015-02-02 23:26:06 	" Capital One has some cards for rebuilding. My SO is helping me rebuild for the same reason. I got one (with a tiny limit) immediately approved from Capital One so now I can start on the right path. Good luck!

I also bank with Capital One 360, so this may have helped me out. YMMV "	1
   	 2015-02-02 23:33:43 	 Mine's 500, just like the student card I screwed everything up with. It's my second card ever, so that probably has something to do with it. 	1
   	 2015-02-03 03:08:44 	 They look like tsum tsums! :D 	1
   	 2015-02-03 14:43:22 	 Adorable! 	1
   	 2015-02-03 15:57:18 	 The boat rides were my favorite part. Also the cute cute architecture! I also enjoyed how the bus stop was nice and shady. The Gurgling Suitcase bar was also very fun! 	1
   	 2015-02-03 17:35:39 	 I already have an alarm set to remind me to try for lunch reservations for my trip. *fingers crossed* 	1
   	 2015-02-03 18:16:33 	 I am going to try at Midnight EST, fwiw. 	1
   	 2015-02-03 23:21:38 	 Good to know, thanks. 	1
 National Kicker of the Year Award Winner Commits to Georgia Southern 	 2015-02-04 14:29:32 	  	1
   	 2015-02-04 14:29:58 	 Hail Southern! We can kick football now! :D 	1
   	 2015-02-04 14:34:25 	 I'm excited. We have had a few seasons now where the kicking has not been stellar. I'm talking about regular missed PAT. 	1
   	 2015-02-04 15:15:00 	" I dont know if there will be a ramp-up to buying for Star Wars,' Iger said, with most merchandise tied to a film typically selling around its release.

LOL that's not how Star Wars works Bob. If you sell it, they will buy. "	1
   	 2015-02-04 15:16:35 	 Yeah, kickers are not usually sought after recruits with a tight scholarship budget. Fritz knew what we needed though. 	1
   	 2015-02-04 15:17:30 	 KICK TO WIN 	1
   	 2015-02-04 15:17:44 	 HAIL SOUTHERN 	1
   	 2015-02-04 15:24:00 	 Sorry bud. 	1
   	 2015-02-04 15:33:08 	 Disney has shown the Boba Fett portion of the Holiday Special at special character dining events at WDW. Stranger things have happened. 	1
   	 2015-02-04 17:15:03 	" I think it has more to do with certain State fans thinking their football program was better because it jumped to FBS after one season. We never played each other until 2014 and apparently that made us Eagles look like we were 'scared.'

This was then further exacerbated by clueless announcers calling Georgia Southern Georgia State on multiple occasions. [Friendly PSA](https://www.youtube.com/watch?v=putYM15zC0Y) "	1
   	 2015-02-04 23:27:14 	" https://www.etsy.com/listing/201508769/blaster-replica?ref=sr_gallery_22 ga_search_query=leia+blaster ga_search_type=all ga_view_type=gallery

Found a 3-D printed one on Etsy. Definitely unlicensed, but only 100. "	1
   	 2015-02-05 00:27:33 	 I hear good things about Star Wars weekends at Disney. 	1
   	 2015-02-05 14:15:07 	" Rebels has enough in it for us ""big"" kids. Give it a shot. "	1
   	 2015-02-05 14:16:02 	 Wilhelm scream, anyone? 	1
   	 2015-02-10 15:31:14 	 Your buddy is an alcoholic. The very best thing you can do for him is to get him the help he needs (which he probably won't want). Do it for his kid. 	1
   	 2015-02-10 15:58:32 	 *heavy breathing* 	1
   	 2015-02-10 22:52:58 	 Many people also decorate their magic bands themselves. I plan on making a Frozen one! :D 	1
   	 2015-02-11 21:15:48 	 Could be an unauthorized port or something completely ridiculous like a crappy game with a new sticker. *shrugs* 	1
   	 2015-02-11 21:17:03 	 And great! I've had mine since it was ING. 	1
   	 2015-02-11 21:20:10 	 :D Congratulations! 	1
 Elsa Glitter Variant- Is it really that rare/special? 	 2015-02-11 23:52:01 	 I will feel bad for opening mine if so. O.O 	1
   	 2015-02-12 00:13:32 	" http://www.ebay.com/itm/Funko-Pop-Disney-Frozen-ELSA-glitter-variant-vinyl-figure-82-/331450588507?pt=LH_DefaultDomain_0 hash=item4d2bfe9d5b

This guy has it at 600 "	1
   	 2015-02-12 01:02:53 	" Yay thanks :)

http://i.imgur.com/mUAvrAQ.jpg

I think they are cuties  "	1
   	 2015-02-12 03:05:31 	 LOL :) 	1
   	 2015-02-12 14:10:10 	 I just started watching it. Make sure you find the chronological order! I was just saying last night how I couldn't believe I thought it sucked for so long. 	1
   	 2015-02-13 13:55:22 	 I only got 5 :( 	1
   	 2015-02-13 14:08:11 	 I love lotso! I have to really bust it to get more than two activations per game, because not only does it take a while to charge but he appears less often in the game. 	1
   	 2015-02-15 15:08:36 	 No kidding. I just started watching it because of how much I am enjoying Rebels and holy crap. 	1
   	 2015-02-16 14:08:14 	 They just published a new one so it should be findable. 	1
   	 2015-02-16 14:46:06 	 I was wondering the same thing! 	1
   	 2015-02-17 02:33:43 	 An intriguing hypothesis. This requires more field testing. :3 	1
 Cat vs Lightsaber 	 2015-02-17 16:43:39 	  	1
   	 2015-02-17 16:44:19 	 My cat Abby playing with the lightsaber my boyfriend gave me for Valentine's. :3 	1
   	 2015-02-17 17:06:31 	" That is the correct level of enjoyment as indicated by the manufacturer.
 "	1
   	 2015-02-17 17:06:40 	 LOL 	1
   	 2015-02-17 17:49:11 	 Ultrasaber makes the one he got me. It's Obi-Wan's hilt with an LED you can change to be any color you want.  	1
   	 2015-02-17 23:18:04 	 Are you an archaeologist? 	1
   	 2015-02-17 23:26:52 	" I really like Atlanta. The area around GaTech is pretty cool and they have a lot of music festivals in the area. Some great museums as well. Can't comment on the dating scene though. Oh and the bars in Buckhead are EXPENSIVE.
 "	1
   	 2015-02-17 23:30:40 	 No worries. I'm an archaeologist and I understand taking a shit job early career on the other side of the country to get your foot in the door. Best of luck. 	1
   	 2015-02-18 02:04:55 	 42 hours last week, 38 hours this week. It works out, but it's shifty. 	1
 My cat Abby when she was a baby 	 2015-02-18 14:16:19 	  	1
   	 2015-02-18 14:18:14 	 This is my favorite picture of her :) 	1
   	 2015-02-18 18:57:03 	" Your home scale might not be calibrated the same as the one at the doctor. If your clothes feel the same you did not gain ten pounds.
 "	1
   	 2015-02-18 22:49:43 	" In my experience, I have observed that we get a lot of questions about what it is like to be an archaeologist. Which tells me that like most scientists, we are not so great at communicating what it is we do exactly with the general public.

As a general rule, archaeology is not sexy and I have never seen it portrayed accurately in a film for this reason. For something closer to accurate, think ""Scrubs"" except with shovels. Most archaeologists work project to project, usually on something related to infrastructure. These projects are conducted in advance of construction projects making use of federal funds. Very rarely does anyone go looking for something in particular (because of confirmation bias for one thing) because archaeology is EXPENSIVE when you do it right, which includes proper excavation and reporting techniques. There is no quick way to earn respect but shitty excavation practices and bad ethics is a hell of a way to lose it.

I'm fortunate enough to be salaried at a major American university, but that also means I no longer do much digging. My main focus is on public education. 

Best of luck with your project!

Also, we as a whole have zero fashion sense. Jeans, a button down and boots with most of the dirt knocked off is professional attire. I love it. "	1
   	 2015-02-18 23:36:01 	 Archaholic alkeyologists 	1
   	 2015-02-19 00:18:52 	" You can get a hell of an Obi-Wan saber at Ultrasaber. My boyfriend gave me one for Valentine's day. :) [Me and my saber!](http://i.imgur.com/dS2F7LF.jpg)

You can make it any color because it comes with a programmable LED. "	1
   	 2015-02-19 01:36:39 	 Thank you :) It makes saber sounds when you wave it around and hit it against things too! 	1
   	 2015-02-19 15:27:38 	" I'd actually recommend this documentary instead. http://www.pbs.org/wgbh/pages/frontline/shows/ghosts/video/

Watch it by yourself first though then decide which parts you want to show him. "	1
   	 2015-02-19 15:42:48 	 You are fine. 	1
 Ancient Technologies Featured at UAs Moundville Knap-In 	 2015-02-19 16:04:23 	  	1
   	 2015-02-19 16:14:19 	" If you read the books, you learn that Picard is fairly unpopular with the brass and that it has a lot to do with the time he spent as a Borg.

Edited to add- The Federation govt. LOVES him. The admiralty is where the problem lies. "	1
   	 2015-02-19 16:58:25 	" ""It is very likely that at least some degree of Ebola virus transmission currently occurs via infectious aerosols generated from the gastrointestinal tract, the respiratory tract, or medical procedures, although this has been difficult to definitively demonstrate or rule out, since those exposed to infectious aerosols also are most likely to be in close proximity to, and in direct contact with, an infected case,""

Yep so people will be fear mongering with this even though the scientists admitted it was impossible to control for.

Also

Thursday's study examines the idea that minuscule droplets of body fluid containing the virus could hang in the air and be inhaled by others, providing an unrecognized, if minor, pathway for the virus.

Not the same thing as an Ebola mutated to be airborne! "	1
   	 2015-02-19 21:31:59 	 Thank you. 	1
 I got the Frozen Pocket Pops today :) 	 2015-02-20 02:02:28 	  	1
   	 2015-02-20 14:50:53 	 The comments in that article make me a sad panda. [Also](http://starwars.wikia.com/wiki/Sila_Kott) 	1
   	 2015-02-20 14:51:22 	 There were some in the Battle for Naboo! :) 	1
   	 2015-02-20 15:00:27 	 So useful. Go for it. 	1
   	 2015-02-20 16:03:12 	 I have never had a problem with Adagio and their customer service is quite good. I think they use less artificial flavors than Teavana, although they are not completely 'clean.' 	1
   	 2015-02-20 16:22:11 	" [She was. Then overdubbed with a male voice](http://starwars.wikia.com/wiki/Sila_Kott)
 "	1
   	 2015-02-20 16:53:04 	 Nope. None whatsoever. :( 	1
   	 2015-02-20 17:42:42 	 I'm not sure. There is one reference to a female pod racer by Anakin in an EU novel, but it's to describe how horrifically she died.  	1
   	 2015-02-20 17:53:12 	 Natural flavorings can still be ambiguous. There's a natural flavoring in one of their raspberry herbals that doesn't agree with me that in no way comes from a raspberry. That said, Adagio is my preferred tea retailer! 	1
   	 2015-02-20 18:05:38 	 In the Outer Rim, I'd rather be dead than maimed to be honest lol. 	1
   	 2015-02-20 18:08:27 	 AND the guy who gets Indy to go find the Ark of the Covenant. Dude gets around. 	1
   	 2015-02-20 18:15:12 	 Porkins bein porkins. 	1
   	 2015-02-20 18:19:06 	 An excellent point! 	1
   	 2015-02-20 18:53:29 	 [Yeah she was awesome.](http://starwars.wikia.com/wiki/Dine_Ellberger) 	1
   	 2015-02-20 19:14:07 	 That was Arvel Crynyd. The female A-Wing pilot who was redubbed was Sila Kott. It's an easy mistake though because they look similar in their gear. 	1
   	 2015-02-20 22:15:30 	 Ambiguous 'natural' flavors in some flavored teas. 	1
   	 2015-02-20 22:21:03 	 There's speculation elsewhere in the thread that may answer your question. 	1
   	 2015-02-20 22:45:36 	 The one wearing shorts must start the conversation and wax poetic at length about the awesomeness of shorts. 	1
   	 2015-02-20 22:53:34 	 [Youngster would](http://i.imgur.com/n37Ef7u.jpg) 	1
   	 2015-02-20 22:55:34 	 Well, it's not from Season 1. 	1
   	 2015-02-20 23:01:29 	" Yep yep yep 10000x yep.

This is my biggest grammar pet peeve, because I feel like when people use 'I' when they should use 'me,' they are incorrectly patting themselves on the back for 'remembering the rule.'

Thank you good sir. "	1
   	 2015-02-22 16:13:21 	 Yeah, but I think it's more socially acceptable for us ladies to tell people to stuff it for commenting about what we like. 	1
   	 2015-02-22 16:51:34 	" An app would be awesome.

Besides that, I stopped playing in Nov. 2012 and only just picked it back up this month. NOTHING HAS CHANGED. Even the popular NC items are the same.  "	1
   	 2015-02-23 23:31:07 	" I just got a new windows machine (Dell XPS 13 '15 edition) and I LOVE the snapping feature.

Prior, my primary machine was a 27 inch iMac, so never really hurt for screen space hehe. "	1
   	 2015-02-24 00:25:44 	 I always thought this was why guys pissed standing up. 	1
   	 2015-02-24 00:40:13 	 Starting Wednesday they will be taking lunch reservations for BoG. You should give it a shot! 	1
   	 2015-02-24 00:41:37 	 Nice 	1
   	 2015-02-24 00:43:31 	 Actually not funny. 	1
   	 2015-02-24 00:49:36 	 Mine does it (ordered from Dell) but the fan only kicks on when I'm gaming, and I tend to have a headset on so I don't really notice it. 	1
   	 2015-02-24 16:09:22 	" So none of those look Paleo to me. They look Archaic/Woodland but it really depends on the part of the country they came from (context context context!) See if the historical society or one of your professors will help you get it recorded in the state site file. Or even better, perhaps there is a nearby professional firm that can help get it recorded. 

The thing is, the actual stuff you found may be cool and all, but it's a lot more useful to the scientific community when we can study the relationships between the artifacts and any features that may have been present. Remember, you can't put it back once its excavated! "	1
   	 2015-02-24 16:12:27 	 In the US, most archaeologists have an anthropology degree because pedagogy over here follows Boas and the four fields approach. 	1
   	 2015-02-24 17:07:21 	 I do a lot of Photoshop/InDesign etc. at work and have downloaded CC for my XPS and the first thing I noticed is how FAST the programs open up. That's the solid state! I have never had my fan kick on when using the Adobe suite (yet). My fan kicks on only when I am using almost all of the CPU power. 	1
   	 2015-02-24 17:20:28 	 One looked like an abrader to me. 	1
   	 2015-02-24 17:27:27 	 I got it directly from Dell and upgraded the solid state to 256 mb. I have 8 gb of ram and the i5 processor. No touch screen. It's my first PC after being Mac only for 5+ years and I am very happy. 	1
   	 2015-02-24 17:58:17 	 Absolutely. Although, I must say I only use Photoshop/Illustrator/InDesign out of the suite, so I can only comment on those. I was working at home on a magazine layout for work recently and the XPS navigated the file better than the 6 months old 27 inch iMac I have at work. I missed the big screen though hehe. I have not tried processing HUGE raster files with the XPS yet though. Just edited a batch of photos here at work and the response time was great. 	1
   	 2015-02-24 18:44:23 	" My boyfriend and I are going for our first trip together in May! 3 (70 days!!)

We are staying at POP Century and checking in on May 5th. Our first night there we are having dinner at Boatwrights at Port Orleans Riverside. Following that, my plan is to head over to the Polynesian for a Lapu Lapu at the Tambu Lounge while we watch Wishes from the beach. Then back home, since we have an early day the next day!

May 6th we have booked the Star Wars Galactic Dine In Character Breakfast at Hollywood Studios for 8:25 AM! I am SO EXCITED about this! My fastpasses for HS will include Toy Story, Tower of Terror and Star Tours. I'd also like to see the Indiana Jones Stunt Spectacular and MuppetVision 3D.

We are then park hopping to Epcot where we will drink and snack our way around the world showcase and flower and garden festival. Hopefully we can also ride Spaceship Earth! We have dinner reservations at Akershus after which we will find a spot for IllumiNations. RIGHT AFTER IllumiNations we will beat it to the Monorail and head to the Magic Kingdom. Hopefully we will arrive in time for Wishes! Seeing it from the Monorail height is pretty awesome. Finally, we will catch the Electric Parade then call it a night.

May 7 we will get up SUPER EARLY for EMH at the Magic Kingdom! I plan on filling myself with Mickey Waffles at the POP restaurant. Then we will try and get to the park in time for the opening show! My plan is to FP+ Peter Pan, 7 Dwarves, and Buzz Lightyear. I plan to head to Space Mountain first thing, do Buzz, then turn around and do Pirates, Haunted Mansion, then spend most of our time in Fantasyland getting all the major rides. We currently have lunch reservations for Tony's, but I am crossing my fingers I will be able to get Be Our Guest tomorrow! We will finish our day in the Magic Kingdom with the new Fantasy Parade.

After that, we will head back to Hollywood Studios! We will do any shows we missed the day before, Rockin Rollercoaster, Star Tours AGAIN! Then, we have dinner reservations at 50's Prime Time Cafe after which we can hopefully grab a seat at Fantasmic! Then finally we will head home and get to sleep in a little hehe.

May 8 we have a late AM breakfast reservation at Olivia's at Old Key West. Then we will take a boat to Downtown Disney where we will look around and shop. We have a late lunch reserved at Fulton's and dinner reservations at Raglan Road. We also have tickets to see Nightwish and Sabaton at House of Blues! :D

May 9- Checkout day. :( I want to walk over the bridge to see Art of Animation and have breakfast or lunch there before we leave.

We are celebrating our 1st Anniversary as a couple and are so excited. 3 "	1
   	 2015-02-24 23:26:33 	 If I was the random lady, I'd check the item in my trunk and try to contact the owner if the instrument had any contact info on it. 	1
   	 2015-02-25 12:08:50 	 I got mine for when I wanted, but it's not showing on my reservations. I too am believing that my confirmation email means I am good! 	1
   	 2015-02-25 13:06:53 	 I wonder if the poor cast members were all dreading today. 	1
   	 2015-02-25 14:25:02 	 Mine is showing up in MDE now yayayay 	1
   	 2015-02-25 14:35:11 	 The whole website was broken. I bet they are not all gone. 	1
   	 2015-02-25 17:12:45 	 Wow how is that even legal? 	1
   	 2015-02-25 17:28:40 	 Awesome :) 	1
 [Nostalgia] Who else remembers the awesomeness of Pokemon Pinball? 	 2015-02-25 21:12:57 	  	1
   	 2015-02-25 21:14:51 	 Blue table for life. 	1
   	 2015-02-25 21:54:08 	" Mine too! I saved so much for it and loved how it vibrated.

Actually I may have more hours on Diamond now that I think on it.

But back in the day, definitely. "	1
   	 2015-02-25 22:02:14 	" The gameplay is very similar. The graphics, 'mons, and physics are updated of course and there are a couple more things to interact with on the table. Also Spoink shoots your pinball so you can control the speed of the ball, something which the original version lacks. Two thumbs up can recommend.

Does not rumble though. :( "	1
   	 2015-02-25 22:32:59 	 The rumble on my cart stopped working. ;_; 	1
   	 2015-02-25 23:46:10 	 Yeah it took up premium space in my case lol. 	1
   	 2015-02-25 23:46:47 	" I would so buy a Gen IV pinball game!
 "	1
   	 2015-02-25 23:47:26 	" Blue table FTW!

I never beat HAL's top score lol. "	1
   	 2015-02-26 03:09:06 	 Sadness! 	1
   	 2015-02-26 03:09:33 	 Someone above said you could get the R/S one on the WiiU 	1
   	 2015-02-26 04:07:28 	 Snap is the game I always wanted to play as a kid. Finally got it and a used 64 a couple years ago and was so happy. 	1
   	 2015-02-26 15:12:42 	 Huh, I didn't know that! Thanks! 	1
 Character Meals that Include Photos 	 2015-02-27 02:54:51 	 Hi everyone, I have a couple character meals that traditionally include photos (whether you have MM or not) and I just read on a different forum conflicting reports about whether they stopped this at the beginning of the year or not. The ones I have booked are Akershus and Star Wars Galactic Breakfast. I'll be so disappointed to not get photos. :( 	1
   	 2015-02-27 02:58:44 	 I will not have Memory Maker though. I had been under the impression that you didn't need MM for these meals because the photos were included in the price.  	1
   	 2015-02-27 03:16:13 	" CM says yes!

Now I have hope! I think I might get a new camera. We only have two park days, so $169 for pics makes me sad when I can get a new camera for that money, take my own pics and ask CMs to take pics of both of us. "	1
   	 2015-02-27 14:16:38 	 I'm playing Pokemon Green now. It's hard because it's in Japanese lol. 	1
   	 2015-02-27 18:03:12 	 Move relearner would do it I think. 	1
   	 2015-03-02 17:35:39 	 I vote for infected ingrown hair too. 	1
   	 2015-03-05 20:23:32 	 I'm considering the same, so I'm just gonna lurk here lol. 	1
   	 2015-03-05 20:24:18 	 fuckfuckfucfuckfuckfuckfuck 	1
   	 2015-03-05 20:25:55 	 Yes. Do this. 	1
   	 2015-03-05 21:21:05 	 r/highschoolproblems 	1
   	 2015-03-07 05:43:33 	 I am an archaeologist and my boyfriend and I have talked about getting tattoos on our ring fingers for when we are not wearing our rings. I definitely don't want to damage mine while working! 	1
   	 2015-03-07 17:37:30 	" The person who wrote that article knows jack shit about archaeology.

It is an intriguing find, however. "	1
   	 2015-03-07 17:39:50 	 Cahokia (and all other Mississippian polities) lacked a system of writing that we know of so *technically* not a civilization (although it meets all the other criteria). I tend to leave it at complex society and call it a day. There are many problems with the current definition of civilization, especially the implication that cultures that don't meet the criteria are 'uncivilized.' 	1
   	 2015-03-07 17:42:40 	 Stone tools didn't necessarily have a long life, no, but I like to think that if someone broke their big lovely spear point that they might reuse part of it as, say, a hide scraper. :) 	1
   	 2015-03-07 17:44:31 	 The only thing that bothers me about 'pre-Clovis' is that the nomenclature presupposes that these earlier occupations eventually became the Clovis culture when they have just as much possibility of being something else entirely. 	1
   	 2015-03-07 18:56:06 	 What a magical family moment that I guarantee will not be brought up repeatedly at your wedding. 	1
   	 2015-03-08 04:34:41 	" Are you in the US or Europe? That will help us narrow down which programs are available near you.

In the US, generally your bachelor's will be in Anthropology. "	1
   	 2015-03-08 17:23:37 	 I know that feel bro. HAIL SOUTHERN. 	1
   	 2015-03-08 17:37:25 	" Hopefully this will ""jumpstart"" some new changes. I was on hiatus for two years and NOTHING CHANGED. Two years!! How are you supposed to maintain a userbase like that?

I feel bad for the people who lost their jobs. Hopefully it was only the bad apples, not anyone who really contributed. "	1
   	 2015-03-08 18:28:22 	 That doesn't add up. If you were my husband, and I really preferred you be home, I would come get you myself. 	1
 Pounding some good pets off side accounts 	 2015-03-08 20:44:32 	" These are guys I poundsurfed ages ago. Let me know if you want them. :D

Shadow Gelert falangical

Striped Zafara Haynelle with zapped Pirate Mallard

Grey Grundo MallowBelle


 "	1
   	 2015-03-08 21:57:17 	" Doesn't Christianity teach unconditional love? I wasn't raised Christian, so I can't be sure, but every time I see something like this I'm all ""Aren't they supposed to love you anyways?"" "	1
   	 2015-03-09 04:55:10 	 Ewoks are kind of brutal little murderers though. 	1
   	 2015-03-09 05:08:58 	 Of course girls who like light sabers are a thing.  	1
   	 2015-03-09 13:21:00 	 Yep. I use the Ewok companion in The Old Republic and she is vicious.  	1
   	 2015-03-09 13:22:50 	 Thank you. Leia was a badass. 	1
   	 2015-03-09 16:14:14 	 It sucks dude but it is absolutely her decision to make. Chalk it up to a life experience and apply these lessons to your next relationship. 	1
   	 2015-03-09 17:25:58 	 Her name is Treek and she is in the Cartel Market and is a tank/healer. You can use her for any class either Imperial or Republic. Kind of pricey if you don't catch a sale though. But it's totally awesome she swoops into battle on one of those little hang gliders, summons bees as a taunt, and stabs herself in the leg with a healing dart when her health is low.  	1
   	 2015-03-09 21:01:59 	 Probably. I was trying to say that without directly accusing the OP of being abusive. 	1
   	 2015-03-09 21:49:48 	 Aww thanks. :) 	1
   	 2015-03-10 18:21:51 	 Anybody hear anything about Space Mountain refurb in April/May? Folks on a different page have reported fast pass cancellation. 	1
   	 2015-03-10 20:28:42 	 I am super impressed! :D I thought it was an actual service Lego offered. 	1
 Well I come back from my hiatus and Pirate Draik MP are cheap now so I got a dreamie. 3 	 2015-03-10 21:05:17 	  	1
   	 2015-03-10 23:18:03 	 It sounds like your family could use some happy news. It sounds tough, but happy things like weddings usually lift everyone up. *hugs OP* 	1
   	 2015-03-11 14:10:52 	 Thanks! :) 	1
   	 2015-03-11 18:06:28 	" healthy, -to-2 pack-per-day smokers

I LOL'd. "	1
   	 2015-03-11 18:51:57 	" Yoda's cane (gimer stick) was also nutritional.

EDIT- Denis Lawson is Ewan McGregor's Uncle. "	1
   	 2015-03-11 18:56:23 	 He could chew on the cane and acquire nutrients. Also it provided a natural analgesic. 	1
   	 2015-03-11 19:14:32 	 ^That's ^what ^analgesic ^means. 	1
   	 2015-03-11 19:39:40 	 Fair enough. 	1
   	 2015-03-11 20:06:08 	" I did not read the article because the authors failed to differentiate between biological sex (the word female) and gender (the word man) in the first paragraph and it made me a sad science panda.

 "	1
   	 2015-03-11 22:40:28 	 You need to decline Delina's quest by clicking the X. 	1
   	 2015-03-12 22:07:26 	 So does that spoon come in a cereal box or what? How do acquire? :D 	1
   	 2015-03-12 23:32:14 	 My ideas are checking your paystubs with your employer or looking at all the deposits into your bank account. I do not know if this will work for your particular situation, but it is where I would start if it was me. Good luck OP that sounds really scary. ;_; 	1
   	 2015-03-18 15:33:18 	 I've been attacked by someone I trusted. The only person I have told (until now I suppose!) is my future husband, because I wanted to make sure he didn't feel hurt if I had to pull away during intimate moments that became overwhelming. I told him I had something important to tell him. I cried. He held me. I felt better. 	1
   	 2015-03-18 15:45:06 	 No, not at all. Good luck OP. :) (and yes he is amazing!) 	1
   	 2015-03-18 21:46:53 	 Do y'all do anything with Star Trek Online as an RP vehicle? My fleet RPs with the in game chat, but it's kinda flaky so my boyfriend and I have been exploring other options. 	1
   	 2015-03-18 22:11:38 	 Sure go ahead. 	1
   	 2015-03-18 22:45:47 	 I would just ASPLODE if I got to meet Anna and Elsa at Akershus! 3 We have dinner reservations in May so PLEASEEEEE Disney! 	1
   	 2015-03-18 23:22:50 	 Had to google fupa... kinda wish I didn't. ;_; 	1
   	 2015-03-19 23:32:22 	" That's pretty low. :/ It's not up to him what you look like, only up to you!

I'd suggest getting single serving stuff or focusing more on veggies and things he can't sneak sugar into. Also, the best diet tip is drink nothing but water so it would be pretty hard for him to sabotage that. :) "	1
   	 2015-03-23 19:10:48 	 I would play this. It would probably be the straw that finally made me break down and buy a 3DS. 	1
   	 2015-03-23 19:15:22 	" I broke my tailbone when I was younger, and it healed at a bit of a different angle. That combined with the fact that there is not much junk in my trunk means that when I sit on my boyfriend's lap wrong, he is jabbed by my coccyx.


He calls it my ass dagger. "	1
   	 2015-03-23 19:34:02 	" OK now I feel old. *cries*

Love those games... "	1
   	 2015-03-24 00:38:58 	" [It's this doll](https://c2.staticflickr.com/4/3331/5733577662_229f3a6ddd.jpg)

John Smith from Pocahontas "	1
   	 2015-03-24 15:41:54 	 Jadzia is my favorite Dax. 3 	1
   	 2015-03-24 23:19:18 	 I think it has been breaking my flash in Google Chrome (I'm on a PC). 	1
   	 2015-03-25 00:29:08 	 Yes! That describes my booty exactly lol. Do iiiiiiit! 	1
   	 2015-03-25 19:54:34 	" My period always makes me ravenous.
 "	1
   	 2015-03-26 04:14:46 	 I had one that I bought in the US and it had Japanese characters too so IDK if that means much. 	1
 My Kau might wreck your face [ITT Share Spring Customizations!] 	 2015-03-26 16:05:43 	  	1
   	 2015-03-26 16:12:18 	 Aww he looks so dapper! :) 	1
   	 2015-03-26 17:43:22 	 I feel like your Draik would make an awesome meal from the fruits of her garden. :) 	1
   	 2015-03-26 17:44:04 	 Thanks! She is wearing the Dark Faerie Eye Shadow. It was a random prize during the Faerie Quest event recently. 	1
   	 2015-03-26 18:06:35 	 Well, my minor was very complimentary to my major and has resulted in making me stand out in the job market because of that additional skillset. 	1
   	 2015-03-26 18:16:22 	 Thank you :3 	1
   	 2015-03-26 18:19:26 	 Yeah that does sound complimentary. The difference for me was that my minor was required to graduate and therefore took no additional time since I worked on it at the same time as my major classes. 	1
   	 2015-03-26 23:02:01 	 Aww congrats! :) 	1
   	 2015-03-26 23:02:15 	 Aww thanks! :3 	1
   	 2015-03-26 23:03:35 	" Why thank you. :)

Yes the garland is NC, it is from the first festival of neggs iirc.

Soo cute! I love how they are hiding in the flowers. :D "	1
   	 2015-03-27 03:41:39 	 Those are tiny! :O 	1
   	 2015-03-27 17:51:41 	 Girls like that go to football games too. No really, I LOVE having your shrieks permanently damage my hearing. I'm sorry you feel threatened by the fact that my big muscly boyfriend is wearing the other team's shirt. 	1
   	 2015-03-27 21:20:27 	 I spent less than half that on two degrees. I suggest you find a less expensive college or get some scholarships. 	1
 Finally taking the plunge on a 3DS and a new Pokemon game 	 2015-03-28 18:26:41 	" I'm leaning towards the new 3DS since it has better everything compared to the other models you can get new, although the colors don't excite me. :/

I think I am gonna go for Pokemon Y to start with although I eventually want Alpha Sapphire too.

Are there any bundles I should look for? Is it better to get the cartridge or download the game digitally? [I would cry if my pokes became corrupted]

Also, how easy is it for me to send mons from Diamond or HG or Black?

Thanks y'all! "	1
   	 2015-03-28 19:42:27 	 Ooh the PokeBank looks cool! I'm definitely going to have to check that out! Thank you for such an indepth answer :) 	1
   	 2015-03-28 19:43:10 	 I am not a good enough person to loan out my Pokemon games lol. But I do like the idea of a game card for it. 	1
   	 2015-03-28 19:43:45 	 I didn't think about making backups! Awesome. 	1
   	 2015-04-01 17:21:24 	 *cries* 	1
   	 2015-04-02 23:34:04 	 I want an AR Pokemon Snap for the 3DS. It could be so cool! 	1
 I thought I would share some of my favorite plushies with r/pokemon 	 2015-04-03 00:10:16 	  	1
   	 2015-04-03 00:11:16 	 They are Banpresto prize plush from 1998 and SUPER RARE! They are called bell plush because they have a tiny jingle bell on them. Laptop for scale. I loves them so much. 3 	1
 Does anyone else have weird Pokemon 'Traditions'? 	 2015-04-06 16:29:02 	" So waaaay back in my first Pokemon game (Yellow) one of the members of my team was Nidoking. I didn't have any water types on my final crew I guess so I taught my Nidoking Surf because he could learn it for some reason. Ever since, in FR and HG and just today in X my Nidoking on my team has known Surf. 3

I think my first team was Pikachu, Nidoking, Scyther, Charizard, Articuno ... and someone else. I can't remember the sixth pokemon. ;-; EDIT- Haunter. I think it was Haunter.

What sorts of things do you carry over game to game? "	1
   	 2015-04-06 17:02:51 	" And I miss out on Raichu because I refuse to evolve my Pikachu lol. That's pretty cute. :)
 "	1
   	 2015-04-06 18:03:38 	" Nice! Yeah I do the leveling thing too. It kinda threw me off in X when my happier Pokes started getting boosted XP.
 "	1
   	 2015-04-06 18:03:49 	 Aww :3 	1
   	 2015-04-06 18:11:27 	 Yeah those games turned me off too. I'm grumpy that I need to finish my Black that I haven't touched in four years to get Pokes from my Diamond/Platinum/Heart Gold sent up to my new game.  	1
   	 2015-04-06 18:28:38 	 Haha ouch yeah that would be difficult. 	1
   	 2015-04-07 02:54:12 	 That's a nifty challenge! :3 	1
   	 2015-04-07 02:54:54 	 I like to keep my starters cute for as long as possible lol. 	1
   	 2015-04-07 02:55:36 	 Nido FTW 	1
   	 2015-04-07 13:31:20 	 The bug is usually the one thing I DO evolve haha. 	1
   	 2015-04-07 13:32:02 	 I've really been enjoying Wondertrade. I just got a Helioptile named H-Dawg lmao 	1
   	 2015-04-07 13:33:43 	 Wait wait... I just started Gen VI and you can breed into specific balls now? O_O Too cool! 	1
   	 2015-04-07 15:17:55 	 That's awesome! :D Thanks! 	1
   	 2015-04-07 16:25:29 	" I was tempted to make a throwaway, since the institution I work for is dealing with a potentially hairy NAGPRA claim right now but I have to say that yes I do. I don't know if NAGPRA is the law you are referring to (and I don't have much knowledge of legislation in other countries) but I do support reburial. I also support scientific study of remains. I know from personal experiences that compromises can be made that allow for study and documentation prior to repatriation.

Also, I can't think of a single example where remains in a historic context were not reinterred as soon as practical. Historic cemeteries are always moved if the archaeology is done right. I don't see why this same attitude does not get applied to prehistoric remains that lack a cultural association. They're still people! "	1
   	 2015-04-07 22:38:06 	 I've put the most hours into Pokemon Diamond and thought that was the pinnacle of Pokemons, but I just started X and basically it's the Pokemon game I have wanted since 1998 and is amazing. 	1
   	 2015-04-07 23:30:18 	" This is adorable. 

^^^My ^^^biological ^^^clock ^^^is ^^^going ^^^CRAZY "	1
   	 2015-04-08 05:56:01 	 Definitely. Black was such a let down for me after Diamond. 	1
   	 2015-04-08 17:00:47 	 That would be beautiful. :O 	1
   	 2015-04-08 19:50:32 	 You could use Pokemon for things like that in the Ranger games. It was great. 	1
   	 2015-04-09 03:39:57 	 Totally! 	1
   	 2015-04-09 16:51:17 	 I'm planning on bringing mine to Disney next month :) Good to know I will get lots of passes! 	1
   	 2015-04-09 17:47:41 	 I have heard that having a big combo multiplier helps with catchability. I have not progressed far enough in the game to get to Groudon or Kyogre though. 	1
   	 2015-04-09 18:06:14 	 Hah you have those little cutouts from the Mac n Cheese boxes. 	1
   	 2015-04-09 18:12:18 	 Poke Mac n Cheese always tasted better. My bro and I were convinced the cheese sauce was different, but my adult logic knows that the shapes just held the sauce better than the elbows. 	1
 My Darkrai Collection! :3 	 2015-04-10 02:10:15 	  	1
   	 2015-04-10 02:28:09 	 Eh, not so much. 	1
   	 2015-04-10 02:30:17 	 Thanks. That would be a nice addition for when Darkrai wants a snack. 	1
   	 2015-04-10 02:37:23 	 Hehe yeah I was wondering who would notice. 	1
   	 2015-04-10 03:15:32 	 Thanks :D 	1
   	 2015-04-10 03:16:06 	 Pikachu actually :3 	1
   	 2015-04-10 12:55:35 	 That's a really good manga though! :) 	1
   	 2015-04-10 12:56:17 	 Darkrai FTW :3 I actually used to have two of those holders. Can't find the other one. :/ 	1
   	 2015-04-10 12:56:56 	 Yes I did like it, thank you! :D 	1
   	 2015-04-10 13:39:49 	 Dem cicada hands doe.... 	1
   	 2015-04-10 15:16:24 	 Yes! :D Darkrai is awesome! :D 	1
   	 2015-04-10 16:54:21 	" Pokemon X/Y is glorious. You would probably enjoy Omega Ruby or Alpha Sapphire too. 

I am not a huge fan of Black/White, but I do heartily recommend Heart Gold/Soul Silver and Diamond/Pearl/Platinum. But you don't need them for Pokemon X/Y to make you happy. "	1
   	 2015-04-10 17:15:33 	 Yes Darkrai is awesome! I'd love to see pics of your collection. 3 	1
   	 2015-04-10 17:42:16 	 Because I like Munchlax too. It's so hard to choose between favorites! D: 	1
   	 2015-04-10 20:22:20 	 Sitting on my Diamond and Platinum carts hehe. I have JPN Movie Darkrai, US Movie Darkrai, and the Pokemon Ranger Darkrai. 	1
 You might be playing too much Shuffle if... 	 2015-04-10 21:41:47 	" You see the icons on your desktop and think about how to slide them to make the best combo.

Add yours! "	1
   	 2015-04-10 22:42:02 	 Try repairing your download from the eShop settings. It fixed the issue for me! 	1
   	 2015-04-17 14:26:04 	 It's not broken. It has a superficial scratch that screen protectors would have prevented. 	1
   	 2015-04-17 22:17:44 	 Definitely file a claim with etsy. They are pretty good about getting your money taken care of.  	1
   	 2015-04-18 15:10:49 	 Ouch that sucks :( 	1
   	 2015-04-21 15:48:51 	" I'm bringing a rubber Darth Vader keychain :D

I heard they trade you pins sometimes. "	1
 Two weeks to go! I decorated my Magic Band! :D 	 2015-04-21 21:11:14 	  	1
   	 2015-04-22 00:43:46 	 Thank you! I bet yours are in the mail then eh? 	1
   	 2015-04-22 00:44:28 	" Aww gosh thank you so much! I used metallic temporary tattoos I found on Amazon and sealed it with base coat nail polish.

3 "	1
   	 2015-04-22 01:23:40 	 Aw! Thank you so much! :D 	1
 That awkward moment when you streetpass one of your students 	 2015-04-22 01:46:29 	 I work at a museum and I bring my 3DS to collect steps for playcoins on my lunch break basically (and that Pokemon Shuffle fix) and I noticed when I got home I had a streetpass from one of the kids I gave a guided tour to today. SO now I feel a bit creepy but hey at least I got an Eon ticket out of it. xD 	1
   	 2015-04-22 02:04:36 	 I think it comes from the same part of my brain that wouldn't allow any connection with my college students on social media. Educators have to treat these things differently. 	1
   	 2015-04-22 03:24:30 	 He must have been so excited :D 	1
   	 2015-04-22 05:09:42 	" Yes, thank you! I had a looooot of time between knowing I wanted to get the band and finally getting it so I did a lot of research.

I'm glad you like it! :D "	1
   	 2015-04-22 05:10:24 	 That's pretty cool! :D 	1
   	 2015-04-22 05:11:12 	 Yeah I never considered the possibility and my Mii is pretty recognizable. 	1
   	 2015-04-22 05:11:32 	 Yeah I should do that. 	1
   	 2015-04-22 05:12:11 	 I know right? I realize of course that it's fairly harmless but that doesn't mean I can't feel a lil creepy. 	1
   	 2015-04-24 00:07:08 	 As stated above I used metallic temporary tattoos I found on Amazon and sealed it with base coat nail polish. 	1
   	 2015-04-24 01:10:17 	 My New 3ds XL has a TN top screen. 	1
   	 2015-04-24 02:49:17 	 It has a C-Stick, yes. 	1
   	 2015-04-24 19:35:40 	 I always turn off my nn3dsxl before I insert or remove a game card. Do you not have to do this anymore? :O 	1
   	 2015-04-28 04:27:37 	 Pokemon black looks like crap blown up so I play it on the smaller resolution. 	1
   	 2015-04-29 00:24:24 	 [This case perhaps? Looks nice OP!](http://www.amazon.com/TakeCase-Carrying-Accessories-Protect-Nintendo-Guarantee/dp/B00UG63VDG/ref=cm_cr_pr_product_top?ie=UTF8) 	1
   	 2015-04-29 01:18:00 	 Gimmefreestuffers are everywhere on the internet. 	1
   	 2015-04-29 04:01:24 	 I think so too. IDK why neckbeards insist on downvoting. XD 	1
   	 2015-04-30 13:59:32 	 I have a TN screen one. It doesn't bother me. Mine is black and I got it about five weeks ago. 	1
   	 2015-04-30 15:11:57 	 /u/Trollabot test_subject9096 	1
   	 2015-04-30 19:40:21 	 Yes that is the face tracker. 	1
   	 2015-05-02 15:12:29 	 Oh snap there will be OVER 9000 pokemon to finish the dex! 	1
 My Amazon review of that nice NN3DSXL case the designer was giving away on this sub a few days back 	 2015-05-04 23:51:07 	" Hey if you remember [this](http://www.reddit.com/r/3DS/comments/3474zi/10_free_new_3ds_xl_cases_in_exchange_for_honest/) post from a few days ago about the case, you might be interested in my review of the product [here](http://www.amazon.com/review/R1948J6WYDGGS0/ref=cm_cr_rdp_perm)

I really recommend the case! :D "	1
   	 2015-05-04 23:52:04 	 [Here's my review, thank you!](http://www.amazon.com/review/R1948J6WYDGGS0/ref=cm_cr_rdp_perm) 	1
   	 2015-05-05 00:08:38 	 I would think so. That case looks really similar to the one I have on mine in the photos attached to my review. 	1
   	 2015-05-05 00:19:14 	 I love having the shoulder strap. I think the case looks great too. I might have to get some patches or something to brighten it up some. I just like color! 	1
   	 2015-05-05 00:19:40 	 Glad to help!  	1
   	 2015-05-05 02:15:43 	 Haha yes I did! I've been looting for about a year now. :3 Thanks! 	1
   	 2015-05-05 12:59:00 	 A USB cable would, but not the AC adapter. 	1
   	 2015-05-05 12:59:16 	 I know right? Great value! 	1
   	 2015-05-05 12:59:40 	 Thank you :3 	1
   	 2015-05-05 14:06:37 	 Good luck bud. :( 	1
   	 2015-05-05 15:40:05 	 Wow it really does O.O 	1
   	 2015-05-05 15:40:24 	 Thanks! That's too bad :( 	1
 Star Wars Galactic Dine-In Breakfast Report 	 2015-05-11 02:57:08 	" We had an awesome time!! The character interaction was wonderful (I have to say though I think it depends on how into it the guest is- you gotta give them something to work with people!), the food was AMAZING, and the atmosphere was spectacular (Sci Fi Dine-In).

We arrived for our 8:25 reservation with a few minutes to spare, checked in, and mingled with other guests while we waited to join the rebellion. Once your rebel cell is called, you join the line to meet [Darth Vader and Boba Fett](http://i.imgur.com/1mcxNdb.jpg). As you can guess from my outfit, I was not too popular with them! Fett liked my boyfriends' shirt though of course. Boba scanned me with his helmet eyepiece and tried to collect my bounty. He was also not impressed by my ears! Darth Vader went as far as taking my Chewbacca plushie, holding it up for the crowd to see, then turning back towards me and slowly and deliberate wringing his neck before dropping him on the floor while staring directly at me. Evil!

After you get your picture taken, the cast member hands each person a mini Lightsaber that can go either red or blue depending on which side you are on. At the table, (which are little cars from the 50's) you get your menu and the server goes to get your pastry starter. A pastry tray, fruit, beverage, and entree are all included in one price. The [pastry tray](http://i.imgur.com/wBRwqgi.jpg) had chocolate muffins, puff pastry Lightsaber sticks with red or blue sugar, Darth Vader Danish things and Princess Leia sticky buns. All delicious!
The fruit salad or parfait that you get next has a little melon Yoda on the top. The entrees all have cute Star Wars names, but the only one that looks special are the [[Vader waffles](http://i.imgur.com/QG1TZyu.jpg) which were amazingly delicious! I washed everything down with a blue milk (kinda blue raspberry flavored). The cast member who checked us in at our hotel mentioned we could keep ordering as many entrees as we wanted, but we found that one entree was plenty of food.

The screen at Sci Fi was playing Star Wars clips the entire time and whenever the cantina band music came on, the jawas and Stormtroopers all danced. [I traded with the Jawas](http://i.imgur.com/3VKH1zS.jpg] (they swindled me!), convinced the [Storm Troopers](http://i.imgur.com/yAGUrPJ.jpg) we were not the diners they were looking for, and [apologized to Greedo](http://i.imgur.com/qBpxvVp.jpg) for the incident in Mos Eisley so he would take a picture with me. When we left, Boba Fett almost followed me out the door to make sure I left. All in all, it was an amazing experience that I am so glad we were able to do. "	1
   	 2015-05-11 04:04:30 	 That's right, it only goes partway through June.  	1
   	 2015-05-11 14:47:50 	 It really was! Have a nice time. 	1
   	 2015-05-11 14:48:31 	 I traded a rubber Darth Vader keychain and got a pink usb cable in return. My boyfriend said mostly what he saw in the trade bag was candy. 	1
   	 2015-05-11 14:49:15 	 Lol thank you :) I had a lot of comments on my ears (which came from etsy) so lots of people liked them! 	1
 Star Wars Galactic Dine-In Breakfast Report (x-posted from r/WaltDisneyWorld) 	 2015-05-11 16:44:33 	" We had an awesome time!! The character interaction was wonderful (I have to say though I think it depends on how into it the guest is- you gotta give them something to work with people!), the food was AMAZING, and the atmosphere was spectacular (Sci Fi Dine-In).

We arrived for our 8:25 reservation with a few minutes to spare, checked in, and mingled with other guests while we waited to join the rebellion. Once your rebel cell is called, you join the line to meet [Darth Vader and Boba Fett](http://i.imgur.com/1mcxNdb.jpg). As you can guess from my outfit, I was not too popular with them! Fett liked my boyfriends' shirt though of course. Boba scanned me with his helmet eyepiece and tried to collect my bounty. He was also not impressed by my ears! Darth Vader went as far as taking my Chewbacca plushie, holding it up for the crowd to see, then turning back towards me and slowly and deliberate wringing his neck before dropping him on the floor while staring directly at me. Evil!

After you get your picture taken, the cast member hands each person a mini Lightsaber that can go either red or blue depending on which side you are on. At the table, (which are little cars from the 50's) you get your menu and the server goes to get your pastry starter. A pastry tray, fruit, beverage, and entree are all included in one price. The [pastry tray](http://i.imgur.com/wBRwqgi.jpg) had chocolate muffins, puff pastry Lightsaber sticks with red or blue sugar, Darth Vader Danish things and Princess Leia sticky buns. All delicious!
The fruit salad or parfait that you get next has a little melon Yoda on the top. The entrees all have cute Star Wars names, but the only one that looks special are the [Vader waffles](http://i.imgur.com/QG1TZyu.jpg) which were amazingly delicious! I washed everything down with a blue milk (kinda blue raspberry flavored). The cast member who checked us in at our hotel mentioned we could keep ordering as many entrees as we wanted, but we found that one entree was plenty of food.

The screen at Sci Fi was playing Star Wars clips the entire time and whenever the cantina band music came on, the jawas and Stormtroopers all danced. [I traded with the Jawas](http://i.imgur.com/3VKH1zS.jpg] (they swindled me!), convinced the [Storm Troopers](http://i.imgur.com/yAGUrPJ.jpg) we were not the diners they were looking for, and [apologized to Greedo](http://i.imgur.com/qBpxvVp.jpg) for the incident in Mos Eisley so he would take a picture with me. When we left, Boba Fett almost followed me out the door to make sure I left. All in all, it was an amazing experience that I am so glad we were able to do. "	1
   	 2015-05-11 16:46:09 	 It was a really intricate costume! His helmet scanner even flipped down. No voice, but somehow that made them even more menacing. 	1
   	 2015-05-11 19:03:27 	 That's awesome! I'm super grateful to your cousin then! 	1
   	 2015-05-11 19:03:59 	 I was kinda sad they didn't have that going last week, but it looks really great! Have fun! 	1
   	 2015-05-11 20:41:07 	 Definitely! 	1
   	 2015-05-11 23:32:33 	 Haaaaaah that's awesome! 	1
   	 2015-05-12 02:41:03 	 Thanks and you're welcome! It's a great pin. :D 	1
   	 2015-05-12 02:42:56 	 The weekends haven't gotten started yet so Darth's Mall wasn't open for us. :( They start the character meals on May 4th. 	1
   	 2015-05-12 15:18:49 	 I'm not sure what that means, but I can say they were goooooood! 	1
   	 2015-05-12 15:27:44 	 Why thank you :) 	1
   	 2015-05-15 02:13:55 	 I came. o_o 	1
   	 2015-05-17 03:25:27 	 We were at WDW celebrating our anniversary last week and I wore my anniversary pin everywhere. One of the castmembers at the Fiesta de Jardin booth at the Flower and Garden festival was commenting how the 1st anniversary should be extra special and gave us an extra flan. I think it helped that we were talking in spanish! :) I loved having everyone wish us a happy anniversary. :) 	1
   	 2015-05-18 01:14:04 	 I called 10 days prior and then asked again when we checked in. All we wanted was a King size bed and they made it happen. 	1
   	 2015-05-18 17:26:56 	" People are people.

I am a museum educator at a Mississippian site in the US, and children ask me all the time things like ""Why are they dressed like that?"" I usually turn it around and ask them, ""Well why did you choose that shirt today?"" And then their little brains go ""oooooh,"" and we get one step closer to cultural empathy.  "	1
   	 2015-05-18 18:47:04 	 People don't fit into neatly defined boxes on a census form, no matter how much sociologists wish they would. 	1
   	 2015-05-18 21:14:33 	 We mainly get 4th graders here, and yes most of them are adorable. :) Also thank you! 	1
   	 2015-05-19 15:07:41 	 Yes they do! :) 	1
   	 2015-05-19 15:09:49 	 How do you get flaired? I'm new here. 	1
   	 2015-05-19 16:33:19 	 Hey you Pikachu? 	1
   	 2015-05-19 21:08:41 	" I would probably ""kill them with kindness,"" by being really nice about it but thinking vindictive things to myself about how much money they are spending and how much extra calories I don't have to worry about. :x "	1
   	 2015-05-19 21:27:52 	" I think anthropology is a wonderful discipline, but I got into the field knowing it was not a moneymaker and jobs were hard to come by. However, I do know a couple single moms who are badass archaeologists. 

Anthropology is very complimentary with many other fields, including business and sales, because of how it teaches people to better understand other people. Perhaps you could minor in Anthro and use it to complement something else that you would enjoy if you are worried about employability. 

If all else fails, many states and cities in the US have archaeology societies that welcome avocational (people without degrees) and professional archaeologists alike. These groups have regular meetings and presentations and often organize volunteer excavations. Perhaps finding a group like this in your area can even help you with your decision. If you're in the southeast, PM me for some leads on these groups. 

Best of luck! It's a hard road, but if you know what you are getting into it can be a rewarding journey. "	1
   	 2015-05-20 00:44:36 	 They have it at Disneyworld too in Hollywood Studios. 	1
   	 2015-05-20 16:46:52 	 [Here is an article I wrote about good apps I use](http://thesga.org/2013/07/ten-essential-mobile-apps-for-the-archaeologist/) 	1
   	 2015-05-22 16:01:40 	 Aww yay anthropology :) This was my first post in this sub!  	1
   	 2015-05-22 16:09:49 	" [I always recommend Death by Theory](http://www.amazon.com/Death-Theory-Tale-Mystery-Archaeological/dp/0759119589)

It is a great way to introduce yourself to archaeological theory and how attitudes about it changed over time. It's also a quirky mystery novel! "	1
   	 2015-05-22 17:46:48 	 A really nice metal tool box is an AWESOME gift for an archaeologist. I love mine. 3 	1
   	 2015-05-26 20:32:36 	 [Here is a good biological perspective on why kissing is important](http://www.wired.com/2009/02/kissingscience/) 	1
   	 2015-05-26 20:39:33 	 /u/iscuck_bot test_subject9096 	1
   	 2015-05-26 22:55:58 	 It's beautiful inside and the meal (lunch) we had was delicious. :) It made me happy to be there! 	1
   	 2015-05-27 06:26:39 	 If you go to the game in the Eshop and click repair, that may fix it. It did for me. 	1
   	 2015-05-27 15:41:44 	 That would be so 90's throwback, especially in clear light purple. :D 	1
   	 2015-05-27 23:08:46 	 I think that looks awesome! 	1
   	 2015-05-28 03:17:44 	 37 	1
   	 2015-05-28 16:43:15 	 My Japanese DS games (Jump, Taiko) play on my NN3DSXL. 	1
   	 2015-05-28 19:39:37 	" I mainly research Civil War POWs, and there were a few anecdotes in this podcast that stuck with me.

1. German POWs in Aliceville had so much food they buried the extra to get rid of it

2. American officials treated the German POWs so well because they feared retaliatory treatment of American POWs (but then continued after they discovered how American POWs were really treated).

It's amazing how 80 years, a World War, and an important treaty changed ideas towards POWs in this country. For those interested in reading a modern historical perspective on POWs in the American Civil War, I recommend [While in the Hands of The Enemy](http://www.amazon.com/While-Hands-Enemy-Conflicting-Dimensions/dp/0807130613). It's very critical of both sides and their treatment of POWs.  "	1
   	 2015-05-28 19:46:15 	 It's my new favorite movie. I thought it was incredibly inspirational and one of the most creative movies in a very long time. 	1
   	 2015-06-06 03:18:35 	 He's a person and his name is Chewbacca. 	1
   	 2015-06-06 04:41:17 	 I'm guessing it has something to do with LP size records first coming out in 1948. That probably made it easier to distribute songs for home listening, like say at a holiday party. 	1
   	 2015-06-08 17:26:46 	 Didn't he and Jorah glimpse a dragon briefly when they sailed through Valyria? 	1
   	 2015-06-08 17:31:10 	 Stannis' face in that show was that of a broken and desperate man. I knew right away what he was going to do. 	1
   	 2015-06-08 18:44:47 	 Well probably that it was sooooo up close and larger than life and she was riding it. That's what I thought at least. 	1
   	 2015-06-09 01:38:56 	 They didn't have to build campfires. Ramsey did that for them. 	1
   	 2015-06-09 19:40:10 	" Pokemon Conquest maybe. I never hear anybody talk about it and it's so much fun. 

Also, Pokemon Ranger.  "	1
 My doctor just switched me from Sprintec to a Progestin-only Pill. What are your experiences? 	 2015-06-09 20:58:27 	" He told me I had to make extra sure to take the pill at the same time each day.

He switched me because my blood pressure was a little higher than it was a year ago when I was first prescribed the pill. 

Thanks!

(Also how bout those new guidelines saying get a pap every three years if you're over 26? Heck yesssssss) "	1
   	 2015-06-09 21:01:45 	 Definitely! 	1
   	 2015-06-09 21:23:10 	 Oh no ;_; 	1
   	 2015-06-09 22:31:44 	 LSH? 	1
   	 2015-06-09 22:43:33 	 Thanks 	1
   	 2015-06-09 22:46:14 	 I suffer anxiety too. It's never as bad as we think it's going to be and always better if you come clean sooner.  	1
   	 2015-06-10 02:07:49 	 Good news! Thanks. :) 	1
   	 2015-06-10 02:08:21 	 I'm sorry to hear that. :( Hopefully my body will! I have never tried anything but combination pills before so here's hoping. 	1
   	 2015-06-10 02:21:48 	 Wow! Glad you're doing better! 	1
 Looking for recommendations for an Irish 'experience' I can gift to my honeymooning brother 	 2015-06-10 03:28:34 	" My brother is getting married in a couple months and he and his fiancee are honeymooning in Ireland.

They have asked for wedding presents to be monetary contributions to their trip.

I'd like to keep to their wishes, but in a way that will make my gift be more memorable and meaningful than an amount of money going into a pool. I'm looking for museum tickets or special excursion passes that I can pre-purchase for them and give to them at the wedding. 

Please share recommendations! Thank you! 

Also I have been informed they intend to stick to the southwestern parts of the country to see greenspace and castles. "	1
   	 2015-06-10 03:33:32 	 Thanks! Will do. 	1
   	 2015-06-10 03:49:46 	 They are flying into Shannon and want to visit castles and such in the Southwest area. 	1
   	 2015-06-10 15:30:11 	 Hey that sounds fun! Thanks! :D 	1
   	 2015-06-10 15:30:51 	 Thank you that sounds awesome (to me, but then I like tourist trap stuff ehehe). I'm definitely considering that. 	1
   	 2015-06-10 15:31:46 	 Getting info from my bro is like pulling teeth but they aren't planning on going to Dublin apparently. :( Thanks for taking the time to make a recommendation and they definitely sound like awesome things to do! 	1
   	 2015-06-10 15:32:29 	 They will be in the southwestern part of Ireland for 13 days starting about August 5th. 	1
   	 2015-06-10 15:32:48 	" Those are some great ideas! :D
 "	1
   	 2015-06-10 17:17:42 	" White Walkers probably can't freeze the ocean but [ADWD](#b ""wights can SWIM""). "	1
   	 2015-06-10 18:45:24 	 He suffers from Gout. This is mentioned a couple times in S4, but not really made a big deal of like it is in the books. I bet lots of people were wondering. 	1
   	 2015-06-10 19:26:14 	 I was totally going to get them that until my bro said they were not going to Dublin. That failure prompted me to ask here. :) 	1
   	 2015-06-10 20:18:44 	 Oh that's a great suggestion. And thank you I will!  	1
   	 2015-06-10 22:51:24 	 The only reason the Chief ever lost a round of darts. 	1
   	 2015-06-11 01:07:44 	 Daario.  	1
   	 2015-06-11 01:12:07 	 Ew. That sounds mighty unpleasant.  	1
   	 2015-06-11 01:13:49 	 I feel like someone as attentive to detail as you would really get a lot out of reading the novels. 	1
   	 2015-06-11 01:30:37 	 ADWD Chapter 52 disagrees. 	1
   	 2015-06-11 02:25:14 	 Her hair and clothes burnt off and she was entrapped in fire to the point where everyone thought she was dead. That was how I as a reader interpreted it. 	1
   	 2015-06-11 19:21:05 	 Black NN3DSXL, Blue DSi, Pink DS Lite, Cobalt GBA SP, Arctic Purple GBA, Yellow GBC. All still working just fine. :3 	1
   	 2015-06-11 23:18:43 	 Uwaaaah that Ekans chu. 0-0 	1
   	 2015-06-14 03:43:19 	 Crying for you ;-; 	1
   	 2015-06-15 04:06:44 	 ... really? 	1
   	 2015-06-15 04:07:50 	 DO YOU KNOW HOW LONG HE CARRIED THAT WATCH? EVER SINCE NAM, AND IT WAS NOT IN A PLEASANT ORIFICE. 	1
   	 2015-06-15 04:09:43 	 Which makes them main characters then, right? 	1
   	 2015-06-15 04:21:54 	 Nah. We didn't see bodies did we? 	1
   	 2015-06-15 23:13:33 	 The only medical person I have a relationship with is my OBGYN. Never got a GP since I moved here. : Gotta take care of the ladybits tho... 	1
   	 2015-06-15 23:51:01 	 Yeah there is one for the university I work at. It seems to be geared towards students but maybe they would see me. I've been trying to figure out how to make an appointment without using the phone but I guess I'll just have to call them tomorrow. Thank you for your insight 	1
   	 2015-06-16 19:44:56 	 This looks like the game I want. :D 	1
   	 2015-06-16 19:48:36 	 NICE getting Mario and Luigi when I get home. :3 	1
   	 2015-06-16 23:12:38 	 FUCK YOU OLLY 	1
 ELI5 Why the 3DS cannot emulate GBA for Virtual Console purposes 	 2015-06-17 04:36:40 	" Or SNES for that matter I suppose.

Thanks!

ETA- Thanks for all the insight everyone! I have a much better understanding now. :3 "	1
   	 2015-06-17 15:06:25 	 That article is really interesting! Thanks for all your comments. I understand much better now. :) 	1
