title	date	text	class
   	 2017-03-14 09:42:44 	 http://www.glassgiant.com/ascii/ 	0
   	 2017-03-15 04:35:21 	 Triangles did 9/11 	0
   	 2017-03-24 02:22:06 	" Maybe it doesnt work on cav. Did you try with other operators?
 "	0
 Rest in Pepperoni 	 2017-03-29 10:10:57 	  	0
   	 2017-03-30 01:20:36 	" That is smokes player model. 
https://rainbow6.ubisoft.com/siege/en-au/news/detail.aspx?c=tcm:185-202274-16 ct=tcm:148-76770-32
Scroll to the bottom. "	0
" ""Yall hear about the patch?"" "	 2017-04-15 16:16:33 	  	0
   	 2017-04-16 13:17:52 	 Yea theses changes are currently in the TTS. 	0
   	 2017-04-16 13:27:55 	 They aren't patch notes it is one of the changes in the TTS. I read it someone on the r/Rainbow6TTS subreddit.  	0
   	 2017-04-16 13:55:22 	" The attackers are breaching the objective. Lightings probably just to point out the two differences.
 "	0
   	 2017-04-16 14:27:01 	" Bullets cant go through barricade, Spring loaded nail can. Ok. 

(Glaz's OTs is an exception) "	0
 Defender buff (if you can call it that) 	 2017-04-18 13:08:30 	" Roamers and Trappers may not have the time time to reinforce during prep phase or maybe roamers just wanna get out of the Obj room. This leaves a breachable hatch or wall that can easy be breached giving the attackers and additional entry point possibly costing the game.

Give defenders the option the drop their Reinforced wall to allow other operators to pick them up and put them to use.

Comment if this is a good or bad idea.

Edit: Attackers cannot pick them up (Duh). "	0
   	 2017-04-18 14:07:59 	 Thats what i mean. Sometimes Frost, Kapkan and other ops who need to setup stuff outside don't have time to reinforce the Objective. 	0
   	 2017-04-18 14:18:07 	 Cav's interrogation is pretty ridiculous in the first place. Giving it to everyone else would not be the best idea. 	0
   	 2017-04-18 14:24:09 	 Sounds like a nice idea to get a feel for the maps for new players. If you wanna get a feel for the maps just play as much as you can starting with Terro hunts like u/sdfsefsdf said and then get into casual. It took me a while to get used to all the maps aswell. 	0
   	 2017-04-18 14:25:57 	 Probally had a high ping which makes him able to shoot you before you even see him. 	0
   	 2017-04-18 14:36:35 	 That is a good way of doing it. Otherwise Ubisoft would have to make new models for the dropped Reinforcements. 	0
 I think i'm missing something. 	 2017-04-20 10:18:51 	 Why does Terrorist Hunt have half the FPS as Casual and Ranked. Is their a setting i can change or is this for everyone? 	0
   	 2017-04-21 03:49:07 	 Thanks i'll give that a try. 	0
   	 2017-04-21 03:49:09 	 Yea I noticed around the end of the round it gets better. I'll try turning off V-sync. 	0
   	 2017-04-28 04:53:14 	 Lol rip nibba. 	0
   	 2017-05-01 04:34:22 	 Judging by the ricochet sparks and him holding a pistol it looks like his shield was on his back but it still didn't register. 	0
   	 2017-05-01 06:45:27 	 Illuminati mass produced Smoke's canisters... Or was it Bush? 	0
   	 2017-05-04 11:51:51 	 Talk about the Autism Spinner (Fidget Spinner). 	0
   	 2017-05-04 12:53:34 	 Well my cousin's friend hates the taste of water. So your probably right. 	0
   	 2017-05-05 03:57:13 	 http://i.imgur.com/0w2ztai.png 	0
   	 2017-05-07 06:03:11 	" Wrong subreddit. 
r/shittyrainbow6 "	0
   	 2017-05-07 06:20:47 	 So you want the old casual back so you can verse lower ranked players to get easier wins? 	0
   	 2017-05-07 06:28:30 	 No problem. 	0
 I think the Cartographer's at Google ran into a stone wall. 	 2017-05-10 13:36:35 	  	0
