title	date	text	class
 What do boogers smell like? 	 2015-01-08 23:48:54 	  	0
 Why don't Catholics just pray to St. Anthony after they lose their virginity? 	 2015-01-09 03:06:28 	  	0
 Barbed Christmas 	 2015-01-09 07:31:06 	  	0
 What's the meaning of Life cereal? 	 2015-01-10 17:57:05 	  	0
 My sister, while rearranging the top of the fridge, dropped an apple into the sink. It was IMPALED by a spoon... which was resting in a coffee mug. 	 2015-02-04 21:37:04 	  	0
   	 2015-02-04 22:21:04 	 The apple fell downs, not me 	0
 Is it better to be feared or loved? 	 2015-02-05 01:42:21 	  	0
   	 2015-02-05 02:03:19 	" Louis XIV described it as his ""favourite nightcap"" and a copy was found in Napoleon's coach at Waterloo. Bismarck and Napoleon III swore by it and, more recently, Hitler kept a copy by his bedside, where it was reportedly a constant inspiration. 

I read it once a year to stay frosty. "	0
 Just in time for Valentine's Day, NERDS! 	 2015-02-05 03:43:09 	  	0
   	 2015-02-05 04:25:39 	 Because NYC apartment 	0
 If you upload your mind to a computerare you still you? 	 2015-02-05 19:28:38 	  	0
   	 2015-02-05 20:17:19 	" Similar to the ship, totally.
 "	0
 What language sounds the funniest to your foreign ears? 	 2015-02-06 19:07:28 	 Do not pick your native tongue.  	0
   	 2015-02-06 19:07:49 	 Dutch is hilarious. 	0
 Do you kiss on the first date? 	 2015-02-07 02:38:44 	  	0
 Veronica Lake's Taxidermy Collection 	 2015-02-12 04:03:27 	  	0
 Only when we take ourselves lightly can we take ourselves seriously.  Madeleine L' Engle. 	 2015-02-15 01:45:20 	  	0
 Catholics can just pray to St. Anthony when they lose their virginity. No more excuses. 	 2015-02-15 03:00:42 	 St Anthony: patron saint of lost articles 	0
 Why Is It So Hard? 	 2015-02-15 05:44:49 	  	0
 TIL the number people are most likely to state when asked to give a random number between 0 and 100 is 37. 	 2015-02-15 18:35:59 	  	0
   	 2015-02-15 22:15:18 	 Why is it so hard... to play the trumpet 	0
   	 2015-02-19 03:41:34 	 Those 3D printers are incredible. 	0
 Anti vaxxers should remove antivirus software from their computers. 	 2015-02-19 03:46:42 	  	0
 Mobile photographers of Reddit, imagine there's a digital virus where, once infected, all of your private photographs on your phone are AUTOMATICALLY shared on Facebook. Which photograph(s) would ruin your life? 	 2015-02-19 16:18:07 	  	0
 Heartbroken folk of Reddit, what music has been ruined by a tumultuous breakup? 	 2015-02-20 20:05:39 	" Examples: ""our song"" or bands you saw together... *sobs* "	0
   	 2015-02-20 20:08:05 	 [Pixies (HEY)](https://www.youtube.com/watch?v=v6xU96KLBL4) 	0
 TIL adult males with a ring finger longer than their index finger on their right hand have larger testicles. Conversely, men with a longer index finger compared to their ring finger have smaller testicles. 	 2015-02-21 03:58:27 	  	0
" What is the best synonym for the word ""PENIS""? "	 2015-03-01 18:32:15 	 Slang, nickname, etc. 	0
   	 2015-03-02 04:33:52 	" 11 hours to make 11 seconds to devour!
They look so nice. "	0
 6 feet of snow on roof 	 2015-03-02 13:14:49 	  	0
 Is it possible for men and women to just be friends? 	 2015-03-03 04:04:58 	  	0
 TIL you can tie a knot in the center of your lace. Keeping it even. Clever girl. Knot a bad idea. 	 2015-03-03 04:12:01 	  	0
   	 2015-03-06 02:45:15 	 WARNING: Venom consumption may cause hair loss! 	0
 TIL all marriages end in divorce, or death. 	 2015-03-06 03:07:52 	  	0
 There is no ice cream in space 	 2015-03-07 04:39:26 	 because no one can hear you scream 	0
 Who would win in a fight of WILLY WONKAS; Gene Wilder or Johnny Depp? 	 2015-03-07 04:49:47 	  	0
   	 2015-03-07 17:28:41 	 District 7 Male dies of dysentery.  	0
   	 2015-03-07 17:33:19 	 [Depends, really](http://www.depend.com) 	0
 Accidental pineapple bracelet is delicious and fashionable. 	 2015-03-09 02:26:08 	  	0
" TIL that when scolded for masturbating in public, Diogenes the Cynic said, ""I wish it were as easy to banish hunger by rubbing my belly."" "	 2015-03-11 01:22:54 	  	0
   	 2015-03-11 01:52:34 	 Yeah! Paintings show him in a jar, a tub... He also walked around in broad daylight holding a lamp; searching for an honest man. 	0
 [Video] What Ira Glass Explains In 1-Minute Will Change Your Life Forever. Seriously. 	 2015-03-11 03:14:21 	  	0
   	 2015-03-11 13:56:16 	 My college philosophy club: THE DIOGENES CLUB 	0
 This doesn't make any cents 	 2015-03-11 18:48:45 	  	0
   	 2015-03-11 19:11:13 	 Please Do Not Touch 	0
   	 2015-03-12 18:06:57 	 Dead link 	0
   	 2015-03-12 23:12:11 	" I had a followup interview for an in-store bank teller position. In-store meaning grocery store. The wonderfully flamboyant regional manager who was interviewing me said, ""you'll need to leave the bank and entice shoppers to open accounts..."" I told him that was fine. 
He continued, ""you'll need to talk to them while they're shopping..."" he stopped walking when we reached the salad dressing isle.
 
""What kind of salad dressing are you?"" 
I realized this was not only a really goofy interview question, it was role-playing a big portion of the job I was after.

I grabbed Raspberry Vinaigrette and improv'd a bit about having a tangy and fun personality. He grabbed Cesar and said, ""I'm more of a Cesar!"" and he stabbed me in the back with the bottle. 

In retrospect, I think his joke would have been funnier if the salad dressing we called 'Brutus' 

I got the job.  "	0
   	 2015-03-13 21:20:15 	 Gummo 	0
 LIFE HACK - Dishes are done, off to the bar 	 2015-03-14 16:00:02 	  	0
   	 2015-03-14 16:07:16 	 I'm at my buddy's place in Amsterdam; fairly typical European sink/faucet  	0
 2Pac Lives! 	 2015-03-16 16:22:33 	  	0
   	 2015-03-16 20:01:29 	" Blade Runner
 "	0
   	 2015-03-16 20:04:40 	 K.I.D.S. 	0
 TIL a language origin theory: Terence McKenna hypothesized that we invented language because of psychedelic mushrooms. Ate shrooms, saw sounds... 	 2015-03-16 22:46:37 	  	0
 Celebratory 6-pack 	 2015-03-17 00:06:25 	  	0
   	 2015-03-17 00:15:03 	 Nice! How is it? My only problem is that Rip Van Winkle slept for 20 years. Do they have a 20 year? 	0
   	 2015-03-17 00:15:43 	 JUST A SMALL TOWN GIRL 	0
   	 2015-03-17 01:00:11 	 Yeah but show the landing. They're all dead. 	0
   	 2015-03-17 01:45:22 	 Human[s of Walmart] Centipede  	0
   	 2015-03-17 19:22:33 	 Is it a Reed Ant? 	0
   	 2015-03-18 03:09:07 	 Now she has the hunger. 	0
   	 2015-03-22 00:26:02 	 The Professional Bowlers Association is sponsored by... DENNY'S! 	0
 Paul Newman and Clint Eastwood 1972 	 2015-03-22 16:49:04 	  	0
 HAIL [senior discount] SATAN 	 2015-03-24 16:37:05 	  	0
   	 2015-03-24 16:41:15 	" My aunt   uncle had breakfast on June 6th, 2006... the bill, after their SENIOR DISCOUNT was: $6.66
She has been using it as a bookmark ever since. "	0
   	 2015-03-24 18:33:55 	 DON'T TELL ME WHAT TO DO, TOILET! 	0
   	 2015-03-24 23:26:02 	 THROW SOME D's ON THAT BITCH 	0
   	 2015-03-24 23:27:22 	 Sixth Sense anyone? 	0
   	 2015-03-24 23:32:27 	 [This Is My Rifle. This Is My Gun](https://www.youtube.com/watch?v=4kU0XCVey_U) 	0
 Paul Stanley from KISS beheads evil robot 	 2015-03-25 15:34:37 	  	0
   	 2015-03-25 15:50:00 	 [grown](https://youtu.be/DT2X5b0tyDI) 	0
   	 2015-03-25 16:56:53 	 What's your go-to comfort food while in the recording studio -- like, always ready? 	0
 Serious question: as a straight man who loves everyone, what's the best way to break it to an 'interested' gay man that I'm straight? 	 2015-03-25 19:20:58 	 I'm all about consideration, here. Thanks, all! 	0
 Dutch Bike   Picnic Table 	 2015-03-25 22:25:55 	  	0
   	 2015-03-25 22:45:38 	 Make it so. 	0
   	 2015-03-25 22:52:54 	 Shat on 'em later! 	0
   	 2015-03-25 23:17:34 	" [Like eggs or something...](http://www.tcm.com/mediaroom/video/298087/Alien-Movie-Clip-Eggs-Or-Something.html)
 "	0
   	 2015-03-27 02:20:56 	 My dick smells, too 	0
   	 2015-03-27 16:18:10 	 I can show you the .... FFFFFffffffffffff 	0
   	 2015-03-27 16:21:51 	" ""I wondered if he'd earned an MBA just so he could say the word *motivating* at this very meeting."" ~ Augusten Burroughs (Possible Side Effects) "	0
   	 2015-03-27 21:45:05 	 Nice tits, dad! 	0
   	 2015-03-27 21:48:04 	 [Fucking magnets, how do they work?](https://youtu.be/_-agl0pOQfs) 	0
   	 2015-03-27 21:50:19 	 Don't masturbate while eating Cheetos. Nobody wins. 	0
 Raging Bull (6/12) Movie CLIP - He Ain't Pretty No More (1980) HD 	 2015-03-28 02:04:52 	  	0
   	 2015-03-28 02:11:29 	 I spud you 	0
   	 2015-03-28 02:18:57 	 Yeungling  	0
   	 2015-03-28 02:48:48 	 Good thing his dash-cam was on 	0
   	 2015-03-28 03:32:07 	 Fry thank you 	0
   	 2015-03-28 15:50:43 	 Possible Pizza Payment Plans 	0
   	 2015-03-28 15:53:19 	 Out of frame, she's wearing a watch made of that soft, inexpensive material. 	0
   	 2015-03-28 17:55:52 	" If only his trademark ""Waahhuaaa...Wwuuuuu!"" looped, too. "	0
   	 2015-03-28 18:16:14 	 Do people kiss in prison? Is there any romance? 	0
" ""Please advise."" (1969) "	 2015-03-28 19:14:30 	  	0
 What are some old video games that you remember playing but can't remember the title? 	 2015-03-28 19:27:10 	" Describe them as best you can and maybe savvy Redditors can solve the mystery!

EDIT: Year, console, characters, etc... "	0
   	 2015-03-28 19:30:14 	 Sounds like Gex the Gecko... but I think that was PlayStation 	0
   	 2015-03-28 19:36:10 	 Gex was on N64, too! Looked it up. Do you remember any other levels? He had snarky dialogue, too. 	0
   	 2015-03-28 19:41:31 	 [Chameleontwist?](http://images.wikia.com/egamia/images/5/5a/Chameleontwist2.jpg) 	0
   	 2015-03-28 19:44:01 	 You've described EVERY JRPG, ever. Haha -- year? More details! 	0
   	 2015-03-28 19:57:14 	 Earthworm Jim! 	0
 LinkedIn mobile app Easter Egg 	 2015-03-28 20:12:44 	  	0
   	 2015-03-28 20:14:40 	 Streets of Rage? 	0
   	 2015-03-28 20:21:35 	 Dr. Brain? 	0
   	 2015-03-28 20:21:54 	 Tenchu? 	0
   	 2015-03-28 20:31:35 	 Oh yeah, I remember that one! Great game. 	0
   	 2015-03-28 20:55:24 	 Tai Fu? 	0
   	 2015-03-28 21:30:24 	 Harry Potter! 	0
   	 2015-03-28 21:32:39 	 Tekken Tag Tournament!  	0
   	 2015-03-29 20:33:46 	 Ratchet   Clank had a gun that turned enemies into sheep; [THE SHEEPINATOR!](https://www.youtube.com/watch?v=J2JfoEFaO_0) 	0
   	 2015-03-30 20:08:52 	 Thaitalian 	0
   	 2015-03-30 20:27:41 	 what a fun art exspearmint  	0
   	 2015-03-31 00:16:01 	 Anything is possible in the best of all possible worlds, OP. 	0
   	 2015-03-31 01:02:05 	" ""I have come here to kick ass and chew bubblegum... and I'm all out of bubblegum."" "	0
   	 2015-03-31 01:29:47 	" ""YOLO!!!! SIKE!"" ~ Jesus "	0
   	 2015-03-31 01:36:40 	 http://i.imgur.com/YUnbI.gif 	0
   	 2015-03-31 01:37:42 	 HOLY HUSKY! 	0
   	 2015-03-31 01:38:16 	 HOLY HUSKY! 	0
   	 2015-03-31 01:52:49 	 Stop belittling the sign, bruh 	0
   	 2015-03-31 02:00:31 	 Serves McDonald's sandwiches by day... knuckle sandwiches by night 	0
   	 2015-03-31 02:22:26 	 Peedway 	0
   	 2015-03-31 17:22:51 	 So real Homer wears jeans... 	0
 ELI5: Is red licorice even, like, licorice? 	 2015-03-31 20:29:51 	  	0
   	 2015-03-31 21:32:18 	 Looking up to him on the ground and in the air 	0
   	 2015-03-31 21:33:18 	 Select Jesus = drink wine 	0
   	 2015-04-01 04:37:55 	" Thumbs up if you saw that coming!
Old woodworking saying: You can trust a 9-fingered woodworker with your life ... but not an 8-fingered woodworker  "	0
   	 2015-04-01 05:23:42 	 Teacher is too aerodynamic.  	0
 Housekeeping Horror 	 2015-04-01 16:01:16 	  	0
 Housekeeping Horror 	 2015-04-01 16:13:15 	  	0
   	 2015-04-01 22:50:28 	 I mean, try it. As a specimen, yes, you'll be intimidating. 	0
 Talking Heads - Stop Making Sense (montage) [New Wave] 	 2015-04-06 22:52:11 	  	0
 What's God's GIF to Earth? 	 2015-04-08 04:24:09 	  	0
 A Rastas Guide to Living Well 	 2015-04-09 17:57:27 	  	0
 The First Female Blue Angels Pilot 	 2015-04-11 23:26:09 	  	0
   	 2015-04-11 23:31:38 	 via CBS -- [Blue Angels pilot breaks sound, gender barriers](http://www.cbsnews.com/news/blue-angels-first-female-pilot-takes-to-sky/) 	0
 What foods give you the worst gas? 	 2015-04-13 22:39:16 	  	0
   	 2015-04-14 17:50:52 	" You should stay at [GoldenEye Resort](https://www.goldeneye.com/) and drink [Blue Mountain Coffee](http://www.bluemountaincoffee.com/)
 "	0
 Explosion Interrupts News Interview Blooper 	 2015-04-14 20:59:17 	  	0
   	 2015-04-14 22:03:50 	 [Who would steal 30 bagged lunches?](https://www.youtube.com/watch?v=x5bVrHiPSzw) 	0
 A 3D printer can print 3D printers 	 2015-04-15 22:55:36 	  	0
 David Byrne   Jonathan Demme - Stop Making Sense [Interview Clips] 	 2015-04-16 00:52:11 	  	0
 Gallery: Heres what the Random Darknet Shopper bought in 4 months 	 2015-04-16 16:54:35 	  	0
 Onion boob? Swiped right. 	 2015-04-17 02:07:45 	  	0
 If you can fall in love again and again if you can forgive as well as forget, if you can keep from growing sour, surly, bitter and cynical youve got it half licked. - 	 2015-04-21 17:19:21 	 Henry Miller on Growing Old, the Perils of Success, and the Secret of Remaining Young at Heart 	0
   	 2015-04-22 02:43:11 	" Everyone knows it all depends on who finishes on top. If the man cums while on top: boy. If the man cums while on bottom: girl.

Citation: common sense
 "	0
 Did Nelly ever get to ride first class - sitting next to Vanna White? 	 2015-04-22 02:59:02 	  	0
 Just a robot trying to have some breakfast 	 2015-04-22 03:28:04 	  	0
   	 2015-04-23 22:21:39 	 [This song was playing](https://www.youtube.com/watch?v=KrZHPOeOxQQ) 	0
 James Bond was born in Jamaica 	 2015-04-24 22:59:35 	  	0
 If people were nice to me, I wouldn't have to be so mean to them. 	 2015-04-30 18:14:42 	  	0
   	 2015-05-04 20:34:36 	 So, if I work hard enough I can fulfill my dream of becoming an elephant. 	0
 Did you hear about Lorena Bobbitt's car accident? 	 2015-05-05 01:24:52 	 Yeah, some dick cut her off. 	0
   	 2015-05-05 18:24:11 	 A Rasian in the Sun 	0
 What's the oddest superstition you believe? 	 2015-05-05 21:34:48 	 Friday the 13th, four leaf clovers, lucky rabbits foot... etc. 	0
 If you hold it right; every tool is a weapon. 	 2015-05-06 17:23:18 	  	0
 If coat check loses your coat -- you're entitled to a replacement value. 	 2015-05-06 20:16:29 	  	0
 LPT: If coat check loses your coat -- you're entitled to a replacement value. 	 2015-05-06 20:29:07 	  	0
   	 2015-05-06 21:43:00 	 LPT: Always mention weird things 	0
   	 2015-05-06 21:44:19 	" It was a private message -- not public. The hospitality company, not the club made good. If you wanna research the legal blah blah it's called 'bailment'

Edit: bailment* "	0
   	 2015-05-06 22:00:16 	 Exactly. The pro tip here is just TRY. Also, if the jacket isn't worth the time... don't bother. 	0
 S*** Robot - Where It's At (Feat. Reggie Watts) [Robots] 	 2015-05-07 03:03:43 	  	0
 TIFU by patiently waiting in line at the post office 	 2015-05-07 19:35:17 	" I woke up a bit earlier this morning so that I could get to the post office when it opened at 9am. I arrived at 8:55am and there was already a bit of a line underneath the awning that read: UNITED STATES POST OFFICE. The sun was shining on NYC and the people waiting were negotiating who was last in line; preparing for the doors to open.

I was being my cheery self, offering quips like, ""I wonder what I'll get!"" and ""the anticipation is like waiting in line for concert tickets!"" and ""the waiting almost makes it better, you know?"" 

The lady waiting next to me told me that they would open at 10am. We waited. I read a bit from my book and listened to music. Finally, a guy came out with a clipboard. People were showing their IDs and he was taking down their first and last names. People were allowed to enter six at a time. 

I entered the building and it was a large elevator. One floor up and to my surprise it was a food pantry. I asked about the Post Office and was informed of its whereabouts half a block down the avenue. 

So, in conclusion, I stood in line with people waiting to collect food for over an hour, saying things like, ""I wonder what I'll get!"" and ""the anticipation is like waiting in line for concert tickets!"" and ""the waiting almost makes it better, you know?""

Horrible only begins to describe how I feel. "	0
   	 2015-05-07 20:49:07 	 I'm patient and stupid = happy! 	0
   	 2015-05-07 21:49:52 	 Returned to sender! 	0
   	 2015-05-08 00:41:46 	 I gave everyone a stick of gum and left for the post office 	0
   	 2015-05-08 17:33:38 	 I know! I think it was just a drop off center built into a pharmacy or something. But the awning was huge.  	0
 Tonight I'm having a party for people who struggle to reach an orgasm 	 2015-05-08 20:02:28 	 just lemme know if you can't come 	0
   	 2015-05-08 21:20:11 	 Nothing worse than a premature punchline 	0
 Every able-bodied person is only temporarily able-bodied. 	 2015-05-10 16:45:47 	  	0
   	 2015-05-10 18:05:47 	 Thanks, bubby! 	0
" TIL that the Pinky and the Brain theme song was written to the tune of ""Singing in the Rain"" from the 1952 musical. "	 2015-05-13 01:26:51 	  	0
   	 2015-05-13 01:27:01 	" They're Pinky and the Brain / I'm singin' in the rain                                           
They're Pinky and the Brain / Just singin' in the rain                                          
One is a genius / What a glorious feeling                                                          
The other's insane / I'm happy again                                                                
They're laboratory mice / I walk down the lane                                                  
Their genes have been spliced / With a happy refrain                                           
They're dinky / I'm singin'                                                                                       
They're Pinky and the Brain / I'm singin' in the rain                                               "	0
 Remake 'THEY LIVE' starring Rowdy Rhonda Rousey. 	 2015-05-13 18:35:22 	 The original starred Rowdy Roddy Piper. 	0
 Feel-good story -- Bryant: Teacher saved letter for 23 years 	 2015-06-28 16:07:54 	  	0
 Feel-good story -- Bryant: Teacher saved letter for 23 years 	 2015-06-28 16:29:42 	  	0
" When being accused of getting ""defensive"" how do you NOT get defensive? "	 2015-06-29 16:53:49 	  	0
 MAD MAX 2 THE ROAD WARRIOR - Was Gyro Captain the real hero? (film analysis by Rob Ager) 	 2015-07-10 06:25:00 	  	0
" ""Let's get nuts!"" is the best line in Tim Burton's 1989 Batman. "	 2015-07-13 20:27:31 	  	0
 What's the weirdest thing you've seen in a contract? 	 2015-07-13 21:30:36 	 I'm American and was working in Germany recently. I had a contract that said I couldn't be a Scientologist. 	0
   	 2015-07-13 21:41:10 	 Oh yeah! Lot's of Hollywood contracts have that. When TV is on the moon, yo. 	0
 What's your dream job? 	 2015-07-13 21:42:33 	  	0
 TIFU by making a 'shitty' joke at work 	 2015-07-13 22:39:18 	" I just started working for a multi-billion dollar company in beauty and cosmetics. The company is 85% women, I am 100% man.

Today, in a monthly update the VP meeting, I joked, ""it's strange to me that a multi-billion dollar beauty and cosmetics company provides employees with single-ply toilet paper.""

I think it's fair to say my days are numbered.

 "	0
 What's something you've lost and always regretted? 	 2015-07-13 23:02:18 	  	0
" Everybody has limits. ""Even Divine had limits; the first time he met Richard Simmons, he felt homophobic."" - John Waters "	 2015-07-13 23:40:48 	  	0
 Fun Maps: Transit Time NYC Visualizes Subway Travel Times from Any Point in the City 	 2015-07-15 19:56:41 	  	0
 Transit Time NYC Visualizes Subway Travel Times from Any Point in the City 	 2015-07-15 21:51:58 	  	0
 Fun Interactive Map: 'Transit Time NYC' Visualizes Subway Travel Times from Any Point in the City [923  876] 	 2015-07-15 22:15:35 	  	0
   	 2015-07-15 22:16:31 	 And here's a link to the [interactive map](http://untappedcities.com/2015/07/15/fun-maps-transit-nyc-visualizes-subway-travel-times-from-any-point-in-the-city/) 	0
 What rap songs have nursery rhyme lyrics in them? 	 2015-07-15 22:51:59 	" Example: 
Clipse - Grindin'

Patty cake, patty cake, I'm the baker's man
I bake them cakes as fast as I can
And you can tell by how my bread stack up "	0
 Overly Attached Joker (Jared Leto's unofficial inspiration) 	 2015-07-16 00:41:10 	  	0
 TIL the term SPAM was inspired by a Monty Python skit. 	 2015-07-16 17:29:49 	  	0
   	 2015-07-16 17:59:22 	 Yeah! Words! 	0
 LPT: Two mac shortcuts I use all the time which might be game-changers for you! 	 2015-07-16 21:55:35 	  	0
   	 2015-07-16 22:18:18 	 Cool! You guys do brand ambassador work in NYC? Shooting an email now. 	0
 A dating app where you can only upload baby pics of yourself (ages 12 and under)... perhaps call it Kinder 	 2015-07-20 20:44:16 	  	0
 I wanted to destroy something beautiful 	 2015-07-20 23:55:06 	  	0
   	 2015-07-21 20:20:02 	 I'd tie them to the radiator and [grape them.](https://www.youtube.com/watch?v=Ow7pwIDhl5c) 	0
 I wanted to destroy something beautiful 	 2015-07-21 20:52:11 	  	0
 Popcorn Thug 	 2015-07-21 20:53:04 	  	0
 Q Lazzarus - Goodbye Horses [New Wave, Synthpop, Dark Wave] 	 2015-07-21 21:51:56 	  	0
 What's the best way to tell a colleague that they smells like a dusty vitamin? 	 2015-07-21 22:23:53 	" smell* 

WHAT A DOOFUS. "	0
 Musician James Murphy has this little idea called Subway Symphony, a plan to change the sound of the subway turnstiles into different pieces of music depending on what station youre entering. 	 2015-07-21 22:45:12 	  	0
   	 2015-07-21 23:52:42 	 Some back-story -- this giant popcorn bag was given to my kickball team randomly by a polyamorous meetup in Brooklyn.  	0
 A boy said to his father one day, 	 2015-07-22 01:58:47 	" ""Dad, when I grow up I want to be a musician.""
His father responded, ""I'm sorry, son, you can't have it both ways."" "	0
 What do you call a guy with no arms and no legs or a torso? 	 2015-07-22 02:08:45 	 Dick. 	0
 Have you heard about these new super-sensitive condoms? 	 2015-07-22 02:19:14 	 After the man leaves, they hang around and talk to the woman. 	0
 Dick move. 	 2015-07-22 05:13:26 	  	0
 Which year do you think is the greatest year in American Cinema History? 	 2015-07-22 05:33:39 	  	0
 Non-consensual sex 	 2015-07-22 05:43:47 	 burns more calories than consensual sex. 	0
 Bambozled (2002) [240p] 	 2015-07-22 06:45:00 	  	0
