title	date	text	class
   	 2015-01-28 05:29:41 	 This is a great book. -- Brandon 	0
   	 2016-03-28 23:49:54 	 This interesting article is about how a letter from World War 2 led to a surprising secret. 	0
   	 2016-03-30 05:16:13 	 This is an article that talks about the discovery of a real Unicorn species.  	0
   	 2016-06-21 02:24:06 	 There is Hope for a Cure. 	0
   	 2016-07-07 23:28:54 	 Viruses Spread Easily. 	0
   	 2016-07-07 23:39:08 	 Zika unfortunately can do a lot of damage to People, especially to  infants. 	0
   	 2016-07-08 00:11:31 	 This News Article further demonstrates that Viruses spread Very Easily. 	0
   	 2016-07-08 01:28:48 	 Be Safe out there.  	0
   	 2016-07-08 11:40:46 	 Be Careful, as Many Viruses spread Very Easily. 	0
   	 2016-08-10 21:46:22 	 This is Not Good News. 	0
   	 2016-08-10 22:00:47 	 Hopefully a lot more things won't become Treatment-Resistant. 	0
   	 2016-08-11 07:08:15 	 Much of what someone hears by Word of Mouth is True. And a Conspiracy is simply when two or more people decided to act illegally and/or immorally. And many Courts of Law have found individuals guilty of conspiracies. 	0
   	 2016-08-11 07:36:43 	 Wow. Caught on Camera too. 	0
   	 2016-08-11 11:16:24 	 Wow. 	0
   	 2016-08-12 11:20:35 	 A Meteor Shower to Look Forward to about every August. 	0
   	 2016-08-13 10:57:35 	 Viruses, unfortunately, spread easily. 	0
   	 2016-08-27 05:40:16 	 Many Courts of Law have found Individuals Guilty of Conspiracies. A Conspiracy is simply when two or more people agree to act illegally and/or immorally. 	0
   	 2016-09-01 23:19:09 	" On the website, ""Gaia,"" the Question is asked, ""Were ancient humans actually extraterrestrials?"" And some Individuals believe that We Humans are also Aliens. "	0
   	 2016-09-03 11:53:18 	 Viruses -- unfortunately -- spread Easily. 	0
   	 2016-09-03 12:05:48 	 It is unfortunate that Viruses spread Easily. 	0
   	 2016-09-15 04:33:04 	 There is plenty of room out there for outer space colonies, complete with many resources. 	0
   	 2016-09-20 23:40:17 	 It is Unfortunate that Viruses spread Easily. 	0
   	 2016-09-22 10:50:14 	 It is Extremely Unfortunate that Viruses spread Easily. 	0
   	 2016-09-30 12:58:37 	 There is plenty of room in space for Outer Space Colonies. 	0
   	 2016-10-14 01:45:33 	 There is a lot of Room for Outer Space Colonies. 	0
   	 2016-10-22 11:35:11 	 We should have some Outer Space Colonies. 	0
   	 2017-02-05 10:30:56 	 You are Welcome. 	0
 A full moon, lunar eclipse and comet all in one evening? It happens tonight. 	 2017-02-11 06:21:21 	  	0
 Go Back! Shame! Shame! Shame!: Protestors Block Betsy DeVos From Entering DC School 	 2017-02-11 06:35:57 	  	0
 Russia considers giving Edward Snowden as 'gift' to Trump 	 2017-02-11 08:05:16 	  	0
 Russia considers giving Edward Snowden as 'gift' to Trump 	 2017-02-11 08:19:51 	  	0
 Mysterious orange alligator spotted in South Carolina 	 2017-02-11 08:32:07 	  	0
 White House rebukes Kellyanne Conway for promoting Ivanka Trump products 	 2017-02-11 08:43:51 	  	0
 CIA files reveal how U.S. used psychics to spy on Iran 	 2017-02-11 09:04:42 	  	0
 A full moon, lunar eclipse and comet all in one evening? It happens tonight. 	 2017-02-11 09:54:37 	  	0
 CIA files reveal how U.S. used psychics to spy on Iran 	 2017-02-11 11:34:20 	  	0
 Mysterious orange alligator spotted in South Carolina 	 2017-02-11 11:58:56 	  	0
 CIA files reveal how U.S. used psychics to spy on Iran 	 2017-02-11 13:53:48 	  	0
 Anna Nicole Smith's bodyguard/pallbearer breaks silence after 10 years 	 2017-02-11 16:48:02 	  	0
 Anna Nicole Smith's bodyguard/pallbearer breaks silence after 10 years 	 2017-02-11 17:18:08 	  	0
 How algorithms (secretly) run the world 	 2017-02-12 04:17:35 	  	0
 How algorithms (secretly) run the world 	 2017-02-12 05:40:34 	  	0
 The Accidental Snow Guardian 	 2017-02-12 06:11:34 	  	0
 Ciara Was Glowing Make-Up Free While Flaunting Wet Hair And A Big Ol' Belly 	 2017-02-12 06:27:56 	  	0
 Ciara Was Glowing Make-Up Free While Flaunting Wet Hair And A Big Ol' Belly 	 2017-02-12 06:59:43 	  	0
 The Accidental Snow Guardian 	 2017-02-12 07:35:42 	  	0
 Mexico Building Fence on Its Southern Border 	 2017-02-12 08:36:00 	  	0
 It's Groundhog Day. Throw some social media shade 	 2017-02-12 12:24:35 	  	0
 Mexico Building Fence on Its Southern Border 	 2017-02-12 14:31:23 	  	0
 Scientists Drill Volcano to Harness Its Awesome Energy 	 2017-02-13 00:02:23 	  	0
 Dept. of Education apologizes for misspelling W.E.B. Du Bois 	 2017-02-13 00:25:54 	  	0
 Tutankhamun's secret room to be Opened by scientists to solve Queen Nefertit mystery 	 2017-02-13 00:37:06 	  	0
 Tutankhamun's secret room to be Opened by scientists to solve Queen Nefertit mystery 	 2017-02-13 00:50:27 	  	0
 How can we trust global warming scientists asks David Rose 	 2017-02-13 01:03:49 	  	0
 How can we trust global warming scientists asks David Rose 	 2017-02-13 02:34:31 	  	0
 United flight delayed after plainclothes pilot's rant 	 2017-02-13 02:53:33 	  	0
 Scientists Drill Volcano to Harness Its Awesome Energy 	 2017-02-13 03:50:41 	  	0
 Scientists Drill Volcano to Harness Its Awesome Energy 	 2017-02-13 09:20:31 	  	0
 United flight delayed after plainclothes pilot's rant 	 2017-02-13 10:42:43 	  	0
 Top Trump aide says White House has 'enormous evidence' of voter fraud 	 2017-02-13 12:10:17 	  	0
 Here is a Quote about Censorship 	 2017-02-13 12:52:46 	" Here is a Quote from a Fellow Writer, Mark Twain: ""Censorship is telling a man he can't have a steak just because a baby can't chew it.""  "	0
 Top Trump aide says White House has 'enormous evidence' of voter fraud 	 2017-02-13 14:19:37 	  	0
 Lance Armstrong handed defeat by federal judge 	 2017-02-14 05:53:18 	  	0
 Mish Michaels isnt alone: Many meteorologists question climate change science 	 2017-02-14 06:14:03 	  	0
 Jerry Sandusky's son charged with child sex abuse 	 2017-02-14 06:29:28 	  	0
 John Waters: A new kind of anarchy is going to happen next 	 2017-02-14 06:48:14 	  	0
 Jerry Sandusky's son charged with child sex abuse 	 2017-02-14 07:26:05 	  	0
 Mish Michaels isnt alone: Many meteorologists question climate change science 	 2017-02-14 09:31:27 	  	0
 John Waters: A new kind of anarchy is going to happen next 	 2017-02-14 10:53:36 	  	0
 Lance Armstrong handed defeat by federal judge 	 2017-02-14 11:24:14 	  	0
 Politico: Hillary Clinton Is Running Again 	 2017-02-14 13:42:13 	  	0
 North Korean leader's half brother was killed by women wielding 'poison needles' 	 2017-02-15 00:45:07 	  	0
 North Korean leader's half brother was killed by women wielding 'poison needles' 	 2017-02-15 00:55:43 	  	0
 North Korean leader's half brother was killed by women wielding 'poison needles' 	 2017-02-15 01:19:08 	  	0
 Hitlers double was wandering around Austria. Now hes going to jail. 	 2017-02-15 04:19:51 	  	0
 Michael Savage: Flynn a 'Scapegoat' 	 2017-02-15 04:37:17 	  	0
 Iron Age Potters Carefully Recorded Earth's Magnetic Field By Accident 	 2017-02-15 05:15:08 	  	0
 FBI needs to explain why Flynn was recorded, Intelligence Committee chairman says 	 2017-02-15 05:27:16 	  	0
 Kim Jong-uns half-brother assassinated 	 2017-02-15 05:39:38 	  	0
 Howard Stern Sued for Broadcasting Woman's Conversation With IRS 	 2017-02-15 05:47:27 	  	0
 Scientists Discover 60 New Planets, Some Similar To Earth 	 2017-02-15 06:00:44 	  	0
 Harrison Ford Under Investigation After Close Call With Passenger Plane 	 2017-02-15 09:05:01 	  	0
 Kim Jong-uns half-brother assassinated 	 2017-02-15 09:24:48 	  	0
 Kim Jong-uns half-brother assassinated 	 2017-02-15 09:54:38 	  	0
 Scientists Discover 60 New Planets, Some Similar To Earth 	 2017-02-15 10:07:23 	  	0
 FBI needs to explain why Flynn was recorded, Intelligence Committee chairman says 	 2017-02-15 10:20:01 	  	0
 Politico: Hillary Clinton Is Running Again 	 2017-02-15 10:31:33 	  	0
 Iron Age Potters Carefully Recorded Earth's Magnetic Field By Accident 	 2017-02-15 10:43:05 	  	0
 Howard Stern Sued for Broadcasting Woman's Conversation With IRS 	 2017-02-15 11:30:56 	  	0
 Top Trump aide says White House has 'enormous evidence' of voter fraud 	 2017-02-15 11:38:28 	  	0
 Harrison Ford Under Investigation After Close Call With Passenger Plane 	 2017-02-15 14:24:13 	  	0
 Scammers Posing As ICE Agents Take Advantage Of Latino New Yorkers 	 2017-02-16 00:44:22 	  	0
 Morning Joe bans Trump aide Kellyanne Conway 	 2017-02-16 00:54:20 	  	0
 Ancient Jars Found In Judea Show Earths Magnetic Field Is Fluctuating, Not Diminishing 	 2017-02-16 01:10:14 	  	0
 Ancient Jars Found In Judea Show Earths Magnetic Field Is Fluctuating, Not Diminishing 	 2017-02-16 01:19:37 	  	0
 Scammers Posing As ICE Agents Take Advantage Of Latino New Yorkers 	 2017-02-16 02:08:49 	  	0
 Donald Trump: Russian connection non-sense is cover for Hillary Clintons many mistakes 	 2017-02-16 02:25:31 	  	0
 Donald Trump: Russian connection non-sense is cover for Hillary Clintons many mistakes 	 2017-02-16 02:36:55 	  	0
 Trump denies Russia 'conspiracy theories' 	 2017-02-16 02:43:19 	  	0
 Ancient Jars Found In Judea Show Earths Magnetic Field Is Fluctuating, Not Diminishing 	 2017-02-16 02:55:34 	  	0
 Merck is dropping tests of a once-promising Alzheimer's drug 	 2017-02-16 03:08:03 	  	0
 Morning Joe bans Trump aide Kellyanne Conway 	 2017-02-16 03:57:03 	  	0
 Trump attacks media, intelligence community over reports of Russia ties 	 2017-02-16 04:30:59 	  	0
 Spies Keep Intelligence From Donald Trump 	 2017-02-16 04:41:29 	  	0
 Trump attacks media, intelligence community over reports of Russia ties 	 2017-02-16 04:51:33 	  	0
 Spies Keep Intelligence From Donald Trump on Leak Concerns 	 2017-02-16 05:42:46 	  	0
 Merck is dropping tests of a once-promising Alzheimer's drug 	 2017-02-16 05:53:30 	  	0
 Watergate scandal 	 2017-02-16 06:11:30 	  	0
 Drug catapult found attached to Mexican side of US border fence 	 2017-02-16 06:53:47 	  	0
 Drug catapult found attached to Mexican side of US border fence 	 2017-02-16 07:08:30 	  	0
 'Morning Joe' Host Bans Kellyanne Conway From Show 	 2017-02-16 09:34:38 	  	0
 After Kim Jong-Nam, a look at North Koreas history of state killings 	 2017-02-16 09:47:09 	  	0
 After Kim Jong-Nam, a look at North Koreas history of state killings 	 2017-02-16 11:09:09 	  	0
 Another Alzheimer's Drug Study Fails. This Time It's Merck's 	 2017-02-16 16:39:09 	  	0
 Another Alzheimer's Drug Study Fails. This Time It's Merck's 	 2017-02-16 22:57:42 	  	0
 Scientists discover 'Zealandia' - a hidden continent off the coast of Australia 	 2017-02-16 23:41:48 	  	0
 Burger King cook fired for taking 75 cents' worth of food wins lawsuit 	 2017-02-17 00:38:12 	  	0
 Scientists discover 'Zealandia' - a hidden continent off the coast of Australia 	 2017-02-17 02:48:27 	  	0
 Over half of psychology studies fail reproducibility test 	 2017-02-17 02:58:08 	  	0
 White House Plans to Have Trump Ally Review Intelligence Agencies 	 2017-02-17 03:10:55 	  	0
 White House Plans to Have Trump Ally Review Intelligence Agencies 	 2017-02-17 10:32:14 	  	0
 Why Killer Viruses Are On The Rise 	 2017-02-18 05:05:32 	  	0
 Trump Fans Want Shepard Smiths Head for Slamming President on Fox News 	 2017-02-18 05:51:06 	  	0
 NYC Dad Outraged Over Daughter's 'Anti-Trump' Homework Question 	 2017-02-18 06:15:44 	  	0
 Nasa live feed cuts as 'six large UFOs' creep past International Space Station 	 2017-02-18 06:44:04 	  	0
 Exclusive: Few Rogue Border Agents Resist Trump Policies 	 2017-02-18 06:59:06 	  	0
 CIA director denies withholding intelligence from Trump 	 2017-02-18 07:30:17 	  	0
 Trump team refutes report on proposal for National Guard immigrant roundup 	 2017-02-18 07:46:53 	  	0
 Trump team refutes report on proposal for National Guard immigrant roundup 	 2017-02-18 07:58:35 	  	0
 McConnell on Trump: I Like His Policies, Not His Tweets 	 2017-02-18 08:33:53 	  	0
" Trump Declares CNN, NYT, CBS, ABC And NBC Are ""The Enemy of The American People"" "	 2017-02-18 09:03:59 	  	0
 Nasa live feed cuts as 'six large UFOs' creep past International Space Station 	 2017-02-18 09:14:21 	  	0
 Nasa live feed cuts as 'six large UFOs' creep past International Space Station 	 2017-02-18 09:40:33 	  	0
 Why Killer Viruses Are On The Rise 	 2017-02-18 10:21:37 	  	0
" Trump Declares CNN, NYT, CBS, ABC And NBC Are ""The Enemy of The American People"" "	 2017-02-18 10:46:54 	  	0
 Paris authorities order volunteers to stop distributing food to refugees 	 2017-02-18 10:58:57 	  	0
 Paris authorities order volunteers to stop distributing food to refugees 	 2017-02-18 19:59:32 	  	0
 Trump declares 'fake news' media 'the enemy of the American people' 	 2017-02-18 20:49:38 	  	0
 McCain defends the media in NBC interview 	 2017-02-20 05:58:10 	  	0
 Scientists hold rally in Boston to protest threat to science 	 2017-02-20 06:07:50 	  	0
 Scientists hold rally in Boston to protest threat to science 	 2017-02-20 06:40:39 	  	0
 Rembrandt sketch 'hidden' for 250 years found 	 2017-02-20 07:26:53 	  	0
 Two-thirds of the world population has herpes 	 2017-02-20 09:49:28 	  	0
 Two-thirds of the world population has herpes 	 2017-02-20 10:00:06 	  	0
 Rembrandt sketch 'hidden' for 250 years found 	 2017-02-20 10:15:24 	  	0
 McCain defends the media in NBC interview 	 2017-02-20 10:22:54 	  	0
 McCain defends the media in NBC interview 	 2017-02-20 10:36:33 	  	0
 Rembrandt sketch 'hidden' for 250 years found 	 2017-02-20 10:53:14 	  	0
 Two-thirds of the world population has herpes 	 2017-02-20 14:53:40 	  	0
 Your Samsung SmartTV Is Spying on You, Basically 	 2017-02-20 22:03:20 	  	0
 Your Samsung SmartTV Is Spying on You, Basically 	 2017-02-20 23:11:32 	  	0
 Stem Cell Transplants May Help Some With Multiple Sclerosis 	 2017-02-22 10:20:44 	  	0
 Stem Cell Transplants May Help Some With Multiple Sclerosis 	 2017-02-22 11:21:37 	  	0
 James OKeefe Threatens To Release Hundreds Of Hours Of Leaked Newsroom Footage Soon 	 2017-02-22 11:33:42 	  	0
 James OKeefe Threatens To Release Hundreds Of Hours Of Leaked Newsroom Footage Soon 	 2017-02-22 11:52:59 	  	0
 Stem Cell Transplants May Help Some With Multiple Sclerosis 	 2017-02-22 12:12:19 	  	0
 NASA scientists want to make Pluto a planet again 	 2017-02-22 12:38:26 	  	0
 Sargento expands cheese recall: Here's the new list 	 2017-02-22 13:29:56 	  	0
 Sargento expands cheese recall: Here's the new list 	 2017-02-22 13:58:35 	  	0
 NASA scientists want to make Pluto a planet again 	 2017-02-22 14:30:04 	  	0
 Stem Cell Transplants May Help Some With Multiple Sclerosis 	 2017-02-22 14:44:25 	  	0
 Sargento expands cheese recall: Here's the new list 	 2017-02-22 15:06:49 	  	0
" Is James O'Keefe About To Smoke CNN? Tells Hannity He's Set To Release ""Hundreds of Hours"" Of Newsroom Footage ""Wikileaks Style"" "	 2017-02-23 05:02:51 	  	0
" Is James O'Keefe About To Smoke CNN? Tells Hannity He's Set To Release ""Hundreds of Hours"" Of Newsroom Footage ""Wikileaks Style"" "	 2017-02-23 05:22:14 	  	0
 Astronomers find 7 Earth-size planets where life is possible 	 2017-02-23 05:30:39 	  	0
 Tuskegee syphilis experiment 	 2017-02-23 05:39:49 	  	0
 Astronomers find 7 Earth-size planets where life is possible 	 2017-02-23 05:49:48 	  	0
 Tuskegee syphilis experiment 	 2017-02-23 06:10:38 	  	0
 Escher-like playground hidden in the jungle 	 2017-02-23 08:09:26 	  	0
 Escher-like playground hidden in the jungle 	 2017-02-23 08:39:08 	  	0
 H7N9 Mutation Makes Bird Flu Virus Drug-Resistant And More Infectious 	 2017-02-23 09:48:21 	  	0
 H7N9 Mutation Makes Bird Flu Virus Drug-Resistant And More Infectious 	 2017-02-23 10:34:49 	  	0
 UFO sightings are at an all-time high 	 2017-02-24 05:03:08 	  	0
 CNN Leaks: Conservative Activist James OKeefe Publishes Alleged Newsroom Footage 	 2017-02-24 05:22:37 	  	0
 CNN Leaks: Conservative Activist James OKeefe Publishes Alleged Newsroom Footage 	 2017-02-24 06:33:05 	  	0
 UFO sightings are at an all-time high 	 2017-02-24 06:44:51 	  	0
 H7N9 bird flu has the makings of a pandemic virus, scientists warn 	 2017-02-24 07:14:29 	  	0
 H7N9 bird flu has the makings of a pandemic virus, scientists warn 	 2017-02-24 09:38:15 	  	0
 Norway Warns Sweden Will Collapse, PM Will Defy Geneva Convention To Protect Border 	 2017-02-24 13:50:14 	  	0
 Norway Warns Sweden Will Collapse, PM Will Defy Geneva Convention To Protect Border 	 2017-02-24 13:58:29 	  	0
 White House blocks news organizations from press briefing 	 2017-02-24 22:32:06 	  	0
 White House Bars CNN, NYT, Others From Media Briefing 	 2017-02-24 23:03:00 	  	0
 White House Bars CNN, NYT, Others From Media Briefing 	 2017-02-24 23:20:43 	  	0
 White House blocks CNN, other news organizations from press briefing 	 2017-02-25 01:40:58 	  	0
 It's a scary time for the world, says Martin Scorsese 	 2017-02-25 02:07:16 	  	0
 It's a scary time for the world, says Martin Scorsese 	 2017-02-25 03:15:16 	  	0
 Protesters Pass out Russian Trump Flags at CPAC 	 2017-02-25 06:27:19 	  	0
 Trump blasts FBI 'leakers' after reports on Priebus conversation 	 2017-02-25 06:43:44 	  	0
 Trump blasts FBI 'leakers' after reports on Priebus conversation 	 2017-02-25 06:54:44 	  	0
 Trump tweets anger at FBI while White House scrambles to contain fallout 	 2017-02-25 07:05:07 	  	0
 Bill Cosby Trial: Judge Rules Only One Additional Accuser Will Testify 	 2017-02-25 07:38:39 	  	0
 White House denies wrongdoing in conversations with FBI 	 2017-02-25 08:01:11 	  	0
 Trump rejects DHS intelligence report on travel ban 	 2017-02-26 00:40:23 	  	0
 Swedish 'national security advisor' interviewed by Fox News not known to Swedish officials: report 	 2017-02-26 04:19:27 	  	0
 Mysterious sea creature in Philippines shore baffles researchers (Photo) 	 2017-02-26 10:07:37 	  	0
 Mysterious sea creature in Philippines shore baffles researchers 	 2017-02-27 08:15:30 	  	0
 Heart failure Breakthrough: Stem cells trial offers hope to millions 	 2017-02-27 09:14:14 	  	0
 Heart failure Breakthrough: Stem cells trial offers hope to millions 	 2017-02-27 09:44:55 	  	0
 New York Times editor Dean Baquet: Why journalists need to use anonymous sources 	 2017-02-27 10:53:54 	  	0
 New York Times editor Dean Baquet: Why journalists need to use anonymous sources 	 2017-02-27 11:05:30 	  	0
 The 12 bacteria posing greatest risk to humans 	 2017-02-28 11:21:42 	  	0
 PwC: 'We failed the Academy' in best picture mess up 	 2017-02-28 11:42:39 	  	0
 Ohio's Secretary of State Discovered Non-Citizens Voted 	 2017-02-28 11:55:35 	  	0
 Ohio's Secretary of State Discovered Non-Citizens Voted 	 2017-03-01 04:39:35 	  	0
 The 12 bacteria posing greatest risk to humans 	 2017-03-01 05:26:04 	  	0
 Trump blames Obama for protests and gives himself a 'C or a C-plus' on getting his message out 	 2017-03-01 10:03:22 	  	0
 Terminal cancer patients in complete remission after one gene therapy treatment 	 2017-03-01 10:21:37 	  	0
 Terminal cancer patients in complete remission after one gene therapy treatment 	 2017-03-01 10:51:38 	  	0
 FBI planned to pay spy behind Trump-Russia dossier 	 2017-03-02 05:33:24 	  	0
 Academy Boots Both PwC Accountants From Next Years Oscars 	 2017-03-02 05:46:21 	  	0
 New American Spy Satellite Launches on Classified Mission 	 2017-03-02 06:02:37 	  	0
 Trump administration would ignore WTO rulings it sees as anti-U.S.: FT 	 2017-03-02 06:26:43 	  	0
 Trump suggests ignoring World Trade Organization in major policy shift 	 2017-03-02 06:53:00 	  	0
 As Leaks Multiply, Fears of a Deep State in America 	 2017-03-02 08:37:24 	  	0
 As Leaks Multiply, Fears of a Deep State in America 	 2017-03-02 11:35:07 	  	0
 FBI planned to pay spy behind Trump-Russia dossier 	 2017-03-02 21:25:44 	  	0
 AI Scientists Gather to Plot Doomsday Scenarios (and Solutions) 	 2017-03-03 08:49:13 	  	0
 What is this 2.5mile long object moving under the Pacific Ocean? 	 2017-03-03 09:03:11 	  	0
 Marine Le Pen stripped of EU parliamentary immunity 	 2017-03-03 09:26:24 	  	0
 Blizzard dumps snow on Hawaii, California set for record winter rain 	 2017-03-03 09:35:47 	  	0
 Study Finds 88 Percent of Media Coverage is Anti-Trump 	 2017-03-03 09:52:07 	  	0
 Amazon broke the internet with a typo 	 2017-03-03 13:36:21 	  	0
 Blizzard dumps snow on Hawaii, California set for record winter rain 	 2017-03-03 14:25:17 	  	0
 Marine Le Pen stripped of EU parliamentary immunity 	 2017-03-03 16:20:11 	  	0
 Study Finds 88 Percent of Media Coverage is Anti-Trump 	 2017-03-03 23:55:05 	  	0
 Nashville Zoo welcomes rare baby clouded leopard 	 2017-03-04 01:10:21 	  	0
 AI Scientists Gather to Plot Doomsday Scenarios (and Solutions) 	 2017-03-04 08:08:52 	  	0
 Donald Trump accuses Obama of 'wire-tapping' his office before election 	 2017-03-04 14:23:41 	  	0
 Donald Trump accuses Obama of 'wire-tapping' his office before election 	 2017-03-04 15:05:33 	  	0
 Lock Him Up? Lawmakers Renew Calls for James Clapper Perjury Charges 	 2017-03-05 19:07:58 	  	0
 Trump calls for congressional probe into possible wiretapping of his campaign 	 2017-03-05 19:32:04 	  	0
 Former DNI James Clapper says Trump claim of wiretap is false 	 2017-03-05 21:01:18 	  	0
 Why Keystone XL pipeline won't buy US steel, despite Trump's order 	 2017-03-05 23:34:43 	  	0
 Conway challenges Comey to release info on Trump's wiretap allegation 	 2017-03-06 10:47:11 	  	0
 House Intel leaders split on Trump wiretap allegations 	 2017-03-06 10:57:35 	  	0
 Adele Finally Confirms Her Secret Marriage 	 2017-03-06 21:26:04 	  	0
 Adele Finally Confirms Her Secret Marriage 	 2017-03-07 00:30:29 	  	0
 Conway challenges Comey to release info on Trump's wiretap allegation 	 2017-03-07 00:50:47 	  	0
 Nashville Zoo welcomes rare baby clouded leopard 	 2017-03-07 04:43:20 	  	0
 Washington Post tech employee allegedly impersonated ICE agent 	 2017-03-07 10:14:56 	  	0
 Bizarre 'megaship' captured by International Space Station camera before Nasa 'dims the feed' 	 2017-03-07 10:25:27 	  	0
 CNN Airs 'Spy Cam' Footage Of Trump Oval Office Meeting As If It's Perfectly Acceptable 	 2017-03-07 10:51:40 	  	0
 Bizarre 'megaship' captured by International Space Station camera before Nasa 'dims the feed' 	 2017-03-07 12:08:02 	  	0
 Anaesthesia: What really happens when the lights go out 	 2017-03-07 12:45:02 	  	0
 Anaesthesia: What really happens when the lights go out 	 2017-03-07 20:57:31 	  	0
 Spicer tries to clarify Trump tweet about former Gitmo prisoners 	 2017-03-08 00:24:09 	  	0
 Trump Russia dossier author speaks 	 2017-03-08 09:56:39 	  	0
 Craftsman table saw recalled over injury hazards 	 2017-03-09 00:27:51 	  	0
 Craftsman table saw recalled over injury hazards 	 2017-03-09 01:08:15 	  	0
 In an unexplained case, brain activity has been recorded as much as 10 minutes after death 	 2017-03-09 10:20:36 	  	0
 Bird flu found at Tennessee chicken farm as virus surges in Asia 	 2017-03-09 10:41:51 	  	0
 US officials monitor yellow fever outbreak in Brazil 	 2017-03-09 12:46:27 	  	0
 This pollinating bee drone shows the powers of these endangered creatures 	 2017-03-09 13:10:52 	  	0
 US officials monitor yellow fever outbreak in Brazil 	 2017-03-09 13:55:55 	  	0
 Scientists discover how to 'upload knowledge to your brain' 	 2017-03-09 22:55:33 	  	0
 Scientists discover how to 'upload knowledge to your brain' 	 2017-03-09 23:23:42 	  	0
 In an unexplained case, brain activity has been recorded as much as 10 minutes after death 	 2017-03-10 00:49:48 	  	0
 Google weighs in on WikiLeaks bombshell 	 2017-03-10 04:16:21 	  	0
 Google weighs in on WikiLeaks bombshell 	 2017-03-10 05:23:33 	  	0
 Could Mysterious Cosmic Light Flashes Be Powering Alien Spacecraft? 	 2017-03-10 08:37:47 	  	0
 Could Mysterious Cosmic Light Flashes Be Powering Alien Spacecraft? 	 2017-03-10 19:40:26 	  	0
 Bird flu found at Tennessee farm as virus surges in Asia 	 2017-03-10 22:19:32 	  	0
 Drug-resistant Candida auris Reported in United States 	 2017-03-11 02:24:07 	  	0
 Mumps outbreaks reported across USA 	 2017-03-11 09:47:04 	  	0
 Mumps outbreaks reported across USA 	 2017-03-11 10:05:33 	  	0
 Church Committee 	 2017-03-13 00:14:31 	  	0
 Church Committee 	 2017-03-13 00:59:26 	  	0
 Kellyanne Conway suggests Obama could have spied on Donald Trump through a microwave 	 2017-03-13 20:50:12 	  	0
 Kellyanne Conway Defends Trump Wiretap Claim By Citing 'Microwaves That Turn Into Cameras' 	 2017-03-14 02:54:43 	  	0
 Mind-reading AI knows whether you are guilty or innocent 	 2017-03-14 08:14:45 	  	0
 Mind-reading AI knows whether you are guilty or innocent 	 2017-03-14 22:33:47 	  	0
 Study: 4-in-5 Oklahoma City students cant read clocks 	 2017-03-15 05:04:30 	  	0
 Study: 4-in-5 Oklahoma City students cant read clocks 	 2017-03-15 05:41:23 	  	0
 Kids Can't Read Grandma's Recipe Because It's In Cursive 	 2017-03-15 09:14:32 	  	0
 New technology, $10,000 reward aimed at finding Fort Carson soldier's killer from 1987 	 2017-03-15 09:49:40 	  	0
 France's Francois Fillon charged over 'fake jobs' scandal 	 2017-03-15 10:06:37 	  	0
 Marco Rubio: Snoop Dogg Should Be Very Careful With Trump Mock-Assassination Video 	 2017-03-15 10:19:47 	  	0
 Navy admiral, 8 others charged with corruption in 'Fat Leonard' bribery case 	 2017-03-15 10:41:29 	  	0
 Tillerson used alter ego 'Wayne Tracker' for Exxon emails 	 2017-03-15 11:07:11 	  	0
 France's Francois Fillon charged over 'fake jobs' scandal 	 2017-03-15 19:44:00 	  	0
 Trump tweeted that Snoop Dogg would get Jail Time! for his mock-assassination video. Heres why thats wrong. 	 2017-03-15 20:37:09 	  	0
 Skeptical lawmakers pressure Comey on Trump wiretap claim 	 2017-03-15 20:57:37 	  	0
 Emma Watson Pursuing Legal Action After Private Photos Hacked 	 2017-03-15 21:09:09 	  	0
 FBI to brief Graham, Whitehouse on Trump warrants: Graham 	 2017-03-15 21:18:16 	  	0
 Federal Judge in Hawaii Puts Trump Travel Ban on Hold 	 2017-03-16 02:42:12 	  	0
 Ex-LA County sheriff convicted of impeding FBI's jail probe 	 2017-03-16 07:38:39 	  	0
 Baby dies after sitter couldn't reach 911 	 2017-03-16 08:38:12 	  	0
 Revealed: Turkeys Plan To Camouflage Its Lobbying Activities In The US 	 2017-03-16 09:00:18 	  	0
 Five Republican-nominated judges signal support for travel ban 	 2017-03-16 09:12:43 	  	0
 Trump says he will submit evidence of wiretapping to House committee 'very soon' 	 2017-03-16 09:36:07 	  	0
 Towards a lip-reading computer 	 2017-03-17 19:23:51 	  	0
 There Is an Official Leprechaun Colony in Portland (of Course) 	 2017-03-17 20:00:10 	  	0
 23% Of America Is Illiterate 	 2017-03-18 00:31:35 	  	0
 illiteracy: World Illiteracy Rates 	 2017-03-18 01:43:18 	  	0
 Lecturers Are Hitting Out At Their Own Unis For Giving Places To 'Almost Illiterate' Students 	 2017-03-18 01:58:49 	  	0
 10% of Europeans resistant to HIV 	 2017-03-18 02:32:21 	  	0
 Do YOU hear 'phantom phone buzzing'? 80% of college students admit they experience major sign of phone addiction 	 2017-03-18 02:51:44 	  	0
 Biologists discover why 10% of Europeans are safe from HIV infection 	 2017-03-18 03:02:07 	  	0
 10% of Europeans resistant to HIV 	 2017-03-18 03:38:11 	  	0
 Biologists discover why 10% of Europeans are safe from HIV infection 	 2017-03-18 03:47:23 	  	0
 Do You hear 'phantom phone buzzing'? 80% of college students admit they experience major sign of phone addiction 	 2017-03-18 04:45:37 	  	0
 OMB Director Mulvaney: Climate Change Research 'A Waste of Your Money 	 2017-03-18 05:21:27 	  	0
 Sean Hannity Denies Pointing Gun at Juan Williams 	 2017-03-18 06:18:15 	  	0
 There Is an Official Leprechaun Colony in Portland (of Course) 	 2017-03-18 07:19:30 	  	0
 Towards a lip-reading computer 	 2017-03-18 07:30:24 	  	0
 Hillary Clinton says she's 'ready to come out of the woods' 	 2017-03-18 08:12:08 	  	0
 School children 'should be taught to recognise fake news 	 2017-03-18 08:44:42 	  	0
 School children 'should be taught to recognise fake news 	 2017-03-18 08:56:38 	  	0
 Natural immunity may lead fight against liver disease 	 2017-03-18 09:18:13 	  	0
 Natural immunity may lead fight against liver disease 	 2017-03-18 09:28:16 	  	0
 Brazile admits she forwarded town hall questions to Clinton camp 	 2017-03-18 09:43:55 	  	0
 Merkels awkward visit with Trump 	 2017-03-18 10:00:56 	  	0
 Merkels awkward visit with Trump 	 2017-03-18 10:18:19 	  	0
 Biologists discover why 10% of Europeans are safe from HIV infection 	 2017-03-18 10:29:37 	  	0
 23% Of America Is Illiterate 	 2017-03-18 10:57:53 	  	0
 Brazile admits she forwarded town hall questions to Clinton camp 	 2017-03-19 03:59:53 	  	0
 Hillary Clinton says she's 'ready to come out of the woods' 	 2017-03-19 12:36:17 	  	0
 Antimicrobial Resistance  The Looming Medical Apocalypse 	 2017-03-19 12:50:51 	  	0
 The drug-resistant bacteria that pose the greatest health threats 	 2017-03-19 14:26:58 	  	0
 Antimicrobial Resistance  The Looming Medical Apocalypse 	 2017-03-19 14:46:14 	  	0
 The drug-resistant bacteria that pose the greatest health threats 	 2017-03-19 15:03:22 	  	0
 Why Scientists Are So Excited About This Solar Eclipse 	 2017-03-20 23:52:23 	  	0
 Trump Calls Suggestions of Collusion with Russia Fake News 	 2017-03-21 04:05:03 	  	0
 Why Scientists Are So Excited About This Solar Eclipse 	 2017-03-21 08:21:44 	  	0
 Trump Calls Suggestions of Collusion with Russia Fake News 	 2017-03-21 13:00:38 	  	0
 Charles and Diana lied about one major thing and you cant unsee it 	 2017-03-21 17:45:35 	  	0
 Thailand's coin-eating turtle dies of intestinal blockage 	 2017-03-21 18:07:38 	  	0
 Anti-Trump media: 91% coverage negative, 96% of donations to Hillary 	 2017-03-21 18:34:05 	  	0
 Have you lost your mind?: Anne Frank group rips Tim Allen for likening Hollywood to 1930s Germany 	 2017-03-22 00:02:08 	  	0
 FBI investigating Trump campaign and Russia ties 	 2017-03-22 00:20:35 	  	0
 Comey confirms, Assange did not lie. Podesta emails were not given to Wikileaks by Russians 	 2017-03-22 00:37:56 	  	0
 FBI Investigating Breitbart, InfoWars: Report 	 2017-03-22 00:59:17 	  	0
 Deepak Chopra speculates about Trump's brain 	 2017-03-22 03:23:39 	  	0
 Comey confirms, Assange did not lie. Podesta emails were not given to Wikileaks by Russians 	 2017-03-23 04:19:16 	  	0
 Charlie Sheen hints he knows Hollywood stars with HIV 	 2017-03-23 09:55:19 	  	0
" Bombshell: CIA Whistleblower Leaked Proof Trump Under ""Systematic Illegal"" Surveillance Over Two Years Ago: FBI Sat On It "	 2017-03-23 10:14:20 	  	0
 Millennials Don't Consider Themselves Adults Until Age 30 	 2017-03-23 10:49:40 	  	0
 Nunes claims some Trump transition messages were intercepted 	 2017-03-23 10:59:31 	  	0
 Latest North Korean Missile Test Ends in Failure 	 2017-03-23 11:18:53 	  	0
 Charlie Sheen hints he knows Hollywood stars with HIV 	 2017-03-23 19:45:10 	  	0
 Nunes claims some Trump transition messages were intercepted 	 2017-03-23 20:51:48 	  	0
 Latest North Korean Missile Test Ends in Failure 	 2017-03-25 01:00:29 	  	0
 The drug-resistant bacteria that pose the greatest health threats 	 2017-03-25 07:09:41 	  	0
 True adulthood doesn't begin until age 25 	 2017-03-25 19:22:13 	  	0
 N. Dakota Oil Spill 3 Times Larger Than First Estimated 	 2017-03-25 20:19:43 	  	0
 N. Dakota Oil Spill 3 Times Larger Than First Estimated 	 2017-03-26 07:30:24 	  	0
 Shaffer: Trump Wiretap Case 'Worse Than Watergate' 	 2017-03-27 08:21:35 	  	0
 Shaffer: Trump Wiretap Case 'Worse Than Watergate' 	 2017-03-27 08:53:38 	  	0
 Ted Koppel tells Sean Hannity he is bad for America 	 2017-03-28 02:09:14 	  	0
" Conservative Star Tomi Lahren ""Banned Permanently"" From The Blaze (Report) "	 2017-03-28 07:24:26 	  	0
" 11-year-old girl's hands covered in third-degree burns after making ""slime"" "	 2017-03-28 08:37:38 	  	0
 U.S. Attorneys Office Under Investigation After 700 Lawyers Were Spied On in Prison 	 2017-03-28 08:52:33 	  	0
 Rex Tillerson May Be in Hot Water Over ExxonMobil Emails 	 2017-03-28 09:07:45 	  	0
 IRS Scam Backfires When Scammers Target Cop Specializing in Phone Scams 	 2017-03-28 09:21:33 	  	0
 Trump handed Merkel $374B NATO bill during talks -- report 	 2017-03-28 09:36:06 	  	0
 7 'facts' you learned in school that are no longer true 	 2017-03-28 09:49:47 	  	0
 Sean Hannity says he's an advocacy journalist, hits back at Ted Koppel 	 2017-03-28 11:11:07 	  	0
 U.S. Attorneys Office Under Investigation After 700 Lawyers Were Spied On in Prison 	 2017-03-28 11:38:12 	  	0
 Trump: House panel should investigate Clinton, not me 	 2017-03-28 12:21:10 	  	0
 IRS Scam Backfires When Scammers Target Cop Specializing in Phone Scams 	 2017-03-28 12:35:53 	  	0
 7 'facts' you learned in school that are no longer true 	 2017-03-28 23:24:24 	  	0
 California is the top state with most UFO sightings, say UFO experts 	 2017-03-29 12:43:25 	  	0
 California is the top state with most UFO sightings, say UFO experts 	 2017-03-29 13:32:03 	  	0
 'Stunning' Drug Lab Scandal Could Overturn 23K Convictions 	 2017-03-30 09:19:22 	  	0
 What George W. Bush Really Thought of Donald Trumps Inauguration 	 2017-03-30 09:57:46 	  	0
 'Angel of Death' serial killer badly beaten in Ohio prison 	 2017-03-30 10:23:48 	  	0
 'Stunning' Drug Lab Scandal Could Overturn 23K Convictions 	 2017-03-31 09:47:17 	  	0
 'Angel of Death' serial killer badly beaten in Ohio prison 	 2017-03-31 10:10:21 	  	0
 Flynn in 2016: When you are 'given immunity' that probably means you committed a crime 	 2017-04-01 01:20:36 	  	0
 Drexel professor wanted to 'vomit' after service member given courtesy on plane 	 2017-04-01 02:04:31 	  	0
 Michael Flynn's request for immunity in Trump-Russia probe 'rejected by Senate Intelligence Committee' 	 2017-04-01 03:03:12 	  	0
 Alec Baldwin considers retiring his SNL Donald Trump 	 2017-04-01 03:30:58 	  	0
 A Mysterious Flash From a Faraway Galaxy 	 2017-04-01 11:01:20 	  	0
 Serial Killer Dubbed 'Angel Of Death' Dies After Prison Beating 	 2017-04-01 11:11:08 	  	0
 A Mysterious Flash From a Faraway Galaxy 	 2017-04-01 11:22:10 	  	0
 Serial Killer Dubbed 'Angel Of Death' Dies After Prison Beating 	 2017-04-01 13:35:09 	  	0
 Trump calls White House-Russia controversy 'fake news,' 'total scam' 	 2017-04-02 02:53:24 	  	0
 Ford recalling 52,000 trucks because they may move in park 	 2017-04-03 04:32:52 	  	0
 Ford recalling 52,000 trucks because they may move in park 	 2017-04-03 04:56:57 	  	0
 Venezuela seeks to cool outrage over court power grab 	 2017-04-03 09:57:41 	  	0
 Venezuela seeks to cool outrage over court power grab 	 2017-04-03 10:16:48 	  	0
 New ancient Egyptian pyramid discovered 	 2017-04-03 23:18:37 	  	0
 New ancient Egyptian pyramid discovered 	 2017-04-04 05:58:21 	  	0
 Susan Rice isnt a smoking gun, but she does have some explaining to do 	 2017-04-05 12:19:07 	  	0
 Susan Rices White House Unmasking: A Watergate-style Scandal 	 2017-04-05 12:39:25 	  	0
 Companies yank ads from O'Reilly's show after sexual harassment claims 	 2017-04-05 12:55:38 	  	0
 Judge Denies Roman Polanskis Bid to End 40-Year-Old Rape Case 	 2017-04-05 13:04:53 	  	0
 Suspected gas attack in Syria reportedly kills dozens 	 2017-04-05 13:14:34 	  	0
 Wells Fargo Told To Pay Whistleblower $5.4 Million 	 2017-04-05 13:40:01 	  	0
 Meet 'Sesame Street's' muppet with autism 	 2017-04-05 13:59:37 	  	0
 Zika virus: scientists present strong evidence of Guillain-Barr link 	 2017-04-05 16:10:15 	  	0
 Old Mice Made Young Again With New Anti-Aging Drug 	 2017-04-05 22:22:49 	  	0
 Neil Gorsuch is accused of plagiarism amid a heated Supreme Court confirmation fight 	 2017-04-05 22:51:19 	  	0
 Richmond Fed President Lacker resigns, admitting role in leak to analyst 	 2017-04-05 23:04:43 	  	0
 CDC Issues New Warning On Potential Impact Of Zika Virus 	 2017-04-05 23:32:21 	  	0
 National Security Council shake-up: Bannon out, Rick Perry in 	 2017-04-05 23:53:51 	  	0
 Retired 4-Star General Sides with Sesame Street, Says PBS 'Makes Us Safer' 	 2017-04-06 00:21:41 	  	0
 National Security Council shake-up: Bannon out, Rick Perry in 	 2017-04-06 03:02:56 	  	0
 An Unexpected Career: Targets Forensic Services Laboratory 	 2017-04-06 04:36:31 	  	0
 Judge Denies Roman Polanskis Bid to End 40-Year-Old Rape Case 	 2017-04-06 05:03:55 	  	0
 Old Mice Made Young Again With New Anti-Aging Drug 	 2017-04-06 08:24:49 	  	0
 CDC Issues New Warning On Potential Impact Of Zika Virus 	 2017-04-06 09:03:36 	  	0
 The Mystery of Easter Island 	 2017-04-06 09:33:17 	  	0
 Zika virus: scientists present strong evidence of Guillain-Barr link 	 2017-04-06 11:16:39 	  	0
 Kendall Jenner's Pepsi ad sparks social media outcry 	 2017-04-06 12:35:24 	  	0
 Wells Fargo Told To Pay Whistleblower $5.4 Million 	 2017-04-06 21:18:07 	  	0
 Donald Trump Honors Members Of The Wounded Warrior Project At The White House 	 2017-04-06 23:16:57 	  	0
 Arnold Palmer absent, yet very present, for Masters ceremonial tee shot 	 2017-04-06 23:27:48 	  	0
 Don Rickles Dead: Insult Comedian Was 90 	 2017-04-07 05:27:30 	  	0
 Don Rickles, Comedy's Equal Opportunity Offender, Dies at 90 	 2017-04-07 05:40:30 	  	0
 Trump Sued by Twitter Over Bid to Unmask @Alt-Agency Handle 	 2017-04-07 11:11:11 	  	0
 Baseball mysteriously sticks to Yadier Molinas belly 	 2017-04-07 13:35:43 	  	0
 The government is demanding to know who this Trump critic is. Twitter is suing to keep it a secret. 	 2017-04-07 13:48:36 	  	0
 Close to Half of American Adults Infected With HPV, Survey Finds 	 2017-04-07 14:18:00 	  	0
 The Masters 2017 leaderboard and latest Augusta scores and news 	 2017-04-07 14:33:27 	  	0
 India has never used me against China, says Dalai Lama during his Arunachal visit 	 2017-04-07 14:48:10 	  	0
 Ted Wheeler Freaks Out After Man Pulls And Aims Pepsi Can During City Hall Meeting 	 2017-04-07 15:09:57 	  	0
 South China Sea: Duterte orders Philippines military to occupy islands 	 2017-04-07 15:23:42 	  	0
 Donald Trump Honors Members Of The Wounded Warrior Project At The White House 	 2017-04-07 15:35:38 	  	0
 Close to Half of American Adults Infected With HPV, Survey Finds 	 2017-04-08 00:05:09 	  	0
 Octopuses, Squids And Cuttlefish Retain Ability To Defy Genetic Instructions, Edit Genes On The Fly 	 2017-04-08 09:51:21 	  	0
 Octopuses and squids can rewrite their RNA. Is that why theyre so smart? 	 2017-04-08 10:01:55 	  	0
 Ability to rewrite RNA hints at why octupuses, squids are clever 	 2017-04-08 10:21:53 	  	0
 Caitlyn Jenner: 'I've made mistakes' 	 2017-04-08 10:44:46 	  	0
 Was Donald Trump right all along about Sweden's crime and immigration problems? 	 2017-04-08 11:02:44 	  	0
 Why Madonna is drinking in the Pepsi controversy 	 2017-04-08 11:29:38 	  	0
 Octopuses, Squids And Cuttlefish Retain Ability To Defy Genetic Instructions, Edit Genes On The Fly 	 2017-04-08 19:47:30 	  	0
 Octopuses and squids can rewrite their RNA. Is that why theyre so smart? 	 2017-04-08 20:28:49 	  	0
 Trade-off between Transcriptome Plasticity and Genome Evolution in Cephalopods 	 2017-04-08 23:02:27 	  	0
 Trade-off between Transcriptome Plasticity and Genome Evolution in Cephalopods 	 2017-04-08 23:16:00 	  	0
 Close to Half of American Adults Infected With HPV, Survey Finds 	 2017-04-09 04:14:02 	  	0
 CDC Issues New Warning On Potential Impact Of Zika Virus 	 2017-04-09 04:49:58 	  	0
 Zika virus: scientists present strong evidence of Guillain-Barr link 	 2017-04-09 05:00:04 	  	0
 'Zombie' Bees Surface in the Northeast 	 2017-04-09 05:13:42 	  	0
 India has never used me against China, says Dalai Lama during his Arunachal visit 	 2017-04-09 06:24:34 	  	0
 'Work this out': Trump reportedly urges Jared Kushner and Steve Bannon to get along 	 2017-04-09 06:50:26 	  	0
 Trump faces 'open warfare' with Breitbart if Bannon is fired, says former executive of the far-right website 	 2017-04-09 07:23:00 	  	0
 Baseball mysteriously sticks to Yadier Molinas belly 	 2017-04-09 10:22:19 	  	0
 The Kushner-Bannon feud is about ideology  and Steve Bannon is losing 	 2017-04-09 11:28:00 	  	0
 Stockholm attack driver 'deliberately targeted young children' as he drove hijacked lorry into crowd 	 2017-04-09 12:01:53 	  	0
 Researchers discover nearby exoplanet has an Atmosphere 	 2017-04-09 12:19:05 	  	0
 The Kushner-Bannon feud is about ideology  and Steve Bannon is losing 	 2017-04-09 13:05:21 	  	0
 U.S. Navy strike group to move toward Korean peninsula: U.S. official 	 2017-04-09 13:33:11 	  	0
" An End to Blindness: ""Holy Grail"" of Gene Editing Partially Restores Vision "	 2017-04-09 14:31:15 	  	0
 In a consequential week, Trump leans on the Washington establishment he vowed to disrupt 	 2017-04-09 15:12:44 	  	0
 U.S. Soldier Killed In Afghanistan Amid Operations Against ISIS 	 2017-04-09 15:56:44 	  	0
 California governor: Drought over, conservation must go on 	 2017-04-09 16:09:17 	  	0
 Sanctions to follow: US vows to keep up pressure on Syria after missile strikes 	 2017-04-09 16:32:26 	  	0
 Researchers discover nearby exoplanet has an Atmosphere 	 2017-04-09 16:57:26 	  	0
 Damian Lillard scores franchise-record 59 points as Blazers close in on playoff berth 	 2017-04-10 03:27:51 	  	0
 China Investigates Regulator of Fast-Moving Insurance Industry 	 2017-04-10 03:38:37 	  	0
 ISIS claims responsibility for Egypt church bombings 	 2017-04-10 04:53:49 	  	0
 'Star Wars': Carrie Fisher to Appear in 'Episode IX,' Says Brother Todd Fisher 	 2017-04-10 05:49:42 	  	0
" An End to Blindness: ""Holy Grail"" of Gene Editing Partially Restores Vision "	 2017-04-10 06:47:38 	  	0
 John Clarke, satirist and comedian, dies aged 68 	 2017-04-10 07:52:53 	  	0
 Deputy national security adviser leaves the White House as McMaster's influence grows 	 2017-04-10 08:06:47 	  	0
 Russell Westbrook has 50 points, buzzer-beater in record 42nd triple-double 	 2017-04-10 08:39:34 	  	0
 Second Opinion From Doctor Nets Different Diagnosis 88% Of Time, Study Finds 	 2017-04-10 09:00:55 	  	0
 China offers concessions to avert trade war with U.S. 	 2017-04-10 09:12:21 	  	0
 Rapper allegedly gorges on $600 seafood meal on Gold Coast then swims off to avoid paying 	 2017-04-10 09:22:55 	  	0
 Sending US warships is to North Korea 'prudent', says US, as world braces for further missile tests 	 2017-04-10 09:52:36 	  	0
 U.S. Reroutes Warships Toward Korean Peninsula in Show of Force 	 2017-04-10 10:07:44 	  	0
 U.S. Soldier Killed In Afghanistan Amid Operations Against ISIS 	 2017-04-10 10:27:02 	  	0
 10 Dangerous Superbugs the World Health Organization Is Warning Everyone About 	 2017-04-10 10:46:33 	  	0
 Second Opinion From Doctor Nets Different Diagnosis 88% Of Time, Study Finds 	 2017-04-10 11:07:14 	  	0
 U.S. Reroutes Warships Toward Korean Peninsula in Show of Force 	 2017-04-10 11:19:51 	  	0
 Satirist John Clarke, of Clarke and Dawe fame, dies aged 68 	 2017-04-10 11:57:26 	  	0
 ISIS claims responsibility for Egypt church bombings 	 2017-04-10 12:07:36 	  	0
 Fox will investigate Bill O'Reilly harassment claims, lawyer says 	 2017-04-10 12:36:30 	  	0
 21st Century Fox Confirms Bill OReilly Investigation 	 2017-04-10 12:49:05 	  	0
 Coalition and Syrian opposition forces repel ISIS attack 	 2017-04-10 13:05:55 	  	0
 Scientists discover new primate -- and it's already in danger 	 2017-04-10 13:19:22 	  	0
 Stem cell research, Scientists uncovered promising development 	 2017-04-10 14:33:14 	  	0
 Stem cell research, Scientists uncovered promising development 	 2017-04-10 14:43:44 	  	0
 Coalition and Syrian opposition forces repel ISIS attack 	 2017-04-10 15:31:39 	  	0
 Rice gets 'four Pinocchios' for chemical weapons claim 	 2017-04-11 03:53:42 	  	0
 US deploys warships near North Korea, China sends 150,000 troops to border 	 2017-04-11 04:09:37 	  	0
 'Star Wars': Carrie Fisher to Appear in 'Episode IX,' Says Brother Todd Fisher 	 2017-04-11 04:31:29 	  	0
 US deploys warships near North Korea, China sends 150,000 troops to border 	 2017-04-11 04:49:12 	  	0
 Video shows man forcibly removed from United flight from Chicago to Louisville 	 2017-04-11 11:07:47 	  	0
 New Venezuela clashes, US voices 'grave concern' 	 2017-04-11 11:25:59 	  	0
 51 Favorite Facts Youve Always Believed That Are Actually False 	 2017-04-11 11:43:07 	  	0
 US warships are sent to the Korean peninsula 	 2017-04-11 12:17:33 	  	0
 US, Mexico, Canada to make joint bid for 2026 World Cup 	 2017-04-11 12:29:25 	  	0
 North Korea state media warns of nuclear strike if provoked as U.S. warships approach 	 2017-04-11 13:03:33 	  	0
 US deploys warships near North Korea, China sends 150,000 troops to border 	 2017-04-11 13:14:47 	  	0
 Pepsi mops up 'unusual' Mountain Dew spill 	 2017-04-11 16:01:21 	  	0
 Portland pledges 100 percent clean energy by 2050 	 2017-04-11 16:11:49 	  	0
 North Korea issues warning as US strike group heads to Korean Peninsula 	 2017-04-11 16:23:35 	  	0
 51 Favorite Facts Youve Always Believed That Are Actually False 	 2017-04-11 23:33:32 	  	0
 Portland pledges 100 percent clean energy by 2050 	 2017-04-12 00:18:34 	  	0
 Town Hall Crowd Yells You Lie at Joe Wilson 	 2017-04-12 00:48:01 	  	0
 Slavery returns to Africa: Migrants sold at open markets in Libya 	 2017-04-12 02:10:07 	  	0
 Human trafficking 	 2017-04-12 02:19:33 	  	0
 Scientists make cells RESISTANT to HIV in major breakthrough 	 2017-04-12 02:48:37 	  	0
 United Airlines says controversial flight was not overbooked; CEO apologizes again 	 2017-04-12 02:59:34 	  	0
 Bill OReilly Sexual Harassment Scandal, Advertiser Defections a Test for Fox News Future 	 2017-04-12 03:14:25 	  	0
 Scientists make cells RESISTANT to HIV in major breakthrough 	 2017-04-12 04:54:50 	  	0
 Town Hall Crowd Yells You Lie at Joe Wilson 	 2017-04-12 05:47:20 	  	0
 Mystery as 14,000 Second World War dog tags found buried in field 	 2017-04-12 06:12:19 	  	0
 Australian Newsreader 'Will Not Be Fired' Over Blooper 	 2017-04-12 07:42:59 	  	0
 Congressman Who Shouted You Lie at Obama Hears the Same From Constituents 	 2017-04-12 09:42:34 	  	0
 Slavery returns to Africa: Migrants sold at open markets in Libya 	 2017-04-12 11:26:07 	  	0
 President Trump: 'We Are Not Going Into Syria' 	 2017-04-12 11:45:51 	  	0
 Congressman Who Shouted You Lie at Obama Hears the Same From Constituents 	 2017-04-12 19:48:12 	  	0
 United CEO says he felt shame watching video of man dragged from flight and accepts responsibility 	 2017-04-13 10:16:49 	  	0
 Toyota shows robotic leg brace to help paralyzed people walk 	 2017-04-13 10:38:17 	  	0
 Liberal prof says Trump must hang   Republicans be summarily executed to save American democracy 	 2017-04-13 12:31:48 	  	0
 Toyota shows robotic leg brace to help paralyzed people walk 	 2017-04-13 20:25:21 	  	0
 Liberal prof says Trump must hang   Republicans be summarily executed to save American democracy 	 2017-04-13 20:37:19 	  	0
 Millennials, popular dating apps might have increased your risk of getting STDs, experts say 	 2017-04-14 10:29:00 	  	0
 Jimmy Carter UFO incident 	 2017-04-14 10:46:33 	  	0
 CIA Director Pompeo calls WikiLeaks a 'hostile intelligence service' 	 2017-04-14 10:51:49 	  	0
 Beauty and the Beast Bests $1 Billion at Worldwide Box Office 	 2017-04-14 11:14:45 	  	0
 Toyota shows robotic leg brace to help paralyzed people walk 	 2017-04-14 11:27:32 	  	0
 Banking on Cheese: The Bank That Uses Parmesan as Collateral 	 2017-04-14 12:08:03 	  	0
 36 ISIS fighters killed by huge US bomb 	 2017-04-14 12:18:13 	  	0
 Eli Manning Allegedly Involved in Scheme to Sell Fake Game-Worn Memorabilia 	 2017-04-14 12:27:24 	  	0
 U.S. may launch strike if North Korea reaches for nuclear trigger 	 2017-04-14 12:36:32 	  	0
 What we can learn from North Korean military parades 	 2017-04-14 12:45:58 	  	0
 Were Trump's Syrian missile strikes morally justified? 	 2017-04-14 12:58:23 	  	0
 Jimmy Carter UFO incident 	 2017-04-14 17:38:36 	  	0
 Banking on Cheese: The Bank That Uses Parmesan as Collateral 	 2017-04-14 17:49:26 	  	0
 Beauty and the Beast Bests $1 Billion at Worldwide Box Office 	 2017-04-14 18:04:53 	  	0
 U.S. may launch strike if North Korea reaches for nuclear trigger 	 2017-04-14 18:16:42 	  	0
 Wisconsin man accused of robbing gun store and writing a threatening manifesto to Trump has been captured 	 2017-04-14 18:38:22 	  	0
 TV News Poll: Bill O'Reilly Viewed Most Negatively Among News Figures 	 2017-04-14 18:45:29 	  	0
 Pharmaceutical giant 'plotted to destroy cancer drugs to drive prices up 4000%' 	 2017-04-14 18:56:58 	  	0
 China warns of N. Korea conflict 'at any moment' 	 2017-04-14 19:06:49 	  	0
 Research Firm Behind Trump Dossier Is Refusing To Answer Senate Committees Questions 	 2017-04-14 19:16:30 	  	0
 China warns of N. Korea conflict 'at any moment' 	 2017-04-14 19:53:39 	  	0
 Liberal prof says Trump must hang   Republicans be summarily executed to save American democracy 	 2017-04-14 20:21:53 	  	0
 China Warns of War Risk as Trump Rattles Saber at North Korea 	 2017-04-15 02:27:52 	  	0
 Pharmaceutical giant 'plotted to destroy cancer drugs to drive prices up 4000%' 	 2017-04-15 03:31:02 	  	0
 Jimmy Carter UFO incident 	 2017-04-15 04:17:43 	  	0
 What we can learn from North Korean military parades 	 2017-04-15 04:29:40 	  	0
 United changes crew booking policy after passenger dragged off plane 	 2017-04-15 04:56:55 	  	0
 N. Korean official: Ready for war if Trump wants it 	 2017-04-15 09:35:27 	  	0
 Trump privately signs anti-Planned Parenthood law 	 2017-04-15 10:21:19 	  	0
 China urges North Korea and US to step back from brink of war 	 2017-04-15 12:32:09 	  	0
 Wisconsin man accused of robbing gun store and writing a threatening manifesto to Trump has been captured 	 2017-04-15 12:45:22 	  	0
 China seeks Russia's help to 'cool' N. Korea situation 	 2017-04-16 03:19:12 	  	0
 Chinese Media Almost Sets Off Military Action With Erroneous North Korea Headline 	 2017-04-16 10:31:58 	  	0
 New protests set in troubled Venezuela 	 2017-04-16 10:43:47 	  	0
 Maxine Waters rallies Tax March crowd for Trump's impeachment 	 2017-04-16 10:58:44 	  	0
 Former Laurel Wal-Mart manager charged with staging $400,000 store robbery in which he was shot 	 2017-04-16 11:09:52 	  	0
 VIDEO: Trump supporter beaten with skateboard by agitators at Berkeley rally 	 2017-04-16 12:16:53 	  	0
 On the 4th anniversary of the Boston Marathon bombings, a day of public service, resiliency and strength 	 2017-04-16 12:58:02 	  	0
 21 bold predictions for the 2017 NBA Playoffs 	 2017-04-16 13:19:42 	  	0
 Roger Stone defends WikiLeaks, calls for CIA head to resign over attacks 	 2017-04-16 13:39:54 	  	0
 Five-year-old boy crushed to death at US revolving restaurant 	 2017-04-16 13:52:31 	  	0
 Assange lashes out against CIA after Pompeo rips WikiLeaks 	 2017-04-16 21:55:13 	  	0
 Park Geun-hye: Ex-South Korean president charged in corruption probe 	 2017-04-17 15:44:03 	  	0
 Shaken at the start, Celtics drop Game 1 of playoff series vs. Bulls 	 2017-04-17 16:24:08 	  	0
 Seven reason's why a global pandemic is inevitable 	 2017-04-17 18:29:55 	  	0
 Expert: 'There will be a pandemic' 	 2017-04-17 18:42:18 	  	0
 Inside the Hotel Industry's Plan to Combat Airbnb 	 2017-04-17 18:52:03 	  	0
 Congressman to Constituents: You Dont Pay My Salary 	 2017-04-17 19:01:15 	  	0
 Protests sweeping South America show rising antigovernment anger 	 2017-04-17 19:11:34 	  	0
 Ohio man accused of posting video of fatal shooting on Facebook remains on the loose 	 2017-04-18 00:24:15 	  	0
 Bill Gates Warns A Future Disease Epidemic Is Inevitable 	 2017-04-18 00:35:28 	  	0
 Public health experts: Deadly global pandemic is inevitable but Trump administration is unprepared for it 	 2017-04-18 00:45:28 	  	0
 Stanford grows corneal cells in lab 	 2017-04-18 01:00:58 	  	0
 Mother and daughter die after becoming locked in Czech sauna 	 2017-04-18 01:11:01 	  	0
 North Korea's military parade: What we didn't see 	 2017-04-18 01:23:05 	  	0
 Snapchat is doing damage control after its CEO allegedly said the app is 'only for rich people' 	 2017-04-18 02:18:04 	  	0
 False report of gunshots causes Coney Island stampede 	 2017-04-18 02:28:03 	  	0
 Giants LF Jarrett Parker Breaks Collarbone After Crashing into Wall During Catch 	 2017-04-18 02:37:45 	  	0
 Glenn Beck fires back against Tomi Lahren 	 2017-04-18 02:47:37 	  	0
 InfoWars' Alex Jones is a 'performance artist playing a character', according to his lawyer 	 2017-04-18 02:58:30 	  	0
" John McCain: ""I Hope"" Trump Has Been 'Sucked In' By The Washington Establishment "	 2017-04-18 04:29:15 	  	0
 Girl, 17, Dies after shark attack in Esperance, WA 	 2017-04-18 04:41:51 	  	0
 McMaster casts doubt on U.S. sending more troops to Syria 	 2017-04-18 05:49:36 	  	0
 Trump's Art of the China Deal: Will Xi Jinping Really Help the U.S. Contain North Korea? 	 2017-04-18 06:00:27 	  	0
 Stanford grows corneal cells in lab 	 2017-04-18 06:29:15 	  	0
 Expert: 'There will be a pandemic' 	 2017-04-18 09:55:04 	  	0
 What satellite images reveal about China's economy 	 2017-04-18 10:15:41 	  	0
 More Americans suffering from stress, anxiety and depression, study finds 	 2017-04-18 10:26:44 	  	0
 Wells Fargo exec was fired for not scamming N.J. customers, lawsuit says 	 2017-04-18 10:37:53 	  	0
 50 years later, historic Boston Marathon runner back at it 	 2017-04-18 10:49:15 	  	0
 Rare gold coin will help pay for Indiana church's expansion plan 	 2017-04-18 11:00:39 	  	0
 Police announce $50,000 reward for arrest of Facebook killer as search intensifies 	 2017-04-18 11:20:39 	  	0
 Pence tells North Korea not to test American resolve, offering Syria and Afghanistan strikes as examples 	 2017-04-18 11:31:28 	  	0
 If the latest iPhone 8 rumors are true, Samsung should be worried 	 2017-04-18 21:37:02 	  	0
 Alex Jones, the Infowars conspiracy guru, is just playing a part, his lawyer says 	 2017-04-18 21:58:34 	  	0
 Adidas Sends Out Insanely-Insensitive Email to Boston Marathon Runners 	 2017-04-18 23:25:08 	  	0
 Former UN worker arrested for robbing banks during lunch break 	 2017-04-18 23:38:29 	  	0
 Tax protests arouse presidential ire, but there's no way Trump is releasing his returns 	 2017-04-18 23:51:47 	  	0
 North Korea test missiles, challenges US with nuclear war threats 	 2017-04-19 00:01:16 	  	0
 Luck says shoulder injury originated in 2015 	 2017-04-19 00:45:26 	  	0
 Former U.S. President George H.W. Bush hospitalized again in Houston 	 2017-04-19 01:00:12 	  	0
 'Jeopardy' contestant offers hilariously wrong answer 	 2017-04-19 01:55:24 	  	0
 No charges against mother of stillborn Portland baby 	 2017-04-19 02:03:35 	  	0
" Twitter Was Not Sure What To Make Of That ""Girls"" Finale "	 2017-04-19 02:25:14 	  	0
 Black Hawk helicopter crash kills 1, injures 2 in Maryland 	 2017-04-19 02:35:50 	  	0
 Source: Fox News and Bill O'Reilly are talking exit 	 2017-04-19 02:47:04 	  	0
 Getty Center evacuated after bomb threat 	 2017-04-19 03:03:23 	  	0
 Is Bill O'Reilly done at Fox News? Drudge may have answer 	 2017-04-19 03:14:36 	  	0
 Jim Mattis, U.S. defense chief, says North Korea recklessly tried to provoke 	 2017-04-19 03:31:25 	  	0
 Veteran linebacker Hawk retires with Packers 	 2017-04-19 03:41:32 	  	0
 Ousted South Korean President Indicted for Bribery, Extortion 	 2017-04-19 04:04:44 	  	0
 Trump taunts Dem candidate in Georgia election 	 2017-04-19 05:21:58 	  	0
 In the fight of his career, OReillys side swings back on harassment charge 	 2017-04-19 05:59:31 	  	0
 Official: White House, Pentagon miscommunicated on aircraft carrier's location 	 2017-04-19 07:56:29 	  	0
 The typo that could be a symbol for Hillary Clinton's campaign 	 2017-04-19 08:09:27 	  	0
 Crowd angrily chants 'yes or no' at senator 	 2017-04-19 08:25:46 	  	0
 Snapchat denies its CEO labeled India as 'poor' 	 2017-04-19 08:36:25 	  	0
 That song doesn't mean what you think 	 2017-04-19 10:44:19 	  	0
 Fox News Is Preparing to Cut Ties with Bill O'Reilly 	 2017-04-19 11:04:51 	  	0
 Breitbart and Trump relationship: it's complicated 	 2017-04-19 11:16:41 	  	0
 Mike Pence says America's 'sword stands ready' if North Korea uses conventional or nuclear weapons 	 2017-04-19 22:24:48 	  	0
 DNC Spokeswoman Promotes Theory That Russia Has Dirt On Chaffetz 	 2017-04-19 22:39:22 	  	0
 Bill O'Reilly Is Forced Out at Fox News 	 2017-04-19 22:49:44 	  	0
 Aaron Hernandez, former NFL player, found dead in prison cell, officials say 	 2017-04-19 23:06:13 	  	0
 UC Berkeley Bans Ann Coulter But She Plans to Speak Anyway! 	 2017-04-20 02:14:06 	  	0
 Trump signs bill allowing veterans to seek care outside broken VA system 	 2017-04-20 02:25:57 	  	0
 Tens of thousands of Venezuelans march against President Nicolas Maduro 	 2017-04-20 02:36:32 	  	0
 CIA, FBI launch manhunt for leaker who gave top-secret documents to WikiLeaks 	 2017-04-20 02:53:00 	  	0
 Bill O'Reilly out at Fox News 	 2017-04-20 03:04:03 	  	0
 Report: Cubs directive aims to prevent players, employees from selling World Series rings 	 2017-04-20 05:33:03 	  	0
 Umbilical cord blood could slow brain's ageing, study suggests 	 2017-04-20 05:49:36 	  	0
 Frank Artiles: Florida state senator apologizes for racial slurs 	 2017-04-20 05:58:16 	  	0
 Husband of Dead New York Judge Calls for Help With Investigation 	 2017-04-20 06:07:54 	  	0
 Cubs' Todd Ricketts withdraws name for Trump's Cabinet 	 2017-04-20 06:19:31 	  	0
 Bruce Springsteen releases anti-Trump protest song 	 2017-04-20 06:28:41 	  	0
 2 killed amid massive anti-government marches in Venezuela 	 2017-04-20 06:39:43 	  	0
 Feds knew of 700 Wells Fargo whistleblower cases in 2010 	 2017-04-20 06:49:13 	  	0
 So where are they? Mystery over 730,000 missing ELEPHANTS 	 2017-04-20 07:20:41 	  	0
 Trump-Backing House Oversight Chair Jason Chaffetz WILL NOT Seek Reelection 	 2017-04-20 07:32:26 	  	0
 Chaffetz will leave behind Oversight panel he used to investigate Obama White House 	 2017-04-20 07:52:00 	  	0
 Accuser in Seattle mayor sex abuse lawsuit reveals identity 	 2017-04-20 08:07:56 	  	0
 Venezuela's Opposition Seeks to Keep Pressure on Maduro 	 2017-04-20 08:33:19 	  	0
 Hillary Clinton to President Obama on Election Night: Im Sorry I Lost 	 2017-04-20 09:00:25 	  	0
 Iconic 'Portland' sign at Schnitzer hall to come down for renovation 	 2017-04-20 09:10:04 	  	0
 What Sean Spicer thinks of his 'SNL' impression 	 2017-04-20 09:21:26 	  	0
 Trump congratulates Erdogan on disputed Turkey poll 	 2017-04-20 09:31:55 	  	0
 Rare gold coin will help pay for Indiana church's expansion plan 	 2017-04-20 09:42:49 	  	0
 2017 NFL mock draft: Dan Feeney the choice for Minnesota Vikings 	 2017-04-20 10:10:32 	  	0
 First Look at Lady Gaga and Bradley Cooper in A Star Is Born 	 2017-04-20 10:19:11 	  	0
 Trump team's mixed messages on North Korea 	 2017-04-20 10:32:06 	  	0
 'SNL' takes Trump back to reality TV roots 	 2017-04-20 10:56:49 	  	0
 Cotton booed for defending Trump on tax returns 	 2017-04-20 11:14:44 	  	0
 Aaron Hernandez's lawyer insinuates that client's death might not have been suicide 	 2017-04-20 12:59:05 	  	0
 Aaron Hernandez's former agent isn't convinced it was suicide and at least one person might agree 	 2017-04-20 13:14:39 	  	0
 Trump signs bill allowing veterans to seek care outside broken VA system 	 2017-04-20 13:28:49 	  	0
 Umbilical cord blood could slow brain's ageing, study suggests 	 2017-04-20 22:17:41 	  	0
 Global Flu Pandemic 'Inevitable,' Expert Warns 	 2017-04-20 23:22:45 	  	0
 Kris Jenner slams Caitlyns book: Everything is made up 	 2017-04-21 11:33:28 	  	0
 Tesla to recall 53,000 cars over parking brake issue 	 2017-04-21 11:43:47 	  	0
 NBA: Russell Westbrook scores 51, to no avail as Thunder falls to Rockets 	 2017-04-21 11:56:02 	  	0
 US official: China puts bombers on 'high alert' 	 2017-04-21 12:09:00 	  	0
 Dow Chemical urges Trump administration to ignore pesticide findings 	 2017-04-21 12:27:53 	  	0
 Massachusetts Throws Out More Than 21,000 Convictions In Drug Testing Scandal 	 2017-04-21 12:45:14 	  	0
 VIDEO: Starbucks barista has meltdown over Unicorn Frappuccino 	 2017-04-21 13:03:09 	  	0
 Bose faces privacy lawsuit over headphones that share listening habits with third parties 	 2017-04-21 14:05:56 	  	0
 United misses Senate deadline for info about passenger removal 	 2017-04-21 23:06:28 	  	0
 Sources: US prepares charges against WikiLeaks' Assange 	 2017-04-21 23:52:07 	  	0
 Rockets overcome Westbrook's 51, take 2-0 lead over Thunder 	 2017-04-22 00:01:37 	  	0
 Paris shooting: Marine Le Pen calls for all French terror suspects to be expelled after Champs Elysees attack 	 2017-04-22 00:12:52 	  	0
 Tesla to recall 53,000 cars over parking brake issue 	 2017-04-22 00:30:39 	  	0
 Syria crisis 	 2017-04-22 01:57:19 	  	0
 Boy with autism arrested at Florida school 	 2017-04-22 02:15:26 	  	0
 Eric Frein, Cop Killer Who Lived In Woods For 48 Days, Guilty On All Charges 	 2017-04-22 02:24:22 	  	0
 Hawaii lawmakers criticize Sessions' island judge remarks 	 2017-04-22 03:12:49 	  	0
 Ex-Gov. Rod Blagojevich loses appeal as judges quickly uphold 14-year prison term 	 2017-04-22 03:49:12 	  	0
 S.Korea on heightened alert as North readies for army anniversary 	 2017-04-22 04:10:45 	  	0
 VP Pence aims to reassure Australia after tense Trump call 	 2017-04-22 04:45:45 	  	0
 Psychiatrists warn President Trump Is 'paranoid' and 'delusional' 	 2017-04-22 04:55:44 	  	0
 Trump says media won't give him credit for his accomplishments 	 2017-04-22 05:05:32 	  	0
 Zolas Jaccuse letter is printed - Jan 13, 1898 	 2017-04-22 05:17:43 	  	0
 Aaron Hernandez may have committed murder to cover up secret 	 2017-04-22 06:20:58 	  	0
 Hawaii senator: Sessions' comments are insulting and biased 	 2017-04-22 06:33:25 	  	0
 Cowboys CB Anthony Brown Gets Tattoo of Potato Chip on Shoulder 	 2017-04-22 06:45:07 	  	0
 Surgeon general dismissed, replaced by Trump administration 	 2017-04-22 06:52:38 	  	0
 Aaron Hernandezs attorney to take action against prison for negligence 	 2017-04-22 07:09:50 	  	0
 13 foods never to feed your dog 	 2017-04-22 07:32:53 	  	0
 21 Foods You Should Never Feed Your Pets 	 2017-04-22 07:42:55 	  	0
 Treasury secretary says a major tax reform proposal is near 	 2017-04-22 10:19:54 	  	0
 Ann Coulter vows to speak at Berkeley despite cancellation 	 2017-04-22 10:36:23 	  	0
 Tiger Woods has fourth back surgery and will miss all 2017 majors 	 2017-04-22 10:53:27 	  	0
 FTC warns Instagram influencers over sponsored posts 	 2017-04-22 11:17:18 	  	0
 Dow Chemical wants Trump administration to ignore studies on pesticides 	 2017-04-22 11:26:48 	  	0
 Charlie Murphy Laid to Rest: Comedians Pay Their Respects 	 2017-04-22 11:41:08 	  	0
 Missing Tenn. student Elizabeth Thomas found, former teacher Tad Cummins arrested in California 	 2017-04-22 11:54:29 	  	0
 South Korean forces on high alert ahead of North Korean army celebration, possible nuke test 	 2017-04-22 13:02:49 	  	0
 Dow Chemical urges Trump administration to ignore pesticide findings 	 2017-04-22 13:14:07 	  	0
 US defense secretary says Syria dispersed warplanes, retains chemical weapons 	 2017-04-22 13:34:24 	  	0
 Aaron Hernandez may have committed murder to cover up secret 	 2017-04-22 13:59:03 	  	0
 'Appalling': Woman bumped from Air Canada flight misses $10,000 Galapagos cruise 	 2017-04-22 23:13:29 	  	0
 Ilie Nastase Under Investigation for Controversial Serena Williams Comments 	 2017-04-23 00:28:31 	  	0
 Armed Civilian Bands in Venezuela Prop Up Unpopular President 	 2017-04-23 07:15:03 	  	0
 Trump pledges to protect environment while reducing burdens on workers 	 2017-04-23 09:01:17 	  	0
 U.S. scientists rally to protest on Earth Day 	 2017-04-23 09:14:15 	  	0
 North Korea warns 'great war' coming as Donald Trump's armada nears Sea of Japan 	 2017-04-23 10:16:06 	  	0
 Eric Staal Injured After Crashing into Boards vs. Blues, Taken to Hospital 	 2017-04-23 12:03:46 	  	0
 Video shows American Airlines flight attendant challenging passenger to a fight after allegedly hitting woman with stroller 	 2017-04-23 12:37:08 	  	0
 Bacteria-Infected Mosquitoes May Get Rid Of Zika 	 2017-04-23 12:49:26 	  	0
 Charleston church shooter on federal death row in Indiana 	 2017-04-23 12:58:12 	  	0
 At least 140 dead after Taliban attack on a key Afghan army base, officials say 	 2017-04-23 13:17:16 	  	0
 Bowler uses every lane to bowl a perfect game in 86.9 seconds 	 2017-04-23 13:31:00 	  	0
 Avatar Sequels Book Release Dates, Starting in December 2020 	 2017-04-23 13:42:33 	  	0
 Trump awards Purple Heart to soldier in first visit to military hospital 	 2017-04-23 15:12:03 	  	0
 Florida releases experimental mosquitoes 	 2017-04-23 15:30:12 	  	0
 Short-term victory for Clippers could be a big loss depending on Blake Griffin's injury 	 2017-04-23 15:47:12 	  	0
 Sean Hannity Accused of Sexually Harassing Fox News Contributor 	 2017-04-24 10:03:46 	  	0
 Trump to host conservative media at reception 	 2017-04-24 10:22:29 	  	0
 Bill O'Reilly announces he will return with a podcast 	 2017-04-24 10:37:07 	  	0
 UC Berkeley College Republicans threaten to sue if Ann Coulter not allowed to speak 	 2017-04-24 10:59:41 	  	0
 Philippine President Rodrigo Duterte says he can be 50 times more brutal than terrorists 	 2017-04-24 11:17:15 	  	0
 Duterte on Terrorists: 'Give Me Salt, Vinegar, I'll Eat His Liver' 	 2017-04-24 11:31:00 	  	0
 CNN's Alisyn Camerota: Roger Ailes sexually harassed me 	 2017-04-24 11:41:07 	  	0
 Steve Kerr to miss Warriors' Game 4 due to chronic back pain 	 2017-04-24 12:12:59 	  	0
 Bill Nye Makes A False Claim About The US Constitution  Again 	 2017-04-24 12:49:41 	  	0
 North Korea warns 'great war' coming as Donald Trump's armada nears Sea of Japan 	 2017-04-24 13:38:02 	  	0
 Aaron Hernandez's Agent Says There's 'No Chance' Former TE's Death Was Suicide 	 2017-04-24 13:53:45 	  	0
 Did Aaron Hernandez murder Odin Lloyd to conceal his bi-sexuality? 	 2017-04-24 14:05:59 	  	0
 Wolf Pup Born in Missouri Offers Hope for Breed 	 2017-04-25 04:57:29 	  	0
 Trump seeks 15 percent corporate tax rate, even if it swells the national debt 	 2017-04-25 05:22:35 	  	0
 Amid Venezuela unrest, experts worry that criminals will acquire militarys weapons 	 2017-04-25 05:37:10 	  	0
 Wikipedia founder to fight fake news with new Wikitribune site 	 2017-04-25 05:50:02 	  	0
 Eerie tech promises to copy anyone's voice from just 1 minute of audio 	 2017-04-25 05:59:52 	  	0
 Virus could be mistaken for allergy symptoms 	 2017-04-25 06:14:22 	  	0
 Bill O'Reilly Speaks Out in Podcast: 'Hey, I Missed You Guys' 	 2017-04-25 06:24:28 	  	0
 In call to Trump, Chinese leader urges restraint over NKorea 	 2017-04-25 06:34:24 	  	0
 Elton John 'cancels Las Vegas shows due to illness' 	 2017-04-25 06:44:46 	  	0
 Senate staff perplexed by unusual White House private briefing on North Korea 	 2017-04-25 06:55:09 	  	0
 OReilly goes public after Fox ouster: Youre going to be shaken 	 2017-04-25 07:07:11 	  	0
" Ron Paul Rages At Trump: ""Assange Is A Hero... Don't Declare War On The Truth"" "	 2017-04-25 07:20:50 	  	0
 Entire Senate being called to White House for North Korea briefing 	 2017-04-25 08:35:26 	  	0
 Erin Moran 'likely died' of complications of stage 4 cancer, autopsy reveals 	 2017-04-25 10:21:11 	  	0
 2017 NFL draft predictions for all 32 teams 	 2017-04-25 10:30:39 	  	0
 Bomb attack hits 'secretive' US base in eastern Afghanistan as James Mattis visits capital 	 2017-04-25 10:40:38 	  	0
 2017 NBA Playoffs: Steve Kerr Will Miss Remainder of Warriors vs. Blazers Series 	 2017-04-25 10:51:03 	  	0
 Elton John Cancels Shows After Being Hospitalized Due to Rare Infection 	 2017-04-25 11:03:45 	  	0
 US sanctions 271 Syrian government workers after chemical attack 	 2017-04-25 11:14:07 	  	0
 Trump Adviser Gorka Abruptly Leaves 'Fake News' Panel 	 2017-04-25 11:24:11 	  	0
 Prototype vehicle that flies over water unveiled by aero startup Kitty Hawk 	 2017-04-25 11:33:59 	  	0
 Republican students sue to allow Ann Coulter's speech this week at UC Berkeley 	 2017-04-25 11:44:38 	  	0
 Burt Reynolds makes rare public appearance at film festival 	 2017-04-25 11:55:10 	  	0
 China's Xi urges Trump to use caution in handling North Korea 	 2017-04-25 12:06:36 	  	0
 Celebs who dropped out of high school 	 2017-04-25 12:16:47 	  	0
 2008 No. 1 pick Jake Long retires after battling injuries 	 2017-04-25 12:31:08 	  	0
 Justin Bieber reflects on troubled past 	 2017-04-25 13:28:58 	  	0
 US Navy guided-missile sub calls in S. Korea 	 2017-04-25 13:47:03 	  	0
 White House considers 'art of compromise' to avoid shutdown 	 2017-04-25 14:01:53 	  	0
 Prototype vehicle that flies over water unveiled by aero startup Kitty Hawk 	 2017-04-25 22:54:13 	  	0
 'Superbug' Fungus New Menace in US Hospitals, Mostly NY, NJ 	 2017-04-26 03:03:24 	  	0
 Committee rejects Breitbart application for congressional press credentials 	 2017-04-26 07:09:49 	  	0
 This Artificial Womb Could Boost Survival Rates Among Premature Babies 	 2017-04-26 08:59:25 	  	0
 Judge blocks Trump threat to withhold 'sanctuary city' funds 	 2017-04-26 09:17:49 	  	0
 Fox News Faces New Racial Discrimination Lawsuit 	 2017-04-26 09:37:00 	  	0
 Rockets owner leaves seat during Game 5 to complain to referee about no-call 	 2017-04-26 09:51:55 	  	0
 Lawyer for ex-NFL star Hernandez denies letter mentioned prison lover 	 2017-04-26 10:05:44 	  	0
 Parts of US anti-missile system moved to South Korean site 	 2017-04-26 10:17:45 	  	0
 Chobani Is Suing Infowars Radio Host Alex Jones 	 2017-04-26 10:33:05 	  	0
 Jesse Watters of Fox Denies His Ivanka Trump Comment Was Lewd 	 2017-04-27 04:09:16 	  	0
 New human rights to protect against 'mind hacking' and brain data theft proposed 	 2017-04-27 07:53:00 	  	0
 US Navy ship fires warning flare at Iranian vessel in Persian Gulf 	 2017-04-27 08:05:25 	  	0
 ACLU defends Coulter: We must protect speech 	 2017-04-27 08:22:06 	  	0
 Working brain circuitry grown in a lab dish for first time 	 2017-04-27 08:32:51 	  	0
 Senators Told North Korea Nuclear Threat Is Urgent 	 2017-04-27 08:43:15 	  	0
 Trumps newly unveiled anti-immigrant hotline bombarded with reports of space aliens 	 2017-04-27 09:05:23 	  	0
 Jenner: I would look at a run for office 	 2017-04-27 09:16:48 	  	0
 Celtics beat Bulls 108-97, take 3-2 lead in series 	 2017-04-27 09:27:21 	  	0
 NFL draft predictions 	 2017-04-27 09:37:18 	  	0
 Police, indigenous in Brazil clash with tear gas and spears 	 2017-04-27 09:48:21 	  	0
 Houston Rockets vs. Oklahoma City Thunder: Game 5 Prediction, Betting Odds, TV Channel 	 2017-04-27 10:03:13 	  	0
 China, Sending a Signal, Launches a Home-Built Aircraft Carrier 	 2017-04-27 10:14:02 	  	0
 Difficult legal path forward for Trump in sanctuary cities case 	 2017-04-27 10:38:21 	  	0
 Syria chemical attack samples prove government used sarin - French Foreign Minister 	 2017-04-27 10:56:52 	  	0
 Full Senate, in rare move, goes to White House grounds for classified North Korea briefing 	 2017-04-27 11:08:21 	  	0
 M. Night Shyamalan Unveils Split/Unbreakable Sequel Starring Bruce Willis, Samuel L. Jackson 	 2017-04-27 11:29:24 	  	0
 Trump, in new tax plan, promises to do what Reagan couldnt 	 2017-04-27 11:40:49 	  	0
 Hey Portland, it could be worse: In Astoria, it's rained for 167 days, breaking a 96-year record 	 2017-04-27 12:05:39 	  	0
 Caitlyn Jenner on O.J.: 'I knew he did it' 	 2017-04-27 12:19:33 	  	0
 The 44 Most Astonishing Archaeological Finds In History 	 2017-04-27 12:31:40 	  	0
 Convicted terrorist admits she lied to become US citizen 	 2017-04-27 12:49:37 	  	0
 United CEO Blames Dao Incident on 'System Failure,' Apologizes for Rabbit Incident 	 2017-04-27 13:07:05 	  	0
 Working brain circuitry grown in a lab dish for first time 	 2017-04-27 13:28:20 	  	0
 Toddler survives being run over twice - CNN Video 	 2017-04-27 14:33:32 	  	0
 Man kicked off flight for using bathroom 	 2017-04-27 14:44:41 	  	0
 Mexican woman lives as a slave for 30 years 	 2017-04-27 14:57:19 	  	0
 Guest calls out Fallon's lie and he loses it - CNN Video 	 2017-04-27 15:09:18 	  	0
 How music helped us heal after 9/11 - CNN Video 	 2017-04-27 15:27:12 	  	0
 M. Night Shyamalan Unveils Split/Unbreakable Sequel Starring Bruce Willis, Samuel L. Jackson 	 2017-04-27 15:43:06 	  	0
 Man arrested for assaulting a robot 	 2017-04-27 23:15:01 	  	0
 Trump slams sanctuary city ruling, says opponents are 'judge shopping!' 	 2017-04-27 23:38:49 	  	0
 This car amazingly changes color based on the drivers mood 	 2017-04-27 23:58:50 	  	0
 Ann Coulter Cancels Her Berkeley Speech 	 2017-04-28 00:45:58 	  	0
 Washington Wizards vs. Atlanta Hawks: Game 5 Prediction, Betting Odds, Early Start Time 	 2017-04-28 04:00:24 	  	0
 Doctor dragged off United Airlines flight reaches undisclosed settlement 	 2017-04-28 05:35:27 	  	0
 Exclusive: Trump says 'major, major' conflict with North Korea possible, but seeks diplomacy 	 2017-04-28 05:46:03 	  	0
 Sean Hannity Warns of End of Fox News as We Know It 	 2017-04-28 05:57:38 	  	0
 Ridley Scott: Aliens exist and will come for us 	 2017-04-28 06:12:40 	  	0
 Joanna Gaines addresses rumor that she's leaving 'Fixer Upper' 	 2017-04-28 06:21:11 	  	0
 United CEO to Lester Holt: Dragging incident was 'system failure across the board' 	 2017-04-28 06:30:57 	  	0
 Nicolas Cage Breaks Ankle On Movie Set In Bulgaria 	 2017-04-28 06:40:19 	  	0
 Does this cocaine make me look fat? Two men on flight caught with $400,000 worth of drug taped to their bodies. 	 2017-04-28 06:49:45 	  	0
 Slavery still exists -- we must confront it 	 2017-04-28 10:54:39 	  	0
 White House unveils what officials are calling the 'biggest tax cut' in history 	 2017-04-28 11:15:26 	  	0
 Trump Says He Will 'Renegotiate' NAFTA 	 2017-04-28 11:25:13 	  	0
 US veteran charged with killing PTSD 'therapy dog' as boyfriend filmed her 	 2017-04-28 11:43:15 	  	0
 Border mystery: Where are the immigrants? 	 2017-04-28 11:53:46 	  	0
 Trump unleashed string of tweets at judiciary - CNN Video 	 2017-04-28 12:04:18 	  	0
 House Republicans reveal health care amendment details 	 2017-04-28 12:14:28 	  	0
 NAFTA explained - CNN Video 	 2017-04-28 12:30:40 	  	0
 Turkey arrests 1,000 and suspends 9,100 police in new crackdown 	 2017-04-28 12:41:48 	  	0
 This Court Case Decided Cell Phones Give You Brain Tumors 	 2017-04-28 12:52:31 	  	0
 Bill Cosby Confirms Rumors That He is Now Completely Blind 	 2017-04-28 13:04:18 	  	0
 Lawmakers attacked as protesters storm Macedonian parliament 	 2017-04-28 13:18:49 	  	0
 2 US Army soldiers killed fighting ISIS in Afghanistan 	 2017-04-28 13:35:36 	  	0
 Bears turn NFL draft upside down, pick Mitchell Trubisky after trade 	 2017-04-28 13:47:59 	  	0
 Lawmakers attacked as protesters storm Macedonian parliament 	 2017-04-28 15:03:19 	  	0
 Tapper: This number alarmed us - CNN Video 	 2017-04-28 15:21:49 	  	0
 This Court Case Decided Cell Phones Give You Brain Tumors 	 2017-04-28 21:49:13 	  	0
 Epidemic - Wikipedia 	 2017-04-29 04:02:33 	  	0
 Societal collapse 	 2017-04-29 04:13:18 	  	0
 Pandemic 	 2017-04-29 04:27:28 	  	0
 Virus 	 2017-04-29 04:40:13 	  	0
 Disease 	 2017-04-29 04:55:21 	  	0
 Immunotherapy - Wikipedia 	 2017-04-29 05:20:54 	  	0
 Disease Resistance May Be Genetic 	 2017-04-29 05:31:25 	  	0
 Monoclonal antibody therapy 	 2017-04-29 05:42:29 	  	0
 Antibody - Wikipedia 	 2017-04-29 05:55:28 	  	0
 Trump Warns Of Potential 'Major, Major Conflict' With North Korea 	 2017-04-29 10:18:03 	  	0
 I thought it would be easier: Trump assesses his first 100 days 	 2017-04-29 10:36:21 	  	0
 John Waters, in town and in rare form, as usual 	 2017-04-29 11:22:16 	  	0
 Larry Bird Steps Down as Pacers President, Expected to Remain as Consultant 	 2017-04-29 11:49:13 	  	0
 How Facebook is fighting back against propaganda 	 2017-04-29 12:02:54 	  	0
 Roseanne Revival in the Works With Barr, John Goodman, Sara Gilbert 	 2017-04-29 12:21:34 	  	0
 Stem-cell therapy 	 2017-04-29 13:56:37 	  	0
 Japan, Philippines Urge U.S., North Korea to Avoid War Brink 	 2017-04-30 05:11:11 	  	0
 Factions in the Republican Party (United States) 	 2017-04-30 07:01:08 	  	0
 Trump warns of 'major, major conflict' with North Korea 	 2017-04-30 07:24:53 	  	0
 Russia's Lavrov says ready to cooperate with U.S. on Syria: agencies 	 2017-04-30 10:10:49 	  	0
 US service member killed in blast near Mosul, coalition says | US news 	 2017-04-30 10:34:21 	  	0
 Shannen Doherty Gives Cancer Diagnosis Update 	 2017-04-30 10:45:00 	  	0
 Body found in Grand Canyon likely missing teen, park officials say 	 2017-04-30 10:54:54 	  	0
 EPA removes climate change info from website - CNN Video 	 2017-04-30 11:06:27 	  	0
 Police: Austin officer faked own death, may have fled country 	 2017-04-30 11:43:10 	  	0
 Lt. Gen. H.R. McMaster on foreign policy; Sen. Schumer on President Trump's first 100 days 	 2017-05-01 03:09:43 	  	0
 Val Kilmer finally admits he had cancer 	 2017-05-01 03:24:04 	  	0
 Democrats say they now know exactly why Clinton lost 	 2017-05-01 03:57:00 	  	0
 Trump: Andrew Jackson saw the Civil War coming 	 2017-05-02 07:20:43 	  	0
 5 new truffle species identified in New Hampshire 	 2017-05-02 07:31:39 	  	0
 Woman says note from Chinese 'prisoner' was hidden in new purse 	 2017-05-02 08:34:11 	  	0
 Exclusive drone footage captures west Mosul in the throes of war 	 2017-05-02 09:42:50 	  	0
 Walmart Purse Note Tells of Chinese Prisoners' Treatment 	 2017-05-02 10:08:07 	  	0
 Officials: Inmate dies after days of no water - CNN Video 	 2017-05-02 10:53:15 	  	0
 FBI translator in Detroit secretly married ISIS leader 	 2017-05-03 00:48:21 	  	0
 A's prospect Casey Thomas dies unexpectedly at age 24 	 2017-05-03 01:00:45 	  	0
 Supreme Court Upholds Principle Of Innocent Until Proven Guilty 	 2017-05-03 01:15:29 	  	0
 Stephen Colbert in Hot Water Over Homophobic Donald Trump Joke 	 2017-05-03 01:37:10 	  	0
 NSA collected Americans' phone records despite law change: report 	 2017-05-03 01:53:40 	  	0
 Ford says state of the union is 'not good' in 1975 speech 	 2017-05-03 03:06:00 	  	0
 O'Reilly: The State Of The Union Is Not Good 	 2017-05-03 03:17:13 	  	0
 Hillary Clinton blames FBI director, WikiLeaks for her election loss 	 2017-05-03 03:27:55 	  	0
 Supreme Court Rejects Guilty Until Proven Innocent, Says States Cannot Keep Money From The Innocent 	 2017-05-03 04:04:07 	  	0
 Violent Brawl Between Airline Passengers Caught on Video: 'I'll Kill You' 	 2017-05-03 04:18:26 	  	0
 Since Snowden spilled his secrets, U.S. surveillance targets have surged 	 2017-05-03 07:03:25 	  	0
 THAAD Missile System In South Korea Is Now Operational, U.S. Says 	 2017-05-03 09:48:26 	  	0
 Hillary Clinton blames FBI director, WikiLeaks for her election loss 	 2017-05-03 12:00:10 	  	0
 Trump demands government shutdown in angry tweets 	 2017-05-03 12:11:46 	  	0
 South Koreas likely next president warns the U.S. not to meddle in its democracy 	 2017-05-03 12:38:08 	  	0
 Jury recommends charges against 7 jail employees in dehydration death 	 2017-05-03 12:51:48 	  	0
 Trump responds to Clinton with late-night tweets 	 2017-05-03 13:07:12 	  	0
 Lessons from the LA riots: How a troubled police department changed 	 2017-05-03 13:27:03 	  	0
 Boston Red Sox apologize after fans racially abuse Adam Jones at Fenway Park 	 2017-05-03 13:54:34 	  	0
 As Congress touts spending deal, Trump calls for shutdown 	 2017-05-03 14:05:24 	  	0
 'Jeopardy,' 'Wheel of Fortune' Renewed for Two More Seasons 	 2017-05-04 00:37:53 	  	0
 FBI Director: Notion That Bureau Swayed Election Makes Him Nauseous 	 2017-05-04 05:26:07 	  	0
 Analysis: Macron gave as good as he got in electric French debate 	 2017-05-04 06:05:03 	  	0
 Colbert responds to #FireColbert backlash: I would do it again 	 2017-05-04 08:44:05 	  	0
 Scientists discover oil sands pollution significantly under-reported 	 2017-05-04 11:18:40 	  	0
 5 new truffle species identified in New Hampshire 	 2017-05-04 11:29:11 	  	0
 North Korean Media, in Rare Critique of China, Says Nuclear Program Will Continue 	 2017-05-04 12:11:58 	  	0
 Sen. Franken leaves DOJ lawyer speechless - CNN Video 	 2017-05-04 12:41:05 	  	0
 Robin Williams final film being released 	 2017-05-04 12:57:32 	  	0
 Did You Get A Weird Invitation To Edit A Google Doc? It's Best Not To Click 	 2017-05-04 13:27:44 	  	0
 MLB sports agent wants Congress to crack down on racist taunts 	 2017-05-04 14:00:10 	  	0
 Why this Google Docs phishing attack is particularly sneaky 	 2017-05-04 14:34:17 	  	0
 Members of Congress 'holding secret conversations about removing Donald Trump from office' 	 2017-05-04 14:49:09 	  	0
 The most dangerous type of turbulence 	 2017-05-04 15:21:37 	  	0
 Sources: Former Acting AG Yates to contradict administration about Flynn at hearing 	 2017-05-04 15:33:28 	  	0
 Stephen Colbert's Response to #FireColbert: I Dont Regret It 	 2017-05-04 15:47:30 	  	0
 Trump walks out of interview after being questioned about Obama wiretap claims 	 2017-05-04 16:00:03 	  	0
 Axelrod: If I were Clinton, I would move on - CNN Video 	 2017-05-04 16:22:06 	  	0
 Trump Wonders Why the Civil War Happened, Walks Out of Interview 	 2017-05-04 16:35:35 	  	0
 YouTube CEO Susan Wojcicki: Don't interrupt me 	 2017-05-04 16:48:09 	  	0
 Iraq forces launch new push on IS in west Mosul 	 2017-05-05 06:10:09 	  	0
 Bad news for the Trump-Russia tinfoil-hat brigade 	 2017-05-05 06:29:56 	  	0
 Family kicked off flight, threatened with jail, for refusing to give up child's seat 	 2017-05-05 06:56:06 	  	0
 The Joker did not kill Heath Ledger, says sister 	 2017-05-05 07:25:36 	  	0
 Elite troops are being worked too hard and spread too thin, military commander warns 	 2017-05-05 07:52:02 	  	0
 Bombay Sapphire Gin Is Being Recalled For Having Double the Alcohol Content 	 2017-05-05 08:18:25 	  	0
 FBI report finds officers de-policing as anti-cop hostility becomes new norm 	 2017-05-05 08:33:36 	  	0
 Trump Signs Religious Liberty Order, Day of Prayer Proclamation 	 2017-05-05 08:55:32 	  	0
 US family: we were kicked off Delta flight for refusing to give up son's seat 	 2017-05-05 10:09:40 	  	0
 Trump praises Australia's universal health care after Obamacare repeal 	 2017-05-05 10:20:59 	  	0
 Psychotic manifestations in brain tumour patients: 2 case reports from South Africa 	 2017-05-05 10:52:42 	  	0
 Scope of Federal Probe into Fox News Broadens 	 2017-05-05 11:15:12 	  	0
 Republican Obamacare replacement bill passes House 	 2017-05-05 11:34:05 	  	0
 China says making air force drills more realistic 	 2017-05-05 11:52:24 	  	0
 31 seconds of the healthcare vote that shows why people hate politics 	 2017-05-05 12:10:04 	  	0
 More Details Emerge On Aaron Hernandez's Apparent Suicide 	 2017-05-05 12:23:55 	  	0
 In Rare Unity, Hospitals, Doctors and Insurers Criticize Health Bill 	 2017-05-05 12:44:07 	  	0
 Lake deputy fired for waving weapons, quoting Denzel Washington character in 'Training Day' 	 2017-05-05 13:11:09 	  	0
 North Korea claims US 'biochemical' plot to kill Kim Jong Un 	 2017-05-05 14:49:35 	  	0
 US military member killed in action in Somalia 	 2017-05-05 15:14:09 	  	0
 Military perplexed after Trump says soldiers couldn't get religious items 	 2017-05-05 15:25:41 	  	0
 CNN Special Report: Missing: Madeleine McCann - CNN Video 	 2017-05-05 15:36:27 	  	0
 Rep. Collins: I didn't read health care bill - CNN Video 	 2017-05-05 15:48:43 	  	0
 Mind-reading device invented by scientists to eavesdrop on 'inner voice' 	 2017-05-06 00:23:05 	  	0
 Penny For Your Thoughts? Japanese Scientists Unveil Mind-Reading Device 	 2017-05-06 04:30:36 	  	0
 Scientists have invented a mind-reading machine that visualises your thoughts 	 2017-05-06 04:59:15 	  	0
 MIT's 3-D Microwave Camera Can See Through Walls 	 2017-05-06 05:52:17 	  	0
 This camera can see through walls and could help driverless cars navigate fog 	 2017-05-06 06:05:59 	  	0
 N. Korea accuses CIA of plot to assassinate Kim Jong-Un 	 2017-05-06 07:09:08 	  	0
" Doctors warn Minnesota measles outbreak still ""early"" as cases increase "	 2017-05-06 07:18:03 	  	0
 Venezuela Is Starving 	 2017-05-06 07:29:24 	  	0
 FCC to Investigate Stephen Colbert Over Donald Trump Joke 	 2017-05-06 07:39:13 	  	0
 FCC to investigate, 'take appropriate action' on Colberts Trump rant 	 2017-05-06 09:03:36 	  	0
 Rand Paul is now accusing the Obama administration of spying on him 	 2017-05-06 09:14:58 	  	0
 Trump praises Australias universal health-care system: You have better health care than we do 	 2017-05-06 10:08:10 	  	0
 See Hubble's spectacular new view of galaxies far, far away 	 2017-05-06 10:23:10 	  	0
 Trump Spurns Congress as He Signals Medical Marijuana Fight 	 2017-05-06 10:34:39 	  	0
 NHL playoffs 2017: Scores, schedule, news and live updates 	 2017-05-06 10:49:00 	  	0
 Hackers take aim at French election, spread fake info 	 2017-05-06 11:05:56 	  	0
 Trump Army secretary nominee withdraws amid fierce opposition 	 2017-05-06 12:09:23 	  	0
 Abel Tasman Takes 1st in 2017 Kentucky Oaks, Gives Bob Baffert 3rd Career Win 	 2017-05-06 12:34:53 	  	0
 Deputy Helped Cover Up Bizarre Murder Plot, Sheriffs Office Says 	 2017-05-06 12:52:04 	  	0
 Scientists Warn: Deadly Ancient Pathogens Melting Out Of Ice In The Arctic Could Wipe Out Human Population 	 2017-05-06 13:08:09 	  	0
 Giant virus revived from ancient permafrost 	 2017-05-06 13:21:17 	  	0
 European XFEL: First light for worlds biggest X-ray laser 	 2017-05-06 13:39:19 	  	0
 India's top court upholds death sentences for fatal gang-rape 	 2017-05-06 13:50:59 	  	0
 'The least worst option': A divided France braces for vote 	 2017-05-06 14:13:47 	  	0
 New York AG: I'll sue if Senate passes ObamaCare repeal 	 2017-05-06 14:25:03 	  	0
 Former Trump aide calls Russia probe 'comically fake' 	 2017-05-06 14:38:08 	  	0
 Former Green Bay Packers tight end Tom Crabtree trolls Jay Cutler in the best way 	 2017-05-06 14:53:44 	  	0
 Should We Worry about Ancient Pathogens being Revived? 	 2017-05-06 15:05:23 	  	0
 How hotel soap can save lives 	 2017-05-06 16:10:42 	  	0
 Celebs who have been body-shamed 	 2017-05-06 16:22:11 	  	0
 See Mark Hamill prank 'Star Wars' superfans - CNN Video 	 2017-05-06 16:33:55 	  	0
 FCC Considers Fining Stephen Colbert Over Controversial Trump Joke 	 2017-05-07 05:25:12 	  	0
 Scientists show they can read your mind using brain scans 	 2017-05-07 09:51:43 	  	0
 We know what youre thinking: Scientists find a way to read minds 	 2017-05-07 10:13:26 	  	0
 Scientists Can Read Minds with Brain Scans 	 2017-05-07 10:26:14 	  	0
 Peru to give visas to thousands of crisis-weary Venezuelans 	 2017-05-07 11:43:17 	  	0
 Medical studies are almost always bogus 	 2017-05-07 12:04:21 	  	0
 Fight Brews Over Push to Shield Americans in Warrantless Surveillance 	 2017-05-07 12:16:09 	  	0
 NHL playoffs: Senators lead series after thrilling OT win over Rangers; Caps alive 	 2017-05-07 12:30:10 	  	0
 Navy identifies SEAL killed in raid in Somalia 	 2017-05-07 12:43:12 	  	0
 IS attacks US advisers' Iraq base 	 2017-05-07 12:55:13 	  	0
 Kentucky Derby: Always Dreaming wins over muddy track at Churchill Downs as favorite 	 2017-05-07 13:36:08 	  	0
 An Epidemic of False Claims 	 2017-05-07 13:59:29 	  	0
 200 Indonesian inmates still at large after fleeing overcrowded prison 	 2017-05-07 14:31:54 	  	0
 AP FACT CHECK: Squishy claims follow health care bill 	 2017-05-07 14:53:06 	  	0
 Trump Blasts Fake News Coverage Of House Obamacare Repeal Bill 	 2017-05-07 15:43:39 	  	0
 'Huge, huge, huge error': Warren Buffett on Wells Fargo's handling of ethics line calls 	 2017-05-07 16:08:28 	  	0
 Miners at disaster site besiege Iranian president's car 	 2017-05-07 23:23:33 	  	0
 How Cloning Works 	 2017-05-07 23:58:25 	  	0
 The Science Of Human Cloning 	 2017-05-08 00:20:04 	  	0
 Nanotechnology 	 2017-05-08 00:31:01 	  	0
 How Nanotechnology Works 	 2017-05-08 00:42:19 	  	0
 Cloning 	 2017-05-08 03:15:43 	  	0
 Federal Judge Declares Constitution Void, Threatens Civil Defendant With Death 	 2017-05-08 03:27:09 	  	0
 Backlash against Trumpcare erupts across heartland 	 2017-05-08 03:45:54 	  	0
 Medical studies are almost always bogus 	 2017-05-08 04:45:03 	  	0
 Earnhardt Jr. explains why he doesnt carry a wallet 	 2017-05-08 05:04:36 	  	0
 European XFEL: First light for worlds biggest X-ray laser 	 2017-05-08 05:14:50 	  	0
" Iran Threatens To Destroy Saudi Arabia After Saudi Prince Warns Of ""Moving Battle To Iran"" "	 2017-05-08 09:35:17 	  	0
 Iran minister warns Saudi Arabia after 'battle' comments 	 2017-05-08 10:01:36 	  	0
 Another Arctic ice panic over as world temperatures plummet 	 2017-05-08 10:17:04 	  	0
 As some Republicans rush to defend House health bill, Senate GOP warily pauses 	 2017-05-08 10:37:48 	  	0
 Wait over: Canelo, Triple G eager for September megafight 	 2017-05-08 11:12:15 	  	0
 Trump Weighing 95 Percent Cut to Drug Office, Chief Warns 	 2017-05-08 11:23:20 	  	0
 Wizards use 26-0 run to rout Celtics in Game 4, tie series 	 2017-05-08 11:34:33 	  	0
 Pakistan claims it killed 50 Afghan border troops 	 2017-05-08 11:44:43 	  	0
 2017 MTV Movie   TV Awards: Winners and Highlights 	 2017-05-08 11:56:14 	  	0
 Iran minister warns Saudi Arabia after 'battle' comments 	 2017-05-08 12:08:56 	  	0
 Five senators to watch in healthcare fight 	 2017-05-08 12:20:14 	  	0
 Sally Yates is set to give bombshell testimony about Michael Flynn and Russia  here's what to expect 	 2017-05-08 12:32:04 	  	0
 2017 MTV Movie   TV Awards: Winners and Highlights 	 2017-05-08 12:46:26 	  	0
 San Diego police killed boy, 15, in school parking lot 	 2017-05-08 13:16:52 	  	0
 Harden, Rockets rout Spurs 125-104 to tie series 	 2017-05-08 13:32:47 	  	0
 Harvey reportedly filing grievance with Mets over suspension 	 2017-05-08 13:49:46 	  	0
 Sources: Yates to contradict WH about Flynn - CNN Video 	 2017-05-08 14:02:19 	  	0
 Trump travel ban challenge in court Monday 	 2017-05-08 14:14:19 	  	0
 European XFEL: First light for worlds biggest X-ray laser 	 2017-05-08 22:04:36 	  	0
 Can A Brain Computer Interface Convert Your Thoughts to Text? 	 2017-05-08 22:19:01 	  	0
 The new bookstore bringing magic to Brooklyn 	 2017-05-08 22:31:55 	  	0
 Warriors owner reveals Kerr underwent spinal cord leak procedure 	 2017-05-08 22:43:24 	  	0
 Texas Governor Signs Toughest Sanctuary City Law in U.S.A. 	 2017-05-08 22:56:49 	  	0
 Trump administration defends travel ban in appeals court 	 2017-05-08 23:09:47 	  	0
 EPA dismisses half of its scientific advisers on key board, citing 'clean break' with Obama administration 	 2017-05-08 23:49:37 	  	0
 Sally Yates: Trump aide told Flynn blackmail risk 	 2017-05-09 05:19:48 	  	0
 Irish beach reappears 33 years after vanishing into Atlantic Ocean 	 2017-05-09 09:24:04 	  	0
 Senate Republicans Are Writing a New Health Care Bill. But What Will Be Different? 	 2017-05-09 09:50:18 	  	0
 Attorneys: Giant rabbit may have died while locked in freezer after United flight 	 2017-05-09 11:05:24 	  	0
 ACLU seeks documents on planning of Yemen raid that killed Navy SEAL 	 2017-05-09 11:22:20 	  	0
 Anonymous warns world to prepare for World War 3 	 2017-05-09 11:37:57 	  	0
 Trump Insists Long-Awaited Testimony By Yates And Clapper Was 'Old News' 	 2017-05-09 12:07:53 	  	0
 South Korea Votes After Scandal Jails Ex-President 	 2017-05-09 12:29:45 	  	0
 25 SHOCKING Rumors That Are Actually True 	 2017-05-09 13:51:43 	  	0
 The five fights Republicans will have on health care 	 2017-05-09 15:10:43 	  	0
 Chris Pratt apologizes for Instagram post 	 2017-05-09 15:42:04 	  	0
 Congressman walks out of interview 	 2017-05-09 15:57:26 	  	0
 Yates, Cruz spar over Trump's travel ban 	 2017-05-09 16:09:33 	  	0
 MLB Prospect Casey Thomas' Gym Rat Heart, Cool West Coast Vibe Lost at Just 24 	 2017-05-09 16:22:21 	  	0
 Judges appear divided on Trump's travel ban 	 2017-05-10 00:35:08 	  	0
 South Korea Elects Moon Jae-in, Who Backs Talks With North, as President 	 2017-05-10 00:44:47 	  	0
 President Trump fires FBI Director James Comey 	 2017-05-10 01:02:15 	  	0
 CERN launches new accelerator to help boost data output 	 2017-05-10 09:10:01 	  	0
 Democrats stumble into abortion rift 	 2017-05-10 09:22:15 	  	0
 Pentagon says it will arm Syrian Kurds, despite Turkey's objections 	 2017-05-10 10:00:50 	  	0
 Wendy's gives teen free nuggets after Twitter plea sets record 	 2017-05-10 10:30:27 	  	0
 American Idol: ABC Confirms Plan to Revive Talent Competition Series 	 2017-05-10 10:42:13 	  	0
 Seattle mayor drops re-election bid after sex abuse claims 	 2017-05-10 10:58:36 	  	0
 7 Things You Never Knew About Dunkin' Donuts, Straight From an Employee 	 2017-05-10 11:12:41 	  	0
 EXCLUSIVE: Abby Lee Miller Feels 'Relieved, Peaceful' After Prison Sentencing, Reveals What's Next 	 2017-05-10 11:25:15 	  	0
 South Korea Elects Moon Jae-in, Who Backs Talks With North, as President 	 2017-05-10 11:45:34 	  	0
 So About That Hyped New Study On Cheese Being Great 	 2017-05-10 11:57:46 	  	0
 Texas mom wakes up from surgery with a British accent 	 2017-05-10 12:10:20 	  	0
 Woman changes accent in medical mystery 	 2017-05-10 13:09:09 	  	0
 Comey firing troubles top Republican lawmakers 	 2017-05-10 13:41:30 	  	0
 Senators show signs of support for more troops in Afghanistan 	 2017-05-10 13:53:09 	  	0
 The surprising benefits of talking to yourself 	 2017-05-10 14:27:20 	  	0
