title	date	text	class
" Search results for ""cancel service"" on Comcast website "	 2014-07-17 20:04:17 	  	0
   	 2014-07-17 20:12:00 	" Yeah that's true, but they don't even give that option when you search.  This what I got when I searched AT T http://imgur.com/Gdwvc2F
 "	0
   	 2014-07-17 23:19:12 	 Well I'll be calling them on Saturday to cancel.  I plan on recording it just to see what hoops they make me jump through.  AT T U-verse here I come!  current Comcast bill $245, U-Verse for 2 years at $120(more channels and faster internet) 	0
   	 2014-07-17 23:32:49 	 Thanks for sharing the positive experience.  I just hope that after the recent media about the experience that guy had it will be at least a little easier for people to cancel if they want to.  	0
   	 2014-07-17 23:37:57 	 Thanks for the feedback.  Yeah, I made sure that it's 24 months at the price, no contract.  I have a few friends over there that took care of me so I'm not worried.  I'm just looking forward to a service that is up to date in the decade.  Comcast hasn't change their shitty UI in like 10+ years. 	0
   	 2014-07-18 09:11:43 	 So odd, I did it again with the same search words still nothing about canceling service, but I did get some other search results. 	0
 What do you get when you cross a bad marketing idea with a classic childhood candy? 	 2014-07-21 18:03:34 	  	0
 Push For Pizza, The Easiest Way To Order Pizza Ever. 	 2014-08-05 20:51:45 	  	0
   	 2014-08-06 23:03:21 	" That's a Lyft car.  https://www.lyft.com/
 "	0
 Make An L.E.D Illusion Mirror! 	 2014-08-12 18:35:31 	  	0
 This Nifty Tool Helps You Create Nutella-Stuffed Bananas 	 2014-08-13 19:06:30 	  	0
   	 2014-08-13 20:49:26 	" So I was expecting this to happen to me yesterday when I called to cancel....but I was very surprised as to what happened.

I was able to get a live person within about 1 minute into the call.  The service rep was very nice and asked how she could help me.  I said that I would like to cancel my service.  She then asked me if what the reason was....here is where I learned a little trick comes into play.  I said that I'm moving out of the country.  Service rep then said thats great hope things work out for you.  She did then ask if someone else is moving in that would like to keep the service.  I said that it's an apartment and I'm not sure who is moving in.  After that it was all smooth sailing for me.  She even offered to send me boxes to ship back my equipment , which are arriving tomorrow.  The phone call lasted less then 5 minutes and my service is disconnected.

I know this not typical but I think the big take away here if you canceling just tell them your moving out of the country.  Not much they can do to keep you as a customer. "	0
 Ban Marissa Miller from the United Center - Chicago Blackhawks 	 2014-08-14 19:52:54 	  	0
   	 2014-08-14 19:55:10 	" Here is the full story why this started. http://espn.go.com/chicago/nhl/story/_/id/11350487/chicago-blackhawks-nix-stripper-online-petition-launched
 "	0
 Ad placement fail on CNN... 	 2014-08-18 20:28:22 	  	0
   	 2014-09-02 22:43:30 	 It's actually called Cloud Gate http://en.wikipedia.org/wiki/Cloud_Gate 	0
 When things just come together. 	 2014-09-04 18:26:10 	  	0
   	 2014-09-04 20:14:54 	 That's the Marina City building which was completed in 1964.  Great picture! 	0
   	 2014-09-05 00:46:53 	 original pic from NetGeo http://photography.nationalgeographic.com/photography/photo-of-the-day/chicago-rooftop-stanfield/  	0
   	 2014-09-16 00:28:44 	 Bikers out in California make driving a car dangerous.  They just passed a law saying that you have to give a biker 3 feet http://blog.sfgate.com/stienstra/2014/09/08/bikes-vs-cars-3-foot-rule-to-take-effect-with-a-twist/....when did road ways become bikeways?  Not to mention the amount of traffic laws bikers break and then blame car drivers when they get hit.  I'm all for people riding bikes but maybe you shouldn't do it where cars drive.    	0
   	 2014-09-16 00:31:48 	 Please explain to me why it's the cab drivers fault when it was the passenger that opened the door? 	0
   	 2014-09-16 00:49:41 	" You do realize that song has been around longer then Reddit?  That whole thing about ""what song it this?.....Darude - Sandstorm"" also was started before Reddit was even around. "	0
 Fantasy Football Hell - What happens when guys with nothing more in life play. 	 2014-09-18 18:56:04 	  	0
 Why UPS drivers don't make left turns 	 2014-09-30 23:01:27 	  	0
   	 2014-09-30 23:04:49 	 MythBusters puts it to the test http://www.discovery.com/tv-shows/mythbusters/videos/right-turn-only-minimyth.htm 	0
   	 2014-10-03 22:40:48 	 expect for the fact you would get a day off to vote... 	0
 Scroguard: A Scrotal Condom For The Common Man 	 2014-10-03 23:05:21 	  	0
   	 2014-10-08 22:50:25 	" it's crazy that something like this just happen yesterday.  http://www.nbcbayarea.com/news/local/Cal-Fire-Update-California-Pilot-Dies-in-Crash-Fighting-Yosemite-Wildfire-278521931.html
 "	0
   	 2014-10-09 19:55:54 	 It's great to see people getting out of their comfort zone and just letting go! 	0
 National Anthem at the Madhouse on Madison. In honor of service men   women, the start of the NHL season, and the Chicago Blackhawks! 	 2014-10-09 19:57:30 	  	0
 Bugatti Veyron Driver Fail 	 2014-10-09 21:36:42 	  	0
   	 2014-10-09 21:43:58 	" Production 	
    20052011 (Veyron 16.4)
    2009present (Grand Sport)
    2010present (Super Sport)
http://en.wikipedia.org/wiki/Bugatti_Veyron "	0
   	 2014-10-09 21:46:05 	 The video is not older then 2005... 	0
   	 2014-10-09 21:51:48 	" sarcasm
[sahr-kaz-uh m]

noun
1. harsh or bitter derision or irony.
2.a sharply ironical taunt; sneering or cutting remark:
a review full of sarcasms.

So now what?
 "	0
   	 2014-10-09 21:53:54 	 and your that other guy....so we are just both that guy. 	0
   	 2014-10-09 21:59:10 	" Here is the full video of them pulling the car out of the water.

http://youtu.be/CdU-e1-FGuI?t=1m50s
 "	0
 How Netflix announced all 10 seasons of Friends being released. 	 2014-10-15 20:54:20 	  	0
   	 2014-10-15 23:06:50 	 Looks like this release is only US and Canada.  I didn't see any other information on the Netflix press release. 	0
   	 2014-10-16 01:03:19 	 haha...good find. 	0
   	 2014-10-24 19:20:08 	 Well done! 	0
   	 2014-11-03 22:01:28 	 Looks like some shit their pants.... 	0
 Fox News Red Eye host Joanne Nosuchinsky might be looking for a sugar daddy... 	 2014-11-12 16:53:13 	  	0
 Guilty or Innocent eyes? Either way this is my little guy Felix! 	 2014-11-20 23:19:19 	  	0
   	 2014-11-21 19:47:31 	 You are lucky that you get 2ply at work! 	0
 It's good to know my chocolate was not made using any slaves. 	 2015-01-05 22:18:34 	  	0
   	 2015-01-16 00:15:46 	 I read somewhere that NFL will be calling it Super Bowl 50, instead of using the roman numeral. 	0
   	 2015-02-04 19:40:15 	 Did anyone else notice the Ricketts sign in the background?  I think this could be the year! 	0
 The Felix Hill Show! 	 2015-02-25 20:42:25 	  	0
 The Felix(Boston Terrier) Hill Show! 	 2015-02-25 20:43:17 	  	0
   	 2015-02-26 19:59:15 	 yeah he has really bad allergies.  We have tried everything, right now the vet gave some kind of spray that seems to help but doesn't last long.  Poor guy.... 	0
   	 2015-02-27 19:24:40 	" This place was on an episode of The Profit on CNBC.  http://www.cnbc.com/live-tv/the-profit/full-episode/artistic-stitch/345882691507
 "	0
   	 2015-02-27 21:51:03 	 Oh nice, I'll have to watch it.  It looks like they changed everything back from what they implemented in the episode.  Marcus must have gone off the rails!  	0
   	 2015-03-10 21:29:14 	 Back in the day they use to bolt the TV down. 	0
 Do you wanna do some blow, man? Frozen Parody 	 2015-03-25 19:11:42 	  	0
   	 2015-03-26 17:50:32 	 That is way better! 	0
   	 2015-03-31 19:32:33 	 I don't understand why it's not required for cops to get a psych evaluation at the very least every few years that they are on the job. 	0
 BoJack Horseman Netflix Binge Responsibly 2015 	 2015-04-01 20:03:26 	  	0
 Orange Is The New Black - Binge Responsibly with Taylor Schilling a.k.a. Piper Chapman 	 2015-04-01 20:04:05 	  	0
 Orange Is The New Black - Binge Responsibly with Selenis Leyva a.k.a. Gloria 	 2015-04-01 20:05:43 	  	0
   	 2015-04-08 21:53:58 	 @amishpatel  This will be my first Coachella! 	0
 Epic NHL goal celebration hack with a hue light show and real time machine learning 	 2015-04-23 20:32:11 	  	0
 ToyotaUSA Instagram ad today...interesting location and picture. 	 2015-04-23 20:51:12 	  	0
   	 2015-04-23 20:54:12 	 Here is some context if you don't know what's going on in Chile right now... http://www.cnn.com/2015/04/23/americas/chile-volcano/index.html 	0
   	 2015-04-24 18:38:26 	 Great use of time for our government....I'm not against the honoring of those lost, but is that right forum to do so. 	0
   	 2015-05-05 00:49:51 	 Pretty sure that's how jet engines kind of work. 	0
   	 2015-05-06 18:41:29 	 We need less people like you to open your month and more people like the ones in this video.  Society can only succeed when we work as one and help each other.  	0
   	 2015-05-07 21:41:55 	 I agree but the message was strong and worth sharing. 	0
   	 2015-05-08 17:57:03 	 And then do that for American Police....smh http://imgur.com/sIKEG05 	0
   	 2015-05-08 22:11:46 	 come to California and tell me there isn't a problem with the climate...  	0
   	 2015-05-08 22:24:40 	 I love these old commercials, things are to serious now. 	0
   	 2015-05-08 22:44:17 	 I think that's pretty awesome.  Did they saying anything to you guys for doing that?  It looks like a Southwest flight. 	0
   	 2015-05-14 21:53:31 	 I live in the Bay Area and this happens everyday...I hate the drivers out here! 	0
 DRUNK guy gets TACKLED by a Coach (HIT HARD!) 	 2015-05-27 21:49:24 	  	0
   	 2015-06-05 18:29:59 	" You don't ""have to"" do that, you choose to do that. "	0
   	 2015-06-08 18:40:48 	 Your title doesn't make sense. Being Muslim isn't a cult, that is the type of ignorance that causes the problems we have. 	0
   	 2015-06-11 23:29:21 	" Beliefs of Muslims

Islam teaches the importance of both belief and practice; one is insufficient without the other (except for some Sufis). The following six beliefs are those that are commonly held by Muslims, as laid out in the Quran and hadith.


    Belief in the Oneness of God: Muslims believe that God is the creator of all things, and that God is all-powerful and all-knowing. God has no offspring, no race, no gender, no body, and is unaffected by the characteristics of human life.

    Belief in the Angels of God: Muslims believe in angels, unseen beings who worship God and carry out God's orders throughout the universe. The angel Gabriel brought the divine revelation to the prophets.

    Belief in the Books of God: Muslims believe that God revealed holy books or scriptures to a number of God's messengers. These include the Quran (given to Muhammad), the Torah (given to Moses), the Gospel (given to Jesus), the Psalms (given to David), and the Scrolls (given to Abraham). Muslims believe that these earlier scriptures in their original form were divinely revealed, but that only the Quran remains as it was first revealed to the prophet Muhammad.

    Belief in the Prophets or Messengers of God: Muslims believe that God's guidance has been revealed to humankind through specially appointed messengers, or prophets, throughout history, beginning with the first man, Adam, who is considered the first prophet. Twenty-five of these prophets are mentioned by name in the Quran, including Noah, Abraham, Moses, and Jesus. Muslims believe that Muhammad is the last in this line of prophets, sent for all humankind with the message of Islam.

    Belief in the Day of Judgment: Muslims believe that on the Day of Judgment, humans will be judged for their actions in this life; those who followed God's guidance will be rewarded with paradise; those who rejected God's guidance will be punished with hell.

    Belief in the Divine Decree: This article of faith addresses the question of God's will. It can be expressed as the belief that everything is governed by divine decree, namely that whatever happens in one's life is preordained, and that believers should respond to the good or bad that befalls them with thankfulness or patience. This concept does not negate the concept of ""free will;"" since humans do not have prior knowledge of God's decree, they do have freedom of choice.



FYI I'm not even Muslim but have many friends that are.  That being said you are free to believe whatever you want.  I just don't appreciate people spreading ignorance on subjects that you do not completely understand.  If you don't understand something it's ok to take the time to either learn about it, you may still end up feeling the same but don't miss some of the major facts.
 "	0
   	 2015-06-11 23:35:07 	 There are extremist in every religion.  Just take Christian extremists Ku Klux Klan, Lords Resistance Army, National Liberation Front of Tripura and the Catholic Reaction Force/Protestant Action Force.  That doesn't make all Christians part of a cult. 	0
 Katie Nolan Beer Mile 	 2015-06-17 23:23:36 	  	0
   	 2015-06-23 23:56:20 	 https://cdn.liveleak.com/80281E/ll_a_s/2015/Jun/23/LiveLeak-dot-com-c79_1435089208-LiveLeak-dot-com-706_1435083422-drone_14_1435089240.jpg?d5e8cc8eccfb6039332f41f6249e92b06c91b4db65f5e99818bdd4934d4dd3d434c8 ec_rate=230 	0
   	 2015-06-30 00:16:37 	 Thanks Kanye for proving once again you can't sing without the help of technology.  I guess at the end you still win cause your laughing all the way to bank regardless of your lack of talent. 	0
   	 2015-06-30 00:24:40 	 I'd leave the part out where you also commit a traffic violation first if you submit this video as evidence. 	0
   	 2015-06-30 18:07:22 	 You can't drive in the middle lane when their are 2 yellow lines.  That middle lane is for turning only.  The left turn lane starts when you see the white line.  I recently got a warning from a cop for doing the same thing because the traffic was backed up just like it was on this video. 	0
   	 2015-06-30 18:13:26 	 What kind of drugs were used in the making of this shit. 	0
   	 2015-07-15 23:41:48 	 you need a banana for scale 	0
   	 2015-07-16 22:58:03 	 yes, please do it....I mean we need some proof that this is BS. 	0
   	 2015-07-17 20:52:30 	 Care to explain just the basics of how its done? 	0
   	 2015-07-17 22:24:01 	 Thanks for that, that explains how you know where in the deck the card is.  Armstrong does have a good delivery of the trick though. 	0
   	 2015-07-20 19:45:31 	 The dad is very calm when his kid gets knocked out...almost like this happens often. 	0
   	 2015-07-29 22:18:20 	 I don't have statistics on this but I would think the most break ins happen when the people aren't home. 	0
   	 2015-08-27 19:18:58 	 If you are so scared then why the hell are you still standing there and recording...smh. 	0
   	 2015-12-11 21:50:35 	" regarding his ""self funding""

http://www.businessinsider.com/donald-trump-october-campaign-finance-report "	0
   	 2015-12-11 21:53:51 	" You are generalizing all Muslims...which is the problem.

That's like saying if the KKK represent all Christians, they are extremist Christians.  That all Christians hate black people. "	0
   	 2015-12-11 22:00:39 	 http://www.alternet.org/tea-party-and-right/10-worst-terror-attacks-extreme-christians-and-far-right-white-men 	0
   	 2016-02-18 23:54:22 	" Interesting, I grew up in the suburbs of Chicago and we had an 8 mile road with the same story.  It would scare the crap out of me but we kept going to see the lady, which we never did.

Correction it was Cuba Road, but same story. "	0
 Gluten Free Chocolate Chip Cookies 	 2016-05-03 20:56:58 	  	0
 Gluten Free Chocolate Chip Cookies 	 2016-05-03 21:07:32 	  	0
   	 2016-05-03 21:36:57 	 I agree to a point, I don't think you should eliminate gluten completely.  I do believe that some people truly have issues with processing high amounts. 	0
   	 2016-05-04 23:29:04 	 If that's the case it should stayed in Oakland seeing that is the hub for Northern California.  Not every package routes back through Memphis, TN.  	0
 Matcha Avocado Ice Cream 	 2016-05-10 21:55:47 	  	0
 Matcha Avocado Ice Cream 	 2016-05-10 21:56:21 	  	0
 Making Dating Great Again! - Dating site for douchebags 	 2016-06-16 21:45:29 	  	0
   	 2016-06-29 21:31:44 	 is that Buckingham Fountain in Chicago? 	0
 Afternoon nap with Felix 	 2016-07-29 19:11:42 	  	0
   	 2016-08-19 20:25:20 	 Ah man I miss downtown Chicago, I believe that's by the financial district. La Salle And Monroe? 	0
 A Police Officer Challenges A Disabled Veteran For Legally Parking In A Handicapped Spot. 	 2016-09-13 01:03:11 	  	0
   	 2016-09-27 22:28:41 	 You are not just voting for President in elections.  More importantly your voting for your local and state officials who actually effect you more. So just because the electoral system is out dated it shouldn't stop you from voting. 	0
   	 2017-01-05 23:32:55 	 That's the most realistic suggestion.  I just recently started eating better.  Nothing extreme just simply watching what I eat and being mindful of how much I consume.  In only 2 1/2 weeks I've lost 10 pounds and feel 100% better.  As the eating part becomes more of habit I'll starting getting back into the gym.  The key is just start simple and stay consistent.  	0
 [Homemade] Chicken Marsala with prosciutto 	 2017-04-20 20:04:26 	  	0
   	 2017-04-20 20:08:29 	" 4 skinless, boneless, chicken breasts (about 1 1/2 pounds)
All-purpose flour, for dredging
Kosher salt and freshly ground black pepper
1/4 cup extra-virgin olive oil
4 ounces prosciutto, thinly sliced
8 ounces crimini or porcini mushrooms, stemmed and halved
1/2 cup sweet Marsala wine
1/2 cup chicken stock
2 tablespoon unsalted butter
1/4 cup chopped flat-leaf parsley

Directions

Put the chicken breasts side by side on a cutting board and lay a piece of plastic wrap over them; pound with a flat meat mallet, until they are about 1/4-inch thick. Put some flour in a shallow platter and season with a fair amount of salt and pepper; mix with a fork to distribute evenly.

Heat the oil over medium-high flame in a large skillet. When the oil is nice and hot, dredge both sides of the chicken cutlets in the seasoned flour, shaking off the excess. Slip the cutlets into the pan and fry for 5 minutes on each side until golden, turning once  do this in batches if the pieces don't fit comfortably in the pan. Remove the chicken to a large platter in a single layer to keep warm.

Lower the heat to medium and add the prosciutto to the drippings in the pan, saute for 1 minute to render out some of the fat. Now, add the mushrooms and saute until they are nicely browned and their moisture has evaporated, about 5 minutes; season with salt and pepper. Pour the Marsala in the pan and boil down for a few seconds to cook out the alcohol. Add the chicken stock and simmer for a minute to reduce the sauce slightly. Stir in the butter and return the chicken to the pan; simmer gently for 1 minute to heat the chicken through. Season with salt and pepper and garnish with chopped parsley before serving. "	0
 Felix catching some sunshine over the weekend. 	 2017-04-24 18:37:09 	  	0
 [Homemade] Enchiladas with Spanish rice and black beans 	 2017-05-09 20:30:18 	  	0
 Comfortably numb 	 2017-05-09 20:37:01 	  	0
   	 2017-05-09 20:42:10 	 lol, Mexican Coke is the best you must try it! 	0
   	 2017-05-09 23:21:31 	" http://www.foodnetwork.com/recipes/ree-drummond/simple-perfect-enchiladas-recipe0

It's a messy process but well worth it.  I doubled up on the meat. "	0
   	 2017-05-10 00:14:32 	 I did forget the chips and ranchera, but next time I'll have it on the table!  The rice is Basmati. 	0
   	 2017-05-10 00:23:06 	 Yeah he (Felix) is ok, just battling bad allergies so he's a little worn out.  	0
   	 2017-05-10 01:56:20 	 It was National Have a Coke Day, so I just went with it. Lol 	0
   	 2017-05-10 03:24:55 	 The enchiladas make up for the subpar sides, although they weren't terrible.  I had never made enchiladas so that was my focus. 	0
   	 2017-05-10 03:47:15 	 Hmm good question! 	0
