title	date	text	class
   	 2014-03-14 05:04:43 	 He's my idol! I'm jealous. 	0
   	 2017-01-04 04:00:11 	 The WORST!!! 	0
   	 2017-02-21 06:53:22 	 May 30 	0
   	 2017-02-27 02:57:28 	 Where is that?? I need it. 	0
   	 2017-02-27 04:28:27 	  	0
   	 2017-02-27 15:43:53 	 It was juuuust right. The donut was way softer than a bun so it wasn't as filling as you'd expect. The Luther from Crave Burger was much sweeter. This was more savory than anything. 	0
   	 2017-02-27 15:49:21 	  	0
   	 2017-02-27 15:50:09 	  	0
 [Homemade] Apple Pie Tacos, made with a fried cinnamon sugar tortilla 	 2017-03-03 22:00:17 	  	0
" [I Ate] ""The Luther"". A pound of beef, bacon, cheese, egg, peanut butter and GLAZED DONUTS for buns! Perfect mix of sweet   savory. "	 2017-03-04 02:16:30 	  	0
   	 2017-03-04 03:42:28 	 https://youtu.be/dI3i60jss4I 	0
   	 2017-03-04 03:42:42 	 https://youtu.be/dI3i60jss4I 	0
 [I Ate] BBQ pulled pork Burger with a sunny side up egg. 	 2017-03-04 03:45:51 	  	0
   	 2017-03-04 05:31:55 	 I just fried it a little in vegetable oil. And as soon as i pulled them out, sprinkled them with cinnamon sugar. The powered sugar and homemade whipped cream made it perfectly sweet. 	0
 [I Ate] Hawaiian pancakes with bananas, peanut butter and coconut syrup. 	 2017-03-04 05:34:49 	  	0
   	 2017-03-04 05:36:11 	 I mistyped in the title. It was actually Hawaiian bread French toast. 	0
   	 2017-03-04 06:23:40 	 Unfortunately no. It's at the Bread Crumb Ohana Cafe in Huntington Beach, CA. 	0
   	 2017-03-04 06:23:52 	 Totally, had them on the side. 	0
   	 2017-03-04 06:25:17 	 Oh yea, fork and knife all the way. There's no way it would keep its form. 	0
 [I Ate] Peanut Butter and Jealousy... 2/3lb 50/50 patty. Half beef, half bacon. Peanut butter, jelly, bacon.......and a fried egg. 	 2017-03-04 06:27:58 	  	0
   	 2017-03-04 06:37:20 	 You know it! In Huntington. 	0
   	 2017-03-04 06:37:47 	 Slaters 50/50. Google it. They're magnificent. 	0
   	 2017-03-04 06:37:47 	 Slaters 50/50. Google it. They're magnificent. 	0
   	 2017-03-04 12:00:34 	 Amazing!!! We had just back from Hawaii a few weeks earlier, so it brought us right back. Their Portuguese sausage was amazing too. 	0
   	 2017-03-04 16:34:22 	 Not sure, I've grown up with eggs on my burgers, preference I've always enjoyed.  	0
   	 2017-03-04 16:35:53 	" Looks incredible! It the words of Louis CK, ""I want that fat faggot treat in my mouth!"" Great work! "	0
   	 2017-03-04 16:38:46 	 Grape jelly  	0
 [Homemade] 32 ounce Ribeye, panned seared in extra virgin olive oil, butter, salt and better. 	 2017-03-04 16:44:45 	  	0
   	 2017-03-04 16:47:37 	 An easy technique to make true mcgriddle pancakes is freeze on parchment paper, small drops of syrup. You can mix that into your pancake battle to have little sweet explosions when you eat. They keep their form in the pancake. 	0
 [I Ate] a Hawaiian Burger. 1/3lb 50/50 patty of bacon and beef, teriyaki sauce, pineapple, spam, egg and cheese. Perfect with a side of sweet potato fries and sweet pumpkin dipping sauce. 	 2017-03-04 20:52:29 	  	0
   	 2017-03-04 22:24:33 	 Slater's. 50/50. This was the one in Pasadena, CA. But there's also another one in Huntington Beach. 	0
   	 2017-03-04 22:25:15 	 Had to cut it for the kids. Bought 2 more for the wifey and I. 	0
 [I Ate] Chocolate chip French toast with whipped cream, peanut butter, bananas and powdered sugar. Topped with more chocolate chips. 	 2017-03-05 02:42:13 	  	0
   	 2017-03-05 03:17:55 	 Pretty much, it's just called The Hawaiian. 	0
   	 2017-03-05 05:39:30 	 Yes it was! Good eye! 	0
 [I Ate] The bacon brownie, a la mode. 	 2017-03-05 05:43:54 	  	0
   	 2017-03-08 12:53:33 	 I laughed too hard at this. 	0
   	 2017-03-14 07:53:49 	" I'm waiting for a reporter just to get up and walk out in protest to the blatant bullshit from this administration. All the lies and diversions. I want one of them to stand up and ask, ""do you really believe all the bullshit spewing from that cock hole in your head?"" "	0
   	 2017-03-29 05:03:54 	 Where is the outrage!?!?!? #ZombieLivesMatter 	0
   	 2017-04-06 00:20:11 	 While that looks amazing, am I the only one to notice those are strawberry??? 	0
 [I Ate] a Fatty Melt...... bacon cheese burger, tomato, pickles, sunny side up egg and peanut butter IN BETWEEN two grilled cheese sandwiches... 	 2017-05-07 18:07:49 	  	0
" [I Ate] a 2"" thick Cowboy Ribeye.... "	 2017-05-07 18:11:46 	  	0
 [I Ate] a perfect 24oz Ribeye with a bakes sweet potato, Carmel sauce, marsh mellows and cinnamon sugar. 	 2017-05-10 06:09:37 	  	0
