title	date	text	class
   	 2015-05-17 07:15:50 	 bless your soul 	0
   	 2015-06-04 11:16:36 	 bless your soul 	0
 Fishing power/level query 	 2015-06-27 15:22:48 	" I've been playing Terraria for a bit (only 313 hours) and I've gone fishing but have only ever used bait and the Sitting Duck's Fishing Pole. I'm trying to catch the Scaly Truffle which summons the Pigron mount and am wondering if my Angler armour will help increase my chances of catching the Truffle. I was just wondering if fishing LEVEL is the same thing as fishing POWER. The tool tip for fishing poles have 'x% fishing power' while the Angler armour just states it 'increases fishing level'. Any help regarding this would be greatly appreciated :)

 "	0
   	 2015-06-28 05:21:23 	 ahh thanks for clarifying :) 	0
 Game, water you doing? 	 2015-07-21 05:41:02 	" http://imgur.com/a/Xbz7f

No events occurring (bloodmoon, solar eclipse, etc.), nothing dyed, not near crimson (on a corrupted world) but my water seems to turn red when I move to a certain position. Anyone have any idea how this is happening? "	0
   	 2015-07-21 05:56:16 	 just dug my crimson fountain up and its normal. pretty weird didn't know it did that to water even from a distance. thanks for that 	0
   	 2015-07-21 05:57:39 	 Nope, I'm on a corrupted world. /u/Ktesedale solved it anyway :) 	0
   	 2015-07-21 05:58:46 	 Oh it's solved thanks to /u/Ktesedale. Turns out the blood water fountain turns the water red even placed from a distance 	0
   	 2015-08-15 16:07:15 	 Bless you 	0
 Sera Ryu Dancing In The Moonlight 	 2015-08-16 06:57:39 	  	0
   	 2015-08-16 06:59:46 	" Bonus: http://gfycat.com/BlankPessimisticAlbino | http://gfycat.com/FrailPeriodicGuanaco

Source: https://www.youtube.com/watch?v=q17BouEqgWs "	0
 Happy Birthday Eunji 3 	 2015-08-18 02:20:36 	  	0
   	 2015-09-04 07:59:36 	 I'm so glad somebody recorded this hahaha 	0
 Startled Eunji 	 2015-10-04 12:58:09 	  	0
   	 2015-10-05 04:36:14 	 ooooooooops forgot source sorry. thanks for helping me out B1anky. just woke up hahah 	0
 Early HBD Suzy! Glad to share my birthday with you (not so humble brag) 	 2015-10-09 16:31:13 	  	0
   	 2015-10-30 14:23:20 	" the guy table 8)
 "	0
 Suzy - Together In Love MV 	 2015-11-27 16:18:56 	  	0
   	 2015-11-27 16:19:39 	 Source: https://www.youtube.com/watch?v=Ewkhc4iNuSA 	0
   	 2015-12-01 09:28:38 	 nice touch with the giant candy cane 	0
 A penguin can step on meteorite but I can't without burning alive  	 2015-12-08 02:55:08 	  	0
   	 2015-12-08 03:50:01 	" not entirely sure. guess we can find out :)
 "	0
   	 2015-12-08 03:52:19 	 just tried it and the penguin was absolutely fine. was about to screen capture but the penguin walked straight into lava RIP 	0
   	 2015-12-08 15:56:52 	" in this picture i'm wearing full vortex armour with martian dye. the cosmetics im using is king slime mask and parts of jim's armour+wings, holding a horseshoe balloon and wisp in a bottle (both living rainbow dye), frostpark boots, celestial shell, worm scarf and a master ninja gear. sorry for the lack of punctuation; im simply too lazy. 
if you found that tough to follow here's a screenshot of my equips: http://imgur.com/j72UqsG

(p.s. wisp in a bottle is from the dungeon post plantera. just keep farming monsters there and you'll get it eventually :) ) "	0
 Season's Greetings from Eunji 	 2015-12-10 16:36:41 	  	0
   	 2015-12-11 00:30:52 	 https://www.youtube.com/watch?v=ObWV82LSyfQ 	0
 Living Flame Dye makes me naked 	 2015-12-11 01:31:09 	  	0
   	 2015-12-11 01:32:01 	 sorry for dodge quality. also not sure if i should tag it as nsfw?? (; 	0
   	 2015-12-11 08:04:04 	" I'm really dumb sorry. What do you mean by hardware?
 "	0
   	 2015-12-11 13:07:35 	 GPU is R9 270X and CPU is Intel Core i5 760. idek what video drivers are haha I'm pretty bad at pc stuff. But I'm using Radeon Crimson if that's what you're after 	0
   	 2015-12-12 01:04:56 	" http://gfycat.com/AnimatedLavishChimpanzee (;
 "	0
   	 2015-12-12 01:05:51 	 Can I ask where you bought it from? 	0
 Suzy for Hi-Mart 	 2015-12-13 14:56:16 	  	0
   	 2015-12-13 14:57:26 	 ^ 100% agree 	0
   	 2016-01-01 05:29:50 	 Is there a video for this? 	0
 Happy New Year from APink 	 2016-01-01 11:37:02 	  	0
   	 2016-01-01 11:37:43 	 oo thanks :) 	0
   	 2016-01-03 00:57:18 	 Also anything you put into vaults and piggy banks can be accessed on other worlds as long as you're using the same character in which you stored those items with.  	0
   	 2016-01-03 09:11:15 	 They belong on mine :) 	0
   	 2016-01-04 13:53:20 	 I'm gonna give up on building anything and just eagerly wait for every single thing you post  ^ _ ^ 	0
   	 2016-01-13 02:50:41 	 Is that a shadow orb? Did you just dig and build around it? 	0
   	 2016-01-13 02:55:43 	 GRAVEYARDS 	0
   	 2016-01-13 08:34:10 	 You monster haha. It's ok if you cheated I still like it 3 	0
 You're a long way from home buddy 	 2016-01-14 06:33:48 	  	0
   	 2016-01-14 07:01:43 	 Yes indeed. 	0
   	 2016-01-14 07:02:21 	 Nah it aint Tim. It's an Archer cultist from outside the dungeon.  	0
   	 2016-01-14 07:50:36 	 Yeap it's hardmode. Once you defeat Golem (also hardmode) the cultists spawn. Here's more info: http://terraria.gamepedia.com/Cultist 	0
   	 2016-01-15 05:25:25 	 Yup what a dummy  	0
   	 2016-01-15 05:28:11 	 My might? Do you mean map? Yeah I used to equip the cursed sapling pet and it would always go crazy and fly in wide circular motions. Since it also provides light it gave me vision of the surrounding areas. 	0
 My Angler's house and Pirate's ship 	 2016-01-22 13:55:47 	  	0
   	 2016-01-22 13:58:33 	" A lot of the ship's inspiration came from [this post] (https://www.reddit.com/r/Terraria/comments/3gpkhy/pirate_ship_the_captain_continually_leaps_from/).

Also does anyone know how to capture the beach background? Wanted to capture this photo with the beach biome background but could only use one of the nine biome backgrounds in camera mode. "	0
   	 2016-01-23 06:09:06 	 Great idea! It wasn't really complete as I didn't catch enough fish/fish-like weapons to make it a full trophy room kind of thing but a light house is a better idea :) 	0
   	 2016-01-23 06:10:45 	" I just built the outline in the middle of the water and up past the surface. Once that was done I just...used the Super Absorbant Sponge hahah. I rarely use pumps/outlets/etc.
 "	0
 Minah is not amused 	 2016-02-04 11:49:31 	  	0
   	 2016-02-04 11:49:44 	 Source: https://www.youtube.com/watch?v=gIW2k_NB0WE 	0
 Hayoung and Eunji 	 2016-02-05 09:15:15 	  	0
 Sana and Dahyun enjoying each other 	 2016-02-06 06:55:02 	  	0
   	 2016-02-07 06:45:24 	 Sorry for clickbait(?) (; 	0
 Fantastic Four 	 2016-02-14 17:50:38 	  	0
 Brave Girls 	 2016-02-17 12:18:44 	  	0
 Eunji  	 2016-02-23 15:36:18 	  	0
 Sohye 	 2016-02-24 16:24:21 	  	0
   	 2016-02-24 16:24:44 	 Source: https://www.instagram.com/p/BBP5xuSCm2T/?taken-by=s_sohye 	0
   	 2016-02-25 00:01:16 	 None that I can find at the moment sorry :/ 	0
   	 2016-02-26 02:40:37 	 I don't actively follow the show but know enough that Sohye had like 0 skills early on. Hope she manages to pull through. 	0
   	 2016-02-27 03:39:00 	 The Fetid Baghnakhs from crimson mimics. Just reforge it a bit if it's modifier is crap. Can kill mechanical worm pretty easy. 	0
 Woori 	 2016-02-28 11:55:36 	  	0
   	 2016-03-09 02:14:29 	 Can I ask what's inside the entrance next to you? I see some red eyes... 	0
 Eunji 	 2016-03-19 09:46:08 	  	0
   	 2016-03-19 12:43:07 	 What materials did you use as the fencing on top of the bricks? I think I see platforms and some type of fence wall.. 	0
   	 2016-03-19 12:43:19 	 Looks really really good by the way! 	0
 Eunji Album teasers 	 2016-04-11 05:50:59 	  	0
 Putting a ring on Eunji 	 2016-04-17 18:10:27 	  	0
   	 2016-04-17 18:14:00 	" Sauce: https://www.youtube.com/watch?v=nzDO6tAB6ng

Eunji's new MV! Check it out x) "	0
   	 2016-04-24 07:06:03 	 Honestly just look stuff up on the [wiki](https://terraria.gamepedia.com) but, long story short, you can just kill the lunar cultists and the 4 different pillars again to spawn the moon lord. It's not necessary for you to spawn him with the summoning item. 	0
   	 2016-04-27 10:00:51 	 Apart from Ice Tortoise Shell, I kept farming so long for Wisp in a Bottle. Wanted so badly and could not for the life of me get one. Then one day I invited my 2 friends over to my world and one of them got a Wisp in a Bottle within 10 minutes. Finder's Keeper's rules applied so... :'( 	0
 Eunji :) 	 2016-04-29 11:55:02 	  	0
 Naeun showing her support for Eunji 	 2016-04-29 14:35:34 	  	0
   	 2016-04-30 06:39:16 	 Wow amazing. Can I ask what kind of banners you used towards the center of the garden? And are they next to some kind of chest? 	0
   	 2016-04-30 07:38:52 	 much love 3 	0
 TIFU by going to Uni 	 2016-05-03 02:38:48 	 [removed] 	0
 Sohye babyyyy 	 2016-05-03 04:46:15 	  	0
 Eunji got a tiny bit angry :P 	 2016-05-04 17:35:14 	  	0
   	 2016-05-04 17:36:58 	 Source: https://www.youtube.com/watch?v=AMw9ywegSqk 	0
 Hyeri 	 2016-05-06 16:31:30 	  	0
   	 2016-05-06 16:32:02 	 [Source](https://www.facebook.com/dai5y.gsd/photos/a.141722279178026.25667.136982706318650/1345082952175280/?type=3 theater) 	0
   	 2016-05-24 05:39:59 	 Such a wonderful build mate. Out of curiosity, what did you use to make the bamboo? 	0
   	 2016-05-24 12:54:02 	 much love 3 	0
" Eunji - ""No no no, it's the recorder's fault."" "	 2016-05-24 13:37:08 	  	0
   	 2016-05-24 13:38:14 	" HAH GET IT?? NO NO NO???

Source: https://www.youtube.com/watch?v=ubJPxZ0SwoE

p.s. I don't actually know what she said. Can anyone translate? "	0
   	 2016-05-24 15:56:06 	" Ohh thanks :) but ughhh her laughing was adorbs
 "	0
   	 2016-06-18 10:07:46 	 Thanks mate. Hopefully it's as simple as that. 	0
   	 2016-06-19 04:10:32 	 Update: They've deleted my support submission.Uhhh 	0
 Eunji  	 2016-06-20 15:03:02 	  	0
   	 2016-08-02 16:25:25 	 Looks really cool man! Have you done anymore pixel versions of other League characters? 	0
   	 2016-08-03 00:37:01 	 I second this 	0
   	 2016-08-04 01:29:41 	 I used to feel like this when I played RuneScape, walking into the wildy or facing Elvarg since I was poor and couldn't afford to lose my stuff. I got over it by thinking it's not the end of the world lolol. Not sure if that applies but yeah don't get too scared, it is pretty fun to feel the rush. Honestly miss feeling that sense of excitement mixed in with fear haha.  	0
   	 2016-08-04 01:45:42 	 Constantly dying to my friend's candy corn rifle in pvp. That gun is no joke.  	0
 Trunks for your trunk 	 2016-08-04 17:57:25 	  	0
 They turned my favourite pastime into a Pokstop :^) 	 2016-08-09 17:37:25 	  	0
 Sohye used bite. It was super effective! 	 2016-08-12 16:51:15 	  	0
   	 2016-08-12 16:51:37 	 [Source](https://www.instagram.com/p/BI-Vun_gaHW/?taken-by=s_sohye) 	0
 Apink fighting for the camera 	 2016-08-12 17:04:18 	  	0
   	 2016-08-12 17:05:02 	 [Sauce](https://www.youtube.com/watch?v=qakz2AU7wG0) 	0
   	 2016-08-13 01:35:57 	 Oh sorry, haven't posted in a while. Will keep it in mind :) 	0
 Nara as Harley Quinn 	 2016-08-13 09:54:50 	  	0
   	 2016-09-01 16:47:12 	 You should try and get your water to have the same colour throughout but otherwise noiceee  	0
 Bread got sliced weirdly 	 2016-09-22 15:52:27 	  	0
 Dayummm Eunji 	 2016-09-29 16:34:17 	  	0
 Eunji :O 	 2016-09-30 03:54:25 	  	0
 Eunji  	 2016-10-08 16:29:05 	  	0
   	 2016-10-08 16:31:43 	 [Source](https://www.instagram.com/p/BLSk7otgq76/?taken-by=artist_eunji) 	0
   	 2016-10-09 12:56:49 	 agreed 	0
   	 2016-10-19 17:08:25 	 Hey this looks really nice :) Is it for a game? 	0
   	 2016-10-22 14:47:38 	 Quadricorn 	0
 Sohye being a cutiepie 	 2016-10-22 15:23:33 	  	0
   	 2016-10-22 15:24:59 	 [Sauce](https://www.instagram.com/p/BL2_ZIHgYTp/?taken-by=s_sohye) 	0
   	 2016-10-24 00:17:26 	 Son? Don't you mean next of pumpKin 	0
   	 2016-10-24 00:31:31 	 Anything that fills you with a sense of nostalgia 	0
 Just lined up and bought my new NES Classic Mini! 	 2016-11-10 00:21:42 	  	0
   	 2016-11-10 01:08:53 	 I'm in Australia and lined up early :) 	0
   	 2016-11-10 01:09:03 	 I'm from Australia haha 	0
   	 2016-11-10 01:09:29 	 It's got a cable but doesn't have an adapter. Any smart phone adapter should do. 	0
   	 2016-11-10 01:09:46 	 Yeah just have to use a smart phone adapter LOL 	0
   	 2016-11-10 01:49:13 	 Never tried Star Tropics. The manual has an..interesting hint for the game :) 	0
   	 2016-11-10 01:50:05 	 Has 30 pre-loaded games on it and doesn't take cartridge. 	0
   	 2016-11-10 04:59:24 	 Unfortunately, I don't think it can be expandable..I got a lot of info from this site [here](https://www.cnet.com/au/products/nintendo-nes-classic-edition/preview/). 	0
 Could anyone please help resize this image to 1280 x 800? 	 2016-11-16 12:56:11 	  	0
   	 2016-11-17 12:57:10 	 Thank you! Sorry for the late reply. 	0
   	 2016-11-21 03:12:37 	 Icy what you did there 	0
   	 2016-11-21 23:51:02 	 Cursor settings in the main menu IIRC 	0
   	 2016-11-21 23:55:45 	 I always read EoC as Evolution of Combat.. 	0
   	 2016-11-26 23:52:42 	" Try going to cmd and type: ipconfig /flushdns

I usually do this if images pop up like that.  "	0
   	 2016-12-09 23:47:47 	 I think your quest ended due to an unknown error but I'm not too sure 	0
   	 2016-12-13 05:51:29 	 What's that little table thing in the underground room on the far left? 	0
   	 2016-12-18 00:03:45 	 Gonna have to say Apink. Not probably the first group people would think of but I've been a fan of them quite a while (because Eunji absolute kills me) and their concepts AREN'T great. They still succeed, surprisingly, but I just can't see their same old concepts working these next few years and it will be a miracle if they maintain the same amount of success they have now.  	0
   	 2016-12-22 15:05:10 	 Nothing wrong with someone updating their snapchat 	0
   	 2016-12-23 16:40:56 	 I mean surely the editors would have realised the volume was too low and tried to fix it...right? 	0
 Eunji - the gift that keeps on giving 	 2016-12-24 23:12:45 	  	0
   	 2016-12-27 01:51:32 	 Noob player here. Why cube emblems/badges first ? And why star force in that order? 	0
   	 2017-01-02 11:01:48 	 You are absolutely correct, I don't know why I put it as abs LOL. 	0
   	 2017-01-02 11:03:00 	 Sana ft. ~~abs~~ ribcage 	0
   	 2017-01-02 16:37:29 	 safdace more like sadface xd :( 	0
 Naeun  	 2017-01-03 00:33:58 	  	0
 DAAAAYUM EUNJI LOOKS GOOD FOR 47 	 2017-01-06 11:07:40 	  	0
   	 2017-01-06 11:09:12 	" I had a quick google of Eunji's age as I saw an update from Bomi saying they were both half way to being 50. What I got was this. Bomi's age is untouched.

P.S. The date shown isn't even her real birthday LOL I'm so confused rn

Edit: The dates seem to be for someone else. Don't know why it's been mixed up with Eunji. "	0
   	 2017-01-06 14:58:32 	 Thx mate gamer 4 lyf amirite 	0
   	 2017-01-08 00:38:31 	 It really isn't :'( 	0
   	 2017-01-11 02:40:05 	 Was chatting with a friend the other day and he tried to say cubing spot and it censored the 'g spot' part of the sentence. I never would have even thought of that term LOL.  	0
   	 2017-01-13 17:13:00 	 Such a pleasant build. How did you make your gif? 	0
   	 2017-01-13 19:21:32 	 Does sound hard LOL thanks for the reply though. 	0
   	 2017-01-16 23:37:39 	 9anime.to trust meeeee 	0
   	 2017-01-19 03:33:18 	 Torn between wanting to watch a dog movie which would inevitably make me cry, and boycotting the movie.  	0
   	 2017-01-25 17:05:58 	 If anyone wants to know, the girls are the members of the KPop group 'Girl's Day' which consist of Minah, Yura, Hyeri, and Sojin.  	0
 Eunji  	 2017-01-28 05:39:34 	  	0
   	 2017-01-28 05:41:30 	 Edit: wrong glasses  	0
 Apink for the Lunar New Year 	 2017-01-28 08:29:12 	  	0
   	 2017-01-28 08:30:30 	 Put Facebook as the flair as it was posted there but the original source is from [Naver TV](http://entertain.naver.com/starcast/read?oid=420 aid=0000007123 spi_ref=m_entertain_twitter) 	0
 Amazing Monster Hunter artwork 	 2017-02-03 08:46:46 	  	0
   	 2017-02-03 08:48:51 	 This is such a wonderful piece of artwork from user [Daria_O](https://forums.terraria.org/index.php?members/daria_o.38306/) who submitted this on the Terraria forums. I believe it's based on a character from Monster Hunter according to the comments. Feel free to correct me if I'm wrong. Daria_O if you see this and wanted to post this yourself I'll be happy to take it down but I just wanted the community to see this awesomeness :) 	0
   	 2017-02-03 17:21:20 	 Awww shucks :) 	0
   	 2017-02-03 22:36:47 	 Attractive Kpop ladies :^) 	0
   	 2017-02-04 09:54:25 	 Not my work. Refer to my comment :) 	0
   	 2017-02-05 02:39:38 	 I feel ya :'( 	0
   	 2017-02-08 06:53:24 	 Eunji now and forever (^) 	0
 Bomi   Eunji  	 2017-02-13 12:31:31 	  	0
   	 2017-02-13 12:32:19 	" [Source](https://www.instagram.com/p/BQcwC_Dg0vi/?taken-by=artist_eunji) | 
[More] (http://i.imgur.com/60GNVUC.jpg) "	0
 Eunji 	 2017-02-13 16:56:38 	  	0
   	 2017-02-13 16:56:56 	 [Source](https://www.instagram.com/p/BQdAGYmgm9q/?taken-by=artist_eunji) 	0
  Gugudan  	 2017-02-15 15:00:52 	  	0
   	 2017-02-15 15:03:51 	 Got this large image from [here](http://news.zum.com/articles/33948168?c=06) but not sure of official source. 	0
 Eunji  	 2017-02-18 13:46:42 	  	0
   	 2017-02-23 00:49:41 	 Dunno why you got downvoted for this lmao 	0
 Sohye 	 2017-02-23 16:03:53 	  	0
 Taeyeon being Fine 	 2017-02-28 09:33:25 	  	0
   	 2017-02-28 09:36:41 	 [Source is from Taeyeon's Fine MV](https://www.youtube.com/watch?v=NHXUM-6a3dU ) 	0
   	 2017-02-28 23:21:31 	" Lucky: getting into the game in one try
Unlucky: failing 20x 70% star force enhancements :) "	0
   	 2017-03-07 15:14:15 	 What did we do to deserve her 	0
   	 2017-03-13 03:35:49 	 Any pics of Eunji from this performance? 	0
   	 2017-03-13 07:41:33 	 Ily 3 	0
   	 2017-03-15 15:16:26 	 Sometimes I hear ringing and sometimes I don't. My right ear hears fine except it can't do well with loud noises. It's gotten to the point where it would make me wince and cringe if I just eat potato crisps. People talking moderately in the car also sets my right ear ringing. You can imagine the hell I go through when dentists use their sonic tool thingy at my dental appointments. I've been using on ear headphones almost everyday at a moderate to low volume. Has this affected my right ear? My only solution to muffle the noise is to wear industrial ear muffs as regular ear plugs do not work at all. I wear it to church mainly because of the loud music. If anyone knows anything about this issue please let me know. I really wanted to see Porter Robinson and Madeon but couldn't because of this :/ 	0
 Eunji broke??? 	 2017-03-17 07:52:40 	  	0
 Taeyeon 	 2017-03-19 16:38:50 	  	0
   	 2017-03-20 00:23:11 	 My bad. Thanks for flairing.  	0
   	 2017-03-27 15:45:16 	 Nice build but I don't think it has mush room inside.  	0
 Eunji  	 2017-04-04 13:10:42 	  	0
   	 2017-04-04 13:13:57 	 [Here you go :)](https://www.instagram.com/p/BSdKPPlDkzf/?taken-by=artist_eunji) 	0
   	 2017-04-07 01:02:14 	 Daughter? Never heard of that NPC before. Great build by the way.  	0
   	 2017-04-10 05:07:07 	 LOOOOOVE  	0
 Eunji Jacket Making Film 	 2017-04-10 05:12:20 	  	0
 Eunji Jacket Making Film 	 2017-04-10 05:13:30 	  	0
 Eunji fed up with PDA 	 2017-04-10 11:51:19 	  	0
   	 2017-04-10 13:47:14 	 Oh I see it now haha 	0
   	 2017-04-10 16:58:50 	 Bad taxi driver Eunji  	0
 cat 	 2017-04-28 12:04:52 	  	0
   	 2017-04-28 12:06:26 	 Artist is [Ariduka](http://ariduka.deviantart.com/). DeviantArt post [here](http://ariduka.deviantart.com/art/cat-667441617). 	0
   	 2017-04-28 23:50:17 	 Tbh elementals wasn't a great arc but that's just me. Still watch it though :) 	0
   	 2017-04-28 23:54:13 	 I posted the artist and the actual DeviantArt post but it's lost in the comments lul. http://ariduka.deviantart.com/art/cat-667441617 	0
 Eunji  	 2017-04-30 08:08:08 	  	0
   	 2017-04-30 08:12:22 	 [Sauce](https://www.instagram.com/p/BTfd8CWD8EB/) 	0
