title	date	text	class
   	 2015-06-09 19:11:53 	 I like it, but it seems odd that the middle part of the glasses would be made of glass as well. It would make more sense for it to be made of a different material, like a grey metal. 	0
   	 2015-06-09 19:23:10 	 Very pretty.  	0
   	 2015-06-10 01:11:53 	 The shape is perfect, I love the crystal-like look to it. I can't think of anything to change, maybe make the purple part a little bit transparent? Otherwise it's perfect. 	0
   	 2015-06-10 01:57:24 	 I love the contrast between the smooth, fuzzy circles and ripples, and the hard, geometric hand.  	0
   	 2015-06-11 18:00:19 	 This is my favourite ad on reddit. I don;t use bitcoin, but I click on it every time anyway. 	0
   	 2015-06-12 04:28:01 	 Major lag issues with this update. Every few minutes everyone on a server will experience massive lag, and input is like skating. I'm waiting for Valve to fix this one. 	0
   	 2015-06-12 15:54:29 	 Relevant xkcd: https://xkcd.com/375/ 	0
   	 2015-06-12 20:30:26 	 RemindMe! 	0
   	 2015-06-12 20:41:40 	" Used to make cake for your cake day?
:P "	0
   	 2015-06-12 21:08:12 	 Kung Fury anyone? 	0
   	 2015-06-12 21:40:24 	 Your bot could keep some kind of database with entries for every user it encounters, and the link to their wiki page. I'm not sure how you would go about creating the wiki page, but your biggest problem would probably be retroactively adding users who posted their first post before the bot became active. 	0
   	 2015-06-12 21:47:42 	 rps! spock 	0
   	 2015-06-12 21:47:50 	 rps! rock 	0
   	 2015-06-12 22:36:23 	 /u/trollabot test_subject3547 	0
   	 2015-06-13 04:18:04 	 \begin{tex} a = 2x \end{tex} 	0
 Testing API 	 2015-06-13 04:25:24 	 !bleepbloop 	0
   	 2015-06-13 04:29:36 	 !bleepbloop 	0
   	 2015-06-13 04:39:52 	 bloopbleep! 	0
   	 2015-06-13 17:20:15 	 Looks like the hotel from Just Cause 2... Rico! 	0
   	 2015-06-13 18:10:42 	" [Much Better Now...](http://i.imgur.com/mRKbDnY.png)

Sorry about the blotchy skin, first time correcting skin tone. Also first time posting here. "	0
   	 2015-06-14 00:23:12 	 Help eye bleach bot! I need eye bleach ! 	0
 Are sunsets beautiful because it means we've survived another day? 	 2015-06-14 00:32:44 	 I was driving home the other afternoon, as the sun went down. The light had begun to get redder, and the air to cool. I was feeling happy and relaxed, and then had a thought. What if sunsets are beautiful because it signifies another day survived? From an evolutionary perspective, we've evolved to feel good after surviving another day, which drives us to keep going. /notabiologist 	0
   	 2015-06-14 00:43:42 	 Open like your door? 	0
   	 2015-06-14 01:27:11 	" Relevant XKCD
https://xkcd.com/1102/ "	0
   	 2015-06-14 02:17:18 	 Evert account on reddit is a bot except you 	0
   	 2015-06-14 06:30:01 	 !gameMe 	0
 gameMe Bot 	 2015-06-14 19:48:27 	" I'm trying to play around with reddit's API, and I got a neat idea for a bot. a gameMe/hlstats bot that pulls your stats for a specific server and posts them as a comment. e.x.

test_subject3547: ""!gameMe someServerName""
gameMeBot: ""Pos: 9001 Points: 0""

You would associate your steam and reddit accounts with the bot by sending it a PM like ""associate STEAM_0:XXXXXXXX""

Any interest/suggestions? I would probably make it search through this subreddit, /r/gaming, maybe /r/steam and any other subreddits for games tracked by gameMe.

Edit: I've got a prototype working, just working on customizing which server to pull stats from. "	0
 gameMe Bot (x-post from /r/tf2) 	 2015-06-14 19:58:58 	  	0
   	 2015-06-14 22:19:24 	 What is that in the [window](https://www.youtube.com/watch?v=NJ-u4_sQSNk)!?! 	0
   	 2015-06-14 22:57:44 	" There's a [playlist](https://www.youtube.com/watch?v=a7VQARbRhYA list=PLIvrgpZKZrKim6ga0LD3PBbopdqRQ3Lhf) of all the videos. It's terrifying, idk what's going on D:
 "	0
   	 2015-06-15 03:11:32 	" Don't we all need a little ego-boosting from time to time? ;) 
I can't really think of when it would be used either, but it'll be there if people want it.

(Also, I'm almost done now, so too late!) "	0
   	 2015-06-15 03:22:22 	 !gameMe someServerThatDoesn'tExist 	0
   	 2015-06-15 03:31:03 	 The banners don't match the ones in the videos, would they have changed them in two weeks? 	0
   	 2015-06-15 03:48:52 	 !gameMe 	0
   	 2015-06-15 03:56:57 	" Update: All done now, should be working on this subreddit as well
!gameMe "	0
   	 2015-06-15 04:01:09 	" D'oh, street view would be from a while ago .

I believe that the reference to Florida was just a story. That story was the one part of it that seemed too forced/fake.  "	0
   	 2015-06-15 04:03:02 	 lol yah. I'm having rate limitation issues. I need to build the bots karma up for a few days before I launch it fully. 	0
   	 2015-06-16 20:46:44 	 I have it built, do you think it would be worth it to set up a server for it? Maybe I should message the subreddit mods and see if they approve of it running 24/7 for this subreddit. 	0
   	 2015-06-16 23:22:47 	 !gameMe 	0
   	 2015-06-17 03:30:53 	 !gameMe 	0
   	 2015-06-17 13:14:59 	 !gameMe wearenoobz 	0
   	 2015-06-17 17:45:30 	 !gameMe 	0
 Test 	 2015-06-17 18:53:27 	 Test 	0
   	 2015-06-17 18:54:04 	 !gameMe 	0
   	 2015-06-17 23:09:20 	" try !gameMe (note the capital ""M"") I can change it to make it non case-sensitive if you'd like. Also you'll need to associate your account first. "	0
   	 2015-06-18 00:27:53 	 !gameMe n00bz 	0
   	 2015-06-18 21:54:15 	 Maybe he went upstairs to use the bathroom or something? And then made the innapropriate comment when he saw you watching them. 	0
   	 2015-06-19 02:52:30 	 This is really pretty. 	0
   	 2015-06-19 04:22:02 	"     volume = 1 
    while True:  
        answer = ask(""why"")  
        if not answer:  
            volume += 1  
        else:  
            break "	0
   	 2015-06-19 21:42:39 	" That's one small wank for man  
One Giant wank for mankind! "	0
   	 2015-06-20 03:36:16 	" Wow, this is really cool! :D
It's a very original idea, and I love the little details, like the colours changing as you rotate. "	0
   	 2015-06-20 04:08:01 	 Not a video editor, but I approve of the Tut Tut Child ;) 	0
   	 2015-06-21 02:45:23 	 Upvote, downvote, sidevote? 	0
   	 2015-06-21 02:58:49 	 /r/upvotedbecausegirl 	0
   	 2015-06-21 17:11:57 	 If he's long enough that his dick hits the water before his feet, I don't think he needs to worry about her being dissappointed ;) 	0
   	 2015-06-21 18:32:06 	 What engine are you looking to use? I have experience programming in [LOVE 2D](http://www.love2d.org), and some in Unity. 	0
   	 2015-06-21 19:42:44 	 It's more suspenseful this way. 	0
   	 2015-06-21 21:26:42 	 \#HaveAWank 	0
   	 2015-06-21 22:59:28 	" Set the flair to be ""review"" and then mods will consider it for acceptance. "	0
   	 2015-06-21 23:16:17 	 Can you draw a cute robot that's a little beat up? Bent antenna, nicked metal, but still happy? Thanks. 	0
   	 2015-06-22 00:41:42 	 I think it's been hugged XD 	0
   	 2015-06-22 00:42:31 	 That's adorable, thanks \^.\^ 	0
   	 2015-06-22 01:35:29 	 Dissapointed that doesn't exist 	0
   	 2015-06-22 02:12:58 	 What an amazing throwaway name XD 	0
   	 2015-06-22 17:10:50 	 Wow, a link on InternetIsBeautiful that can withstand being hugged! Truly you have created a miracle :P 	0
   	 2015-06-22 23:57:23 	" Beautiful :D
I love the visuals you make, and the descrptions of the world that the turtle has created.

I have but one small criticism. You used the wrong ""it's"" several times throughout the poem. "	0
   	 2015-06-23 04:43:29 	 I'm not sure I want to work on a project with such vague guidelines, but here's one of my [games made in LOVE](http://ludumdare.com/compo/ludum-dare-30/?action=preview uid=34574) anyway. 	0
   	 2015-06-23 17:08:27 	" Thanks, it was created for the ludum dare 72 hour jam, so it's a little short and simple.

I wish you luck on this project. "	0
   	 2015-06-23 17:26:36 	" More posts on this subreddit should include project plans. Thank you for that.

Unfortunately, I'm not solid on javascript, but I wish you luck! The current build is very cool, it reminds me of candy box. "	0
   	 2015-06-23 21:32:33 	 You've given me a new purpose in life. I could use Markov Chains and everything... 	0
   	 2015-06-23 22:50:05 	 /r/retiredusername 	0
" 01189998819991197253 comments on ""Having a stroke"" "	 2015-06-23 22:50:28 	  	0
   	 2015-06-24 19:05:27 	 Links are allowed. These were bot accounts that were posting gibberish and links (probably to phishing sites).  	0
   	 2015-06-24 19:08:31 	 Throw his law notes on the ground to assert dominance. 	0
   	 2015-06-24 22:00:46 	 https://xkcd.com/508/ 	0
 Jovian Gasbags 	 2015-06-26 03:32:07 	" #Jovian Gasbags
Jovian Gasbags is an asteroids clone I'm working on to expand my portfolio. It's in an early state, but it will be done in the next few days. I just want some feedback on how the game plays. Control speed, player thrust power, fire rate, asteroid size/speed etc.  
###[GIF](http://i.imgur.com/CuVmjss.gifv)
###Controls
Arrow keys to turn + thrust, spacebar to shoot. Press enter to generate a level.

###Downloads
##[Windows](https://drive.google.com/file/d/0B8Kqppgx0wjBTU1JSGt5RGY5Y00/view?usp=sharing)
***
##[Linux/Source](https://drive.google.com/file/d/0B8Kqppgx0wjBdXFIdWxEWXJrVWs/view?usp=sharing)
To run the game on linux or other non-windows systems, download the source file above, and install the [LVE 2D Engine](https://love2d.org/) "	0
   	 2015-06-26 15:13:41 	" Thank you :)  
I've since slowed down the asteroids, but I think it might be too slow now. I just have to find the right balance. I've also increased the firing rate ever so slightly, and thank you for the point abouut the bullets being difficult to see. I'm also thinking of implementing the ""hyperspace"" mechanic from the original, where you can teleport to a random location on the screen.

Edit: I just looked back at the build I uploaded, and I can't see the the bullets either. This is a glitch, and will hopefully be resolved by replacing the dots I was drawing with proper bullet/rocket sprites. "	0
   	 2015-06-26 15:15:03 	 I added a gif of playing through one level. 	0
   	 2015-06-26 22:16:11 	 `PNU = Pratchett's Not Unix` 	0
   	 2015-06-26 23:03:51 	 Dominance asserted 	0
   	 2015-06-27 02:53:03 	 I'm not sure what he meant in that context, the only GNU I know of is the software. 	0
   	 2015-06-27 03:21:35 	 That's beautiful. 	0
   	 2015-06-27 18:57:30 	 *Your balls are my balls, and my balls are your balls* 	0
   	 2015-06-27 19:17:20 	 U 	0
   	 2015-06-27 20:45:07 	 Tagged as Dick-Man 	0
   	 2015-06-27 20:52:31 	 I think OP is asking if you can calculate how much faster than c you would have to be moving. In a theoretical world where you can move FTL, what would the escape velocity *just inside* the event horizon be. e.g. 2*c 	0
   	 2015-06-27 22:22:34 	" If you really didn't sexually molest the kid, then tell your parents. If you leave this alone, then it could have repercussions for your reputation. Talk to your parents, the principal, or if you don't trust either party, talk to a teacher you can trust.
Edit: Spelling "	0
   	 2015-06-28 21:56:48 	" Sun Tzu said that!  
And I'd say he knows a *little* more about fighting than *you do*!  

-Soldier "	0
   	 2015-06-29 00:43:24 	 OP pls deliver 	0
   	 2015-06-29 00:43:28 	 !RemindMe 	0
   	 2015-06-30 15:55:35 	 This. I'm straight, and I still ran around telling straight people the good news, because it's good news regardless of your orientation. 	0
 [Completed]Jovian GasBags 	 2015-07-01 20:53:11 	" Fun little Asteroids clone I made for the One Game A Month challenge. You are a spaceship pilot, sent to wipe out the hordes of Jovian GasBags infesting Jupiter's upper atmosphere. These jelly-fish like creatures float in the air, splitting apart under laser fire.

##Controls
***
Arrow keys/WASD to turn/thrust. Spacebar/Control to shoot. Press escape to pause while in game, M to mute the music, and R to restart quickly when you're on the death screen. The levels get harder and harder, and when you die your highscore is saved locally.
##Links
***
[Game Link(itch.io)](http://deltaf1.itch.io/jovian-gasbags)  
A windows build is available, as well as a source file, which can be run if you have the \*awesome\* game engine [LOVE](http://www.love2d.org) installed.  
   
  
##My info  
***
[My twitter](https://twitter.com/StarhopperGames)  
[My Ludum Dare games](http://ludumdare.com/compo/author/deltaf1/) "	0
 [Completed] Jovian GasBags 	 2015-07-01 21:14:16 	  	0
   	 2015-07-02 16:47:28 	 Tagged as [Dick-Suit](http://gyazo.com/07c38acf2562970603f70df380db482a) 	0
   	 2015-07-02 17:18:30 	 Not sure whether mine is drawable... 	0
   	 2015-07-02 23:18:16 	 [](/GNU Terry Pratchett)  	0
   	 2015-07-02 23:18:31 	 [test](/GNU Terry Pratchett)  	0
   	 2015-07-03 00:10:00 	 This thread is about to get all meta... 	0
   	 2015-07-03 00:23:32 	 He couldn't write because his arms were broken. 	0
   	 2015-07-03 04:35:09 	 I like it :) 	0
   	 2015-07-03 05:15:11 	 Unfortuantely, I don't get that reference 	0
   	 2015-07-03 21:00:48 	 I've now tagged her account as Paopatine. That's amazing 	0
   	 2015-07-03 21:05:37 	 I see what you did there... 	0
   	 2015-07-03 22:06:12 	 Is the name Ellen Pao not allowed here? 	0
   	 2015-07-05 05:54:57 	" We are Paononymous
We are Paogion
Paospect us "	0
   	 2015-07-05 17:59:01 	" people will take these **anonymous** memories with them... But the **legion** that is the internet will evolve. It will not **forgive** the transgressions... And it will not **forget** the virtues... We can **expect** the cycle of progress...  

See it now? "	0
   	 2015-07-05 21:05:01 	" AFAIK he's just hiding the ""we are legion"" message in a bit of fluff. "	0
   	 2015-07-06 04:38:13 	 [Am I meta now?](http://i.imgur.com/Grpc8xS.png) 	0
   	 2015-07-06 22:03:33 	 Please, do an AMA on this. 	0
   	 2015-07-06 22:05:08 	" I have her account tagged as Paopatine. This image makes it so much better...  
Edit:Spelling "	0
   	 2015-07-08 20:45:32 	 ayyyyyy 	0
   	 2015-07-08 20:47:13 	 lol 	0
   	 2015-07-08 20:59:41 	 Relevant username 	0
   	 2015-07-09 17:01:33 	 RemindMe! 1 day 	0
   	 2015-07-09 19:49:04 	 One of today's 10,000! 	0
   	 2015-07-10 22:51:15 	 Where's /u/corvoattano420's lennies when you need them? 	0
   	 2015-07-10 23:04:56 	" nAAaMe  

FTFY "	0
   	 2015-07-11 16:54:25 	 Can you write me a poem? 	0
   	 2015-07-12 02:02:56 	" \*bows\*  
Thank you. "	0
   	 2015-07-12 04:24:40 	 SHAME 	0
   	 2015-07-12 20:51:11 	 o.0 	0
   	 2015-07-13 16:31:44 	 Wil Wheaton's golden rule... 	0
   	 2015-07-13 22:09:33 	 Same situation. My father's parents were very formal, and so even just mentioning sex or relationships gets him uncomfortable. My female friends can't gross me out by talking about their periods, since I grew up with all sisters. 	0
   	 2015-07-14 16:37:39 	 no 	0
   	 2015-07-14 16:40:27 	 7 Not too late? 	0
   	 2015-07-16 21:36:02 	 Well, smoking it does cause disease, but that's inherent in smoking, not in the marijuana. 	0
   	 2015-07-18 22:54:39 	 Remind Me Bot doesn't seem to be working for me. Is it down, or just spotty? 	0
   	 2015-07-18 23:00:40 	" Fuck, you reminded everyone!
:P "	0
   	 2015-07-18 23:53:42 	 PM this to OP! 	0
   	 2015-07-18 23:55:34 	 I need Eye Bleach! 	0
   	 2015-07-19 04:16:50 	 +/u/User_Simulator /u/test_subject3547 	0
   	 2015-07-21 01:17:49 	" Cl**ass**y

FTFY "	0
   	 2015-07-21 03:37:34 	 He's daydreaming about how best to fuck Canada over. 	0
   	 2015-07-21 19:53:18 	" 1234 points...  
Want to upvote... Can't disturb the beauty... "	0
 Dork Cube! (Loot Crate parody) 	 2015-07-21 23:21:09 	  	0
   	 2015-07-22 04:17:29 	 I know, but it still is a bit. 	0
   	 2015-07-22 04:22:49 	" Shoved a car up my ass for something  
FTFY "	0
   	 2015-07-22 04:31:12 	 *Destroyer of OP's bum* 	0
