title	date	text	class
   	 2015-03-03 02:27:11 	 What're you referring to exactly? I feel like the obvious answer is 'no' and maybe you just got unlucky and saw a bunch of slow-song trailers in a row.  	0
   	 2015-03-03 16:50:29 	 Because Andrew here is very interested in pursuing a career in the custodial arts. 	0
   	 2015-03-03 16:51:34 	 Greg Kinnear. Every time. Always. Forever. Captain Amazing.  	0
   	 2015-03-03 17:31:14 	 Hollywood's best kept secret in transforming characters: glasses  	0
   	 2015-03-03 22:53:15 	 I think you overestimate redditors and their love for posting absolutely anything; even if they literally just read the same post. 	0
   	 2015-03-10 19:22:10 	 After going through OPs post history, I have concluded he is 12 years old and needs to find another site to be annoying on.  	0
 What movie line did you misquote before you found out what was actually said? 	 2015-03-11 18:14:16 	  	0
   	 2015-03-11 18:49:55 	 I wasn't referring to famously misquoted lines. But personal lines that you just misheard and said wrong for a time.  	0
   	 2015-03-11 19:43:10 	 Hahaha!! That is exactly what I was looking for. The Lost Boys is so damn good btw.  	0
   	 2015-03-12 19:12:58 	 I think you'd be in serious trouble if this subreddit ever found out where you live.  	0
   	 2015-03-12 21:42:57 	 I gave you a downvote.  	0
 Can we take a moment and acknowledge how great The Three Amigos is? 	 2015-03-13 15:17:19 	 I saw this movie as a kid and absolutely loved it. Watched again as an adult and still am drawn to quoting it and singing along. Chevy Chase, Steve Martin and Martin Short are perfect in this movie. I don't see this movie mentioned very much, but I recommend it to ANYONE who hasn't seen it.  	0
   	 2015-03-13 16:27:38 	 Can I have your watch when you are dead? 	0
   	 2015-03-13 16:27:49 	 Tell us we will die like dogs.  	0
   	 2015-03-13 17:46:51 	 I think he means that if you- SHUT UP!! 	0
   	 2015-03-13 17:50:25 	 Ha! My bad. I'm in.  	0
   	 2015-03-13 17:50:51 	 Infamous is when you're more than famous. This guy El Guapo isnt just famous....he's INfamous.  	0
   	 2015-03-13 17:59:01 	 Goodnight Ned. 	0
   	 2015-03-13 17:59:19 	" ""Great! You shot the invisible swordsman!"" "	0
   	 2015-03-13 19:34:29 	" I seriously cant stop singing that song. ""Arizona moon is shining"" "	0
   	 2015-03-13 22:34:07 	 No dough....no show. 	0
   	 2015-03-16 19:48:50 	 These are my new friends; the Van Buren Boys.  	0
 What possible motivation does Gabriel have? 	 2015-03-16 19:56:21 	 There has to be some angle in this decision. Surely he's not ACTUALLY thinking he's above Rick's group and their decisions. He still carries the guilt of the people he left to die AND he knows he would be dead if it wasn't for Grimes and Co. So I'm thinking there's another angle that we just aren't seeing yet. Thoughts? 	0
   	 2015-03-16 21:27:36 	 Jump to Conclusions App.  	0
   	 2015-03-16 21:36:35 	 Bill from Kill Bill. Not saying the five point palm exploding heart technique sucks....but he's a dude we have waited through TWO movies to see die. And he falls. On the grass. Cool. 	0
   	 2015-03-16 21:55:42 	 I didn't find this scene funny, but the fact that you did kills me.  	0
   	 2015-03-17 17:30:23 	 What I hoped for this post: something other than the obvious.  	0
   	 2015-03-17 21:22:47 	 crazy bastard 	0
   	 2015-03-18 23:49:34 	" ""Kill Bill Siren"" was awesome. These seriously make my week. You should do them for Better Call Saul!!! That subreddit would be extremely grateful.  "	0
   	 2015-03-19 19:01:09 	 This movie has my all-time favorite trailer.  	0
   	 2015-03-19 20:30:52 	" I take pleasure in downvoting assholes who just post ""this."" "	0
   	 2015-03-24 02:27:53 	 My dad says that Tom Hanks looks like his mouth was ripped out and then taped back on. I don't know what he means by this, but thought you should know.  	0
   	 2015-03-24 02:29:30 	 Well I want you to try....rearry...hard to get a missile.  	0
 Best bathroom scenes 	 2015-03-24 17:45:20 	 Nothing off limits. What do you got? 	0
   	 2015-03-24 18:16:44 	 Detroit Rock City is such a great movie. So much fun to watch.  	0
   	 2015-03-24 18:33:42 	 There's Something About Mary also comes to mind. 	0
   	 2015-03-24 19:05:30 	 I don't know why it is being downvoted either, BUT if we're talking Bond....Peirce Brosnan hanging upside down and punching the Russian in the face while he's on the can in Goldeneye is probably better.  	0
   	 2015-03-24 19:12:35 	 YEAH! Best level in the game. I can never quite make it all the way through without shooting the scientists and failing the mission :/ It's just too much fun.  	0
   	 2015-03-24 19:25:27 	 Don't Judge me.  	0
 Who are the most interchangeable actors? Who are the LEAST interchangeable? 	 2015-03-26 15:02:36 	 Not necessarily looking for doppelgangers, but actors/actresses who could play each others roles. 	0
   	 2015-03-26 16:35:47 	 I don't exactly agree, but this is the kind of answer I was looking for. Actors who could play each other's roles convincingly enough. Thanks.  	0
 What conversations or phrases does this sub need to retire? 	 2015-03-26 16:57:51 	" I'm over reading about the Rick/Shane transformation personally, and every comment in regard to Eugene being ""That's classified."" What're yours? "	0
   	 2015-03-26 17:10:15 	 Yeah this gets old fast. It's even worse when they are right about something though because then they feel like they have a license to FORESHADOW CONSTANTLY.  	0
   	 2015-03-26 17:14:07 	 Actually that's a good call. I was thinking about others roles too and I'm inclined to agree with you.  	0
   	 2015-03-26 17:31:37 	 Same with Morgan. They've made it clear that Morgan will return in some fashion but every episode that passes, Reddit tried to create clues that lead to Morgan. Knock.It.Off. 	0
   	 2015-03-26 17:34:05 	" This isn't exclusive to this sub, but I see it a lot on here: When someone comments with just ""this"" "	0
   	 2015-03-26 17:51:44 	" Yeah, agreed. I think this sub is willing to post even the most absurd ""theory"" just for the sake of posting something. I don't think anyone honestly believes there are Ms.  "	0
   	 2015-03-26 17:55:18 	" Or the OVERUSAGE of ""plot armor."" "	0
   	 2015-03-26 17:56:31 	 Yeah, and Bryan Cranston would play everyone. Every single role.  	0
   	 2015-03-26 18:19:11 	" Don't forget the constant one true dog posts.
 "	0
   	 2015-03-26 18:37:03 	" In Carl's defense, he's always liked that word ""gargantuan."" Its so rare he ever afforded the opportunity to use it in a sentence.  "	0
   	 2015-03-26 19:08:01 	" ""Kids get scared."" ""Whats there to be scared of?"" ""No, no, I didn't say I was scared."" ""I didn't say you were scared."" ""I know."" "	0
   	 2015-03-26 22:11:17 	 I know its for comedic value, but its so overdone, that yes, it needs to stop. A joke is only funny so many times. 	0
 Movie Title Game 	 2015-03-26 23:38:11 	" What is the longest title you can make using movie titles. 

For example: License to Kill Billy Elliot  "	0
   	 2015-03-26 23:42:05 	 or A Walk to Remember Me Myself and Irene 	0
   	 2015-03-26 23:52:45 	 I love this one. 	0
   	 2015-03-26 23:55:07 	 Longest yet! 	0
   	 2015-03-26 23:57:46 	 Totally. I'm really enjoying these! 	0
   	 2015-03-27 00:43:14 	 Chicken Run Ronnie Run Fatboy Runaway Jury 	0
   	 2015-03-27 18:17:17 	 House of the Devil better than The Conjuring? Are you fucking high? 	0
   	 2015-03-27 23:41:04 	 You're right, it is not. Reddit is full of idiots. FULL of them.  	0
 The Elect 	 2015-03-29 01:33:58 	" Hi guys! First time poster on this sub. I'm a fairly new believer (little over a year or so) and have a question about this word: Elect. Let me preface my question with saying I don't believe God is ever surprised. Therefore it should come as no shock to Him when someone becomes saved. By this thought, you could say that all who are saved are ""elect"" because God knew they would come to Christ. But then why make the distinction? Why aren't the ""elect"" just called Christians? It may just be my misunderstanding of the term, but it stings my ears when I hear people say ""elect."" Even if I, myself, are ""elect,"" I still hate the title. Can someone please explain to me where my misunderstanding is? It would mean a lot. "	0
   	 2015-03-29 01:41:22 	 It all started one day in Eden.... 	0
   	 2015-03-29 03:31:05 	 Wouldn't the Cross be pointless if there was unconditional election? I feel like I'm still fuzzy on the particulars here. I thank you for your response. 	0
   	 2015-03-29 03:32:10 	" Yeah, I feel like there should be a better word than ""election"" to describe the situation.  "	0
   	 2015-03-29 04:36:47 	 So all who are Christian are elect? 	0
   	 2015-03-29 04:50:51 	 THANKS EVE, YA JERK! 	0
   	 2015-03-29 10:05:11 	 Thank you for this. It helped immensely.  	0
   	 2015-03-29 10:06:32 	 Eve was into oranges. Everybody knows that. Duh.  	0
   	 2015-03-29 20:31:08 	 Can you please respond to my question below when you get a moment?  	0
   	 2015-03-29 23:48:12 	 Okay, that makes sense. Thanks for responding.  	0
 Paging the Nard Dog 	 2015-03-30 07:41:06 	  	0
   	 2015-03-30 19:34:55 	 Roger Workman 	0
   	 2015-03-31 20:36:33 	 One of the most overused phrases on this sub, dude.  	0
   	 2015-04-02 22:03:42 	 Why is he being defined as a villain? 	0
   	 2015-04-03 00:05:55 	" He wasn't a friend to the MC, but he wasn't a villain either. I guess we'd have to establish what we mean by ""villain."" If you're implying anyone against the MC, then he would qualify. But that's like saying Hank is the villain of Breaking Bad because the main character is Walter White.  "	0
   	 2015-04-06 20:18:44 	 One more thing....does she know her daughter is still alive *cue the trumpets 	0
   	 2015-04-06 20:50:56 	 I had the same reaction as you OP. But it was a really cool throw back to 70s/80s horror films with a peculiarly interesting new story. I think I appreciated it more than I liked it, if that makes sense.   	0
   	 2015-04-06 21:15:48 	 That's what I mean by throw-back. The director was intentionally vague about the timeline. I mean, just the use of cellphones and whatnot, we can deduce it's a modern day movie, but the heavy use of synth music and the old-style movie theater, the cars, the black and white TVs. It was done intentionally to give you wide range of impressions and feelings. I suppose that doesn't work for everyone, but I enjoyed it.  	0
   	 2015-04-08 00:46:10 	 He killed David Palmer too, you know. Fuck that guy.  	0
 Musicians of r/movies, what movie inspired you to take up your instrument? 	 2015-04-10 02:19:01 	 That Thing You Do inspired me to take up drums (for I am Spartacus) when I was a child. I'm a guitarist now, but always credit that movie as getting me started. What're yours? 	0
   	 2015-04-10 03:15:12 	 Are you saying you cannot be inspired by movies?  	0
   	 2015-04-10 05:10:35 	" And what do you say about music in movies? Or movies about music? You don't think that can be inspirational? Maybe I wasn't clear in my title. I didn't mean ""What action scene inspired you to play the trombone?"" lol  "	0
   	 2015-04-10 05:12:42 	 Yeah! I loved Whiplash and it definitely made me want to play percussion again.  	0
   	 2015-04-10 06:18:21 	 Especially their jam session at the end. I agree. 	0
 Defend your favorite movie against its harshest criticism 	 2015-04-16 18:35:23 	 What is your favorite movie, its criticism and your defense for said criticism? 	0
   	 2015-04-16 18:52:41 	 Hahaha this is a good example of what I'm looking for though. I actually didn't see either of the newer Spidermans. Rebooting the Batmans made sense to me (because of years passed and newer technology) but Spiderman just seemed way too soon. I heard they were good though.  	0
   	 2015-04-16 20:52:02 	 Armageddon is hated by most because of the scientific inaccuracies. I'll take the experts' word for it, but it doesn't change the fact that it has great lines, great characters and a fun plot. It is not my favorite movie, but if you start complaining about the accuracy of this movie's elements, then you might as well discredit every movie because I'm sure you can find a bullshit in every single one.   	0
   	 2015-04-16 23:47:57 	 Doesn't sound too bad. I'll try to stay awake.  	0
   	 2015-04-17 18:26:11 	 It is all about that East Valley :) Gilbert for the win! 	0
   	 2015-04-20 23:06:34 	 You smoke weed? That's awesome!!!!! 	0
" ""What movie does this song remind you of?"" "	 2015-04-21 18:52:04 	 What're your classic 'you hear a song, you think of the movie' songs? I can't hear Somebody to Love and not immediately think of the Cable Guy.  	0
   	 2015-04-21 18:58:23 	 Yeah, and wow that was such a perfect song for that scene. You just can't hear it nowadays without getting psyched up.  	0
   	 2015-04-21 19:46:47 	 Ah see, Paint it Black always makes me think of Full Metal Jacket. But then so does Surfin Bird. I was gonna say Wooly Bully too, but that song actually makes me think of Happy Gilmore.  	0
   	 2015-04-22 23:17:16 	 Django is American too.... 	0
 If unpopular r/movie opinions suddenly became popular, what statements would be top comments? 	 2015-04-23 22:36:59 	  	0
   	 2015-04-24 00:29:53 	 One of the dumbest assessments I have ever seen. Cry baby. 	0
   	 2015-04-24 01:03:45 	 I said you're a cry baby 	0
   	 2015-04-24 19:06:30 	 Get over yourself and your idiotic desire to make all things PC. So tired of you liberal babies bitching over what hurts your sensitive feelings.  	0
   	 2015-04-24 23:24:45 	" No. You're just a liberal baby. Your post screams ""I'm uncomfortable by gay jokes.""  "	0
   	 2015-04-25 00:11:55 	" Is that what you call complaining about ""gay jokes?"" lol  "	0
   	 2015-04-28 17:26:03 	 Listen, I hate to defend Adam Sandler, but shut up.  	0
 What make's 'Galaxy Quest' so damn amazing? 	 2015-04-28 17:28:14 	 I seriously love this movie to death, but I always considered it just a guilty pleasure- the assumption being no one else really likes it too much. Turns out everyone I know loves this movie too. What does Reddit think? 	0
   	 2015-04-28 17:39:54 	 I agree, its satirical without being slapstick. Not an easy venture as so many movies (like you mentioned Scary Movie series) go for the cheap laughs.  	0
   	 2015-04-28 17:45:45 	 Don't open that! Is there air? You don't know! 	0
   	 2015-04-28 17:47:20 	 I think Scary Movie fails because its Scary Movie haha Off topic here, but I think they got better when the Wayan's brothers weren't involved.  	0
   	 2015-04-28 17:48:26 	 At least you're raising your children right! Never give up, never surrender!  	0
   	 2015-04-28 17:57:08 	 You should ask if you can swap your 15 minute break for a free pass to slap a customer instead.  	0
   	 2015-04-28 18:28:24 	 He looks like T-Bag from Prison Break.  	0
   	 2015-04-29 00:14:08 	 Shut your bucket.  	0
   	 2015-04-29 21:01:49 	 YOU BETRAYED THE LAW 	0
   	 2015-04-29 21:22:00 	 ROBOT, RIP HIS ARMS AND LEGS OFF! *you can basically quote this entire movie in yells and capital letters and nobody will hassle you for it* 	0
   	 2015-04-29 21:25:01 	 I know I can't prove this, but I use this quote at least once a week.  	0
 If you ever worked at a Blockbuster or video store 	 2015-04-29 23:08:06 	 Tell some stories about your days! Things that got on your nerves, interesting movie requests, celebrity sightings (and what they rented obviously) and so on!  	0
   	 2015-04-29 23:13:37 	" I never worked in a video store, but when I was a kid, I was obsessed with Heather Graham. I used to banter with the guys who worked there who told me she was in the movie ""The Great Outdoors."" I knew he was wrong, so I bet him she wasn't in it. I'd give him five bucks if she was or get the movie ""Pay Back"" starring Mel Gibson on VHS for free if she wasn't. I got to take ""Pay Back"" home with me that day. That's the extent of my Blockbuster stories.  "	0
   	 2015-04-30 17:27:36 	 Yeah, the neighborhood chick that Buck diddles with the pool cue.  	0
   	 2015-05-01 01:02:35 	 WHO THE FUCK UPVOTES THIS SHIT?? 	0
 What's the biggest debate/argument you have ever gotten into about film? 	 2015-05-01 18:29:36 	 Verdict? 	0
   	 2015-05-01 18:49:07 	 What other reasons? He thought Robin Williams would be a better Batman? 	0
 What's the best fake sequel title you can think of? 	 2015-05-04 20:33:34 	 The fake sequel to a movie that explains the premise in its title 	0
   	 2015-05-04 20:33:51 	 City Slickers 3: Come and Get Me 	0
   	 2015-05-04 20:39:07 	 I had never even heard of this and had to look it up. Any good? 	0
   	 2015-05-04 20:58:41 	 They should play that as a Double Feature with Judd Apatow's next movie: The is 41: Debbie dies 	0
   	 2015-05-04 20:59:35 	 This time Gary Sinese actually gets to go.  	0
   	 2015-05-04 21:00:21 	 The anticipated third installment: Fun with Wick and Jane 	0
   	 2015-05-04 21:30:25 	" I'll see this if Bill Paxton returns to talk about his small dick more and drop words like ""buttermilk"" again.  "	0
   	 2015-05-04 22:34:59 	 John McClane in a battle against himself....to quit smoking.  	0
   	 2015-05-04 22:50:34 	 I liked this one a lot. Completely unexpected.  	0
   	 2015-05-06 23:07:06 	 Trace Buster Buster! 	0
 Out of all the deceased actors/actresses... 	 2015-05-07 00:43:50 	 Which dead trio would you like to see come back and make a movie? And what would it be about? 	0
   	 2015-05-07 01:38:50 	" Alan Rickman doing his ""Bill Clay"" in Die Hard still throws me off. I literally have NO IDEA where the difference in his accent is supposed to be. ""Ahhhh! Ahh!! You're one of them!"" I'm like...we know its you, Hans.  "	0
   	 2015-05-07 17:28:26 	 The first and second Left Behind weren't bad at all (insanely better and closer to material than Nick Cage's) and Like Father, Like Son is still hilarious.  	0
 What does r/movies think is little-known information, but is actually common knowledge? 	 2015-05-07 17:36:57 	" Any post where Starship Troopers in mentioned, a long line of posts pop-up saying ""you know its satire, right?"" as if they are blowing minds. What're yours?  "	0
   	 2015-05-07 17:45:22 	 I know folks hated it, but I loved the circlejerk r/movies did on April 1 with Leo and his hand. Def illustrates my point.  	0
   	 2015-05-07 18:28:51 	" Another ""mind blowing"" fact that gets brought up is John Cazale.  "	0
   	 2015-05-07 18:37:06 	 I agree. It wasn't a bad movie at all, but there was nothing unique about it.  	0
   	 2015-05-08 21:33:26 	 I seem to always get downvoted when saying ANYTHING remotely critical of this movie, but there just isn't anything special or unique about it. I agree, it's a great movie and there's nothing fundamentally I would change about it, but I feel like people (younger people in particular) see this as their Stand By Me. It is a very good movie, but really isn't something we haven't seen before. Go ahead. Downvote me.  	0
   	 2015-05-11 17:13:19 	" ""You still don't get it, do you?"" "	0
   	 2015-05-13 22:03:29 	 That's not the point the writer was making. But thank you for telling us something we already know.  	0
   	 2015-05-14 00:45:41 	 Too many. I wish kids would stick to FB and leave Reddit alone.  	0
 Burn After Reading 	 2015-05-14 21:28:50 	 I know this movie wasn't received very warmly, but I find it strange that even Coen bros fans don't place this one too high. It is in the same vein as The Big Lebowski in that it is a big much ado about nothing and characters with very familiar and strange quirks. What does R/movies think? 	0
   	 2015-05-14 22:25:13 	 I can't believe that movie got made. Seriously.  	0
   	 2015-05-15 16:21:14 	 It's a terrible premise combined with terrible characters with a mix of terrible dialogue.  	0
   	 2015-05-15 19:39:00 	 I think I know.  	0
 TIL Bernie Sanders was born Bernie Mac and has been dead for years. I'm using a Ouija Board to contact him! AMA!!! 	 2015-05-15 22:01:05 	 Kevin Bacon will be joining and Victoria will be helping out today! 	0
   	 2015-05-18 20:54:20 	" ""I had better sex in prison"" "	0
   	 2015-05-19 00:20:40 	 You like Osso Bucco, Charlie? 	0
   	 2015-05-19 19:02:32 	 I don't care what Neal's doing. Where's Charlie? 	0
   	 2015-05-20 01:46:02 	 There's so much content in the Bible that it is very easy to forget and overlook aspects like this. This was helpful for me too, and I really appreciate you posting. Thank you :) 	0
 What actors/actresses have disappeared? 	 2015-05-20 02:44:38 	  	0
   	 2015-05-20 03:08:19 	 You gave me this tiny winkie 	0
 What actor has the least amount of range? 	 2015-05-20 05:02:35 	 They play only ONE character and any deviation is uncomfortable and awkward. Who fits that bill? 	0
   	 2015-05-20 05:12:57 	 Charming, suave, loveable? I agree. Fuck him.  	0
   	 2015-05-20 05:13:57 	 Rumor is he won't take a part unless half his lines can be screamed in someone's face.  	0
   	 2015-05-20 05:49:39 	 I'm just razzin. I mean, you never know, but I doubt it. 	0
   	 2015-05-20 06:38:16 	 What the hell is the matter with you? 	0
   	 2015-05-20 06:39:34 	 How dare she have a face! The nerve... 	0
   	 2015-05-20 06:42:16 	 RAUUUUUUUUUL 	0
   	 2015-05-20 06:47:53 	 Can you do a Mummy porn? Rick and Evie but then Imotep shows up and joins in? 	0
   	 2015-05-20 07:16:23 	 Its all in good fun, man. Different strokes.  	0
   	 2015-05-20 07:20:14 	 Watch it again. Still holds up.  	0
   	 2015-05-20 08:00:12 	 How did he disappear?  	0
   	 2015-05-20 17:48:13 	 and I worry about the dolphins 	0
   	 2015-05-20 18:38:27 	 Elliot, so Smelliot, whats up dudester? 	0
   	 2015-05-21 01:00:29 	 Reddit knows who he is, thank you.  	0
   	 2015-05-22 20:37:34 	 You could go either way here. Ace displayed a lot of lunacy when he was playing chicken with the truck. He was obviously prepared to be killed in order to prove his balls were huge. However, you don't see that same kind of ballsiness when he's held at gunpoint. He allows himself to submit in front of his friends and walk away defeated. This all being said, I think he is capable of killing Chris BUT it also may have just been another game of chicken.  	0
   	 2015-05-27 00:04:42 	 Depends on your views of the afterlife ;) As a Christian, there aren't too many movies (at least not that I can think of right now) that depict the afterlife as I believe it. I'm going to go with Beetlejuice. I think it was a super creative approach to the subject.  	0
 Have you ever actually met someone in film? What were they really like? 	 2015-05-27 02:51:47 	 Unload your garbage here.  	0
   	 2015-05-27 02:57:26 	" I met Tom Green once after one of his standup shows. His standup, albeit not too great, really humbled himself and he fessed up to knowing he screwed up in showbiz. Kind of made you think the guy was approachable and not just a total weirdo. So, afterwards, I walk up to him just to thank him for his work and whatnot, and the man wouldn't even look me in the eye and respond accordingly. He had this shitty ""oh great another fan"" way about him that really turned me off from him.    "	0
   	 2015-05-27 03:03:17 	 Damn it. I like Tucci, but he really does seem like he's capable of being a real prick in real life.  	0
   	 2015-05-27 03:07:18 	 I believe in heaven and hell. Everlasting paradise and everlasting misery. I think without taking artistic liberties, its kind of hard to make a movie about. Does that make sense? I could be wrong though. There may be a movie I haven't seen or forgot about.  	0
   	 2015-05-27 03:14:03 	 Ben Stein actually seems like he'd be a cool dude to bbq with and shoot the shit.  	0
   	 2015-05-27 03:37:31 	" Oh, I misunderstood. I don't suppose they look like anything. Paradise is of course subjective, so I don't believe one is a penthouse suite and the other a fire pit, although there are passages to ""lake of fire"" in Revelation. Again, that could be imagery. What I meant initially, is I don't know of a movie that accurately shows a person dying and then living in Heaven for the remainder of the movie, or vice versa.  "	0
 What are some annoying r/movie bandwagons? 	 2015-06-03 00:28:30 	" Personally, I get sick of everyone constantly bashing The Happening and posting ""what? no!"" every time it is mentioned. What do you see way too often? "	0
   	 2015-06-03 07:46:45 	 The movie was def cool. That being said there are plenty of cool movies that ALSO don't deserve the insane hype and posts. 	0
   	 2015-06-03 19:57:31 	 I love that Captain Amazing is ACTUALLY billionaire Lance Hunt, but no one knows. Because Lance Hunt wears glasses. Captain Amazing doesn't wear glasses. IT DOESN'T MAKE ANY SENSE! HE WOULDN'T BE ABLE TO SEE! 	0
   	 2015-06-03 21:36:33 	 No, its just one of my all time favorites.  	0
   	 2015-06-05 17:48:24 	 Only God Forgives. You all know why.  	0
   	 2015-06-05 19:59:29 	" Different strokes. I know some people really like it because they claim they ""got"" it. Its just too out there for me. Slow. Unclear. Artistic? Not my thang.  "	0
   	 2015-06-08 17:14:06 	 In City Slickers 2, Mitch's daughter Holly makes an appearance but when asked about her little brother, she claims he is hiding.  	0
 Let all your bitching out 	 2015-06-10 06:33:56 	 What bugs you about movies, theaters, r/movies and more? You get a full license to bitch and complain about what drives you nuts about certain movies or about those whose opinion differ.  	0
   	 2015-06-10 06:35:40 	 I am sick of everyone treating Armageddon like it is awful. Cut the movie some slack. You can find flaws in ANY movie about space. It is supposed to be fun and goofy and I'm really tired of people, r/movies especially, putting it down so frequently.  	0
   	 2015-06-10 06:42:09 	 I agree to an extent. I decided a long time ago I'll never do a midnight showing of any movie. I also hate 3D movies- but only because it hurts my eyes. But prices alone are ridiculous. Movies can def be enjoyed at home usually with as much fun.  	0
   	 2015-06-10 07:01:40 	" Truthfully, I'm not a huge fan of them myself, but I understand the appeal and I think too many people want to ""stand out"" from the ""sheeple"" and claim they suck for no other reason than just to be a douche. Like what you want to like. There's a reason they make so many superhero movies and that's because so many people like them. "	0
   	 2015-06-10 07:23:57 	 Completely agree. You're either a conformist or a dipshit if your opinion is different. There is no middle ground.  	0
   	 2015-06-12 17:28:09 	 This was pretty close to my favorite movies list when I was 16 too. Honestly your favorite movies are your own preference, and its really hard not to adore the classic, but the more films you see, the more your taste will change slightly and you'll find yourself being interested in films you never thought you would. Solid list though. 	0
   	 2015-06-12 21:24:03 	 Nice baby. What are you supposed to be, a secret agent? 	0
   	 2015-06-12 21:26:01 	" Racism or the lack aside, that movie was so unbelievably unwatchable. It was the same joke the entire movie. Will Ferrell acts un-hard and Kevin Hart delivers his ""What are you doing?!?!?"" line. That's Get Hard in a nut shell.  "	0
   	 2015-06-12 21:29:59 	 I read this twice. I still don't know what he's talking about.  	0
   	 2015-06-12 21:34:58 	 That's like saying I wouldn't take Daryl as a baby over Rick as a baby.  	0
 Dark Knight question 	 2015-06-16 04:22:46 	" During the interrogation scene, the Joke tells Batman ""Don't talk like one of them. You're not. Even if you'd like to be."" Now obviously he's referring to the police or anyone in empowered to keep Gotham safe, but by saying that, was he just trying to get under Batman's skin, or was he saying that he thinks that's Batman's motivation? "	0
   	 2015-06-16 18:38:15 	 You're not Jonesy 	0
   	 2015-06-16 18:39:10 	 Logjammin' 	0
   	 2015-06-17 18:50:32 	 Far and away the only one.  	0
 What two characters from two different movies would make an entertaining and well-matched fight? 	 2015-06-17 22:58:31 	 For example Maximus from Gladiator and William Wallace from Braveheart come to mind.   	0
   	 2015-06-17 23:09:39 	 LaMotta is way angrier than Rocky, but that didn't work out so well for Clubber Lang, so I'm going with Rocky. He's got the heart.  	0
   	 2015-06-18 06:43:16 	 My favorite by far 	0
   	 2015-06-18 19:34:50 	 Just heard that Henry from Blank Check died today or yesterday :/ 	0
   	 2015-06-18 19:35:36 	 I swear to God if someone brings up John Cazale, I'm going to lose it.  	0
   	 2015-06-18 20:55:57 	 It is just a peeve of mine. I'm sure there are people who genuinely don't know that, but if they spent a week on r/movies they would know.  	0
   	 2015-06-18 23:26:25 	 When Lost in Space came out, I was probably 10 or 12. My dad used to drop my brother and I off at the movies while he was working (this was during summer) and we watched Lost and Space over and over and over again and loved it. Great movie for a kid. Watched it recently and still loved it BUT finally realized why so many didn't.  	0
   	 2015-06-18 23:28:39 	 Reddit is the only place I know where Armageddon is put down so heavily. It's far from one of the greats, but if you saw it growing up, you didn't give a shit about realism or cheesiness. It was pure awesomeness. I have a feeling its the hivemind or anit-michael bay bandwagon at work, because no one outside this site slams that movie like Reddit does.  	0
 What do movies always get wrong about peoples' jobs? 	 2015-06-20 17:39:26 	 If you saw your job being represented in a movie, what did they get wrong about it? 	0
   	 2015-06-20 21:00:13 	 Or a server in NYC is able to afford a 3-bedroom apartment. Yeeeeeah. 	0
   	 2015-06-22 18:35:03 	" Okay, I completely understand the point you're making and you're 100% correct, but you don't actually believe Dances with Wolves is anything like Last of the Mohicans, right?
 "	0
   	 2015-06-23 00:10:10 	 Who's this fat man then, eh? Eh? 	0
   	 2015-06-23 00:26:50 	 Hey Bill welcome back! 	0
   	 2015-06-23 02:36:38 	 I would speak to a pastor about this issue. Jesus calls it adultery, but then so is looking at a woman with impure thoughts. Who isn't guilty of that? I would say if she is a believer, you're probably okay, but seek wisdom through prayer and the council of wiser men than myself.  	0
   	 2015-06-23 06:30:52 	 May I ask what passage leads someone to that interpretation?  	0
   	 2015-06-24 19:26:16 	 I think this is a pretty solid analyses. The shaky cam didn't bother me so much, and probably wouldn't have even thought to mention it, but different strokes.  	0
   	 2015-06-24 19:34:40 	 I remember renting Weekend at Bernies. Like vividly. Good days.  	0
   	 2015-06-24 21:36:56 	 This is most overused post in this sub. Does that help? 	0
   	 2015-06-25 01:00:08 	 You watch too many movies.  	0
   	 2015-06-25 23:43:46 	 Watching Hugh Jackman get a BJ in Swordfish next to my mom in the theater. So. Much. FUN! 	0
   	 2015-06-25 23:45:24 	 That blooper where the turn around to huddle and immediately lose it kills me.  	0
 What character trait or quirk about a villain made them especially endearing to you? 	 2015-06-26 04:33:39 	 I really love that Ben Wade in '3:10 to Yuma' was able to recite the Bible like it was nothing, despite being a murderer, thief and even admitting to be 'rotten as hell.' What're yours? 	0
   	 2015-06-29 20:03:18 	 White Horse Inn subscriber here. I love their discussions on Moralistic Therapeutic Deism. 	0
 Your worst nightmare 	 2015-06-30 00:49:14 	 Your all-time favorite movie just got remade. What is your worst nightmare about this hypothetical remake? 	0
   	 2015-06-30 00:56:31 	 Can you elaborate? haha All I know now is that you don't like VV.  	0
   	 2015-07-01 00:15:50 	 The Blurr belongs to Butch.  	0
   	 2015-07-01 00:17:28 	 Look, I know I am in the minority on this one, but there is such a thing as too much Chris Pratt, and I'm concerned its already gotten to that point.  	0
 Why talk trash on Bovada? 	 2015-07-01 01:52:59 	 I don't know if people are genuinely unable to hold their tongue or if it is an attempt to tilt players, but the amount of name-calling and insulting is astounding. Anyone have any insight into the major motivation of trash talk? Or, if you talk trash yourself, why do you do it? 	0
   	 2015-07-01 02:04:54 	 Fair enough. 	0
   	 2015-07-01 02:11:19 	 Yeah, I suppose that's true. You wouldn't catch any of these guys flapping their gums in a live game.  	0
   	 2015-07-01 02:12:13 	 So is the one posting against their trash talk. What's your point? 	0
 Anti-Christ 	 2015-07-02 18:41:32 	 I know different sects of Christianity carry separate opinions on who or what the Anti-Christ and False Prophet are, but I was curious to hear some separate ideas. This post was inspired by another this morning concerning the End of Times. So, in being respectful with each others' views, what is your take or interpretation? 	0
   	 2015-07-02 19:06:59 	 At the end of the day, it remains speculation until we know for sure AND you're right, it all leads to Christ's return anyway. But I wouldn't say it's not worth wondering about. God included it in His Word for a reason, you know? 	0
   	 2015-07-02 20:37:13 	 If only we were as wise as you.  	0
 Why has r/movies been set to private? 	 2015-07-03 07:40:11 	  	0
 What's with the obligatory shove all-in after the player lost a big pot in the previous hand? 	 2015-07-03 19:53:44 	 A player will only lose half their starting chips in a hand, and the next hand they shove pre-flop. Why is this such a common thing? 	0
   	 2015-07-03 19:57:32 	 It is insane though because they will be all in with still half their stack. It isn't as if they're down to 4 BBs. They will still have a lot of chips to play with but shove every.single.time. 	0
   	 2015-07-03 20:16:07 	 Oh sorry. Bovada tournies. Real cash.  	0
   	 2015-07-03 20:30:19 	 Yeah I guess I am just seeing it in ridiculous situations. Everyone starts with 1,500 chips. A players loses maybe 600 of theirs in a hand. The next hand, the shove with their 900. It just doesn't make sense. .  	0
   	 2015-07-03 21:04:37 	 But you know real cash from play money right? Buy-ins are $50 	0
 Who is the evilest film villain who never killed someone? 	 2015-07-06 06:31:25 	 I was watching Nightcrawler with my lady and realized what a complete sociopath Lou is, despite killing anyone. Who else comes to mind? 	0
   	 2015-07-06 06:38:04 	 Really interesting answer lol It has been a while since I've seen Congo, but I thought they did kill some people? 	0
   	 2015-07-06 06:38:18 	 Yeah, solid answer Truly sick.  	0
   	 2015-07-06 07:03:31 	 Yeah, it's a technicality for sure. But he still didn't take the life himself. Might as well have though.  	0
   	 2015-07-06 07:11:47 	 These are all good points, but I feel like my point may be lost in interpretation. I'm saying he never actually killed anyone that we're aware of. 	0
   	 2015-07-06 07:34:47 	 Nah it's cool. Your comment also made me remember that he beat the hell out of that security guard in the beginning and we never find out if he killed him or not.  	0
   	 2015-07-06 07:35:51 	 Maybe I'm not thinking clearly, but who is Gru? 	0
 In honor of the countdown, an oldie but a goodie! 	 2015-07-07 02:06:28 	  	0
   	 2015-07-07 02:35:30 	 To football! 	0
   	 2015-07-08 18:12:10 	 I could not agree more. Aaron is the man. But that actor is terminally attached to Secret Service and law enforcement roles.  	0
   	 2015-07-08 18:49:28 	 Daphne's Room is my favorite. So. Damn. Funny.  	0
 Anyone want to take a stab at Reddit writes Frasier? 	 2015-07-08 18:52:11 	" I love what Reddit does for Seinfeld, and with the amount of love this sub gets, I have to think that one of you could put together a scene. I don't possess that unique talent, but does anyone here want to give it a try?
Maybe to help get these started, I'll use a prompt I used in one of the comment below 
**After accidentally ruining the ending of a new movie on his radio show, Frasier faces major backlash from Seattle and Roz who really wanted to see it. Meanwhile Niles believes he is getting a dog allergy to Eddie**
Maybe something like that? "	0
   	 2015-07-08 20:12:17 	 I'll be waiting at Duke's. 	0
   	 2015-07-08 21:26:07 	 I'm sure everyone will appreciate it! Thanks! 	0
   	 2015-07-08 21:57:16 	 Its the same format used in https://www.reddit.com/r/RedditWritesSeinfeld  	0
   	 2015-07-08 21:58:14 	 Kind of like keeping the show going, but without changing what happened. Like it if you were to pick up somewhere in the middle of the show. 	0
   	 2015-07-08 23:04:40 	 You'll have to forgive me, as I don't write for Seinfeld, but my understand is you can give a writing prompt- a situation each character is going through- and then let other redditors fill in the dialogue with what they believe will be said by the characters. Maybe something like  'Frasier accidentally ruins the ending of a movie on his show, prompting major backlash from his listeners and Roz herself.' Just an idea.  	0
   	 2015-07-09 07:50:07 	 This was fantastic! I could seriously hear the laugh track in my head at certain parts. After posting, I thought this may be trickier than Seinfeld as Frasier uses a lot of more.....cultured?....references, but you really tackled them here. I'd def be down to read more if you're inclined :) 	0
   	 2015-07-09 20:15:36 	 wat 	0
   	 2015-07-09 20:18:50 	 I don't know the best....but I know the worst....Bennett from Commando. Are you fucking kidding me with this name? 	0
   	 2015-07-09 20:32:32 	 John.....I'll be waiting John... 	0
   	 2015-07-09 20:37:47 	" Cracked did an article years ago about mismatched fights in action movies. Commando was mentioned. The writer described Bennett hysterically. Something to the effect of ""he looks like the fat kid in the pool who doesn't take his shirt off"" and ""he's dressed like he's on the receiving end of bondage."" Good shit.  "	0
   	 2015-07-10 07:17:01 	 Honestly, I'm humbled by the efforts in this post and really, really wish I could make a contribution. I'm usually that guy who ruins the on-going joke, so best leave it to people like you and u/MarkyMark8 to do the honors. Thank you guys :) 	0
   	 2015-07-15 02:19:17 	 Maybe OP wants to give an example of what he means? What writing are you referring to? Dialogue, plot, scene structure? I feel like this is a confusing post.  	0
   	 2015-07-15 02:22:30 	 The Mummy Returns doesn't even have a title.  	0
   	 2015-07-15 02:24:23 	 I feel like I have to like your username 	0
 What movie or subject is promised to start an argument in this sub? 	 2015-07-15 02:27:23 	 Everyone seems to disagree on the definition of plot holes and cameos. This sub also can't seem to make up their mind on Marvel movies. Any time these are mentioned, hilarious arguments ensue. What else?  	0
   	 2015-07-15 03:17:22 	 Idk why everyone just got downvoted. You literally answered my question.... 	0
 What are the bigger topics or decisions that poker players debate with each other? 	 2015-07-15 06:20:32 	 How to play a hand for example, or styles. What are the issues most commonly debated? 	0
   	 2015-07-15 07:37:32 	 I like to have WSOP on while doing online tourneys are literally just heard Norman Chad say that moments before reading this haha your point has been made. 	0
   	 2015-07-16 22:24:37 	" John Ritter. He was even the ""model"" father in North at the end of North's list of parents. He's perfect.  "	0
   	 2015-07-16 22:29:11 	" I always get misty at that scene. Specifically when he starts crying. Tom Hanks is seriously solid for making people feel sad in that scene. I remember in theaters when Wilson first plops into the water while Hanks is sleeping, MANY murmured ""oh no!"" Incredible movie.  "	0
   	 2015-07-16 23:14:41 	 To be fair, and I'm not suggesting you are doing this, there are A LOT of people who start claiming collusion in some of the sit n go tourneys when they start losing. In a particular hand (you'll have to forgive me as I don't recall specifics), I was dealt small pocket pair like 2s and raised from late position. Big blind called me and it was heads up. Flop was a bunch of faces and he and I checked it down. Turned out he had a smaller pocket pair. But another player,small stacked and not in the hand, started accusing he and I of colluding. I think it may be a way of some players acting out their tilt. In your case, it does sound different however.  	0
   	 2015-07-17 01:20:43 	 Oh I wasn't implying you were paranoid. It reads like cheating to me too.  	0
 A History of Violence 	 2015-07-17 01:28:06 	 I'm a little confused about something. When the local police are investigating Tom on his identity to see if there is any weight to the mob's claim that he is someone else, why are they simply just asking him? Couldn't they actually do some investigation (SSN, birth cert, etc...) to verify his identity? He's a pretty popular member of his community.  	0
   	 2015-07-17 01:31:57 	 Not to mention, if the claim is true, he could be a very dangerous fugitive on the run. 	0
   	 2015-07-17 01:46:07 	 They still make them, but no one sees them. I could still get down all day on 3 Ninjas :) 	0
   	 2015-07-17 01:56:42 	 Spot on. Spot. fucking. on.  	0
   	 2015-07-18 05:31:52 	 Hahaha my bad, was writing on the go. But you get the gist.  	0
   	 2015-07-20 20:07:22 	 Why do you say that? Not trying to be argumentative, but it seemed like a great board for AK. I'm newer, so I'd appreciate the insight.  	0
   	 2015-07-20 21:07:04 	 Cliff! 	0
 What movies have extremely misleading marketing? 	 2015-07-20 21:28:52 	  	0
   	 2015-07-20 21:30:00 	 When Godzilla came out, Bryan Cranston dominated every TV spot. When we went and saw it, my friends and I were seriously upset when his character died 25 minutes into the movie.  	0
   	 2015-07-20 21:37:26 	 I have to disagree with you. It was obvious that Godzilla used Cranston to sell the movie in the trailer. Their marketing wasn't as strategic as your comment may suggest.  	0
   	 2015-07-20 21:43:22 	 Observe and Report was very similar. It looked so goofy and ended up being wayyyy weird and dark.  	0
   	 2015-07-21 00:09:11 	 I don't recall seeing the preview. Can you elaborate? 	0
   	 2015-07-21 01:27:51 	 I did, yes. I thought it was pretty good actually.  	0
   	 2015-07-21 04:52:50 	 False advertising. At least that's my complaint. If he wasn't such a huge part of the trailer, it wouldn't bug me in the slightest. But it was advertised like he was the star and it is very clear why they did that. For example, it didn't bug me in the slightest that Ben Affleck was killed off immediately in Smokin Aces. Everyone knew he was in it, but it wasn't marketed like he was the star. Huge difference.   	0
   	 2015-07-21 19:14:30 	 So, you're saying they didn't use Cranston to sell the movie? That's your position?  	0
   	 2015-07-21 19:31:50 	 Casting a better Clown than Jon Leguizama-nagga-nagga-whatshisname would be difficult. He was so damn disgusting and amazing in that role.  	0
   	 2015-07-21 19:32:47 	 WHAT.....FUCKING......IAN GUY?! 	0
   	 2015-07-21 19:38:32 	 its a COSBY SWEATAH!!!! 	0
   	 2015-07-21 21:58:42 	 Ah I didn't know HBO had a series. Was it live action or animated? 	0
   	 2015-07-21 23:11:52 	 I am so sorry to take up your valuable time on Reddit. But here are the facts of the situation. Bryan Cranston, hot off his Breaking Bad fame, get casted in a new blockbuster where he, and HE ALONE, dominated the trailer. You can defend as much as you want, but it doesn't change the fact it was marketed as though Cranston would be a bigger part of the movie. And why wouldn't they? People like me who have no interest in Godzilla, but have an interest in Break Bad's star would go see the movie. You have not made one concrete point to the contrary. I'm sorry you're annoyed, but your position is tough to defend when there are 30 different trailers you could pull up to prove my point.  	0
   	 2015-07-22 00:26:31 	 No, but I apparently am not the only one who was misled judging by comments and posts in this thread and sub.  	0
   	 2015-07-22 00:34:52 	 The worst Frasier fan theory I have ever heard. 	0
   	 2015-07-22 00:44:02 	 You either completely misunderstood what OP posted, or you're a troll. Pick one.  	0
   	 2015-07-22 00:47:23 	 I'm not bashing Wes Anderson, because for the most part I enjoy his work, but I really don't think he's the creative genius r/movies makes him out to be. Just an opinion.  	0
   	 2015-07-22 02:28:57 	 lol okay man 	0
   	 2015-07-22 07:53:08 	 You don't know what you're talking about. That much I can assure you.  	0
 Non-Americans of r/movies, what movie have you always assumed American culture? 	 2015-07-22 07:55:41 	 As an American, for example, I always assumed Russia exactly like it is in Rocky 4. What're your perceptions?  	0
