title	date	text	class
 Isle of Skye, largest   most northerly large island in the Inner Hebrides of Scotland [1600 X 1067] by Infinity Visions 	 2015-03-04 01:56:30 	  	0
 One of Portugal 7 wonders, the 7 Cidades! by Christophe Afonso [1024 X 576] 	 2015-03-07 14:46:37 	  	0
   	 2015-03-07 16:10:24 	 Your work is perfect, shot perfectly... 	0
 Beautiful Sunset in Zion National Park, Utah, United States [2000 X 1333] by Benjamin Schaefer 	 2015-03-10 17:40:41 	  	0
 Rising Ruggedly by Trevor Anderson. The North Cascades, United States in dramatic sunset light. [900 X600] 	 2015-03-11 17:30:08 	  	0
 Sakrisy is Lilliput among the fishing villages of the Lofoten Islands, Norway [998 X 655] 	 2015-03-13 14:06:10 	  	0
   	 2015-03-14 13:41:49 	 No.. 	0
 Autumn on clouds at Fujiyoshida Japan by Takashi, [2048 X 1365] 	 2015-03-14 14:04:05 	  	0
 A Stunning view from most amazing landscape at France by Mr Friks Colors [2000 X 1335] 	 2015-03-16 13:46:39 	  	0
 Is this view of heaven? No, it's Grand Canyon, Arizona [2048 X 946] by Craig Philpott 	 2015-03-17 14:02:06 	  	0
 And the storm moves away.Beautiful village Queralb, Spain[2000 X 1143] 	 2015-03-18 14:09:26 	  	0
 White and Black Mount McKinley in Alaska [2048 X 1366] by Matthieu Gallet 	 2015-03-20 14:05:12 	  	0
 March 20, 2015 - Solar Eclipse, seen at 300mm! 	 2015-03-21 13:30:38 	  	0
 Veiled in mystery! At Rallon, France [2048 X 1365] by Nicolas Laverroux 	 2015-03-21 14:03:01 	  	0
 Desert Lighthouse - A hoodoo in Arches National Park with the Milky Way in the background. Utah, USA [2048 X 1365] by Brett Mann 	 2015-03-23 14:05:45 	  	0
 UNESCO fishing village Nusfjord, Norway [1500 X 985] 	 2015-03-24 13:10:48 	  	0
 Sunset Over the beautiful Mountain, Vek Fatra, Slovakia [1914 X 917] [OC] 	 2015-03-24 13:59:43 	  	0
   	 2015-03-25 05:28:30 	"  s anywhere

no
 "	0
   	 2015-03-25 05:38:35 	"  UNESCO site.

UNESCO fishing village Nusfjord, Norway. Check it https://www.youtube.com/watch?v=pWXQRkwQcD8
 
http://www.tripadvisor.in/ShowUserReviews-g1913901-d1494469-r117088858-Nusfjord_Rorbuer-Ramberg_Flakstadoy_Flakstad_Municipality_Nordland_Northern_Nor.html
 "	0
   	 2015-03-25 07:58:03 	 Thanks 	0
   	 2015-03-25 11:35:55 	 Thanks a lot bro 	0
   	 2015-03-25 12:55:57 	 Welcome 	0
 One of the most beautiful place on the earth, Trabzon, Turkey [960 X 960] 	 2015-03-25 13:41:03 	  	0
 Desert Octopus at Ermillion Cliffs National Monument, Arizona. by Alex Mironyuk [2048 X 1233] 	 2015-03-25 19:44:49 	  	0
 Italian Evening - Ssunset at beautiful village Vernazza [1200 X 765] 	 2015-03-27 13:08:48 	  	0
   	 2015-03-27 13:18:39 	 What is RF license. If I visit the page, the error page is open  	0
 Gates to the Valley! Yosemite National Park [960 X 650] by Susan Holt 	 2015-03-27 14:04:22 	  	0
 Stunning view of beautiful village Olympos in Greece [2048 X 1150] 	 2015-03-28 12:39:05 	  	0
 The clouds over the crater looked like smogs of an eruption. A spectacular view at Haleakala Crater, Maui,Hawaii[2048 X 1365] [Jingmin Zhou] 	 2015-03-28 14:04:05 	  	0
   	 2015-03-30 07:51:15 	 Classical retirement of AUS captain - Michael Clarke. WC 2015 winning team, man of the match on final. Whats a superb performance 	0
   	 2015-03-30 07:51:56 	 Nice performance of AUS captain - Michael Clarke 	0
   	 2015-03-30 07:53:32 	 Because the capacity of ground is increase by double. 	0
   	 2015-03-30 07:58:29 	 That's is pure evil. Whats a lovely drawing by circle in Answer sheet. 	0
 Morning time at Beautiful Hamny, Norway [1365 X 800] 	 2015-03-30 14:47:33 	  	0
 Look like a Creamy Chocolate Cake. Dolomites, Italy by Dino Marsango [1100 X 734] 	 2015-03-30 15:02:04 	  	0
 Most Stunning Village Around the Earth, Hallstatt, Austria [1024 X 640] 	 2015-04-01 13:56:48 	  	0
 Good Evening from Ersfjordbotn, Norway. A view of beautiful Sunset by John A Hemmingsen [1600 X 1068] 	 2015-04-01 14:58:09 	  	0
   	 2015-04-02 06:30:01 	 Welcome 	0
   	 2015-04-02 06:32:03 	 This pic is also cool 	0
   	 2015-04-02 06:38:38 	"  ril fools... nice photoshop job..

It's a real photo... "	0
 Live at Paradise! Canton of Bern, Switzerland by Toni [1600 X 1064] 	 2015-04-02 15:06:21 	  	0
   	 2015-04-03 08:40:12 	 Yes, there is snow at winter 	0
 Slimnic Village (Sibiu County) seen from the fortress, Romania [1024 X 768] 	 2015-04-03 13:58:55 	  	0
 Zabriskie Sunrise Panorama! Saturday morning at by Death Valley National Park, USA by Phil Varney [2048 X 877] 	 2015-04-03 15:04:37 	  	0
 A Stunning view of most beautiful village Riomaggiore, Liguria, Italy [1024 x 681] 	 2015-04-06 14:13:05 	  	0
 The Heart at Low Tide, Ketchikan, Alaska by Carlos Rojas [1000 X 663] 	 2015-04-06 15:00:33 	  	0
 Goathland - Picturesque village of North Yorkshire, England [2048 X 1010] 	 2015-04-07 13:55:07 	  	0
 Another view of scrumptious June Lake, California, United States by Dave Toussaint [1140 x 736] 	 2015-04-07 14:58:42 	  	0
   	 2015-04-08 08:13:11 	 Nice photos. Are you want share these photos at reddit 	0
 Great shoot of Moon and Aurora Borealis at Norway. by John A Hemmingsen [1600 X 1066] 	 2015-04-08 15:02:51 	  	0
 Great landscape with Beautiful Panorama! Capture at Aletsch Glacier, Switzerland by NiJ0 [2048 X 826] 	 2015-04-09 15:01:47 	  	0
   	 2015-04-10 13:30:32 	"  lickr's photo viewer is crap on mobile. Much prefer direct link

Absolutely right. The direct link open properly in mobile and desktop also. 

 "	0
   	 2015-04-10 13:41:20 	" The direct link is proper open on mobile and desktop also, then Flickr link.

Also, there is the photographer name is must mention on the title in each and every post, so the photographer gets exposure.  "	0
 A delightful little village of Wiesing, Austria situated in the Unterinntaler [2048 x 2048] 	 2015-04-10 14:09:46 	  	0
 Canary Sunset! Marvelous evening at amazing landscape, Tejada, Spain by John A Hemmingsen [1600 x 899] 	 2015-04-10 15:06:34 	  	0
 Amazing Sunset at Half Dome, Yosemite National Park, California by Steve Bond [1600 X 1067] 	 2015-04-11 14:56:15 	  	0
 Unesco World Heritage site - Cesky Krumlov, Czech Republic [2048 X 1152] 	 2015-04-13 13:52:16 	  	0
 Mind-blowing landscape at Inverkirkaig, Scotland, UK by Douglas Griffin [2048 X 1365] 	 2015-04-13 15:05:25 	  	0
 Goblin Valley State Park, Utah, at Night with the Milky Way above [2048 x 1365] 	 2015-04-14 14:02:31 	  	0
 The reward after a wonderful long hike. Magnificent Sunset at Alps, Europe by Hipydeus [1600 X 1093] 	 2015-04-14 15:02:38 	  	0
   	 2015-04-15 07:17:54 	 It's real or Photoshoped  	0
   	 2015-04-15 07:21:36 	 Many -2 return of this day little cutie....  	0
   	 2015-04-15 12:23:57 	 The player is out of boundary line instead of Ball 	0
   	 2015-04-15 12:26:46 	 Where can I buy????? 	0
   	 2015-04-15 12:33:44 	 Nice pics. Can you share the specification detail of camera 	0
   	 2015-04-15 12:44:02 	 Great work. What is the time to travel the blue mountains, Australia  	0
   	 2015-04-15 12:54:23 	"  ice pics. Can you share the specification detail of camer

Can I use this pics in my blog "	0
   	 2015-04-15 13:03:10 	 I have travel related website and blogs. Kindly share other pics that you capture or share your work with me 	0
   	 2015-04-15 13:37:50 	 http://holidaybook.hubpages.com/ and launch a travel website very soon 	0
 Look at my Cutest Puppy!!! 	 2015-04-15 13:49:17 	  	0
 This little quarry, looks extremely pretty with its wild-grown trees and waterfall! Near Coniston, by Sue Langford [2048 X 1362] 	 2015-04-15 15:05:07 	  	0
 Vernazza - A lovely village in La Spezia province, Liguria, northwestern Italy [2048 X 1365] 	 2015-04-16 14:39:13 	  	0
 Fantastic shot of amazing Natural Sautadet waterfalls, France by Mani   Ginji [2048 X 1152] 	 2015-04-16 14:59:24 	  	0
 Spring time at magnificent village Astbury, Cheshire, England [1900 X1079] 	 2015-04-17 14:25:26 	  	0
 King of Wings - It still stands! San Juan Badlands, USA by John Fowler [2048 X 1365] 	 2015-04-17 15:03:31 	  	0
 Amazing Rocks! Stunning landscape at Palau, Sardinia, Italy by Franco [2048 X 1360] 	 2015-04-18 14:58:20 	  	0
 Durdle Door sunset at Jurassic Coast, England by Sophia Spurgin [2048 X 1365] 	 2015-04-20 15:08:31 	  	0
 Mind-blowing view of stunning landscape at Allos, France by Alain M [2048 X 1238] 	 2015-04-21 14:56:48 	  	0
 It's Amazing! Valley of Dreams, New Mexico, USA by John Fowler [2048 X 1291] 	 2015-04-22 14:56:06 	  	0
 Amazing Rocks! So beautiful landscape at Faro, Portugal by Antonio Carrillo Lopez [2048 X 1381] 	 2015-04-23 14:56:49 	  	0
 A Shot of Before Sunfall at Lofoten,Norway by Stein Liland [2048 X 1363] 	 2015-04-25 14:58:01 	  	0
 Egg Garden.Shot about an hour before sunset. Bisti, USA by John Fowler [2048 X 1365] 	 2015-05-02 14:55:35 	  	0
 From the top of the rim wall surrounding the Cosmic Navel, Garfield, Utah, US by John Fowler [2048 X 1435] 	 2015-05-05 14:59:55 	  	0
 Two High Jump in a Row. 	 2015-05-06 06:58:20 	  	0
 Sunrise on Willow Lake in Prescott, Arizona by Michael Wilson [2048 X 1368] 	 2015-05-06 15:00:47 	  	0
 Lake Jokulsarlon, Iceland by Lorenzo Montezemolo [2048 X 1367] 	 2015-05-07 14:52:09 	  	0
 Kofa Mountains, Arizona. by Michael Wilson [2048 X 1282] 	 2015-05-08 14:51:25 	  	0
 Thirsty eye 	 2015-05-09 14:09:57 	  	0
 Recently adopted by my best friend. 	 2015-05-11 13:54:27 	  	0
 Jokulsarlon glacier lagoon, Iceland during a sunset of September by Moyan Brenn [3840 X 2391] 	 2015-05-11 15:03:13 	  	0
 White People........ 	 2015-05-12 13:58:14 	  	0
 Early morning view at Sartle, Scotland, UK byBJE [2048 X 1365] 	 2015-05-12 14:52:53 	  	0
 This Natural Arch can be found in Bryce Canyon in Utah, USA. By Anita Burke [2048 X 1356] 	 2015-05-13 14:58:00 	  	0
 Sunrise began about 3AM at Tote, Scotland, UK by BJE [2048 X 1152] 	 2015-05-14 15:04:40 	  	0
 The view to Fingal's tomb (Leac nan Fionn) and Sron Vourlinn and beyond to The Minch, Scotland, UK. By BJE [2048 X 1365] 	 2015-05-16 15:04:10 	  	0
 The Painted Hills Of Oregon, USA by Cole Chase [2048 X 1331] 	 2015-05-19 14:49:38 	  	0
 Coast! Sandefjord, Norway by Astrid Westvang [2048 X 1385] 	 2015-05-21 15:00:48 	  	0
 Late afternoon light in Serpentine Gorge in West McDonnell's NT, Australia by Lizzie [2048 X 907] 	 2015-05-22 14:54:55 	  	0
 Breathe Blue! Jokulsarlon, Iceland by Heather West [2048 X 1365] 	 2015-05-23 15:07:21 	  	0
   	 2015-05-25 06:57:47 	 Thanks!!! 	0
 Sunset at Dead Horse Point State Park, Utah, USA by Drake Jackson [2048 X 1356] 	 2015-05-25 14:57:58 	  	0
   	 2015-05-26 06:52:31 	"  was covered in medical bandages from 

No, I don't notice... "	0
 The trolls of Skgafoss, Iceland by Heather West [2048 X 1365] 	 2015-05-26 14:57:58 	  	0
 Morning view at Lake Oberon by Gav Owen [2048 x 1280] 	 2015-05-27 14:57:59 	  	0
 Zion National Park, Utah, US by Anita Burke [2048 x 1356] 	 2015-05-28 15:01:42 	  	0
 Cradle Mountain with blue sky behind it! Tasmania, Australia by Steve Arnold [1024 X683] 	 2015-05-29 14:59:15 	  	0
   	 2015-05-30 06:40:48 	 Why the very nice post got some downvote. What is the reason for that 	0
 Highlands of Kintail! Scotland, UK by Saffron Blaze [1600 X 1074] 	 2015-05-30 14:44:45 	  	0
   	 2015-06-01 07:07:04 	"  nk you'll e

Sure. Post a lovely pics on this subreddit next time "	0
 Hubble space telescope: 25 years photographing the galaxies far, far away 	 2015-06-05 14:49:24 	  	0
 When Moonlight meets Daylight! Taken just before sunrise by Anne Berger at Namibia [1600 x1067] 	 2015-06-05 14:55:17 	  	0
   	 2015-06-05 14:58:33 	 Also check the another pick (closer variant of this place).... https://farm1.staticflickr.com/434/18450072415_35988418e8_h.jpg  	0
 Saudi Arabia Says It Shot Down Scud Missile Fired From Yemen 	 2015-06-06 12:02:08 	  	0
   	 2015-06-06 15:01:35 	 Which one, kindly open this link.... https://farm9.staticflickr.com/8877/18262192098_0739e7d52d_h.jpg 	0
 Morning view at Blea Tarn, Ambleside, England by John Ormerod [2048 X 1356] 	 2015-06-06 15:05:32 	  	0
 Sunset at Balaeric Island Majorca in Spain by Toni Oliver [2000 X 1335] 	 2015-06-08 15:04:49 	  	0
 Black pug puppy in the grass!!!!! 	 2015-06-09 14:19:49 	  	0
 NASA Aiming for Multiple Missions to Jupiter Moon Europa 	 2015-06-09 14:34:46 	  	0
 What is the best time to post in Reddit? 	 2015-06-10 08:49:36 	 I am from in India. I noticed that if i post on specified time then a post performed very well. Can you suggest me the best time of all subreddit  that you notice.  	0
   	 2015-06-10 08:52:47 	 So, where I post a question 	0
   	 2015-06-10 08:55:03 	"  There is a site that tracks the ""hot"" times for each large subreddit

What is the ""hot"" time "	0
 Real friends! Both are so beautiful.... 	 2015-06-10 09:05:33 	  	0
   	 2015-06-10 09:06:37 	"  cans are awake.

Which subreddit "	0
   	 2015-06-10 09:08:41 	"   one will inevitably get upvoted, where 

But it depend also quality and uniqueness of a article, If you post a copy of article (5000+ upvote), then you receive only 2 or 3 upvotes.   "	0
   	 2015-06-10 09:16:57 	"   think more so than timing is the way the post is titled. A catchy title seems to be the way to go, n

Best Title getting more attention.  "	0
 U.S. Embracing a New Approach on Battling ISIS in Iraq 	 2015-06-10 12:26:28 	  	0
 Funny Retro Horror Movies!!!! 	 2015-06-10 14:56:09 	  	0
 Do me a favor.... Kill yourself!!!! 	 2015-06-11 06:38:27 	  	0
 Family Photo in 1933!!! 	 2015-06-11 07:37:36 	  	0
 Best Fishing location!!!!!! 	 2015-06-11 15:06:11 	  	0
 Old Tom Morris, Young Tom Morris at around 1870-1875 	 2015-06-12 07:06:16 	  	0
 4 Westerners jailed 3 days for posing naked on Malaysia peak 	 2015-06-12 13:35:35 	  	0
 Solar Impulse to fly world's longest solo flight from Japan to Hawaii 	 2015-06-12 13:43:59 	  	0
" The winner of the 1950 ""Miss Atomic Bomb"" pageant. "	 2015-06-12 14:40:07 	  	0
 Clint Eastwood posing under a tree in 1960 	 2015-06-13 06:35:02 	  	0
 Mercury thiocyanate decomposition 	 2015-06-13 12:08:39 	  	0
 The Artist!!!! 	 2015-06-13 15:02:38 	  	0
 Google on Apple: The end is near 	 2015-06-15 12:11:58 	  	0
 Nine kings gather to mourn the death of King Edward VII in 1910 [650 X 474] 	 2015-06-15 12:39:11 	  	0
 Marilyn Monroe in a costume test for Somethings Got to Give, 1962 	 2015-06-15 15:00:39 	  	0
 Country store in July 1939. Gordonton, North Carolina. 	 2015-06-16 13:56:45 	  	0
   	 2015-06-23 09:28:44 	 Resource: http://www.digitalspy.co.uk/gaming/news/a654407/batman-arkham-knight-pc-system-requirements-get-some-last-minute-changes.html#~pgpJAN7tHp2jRy   	0
   	 2015-06-23 10:00:48 	 Welcome!!!!!!! 	0
 A young Paul McCartney takes a mirror selfie, 1959 	 2015-06-24 07:24:55 	  	0
 Outlander Star Sam Heughan on Jamies Unlikely Journey and Tackling History in Season 2 	 2015-06-24 12:30:57 	  	0
 Bill Gates' mug shot for driving without a license 1977 	 2015-06-25 12:51:22 	  	0
 Sean Connery and Claudine Auger, 1965 	 2015-06-27 21:25:53 	  	0
 Robin Williams dressed like a cheerleader - 1980 	 2015-06-30 07:13:02 	  	0
   	 2015-06-30 07:26:24 	 Extremely beautiful.... 	0
   	 2015-06-30 07:58:55 	 On 3rd number.... 	0
 Construction of Eiffel Tower in 1887 [650 X 430] 	 2015-06-30 09:54:29 	  	0
   	 2015-06-30 12:08:35 	" [Check out the first video and new screenshots of Predator.](http://www.gamespot.com/articles/mortal-kombat-x-leak-reveals-predator-gameplay-and/1100-6428508/)
 "	0
 Mae West at 37, Famous for her big   blonde hair. 1930 	 2015-07-01 12:49:44 	  	0
" Adam West and Burt Ward on the set of the movie ""Batman"", 1966 "	 2015-07-03 23:07:04 	  	0
 Old Google Search Logo Funny 	 2015-07-04 12:49:07 	  	0
 Arnold Schwarzenegger in New York for the first time, 1968 	 2015-07-04 12:57:25 	  	0
 A Weird Dance 	 2015-07-06 12:51:52 	  	0
 View of Times Square, 1947 	 2015-07-06 12:57:54 	  	0
 Classic Doonesbury, 1982 	 2015-07-09 12:55:50 	  	0
 Helen Keller meeting comedian Charlie Chaplin, 1918 	 2015-07-10 13:01:57 	  	0
   	 2015-07-11 07:35:28 	 I am also confused for that. I don't know the reason...  	0
   	 2015-07-11 07:36:06 	 Welcome. I am always try to best pics at reddit. 	0
 2 New Comic-Con Posters for The Last Witch Hunter with Vin Diesel   Rose Leslie 	 2015-07-11 12:22:26 	  	0
 Brigitte Bardot, 1965 	 2015-07-11 13:03:45 	  	0
   	 2015-07-13 07:57:24 	"  for her age, she is still a beautiful woman.

In this pics Bardot, looking young. It is not possible that this is pics of a 79 year old lady "	0
 Hubble Looks at Stunning Spiral 	 2015-07-13 13:02:12 	  	0
   	 2015-07-14 07:02:10 	"  milky way
1. You can see the Milky Way Galaxy from Earth.

The summer Milky Way will look brighter in the Northern Hemisphere
2. The two Magellanic Clouds irregular dwarf galaxies are visible from the Southern Hemisphere which may be orbiting our Milky Way Galaxy

Read: 7 of the best places to see the Milky Way....  http://www.grindtv.com/travel/places-to-see-the-milky-way/

 "	0
 50 Min to go! New Horizons Closest Approach to Pluto: 7:49:57 a.m. EDT, July 14, 2015 	 2015-07-14 12:55:29 	  	0
 Marilyn Monroe at age of 24, in Griffith Park, Los Angeles, 1950. 	 2015-07-14 13:03:20 	  	0
 Image Gallery: The latest fri=om New Horizons' Pluto Flyby 	 2015-07-15 12:59:45 	  	0
 A photo shot of Elizabeth Taylor, 1960 	 2015-07-15 13:03:26 	  	0
 Julie Newmar, 1960 	 2015-07-16 13:06:06 	  	0
 Dishonored 	 2015-07-22 14:13:42 	  	0
 Stonewall, Director Roland Emmerichs LGBT Drama, Sets September Release Date 	 2015-07-22 14:24:15 	  	0
