title	date	text	class
 Arduino and Bruce Sterling Launching an Open-Source Apartment, What do you think? 	 2014-09-18 22:58:23 	  	0
 LittleBits Announces BitLab, An App Store For Hardware 	 2014-09-19 16:01:19 	  	0
 There is a Robotic Penis Wall at Maker Faire This Year! 	 2014-09-20 03:26:41 	  	0
 Raspberry Pi Hats like Arduino Shields. Interview - James Adams, Director of Hardware Engineering Raspberry Pi Foundation 	 2014-09-20 04:27:31 	  	0
 The first fully 3D printed driveable car at Maker Faire New York, First Fused-Filament, Fully-Electric Vehicle. 	 2014-09-21 14:18:06 	  	0
 Rocket Scientists Are Arduino at Heart, They Are Launching Their APOLLO BOARD on Kickstarter Next Month! 	 2014-09-22 03:14:50 	  	0
 Dont Let iOS 8s Accidental Selfie Feature Ruin Your Life! 	 2014-09-22 06:00:48 	  	0
   	 2014-09-22 11:12:36 	 It's gonna be for $149 only! 	0
   	 2014-09-22 13:49:27 	" Well look at the specs here! Arduino Due + 11 sesnors + Wifi + Bluetooth! 

Check this [video](https://www.youtube.com/watch?v=mibHgib7Rh8) and you'll see "	0
   	 2014-09-22 19:13:16 	 LoL 	0
   	 2014-09-22 20:21:41 	" 
Well I haven't tried it and most probably will get an Android! The iPhone 6 is really ridiculous. "	0
 Massive 3D Printer at Maker Faire New York 	 2014-09-23 00:11:11 	  	0
 Print the Legend coming up next Friday on Netflix, Story of Makerbot how they started till they were acquired by $604M, Cody Wilson who 3D printed a gun and put the design files online, and Formlabs being sued by 3D Systems! 	 2014-09-24 05:58:54 	  	0
   	 2014-09-24 06:23:31 	 It's amazing, i watched it the day before maker faire and it's perfect in all ways, the shooting, story board and production. Only disadvantage is they didn't ... Well, not gonna ruin it for you :) Watch it on Friday! 	0
 Print The Legend Documentary is now on Netflix. The film documents the rise of two of the premier desktop 3D printing companies, MakerBot and Formlabs , and Cody Wilson who 3D printed a gun! 	 2014-09-28 10:41:43 	  	0
 SAM: New electronics building blocks all bluetooth connected! nice idea but really expensive, what do you think? 	 2014-09-30 08:19:17 	  	0
 SAM: New electronics building blocks all bluetooth connected! nice idea but really expensive, what do you think? 	 2014-09-30 08:21:06 	  	0
   	 2014-10-01 17:18:38 	 my bad! so what do you think? 	0
 Ghost Gunner: A CNC Mill For Making Untraceable Guns 	 2014-10-01 17:23:19 	  	0
 Camel Selfie! 	 2014-10-01 22:47:05 	  	0
 Any explanation for why this guy's hands affect the LED status? 	 2014-10-02 23:48:15 	  	0
 DIY navigation device for blind people using Arduino and Android smart phone 	 2014-10-03 00:09:14 	  	0
   	 2014-10-03 00:20:38 	 Yup, that's it! Thanks .. 	0
 Arduino 3D printer live from Makerfaire Rome 	 2014-10-03 14:35:45 	  	0
 Arduino 3D printer live from Makerfaire Rome 	 2014-10-03 19:10:38 	  	0
   	 2014-10-03 20:11:03 	 Nop! But I'm attending the Open HW Summit   Makerfaire Rome 	0
   	 2014-10-03 20:35:35 	 Cool! will pass by your booth tomorrow ;) will show you my [gadget](https://www.1sheeld.com) as well! 	0
   	 2014-10-03 20:36:55 	 Great! Let's meet tomorrow then! My twitter is @Amroosaleh, reach me anytime when you are there, will show you my [gadget](https://www.1sheeld.com) I'm sure you'll like it! 	0
   	 2014-10-03 21:03:05 	 Woops sorry about that! it's 1Sheeld.com 	0
   	 2014-10-04 19:56:11 	 good question, i'll get you the photos tomorrow, it's normal though you won't be impressed. 	0
   	 2014-10-04 20:06:39 	 Works fine here! What about now? 	0
   	 2014-10-05 06:48:03 	 How come! ok try the [Kickstarter page](https://www.kickstarter.com/projects/integreight/1sheeld-replace-your-arduino-shields-with-your-sma) 	0
   	 2014-10-08 12:44:24 	 Why not make a Kickstarter campaign? 	0
   	 2014-10-09 13:56:44 	 Yea but you'll get more exposure if you hit Kickstarter! check our [campaign](kickstarter.com/projects/integreight/1sheeld-replace-your-arduino-shields-with-your-sma), and let me know if you need any help in making your campaign :) 	0
 Samples printed by Arduino 3D printer, what do you think? 	 2014-10-09 15:04:43 	  	0
 (Re-post from /r/arduino) Samples printed by Arduino 3D printer, what do you think? 	 2014-10-09 16:04:19 	  	0
   	 2014-10-12 16:36:40 	 I hear the next Arduino IDE will be web based, also try codebender.cc 	0
 3D Printed Peristaltic Pump! 	 2014-10-14 06:30:33 	  	0
 LocName gives your address a URL 	 2014-10-15 16:33:11 	  	0
 DIY Spelling Game For Kids With Interactive Robot 	 2014-10-19 16:12:43 	  	0
 Build a Humanoid robot that wakes you up in the morning, talks to you, dances and more! 	 2014-10-20 13:46:25 	  	0
 3ders.org - Adorable 'TurboRoo' Chihuahua walks thanks to a 3D printed wheelchair! 	 2014-10-23 00:36:51 	  	0
 Formlabs Releases Functional Resins: Flexible and Castable 	 2014-10-23 08:04:10 	  	0
 I'm looking for a good company to make an animation explainer video, We're based in San Francisco and i'm willing to pay a $1000/minute, is this enough? 	 2014-10-24 16:26:55 	  	0
 Arduino heavy users, do you think enabling 1Sheelds to connect remotely to each other is worth the effort? 	 2014-10-26 21:48:22 	" If you aren't familiar with [1Sheeld](http://www.1sheeld.com), it is a physical Arduino shield that connects to smart-phones using bluetooth and make use of their sensors and capabilities inside your Arduino sketch.

It is used mainly for rapid prototyping of your ideas. Instead of buying multiple shields and components to connect them to your Arduino, you can make use of your smart-phone's accelerometer, gyroscope, gravity, gps, speech recognition, screen ...etc with out buying them individually. Currently we have more than 30 of those. You can visit our [website](http://1sheeld.com) or our [Kickstarter](https://www.kickstarter.com/projects/integreight/1sheeld-replace-your-arduino-shields-with-your-sma) campaign to know more.

We are planning to launch a new feature to our platform. We will enable 1Sheeld users to connect to other 1Sheelds from their Arduino sketch using our Android app.


This feature will enable you to:

* Read a digital pin from your remote Arduino(s).
* Write to a digital pin to your remote Arduino(s).
* Write to an analog pin (PWM) to your remote Arduino(s).
* Send string or float messages to your remote Arduino(s).
* Get notified whenever an input digital pin in your remote Arduino(s) changes its state.

You have to have 1Sheeld board, an Arduino board and a Bluetooth-enabled Android smart-phone in EACH network node to make use of this feature.

Here is an example code for what the sketch will look like: http://pastebin.com/6AJdXZfY

So what are your thoughts? do you think it worth the effort? We think it will help people prototype connected-hardware projects and ideas easily.
And if you think it is beneficial? what other features can we add? "	0
 HP Announces Sprout and Multi Jet Fusion System 	 2014-10-29 23:02:27 	  	0
 Raspberry Pi and Arduino Home Automation 	 2014-11-02 16:22:17 	  	0
   	 2014-11-03 14:13:17 	 Check out the Arduino shield: [1Sheeld](http://1sheeld.com) it lets you use your smart phone easily with Arduino, you don't have to have that much tech. experience, with one line of code you can post on your twitter account from Arduino! 	0
 Human Jukebox with chipKIT uC32 Arduino Compatible, Bare Conductive and 1Sheeld. 	 2014-11-03 14:15:24 	  	0
   	 2014-11-09 12:46:31 	 Thanks! Yea he's wearing it in his [instructable](http://www.instructables.com/id/Human-Jukebox/) 	0
   	 2014-11-09 12:49:34 	 Just get a Spark Core, it's for $39 and they have amazing software. Check spark.io 	0
 UDOO Team Launched a New Product! Fizzly: the first creative smart tag to enhance your world. What Do You Think? 	 2014-11-09 12:50:43 	  	0
 3 Tips on UI design for backend developers 	 2014-11-11 11:19:07 	  	0
   	 2014-11-24 12:58:02 	" This one is also amazing: 

https://www.kickstarter.com/projects/barobo/linkbot-create-with-robots "	0
 Tutorial: Use voice recognition to Tweet or Post on Facebook with Arduino 	 2014-11-24 13:01:24 	  	0
   	 2014-11-24 16:29:59 	 no i don't think it will be relevant to children, especially with the gun part! 	0
 Wanted to share this here, I got 20% off 1Sheeld on Amazon. 	 2014-11-28 19:30:04 	  	0
 What is the cheapest Humanoid out there to buy? I'm talking laser cut or Balsa wood chassis even. 	 2014-11-28 22:24:11 	  	0
   	 2014-11-28 23:39:23 	 Okay, what are the cheapest components to assemble it? do you have a good tutorial? 	0
   	 2014-12-06 19:23:39 	 That's awesome, would you share an instructable after you finish? :) 	0
   	 2014-12-22 10:27:39 	" Hey guys, Amr here from the makers of 1Sheeld, you can chec out a lot of examples by the community on Hackster.io/1Sheeld

Also you can check out some [projects on instructables](http://www.instructables.com/howto/1sheeld/) and let me know if you need anything :) "	0
 Makeuseof is giving a free 1Sheeld for Christmas. 	 2014-12-29 19:41:48 	  	0
   	 2014-12-29 20:53:01 	 It's ideal for rapid prototyping, I'm posting on twitter with only 1 line of code from Arduino, used before in our booth during a big event and the output was amazing. 	0
 Where can I find the BOM of Raspberry Pi B+ ? 	 2014-12-30 18:18:15 	  	0
   	 2014-12-30 19:53:42 	 I'm building a product based on the Raspberry Pi as the control unit, but I want to modify on the design by removing some components to make it cheaper. Thanks for the link! 	0
 Obama sitting for his 3D portrait 	 2015-01-02 19:57:47 	  	0
 What is the cheapest BLE module to use with Arduino based product? 	 2015-01-04 18:08:36 	  	0
 This open source app allows you to control physical objects around you with Arduino and Android. 	 2015-01-06 16:18:44 	" Link for the app: http://bit.ly/1wjijh6
Link for the source code: http://bit.ly/1FgwuNF "	0
   	 2015-01-07 12:57:42 	 Super cool! Add [1Sheeld](http://www.1sheeld.com) to the collection, it turns your Android smart phone into a generic Arduino shield, so you can use its sensors and capabilities.  	0
 What is a recommended test lab in Shenzhen to get a RoHS compliant report for a product? 	 2015-01-15 15:17:06 	  	0
   	 2015-01-19 03:12:34 	 Thanks for the answers guys! 	0
 How to turn your smart into a generic shield for Arduino with 1Sheeld - Mic shield tutorial 	 2015-01-19 03:13:12 	  	0
 Built a DIY anti-theft system for my car, tracked and Controlled my car remotely using Arduino and Android through GPS sensor and sending SMS! 	 2015-02-02 13:26:54 	  	0
   	 2015-02-03 03:19:11 	 Yea I send SMS and it stops :D 	0
 I built an Arduino based project for my girlfriend for Valentine's day. I was wondering is there any solutions out there to deploy Arduino projects? 	 2015-02-09 16:44:31 	 I mean a beautiful designed platform that I can use to build the project and then give it to someone as a gift, something without the hassle of wires and visible boards. Any ideas of the existence of such platforms? 	0
 How to Use Your Cat to Hack Your Neighbor's Wi-Fi | WIRED 	 2015-02-09 17:22:12 	  	0
   	 2015-02-09 17:24:09 	 Yea but I meant the packaging and enclosure + I don't want to build a  new PCB, I have space for the Arduino but itself needs to have a good package design.  	0
   	 2015-02-09 17:25:06 	 Thanks but as I said in the earlier comment, she won't like the Arduino shape itself, I need a well designed enclosure package. 	0
   	 2015-02-09 18:30:03 	" Yea so my question is, is there and Arduino-like product that has a good enclosure as well without having to design it with a 3D printer?

 "	0
   	 2015-02-09 18:30:58 	 Thanks for the info. So there is no existing solution for this? 	0
 Arduino IDE 1.6 Released 	 2015-02-10 16:59:58 	  	0
   	 2015-02-10 22:35:20 	 Surprisingly yea though I like Alasdair very much! 	0
 For people who were asking about voice recognition earlier. Control your home lights using your voice with Arduino and 1Sheeld (Voice Recognition Tutorial) 	 2015-02-10 22:36:43 	  	0
 How to post on Twitter from your Arduino (Comparison between using Ethernet Shield, Spark Core and 1Sheeld) 	 2015-02-24 17:58:26 	  	0
 Make your plant tweet when thirsty with Arduino with 1 line of code. 	 2015-02-26 14:40:09 	  	0
   	 2015-02-26 16:44:14 	" Yea the meaning here is this one line: 

Twitter.tweet(""Plant is thirsty!""); "	0
   	 2015-02-26 20:10:08 	 Yea the beauty about it is that you access 36 shields on the phone itself, including voice recognition, text to speech, facebook, phone calls, video calls ... etc. 	0
   	 2015-02-26 20:11:04 	 Well you are not writing the function itself as it's included n the library, and the good thing here is you don't get any tokens since you login from your smart phone. 	0
   	 2015-02-26 20:12:33 	 Yea it's for $55 but it has 36 shields and gets me access to stuff like voice recognition and text to speech in an easy way, check this one: https://www.youtube.com/watch?v=P35hSIyYltM 	0
   	 2015-02-28 17:07:47 	 Cool thanks for the advice! We'll get a new explainer video done 	0
   	 2015-03-01 17:24:32 	 Nice! So what do you think of this tutorial videos: https://www.youtube.com/watch?v=7nf6lpsOrkI 	0
   	 2015-03-02 08:50:44 	 Where is the US link? 	0
   	 2015-03-03 20:55:43 	" This one is the easiest, you use 1Sheeld that connects to an old phone, the Arduino is connected to the master fuse so you can send it a message to stop remotely.
With the GPS and accelerometer in the phone, it sends you a text message with the location of the car.
http://www.instructables.com/id/Tracking-and-Controlling-your-car-remotely-using-A/ "	0
   	 2015-03-03 22:59:46 	 Yea the point is to leave a cheap smart phone inside the car, and this phone acts as a GPS, Accelerometer and GSM shield so you can talk to it and receive messages as well. 	0
 I built an automated baby monitor that tweets to me when the baby cries! 	 2015-03-11 13:30:39 	  	0
   	 2015-03-11 16:44:00 	 Thanks! You can find all the details in the instructable :) 	0
   	 2015-03-11 16:44:55 	 Actually I'm using the phone for that, I use the phone as a gateway to Twitter through the Twitter shield in 1Sheeld. 	0
   	 2015-03-11 16:45:02 	"  Twitter is free, while most SMS services are at least nominally pay.
 

Yea you're right, I could use the notification, e-mail or SMS. They are all included in the 1Sheeld app. "	0
   	 2015-03-11 16:46:05 	 I just used it for the sake of using Twitter you know, you're right notifications and email would wor better. 	0
   	 2015-03-12 08:47:14 	 Haha I don't have a baby i just built the system. 	0
   	 2015-03-12 08:49:48 	" you can do video streaming with the Skype shield in the 1Sheeld app.

http://1sheeld.com/shields/skype-shield/ "	0
   	 2015-03-12 08:50:45 	 Yea from all the comments i figured SMS and email are much better, will definitely use them :) 	0
 How to use ThingSpeak through the Internet Shield to log your data graphically 	 2015-03-15 15:26:57 	  	0
 TIL Trigger a coffee maker or a boiler with your smart phone clock so you wake up and coffee is ready. 	 2015-03-16 17:53:22 	  	0
 I built a Real-time BitCoin Price monitor. 	 2015-03-18 17:54:19 	  	0
   	 2015-03-18 22:36:44 	 Thanks! It is actually without an ethernet shield or a PC, I used [1Sheeld](https://1Sheeld.com) which gets the internet from my smart phone. 	0
 Re from /r/Arduino Built a Real-time BitCoin Price monitor using LED Matrix, Arduino and 1Sheeld 	 2015-03-19 11:11:58 	  	0
 Automated Photo Booth takes a photo and uploads it on Twitter using Arduino and 1Sheeld - Cairo Mini Maker Faire Project 	 2015-03-22 20:36:11 	  	0
   	 2015-04-02 00:32:07 	 Nice, I got used to the Spark Core though. 	0
 Hackerspaces out there! Claim your free 1Sheeld boards and get a chance to win a free 3D Printer 	 2015-04-08 01:09:55 	  	0
 Anyone at a Hackerspace, Fablab or any Makerspace can claim a free 1Sheeld boards   $100 off Codebender + get a chance to win a free 3D Printer. 	 2015-04-08 01:14:48 	  	0
 Is there a platform that combines Arduino with Meccano? I'm sick of Lego mindstorms. 	 2015-04-14 13:32:31 	  	0
   	 2015-04-14 16:00:24 	 Thanks, but i was looking for someone who sells these kits, I wanna buy 10 kits for a school project. 	0
   	 2015-04-14 16:04:20 	 Thanks but like you said, pricey!  	0
 I built a candy grabber machine using 1Sheeld as a gamepad controller. 	 2015-04-15 15:38:25 	  	0
 UDOO is back on Kickstarter with Neo, Raspberry Pi + Arduino + Wi-fi + BT 4.0 + Sensors for $45 Early Bird. 	 2015-04-20 18:29:34 	  	0
   	 2015-04-20 21:55:57 	 Good catch, still pretty awesome though! 	0
   	 2015-04-21 07:28:51 	 Nice and clean! try 1Sheeld to move it with your smartphone. 	0
 What is the best Humanoid (Arduino controllable) kit to buy? 	 2015-04-26 16:30:35 	  	0
   	 2015-04-27 20:24:42 	"  robosapien 

That's a toy guys, is it even hack-able!!? "	0
 I'm building an iOS App to control Arduino over BLE shield, but the data rate is about 1 Kbps which won't be enough for getting the Gyroscope sensor data efficiently, can someone help? 	 2015-05-05 13:33:35 	" The problem is not the sensors but the data rate with BLE, in other Bluetooth modules the rate is 115 Kbps.

 "	0
 A HW startup is building (World's Fastest Charger on a Keychain) they are crowdfunding on Indiegogo, anyone knows how to get PR to give them a push? 	 2015-05-22 20:54:45 	  	0
   	 2015-05-23 01:45:01 	 You're right some stuff about the campaign look fishy, i do know them personally though and they graduated from an accelerator called Buildit in Estonia. 	0
   	 2015-05-23 04:01:19 	 Totally agree, thanks for your feedback and i will pass it to them for sure :) 	0
 Finally! Smartphone and Arduino on a Drone 	 2015-05-27 04:12:07 	  	0
   	 2015-06-07 18:34:47 	 Thanks for sharing, I use Codebender.cc, it's an online IDE for all Arduino a-like platforms. 	0
 I built a smart flusher for the toilet where i flush with a voice command using Arduino and 1Sheeld. When I showed it to my roommate he kicked me out! 	 2015-06-07 19:00:15 	  	0
   	 2015-06-08 13:42:20 	 Out of the room actually! 	0
 Any update on the Arduino lawsuit? It's frustrating to see arduino.cc out of stock on all Arduino products. 	 2015-06-17 19:33:40 	  	0
   	 2015-06-18 12:39:07 	 Yea but Arduino.org is still made in Italy, one of them will kill the other eventually. 	0
   	 2015-06-18 12:42:18 	 Yea because Arduino.org is still manufacturing in Italy. 	0
 I have a brand new Pebble Time for sale! 	 2015-06-20 17:41:45 	  	0
   	 2015-06-22 13:55:00 	 Works fine now I guess, can you try on your side? 	0
 Anyone knows how to build this robot with Arduino? 	 2015-06-23 18:42:06 	  	0
   	 2015-06-23 20:42:44 	 Thanks for the assistance! I don't have tens of thousands and if I do, I'd spend it for sure :D UK robots are pretty lame, I'll go for the Japanese ones and will update here once I built it.  	0
   	 2015-06-23 20:43:06 	 Thanks! Built a Jhonny 5 before actually so I'll build on it. 	0
   	 2015-06-24 11:39:36 	 Yea some of them are collaborations with they guys at the makerspace :) They don't like using Reddit! Say it has a bad interface which is true :D 	0
 Arduino and Seeedstudio announce partnership in Shenzhen to manufacture Genuino 	 2015-06-24 11:41:18 	  	0
   	 2015-06-24 20:02:04 	 Well at least they have the Arduino trademark in the US. 	0
 I want to hack an inkjet or laser printer to control it with Arduino, anyone did something similar before? 	 2015-06-29 12:42:30 	  	0
   	 2015-06-29 16:26:00 	" Exactly, I want to control the ink jet as i control a CNC machine. So basically there are no open source drivers? Do I have to override the driver and control it with motors directly?
 "	0
   	 2015-06-30 10:47:45 	 Thanks! 	0
   	 2015-06-30 10:48:17 	 Sure! I'l keep you posted. 	0
   	 2015-06-30 10:48:40 	 Thanks, interesting read. 	0
   	 2015-06-30 10:49:29 	 Intel Galileo would be a great idea, if you code using Arduino IDE it sucks but I'll try Windows, thanks a lot! 	0
   	 2015-06-30 10:51:17 	 Nice! 	0
   	 2015-07-01 23:50:57 	" I recommend the [1Sheeld](http://www.1sheeld.com) Arduino shield. It turns your smartphone's hardware into 40 different shields through an Android app.

So you have the sensors like a Gyroscope, Accelerometer, GPS, Proximity, Temperature (I don't know if you have that in the S4).
Also voice recognition, storing data, text to speech, posting on twitter, facebook, video streaming through Skype ... etc.

Check the list of [shields](http://1sheeld.com/shields/) and the getting started tutorial [video](https://www.youtube.com/watch?v=4LlfBoycKE8).

I built with it some projects like a [candy grabber machine](http://www.instructables.com/id/How-to-create-your-own-candy-grabber-machine-using/), where I used the phone as a Gamepad controller for children to grab candy and teach them about Arduino and coding, it was a nice game in the maker faire. "	0
   	 2015-07-01 23:58:38 	" My recommendation is to put a switch to change the mode of your shield between 3.3V (for the Due) and 5V (for the Mega).

Have you heard of the [1Sheeld](http://www.1sheeld.com)? It has that switch and the manufacturers share the schematic design to be open source, check it on [Github](https://github.com/Integreight/1Sheeld-Schematics-and-Board).  "	0
   	 2015-07-02 00:17:50 	 I've met them in the bay area maker faire last month, it's working! 	0
   	 2015-07-02 00:18:46 	 Why dead? the percentage of successful campaigns is growing far beyond the failing ones. 	0
   	 2015-07-02 00:20:07 	 Awesome! Check more projects on its [Hackster page](http://hackster.io/1sheeld/projects). 	0
 Man killed by a factory robot in Germany 	 2015-07-02 02:23:24 	  	0
 Anyone used UV cured conductive ink before? I need to buy good material from my thesis. 	 2015-07-05 18:45:58 	" I've been searching for one and found some links to products but they are either not commercial yet or very expensive!

* This [one](http://www.electronicsnews.com.au/Features/First-commercial-silver-ink-UV-cured-without-heat) was announced in 2012 but I can't find a link o buy it.
* This [one](https://www.sigmaaldrich.com/catalog/product/aldrich/791873?lang=en region=US) costs $389 for 10 gm!
* And I don't know how to get this [one](http://www.conductivecompounds.com/uv-curable/z-904-ultraviolet-curable-anisotropic-conductive-ink.html), the company is not replying.

Can anyone help?
 "	0
   	 2015-07-05 18:58:56 	 Check out this [project](https://www.hackster.io/team-omega-d2/ar-drone-and-1sheeld-discover-the-world-around-your-drone), they used an Arduino Mega on a drone + a smart phone for sensor calibration. 	0
   	 2015-07-09 03:13:29 	 Thanks, I guess i'll research into that. 	0
   	 2015-07-09 03:35:50 	 I've used it in our app, it did actually as we directed the feedback to the forum on our website, and started engaging in conversations with our customers, which resulted in more community engagement and better reviews. 	0
   	 2015-07-12 03:30:30 	 THANK YOU! 	0
 Cam across TTL: Control your lights with your Voice + Something Romantic 	 2015-07-13 20:16:47 	  	0
   	 2015-07-16 10:21:50 	 I went into a Microcenter in NYC and I totally prefer buying stuff online, the sales guy there didn't know the difference between a Particle core and a Raspberry Pi! 	0
   	 2015-07-16 22:20:01 	 Nice! Next time write in text please so it's easy to copy :) 	0
   	 2015-07-16 22:23:35 	 Nice list, I recommend [Android Community ](http://androidcommunity.com/) as well 	0
 After a successful Kickstarter, why would a company NOT accept pre-orders? 	 2015-07-17 16:29:01 	 I'm trying to buy a couple of Tiko3D printers for the office, it's a $179 3D printer and hit well on [Kickstarter](https://www.kickstarter.com/projects/tiko3d/tiko-the-unibody-3d-printer), and I was surprised to find they are not accepting pre-orders on their [website](http://www.tiko3d.com/), any thoughts on why are they NOT making money? 	0
   	 2015-07-17 16:45:30 	" Yea I read that, my first thought is to encourage backers who have doubts to pledge and not wait for retail.
Still you can accept pre-orders and announce a late shipping date, right?   "	0
   	 2015-07-17 19:03:01 	" Great analysis Dan, I agree of course on putting your backers first, but you can actually accept pre-orders in a good by charging the customer instantly through [Grandst](https://grandst.com/).
When we ran our [1Sheeld Kickstarter campaign](https://www.kickstarter.com/projects/integreight/1sheeld-replace-your-arduino-shields-with-your-sma), we accepted pre-orders afterwards, shipped to our Kickstarter backers first, then pre-orders, then got it on Amazon and in retail.
It's an interesting approach though as we are launching another product soon and it makes sense to fulfill your Kickstarter orders first then worry about other orders, I'll consider it in plan :) "	0
   	 2015-07-17 19:42:02 	 That's a great insight, thanks a lot for sharing! 	0
   	 2015-07-18 11:38:31 	 Makes sense, we had accepted pre-orders after our campaign cause we had extra stock in the manufacturing run anyways, but yea you're right, nothing harmful comes if you collect e-mails and send out when you are ready. 	0
   	 2015-07-18 11:40:05 	 Interesting! Do you any any good 3D printers available in the market for under $200? 	0
   	 2015-07-18 16:35:16 	" I think you missed some useful Arduino shields

* [Wifi Shield](http://www.amazon.com/Arduino-WiFi-Shield/dp/B00MEKEBXG)
* [Smartphone Shield](http://1sheeld.com)
* [Proto Shield](http://www.amazon.com/Arduino-Proto-Shield-R3-Assembled/dp/B007QXTRNA)
* [Relay Shield](http://www.amazon.com/4-Channel-Relay-Shield-for-Arduino/dp/B007JOEVNW)
* [Motor Shield](http://www.amazon.com/Arduino-Motor-Shield-R3/dp/B006UTE70E)
* [Xbee Shield](http://www.amazon.com/arduino-org-Arduino-Xbee-Shield/dp/B004L6PNLA) "	0
   	 2015-07-21 15:59:52 	 Makes sense now! Lima [shipped after 2 years](http://techcrunch.com/2015/07/21/lima-finally-ships-its-dropbox-alternative-to-its-kickstarter-backers-sort-of/)!  	0
   	 2015-07-21 16:00:59 	 What's the alternative then? Trying to get one for less than $200, what do you think of this [one](http://q3dprinter.com/oneup.htm)? 	0
   	 2015-07-21 16:14:33 	 Shit! I wanna get something for the office and we are also launching a contest so I wanna provide 3D printers as the top prizes. If you have $700, would you get 2 of [those](http://printm3d.com/)?  	0
 Facebook and Google stand with Samsung against Apple 	 2015-07-21 16:42:54 	  	0
   	 2015-07-21 16:58:03 	"  Printrbot Play

Thanks for the info.! "	0
   	 2015-07-21 19:55:03 	 Yea I don't like their new design 	0
   	 2015-07-21 19:55:36 	 Makes sense, what about Facebook? 	0
 The Turing Phone is the craziest Android device you'll see this year. It doesnt even have a USB port 	 2015-07-22 13:17:57 	  	0
   	 2015-07-22 14:49:49 	" In the end, some idiots will buy it. Reminds me of the USB-C Apple made, a guy built a universal adapter for it and made [$800K+ on Kickstarter](https://www.kickstarter.com/projects/nonda/get-your-macbook-ports-back) off their stupidity.
 "	0
