title	date	text	class
   	 2015-02-24 23:10:38 	 really you do this? :0 	0
   	 2015-03-19 23:15:35 	 yep 	0
   	 2015-03-21 01:10:56 	 Estimated Price: 1000$. Automated Promotion System. For more information: http://www.gamerstoke.com/ 	0
   	 2015-03-27 00:07:26 	" mine logo for the community, good luck guys :) 
[Imgur](http://i.imgur.com/tDfgyfp.png) "	0
   	 2015-03-27 19:02:58 	 i'm sure that they are not doing this by mistake... 	0
   	 2015-05-15 20:44:53 	 [Imgur](http://i.imgur.com/z66OvQS.jpg) 	0
   	 2015-07-17 02:35:41 	" here's your joker [Joker](http://i.imgur.com/qWGVInX.jpg)
sorry but his lipss.... "	0
   	 2015-07-17 02:59:49 	 yeah I know it [sucks](http://i.imgur.com/I2d9vlW.png) but I tried.. good luck with the girl tho 	0
   	 2015-07-17 03:01:47 	 your welcome mate 	0
   	 2015-07-17 03:02:16 	 the middle guy.. i had the very same question 	0
   	 2015-07-17 03:15:15 	 the quality is too low but [here](http://i.imgur.com/XDRjVOb.jpg) you go 	0
   	 2015-07-17 03:24:28 	 Hope you like it :) [IMAGE](http://i.imgur.com/bsGeOuJ.jpg) 	0
   	 2015-07-17 03:33:21 	 Too much [cool](http://i.imgur.com/yXHNY9f.jpg)? 	0
   	 2015-07-17 04:08:32 	 Shit.. it's 5 AM.. Anyways [Here u go](http://i.imgur.com/YyauEA7.jpg) 	0
   	 2015-07-17 04:19:21 	 it's kinda blurry in every free space, i'can't do better :/ 	0
   	 2015-07-17 10:02:51 	 [Here you go:)](http://i.imgur.com/sUiFM9W.jpg) 	0
   	 2015-07-17 11:09:56 	" It's summer... but anyways [Here you go:)](http://i.imgur.com/q2hCOUg.png)
* I kept the .psd if you want it.. it's 1024x1024 with all the resources I used. "	0
   	 2015-07-17 11:18:11 	 Hope you like it :) [Logo](http://i.imgur.com/qUixVbD.png) 	0
 Anyone with Photoshop CC 2015? 	 2015-07-17 11:34:51 	 I run Win 7 x64 with 8 GB Ram and with Photoshop CC 2014 I didn't have any problem. Then I did a format and upgraded to CC 2015. Since then I can't render videos when I send and animation to render and photoshop crashes once in a while in various cases. Is anyone experiencing similar situations?   	0
   	 2015-07-17 11:38:31 	"   Its winter in Australia right now

hahaha sorry I didn't thought about it.. I recreated the logo from scratch. [here the psd](https://drive.google.com/file/d/0B3jagjlacGj2MXQzUmdpeE41RGc/view?usp=sharing) "	0
   	 2015-07-17 11:39:09 	 your welcome mate 	0
   	 2015-07-17 11:59:59 	 really? thanks cause I thought that was mine problem! 	0
   	 2015-07-17 12:01:36 	 titanium backup, the best in my opinion 	0
   	 2015-07-17 12:04:21 	 Wow..  	0
   	 2015-07-17 13:20:42 	 thank you for your feedback, yes I'm going to downgrade soon! 	0
   	 2015-07-17 15:00:20 	 I hava after effects too but I'm mainly interester in photoshop. I use after effects to render animations now as walkthrough 	0
   	 2015-07-17 16:07:28 	 just checked, my drivers are updated. no I'm using win7 at high performance power settings. thanks for your feedback 	0
   	 2015-07-17 16:08:47 	 just checked, everything brand new. thanks tho 	0
   	 2015-07-17 16:09:21 	 haha your welcome :) 	0
   	 2015-07-17 16:17:12 	 [Hope you like it :)](http://imgur.com/GFjtQGB.jpg) [This one to.](http://i.imgur.com/tY3N6fn.jpg) 	0
   	 2015-07-17 16:26:34 	 Nice family pic :) What about [this one](http://i.imgur.com/flN9GZI.jpg) [fixed] 	0
   	 2015-07-17 16:41:33 	 what about this? http://i.imgur.com/Mr8SX4k.jpg 	0
   	 2015-07-17 16:44:57 	 your welcome :) 	0
   	 2015-07-17 18:13:27 	 your welcome :) 	0
   	 2015-07-17 19:45:44 	 Is the request closed? anyways cause I don't know, check out this [one.](http://i.imgur.com/yLxV5ze.png) 	0
   	 2015-07-17 21:27:42 	 [Sorry but it was so good..](http://i.imgur.com/qt54SgB.jpg) 	0
   	 2015-07-17 21:38:40 	 hahahaha 	0
   	 2015-07-17 21:41:16 	" Dude if this gonna be weared by a team I just want to see a photo, I will be so F****** happy..
[girly_01](http://i.imgur.com/kADIomI.png) [girly_02](http://i.imgur.com/z56mDs8.png) [boys_01](http://i.imgur.com/P0gvI3C.png) [boys_02](http://i.imgur.com/yLxV5ze.png) "	0
   	 2015-07-17 21:44:34 	 hahahahaha loool 	0
   	 2015-07-17 22:20:16 	" http://i.imgur.com/0DNlc9V.jpg
he did great job btw... "	0
   	 2015-07-18 18:42:36 	 I't sucks but I tried.. http://i.imgur.com/Mjey2YZ.jpg 	0
   	 2015-07-18 18:49:07 	 pff easy peasy dude! [Here](http://i.imgur.com/DEh7sdx.jpg) 	0
   	 2015-07-18 19:00:47 	 hahahaha loool 	0
   	 2015-07-18 19:02:50 	 lol 	0
   	 2015-07-18 20:38:20 	 I'm glad you like it, your welcome :) [Black Smudge Removed](http://i.imgur.com/89jH8pi.jpg) 	0
   	 2015-07-18 21:14:17 	 I hope you like it :) [Imgur](http://i.imgur.com/xgrhRX1.jpg) 	0
   	 2015-07-18 23:10:22 	 yeah why not, you welcome :) 	0
   	 2015-07-19 00:07:01 	 hahaha lol 	0
   	 2015-07-19 00:58:47 	" just came back.. here y go
http://i.imgur.com/pzn3Iqa.jpg
http://i.imgur.com/bCI9KPx.jpg
http://i.imgur.com/6RfCmU3.jpg
http://i.imgur.com/7P8m36l.jpg "	0
   	 2015-07-19 01:02:23 	 http://i.imgur.com/IvuiNus.png 	0
   	 2015-07-19 01:02:53 	 your welcome :) 	0
   	 2015-07-19 01:21:03 	 what about this one? http://i.imgur.com/ETNHMMJ.jpg 	0
   	 2015-07-19 01:21:44 	 your welcome mate :) 	0
   	 2015-07-19 01:27:20 	 I'm sure this one looks realistic http://i.imgur.com/lyB0HGN.jpg 	0
   	 2015-07-19 01:38:33 	 your welcome mate :) 	0
   	 2015-07-19 10:23:31 	" http://i.imgur.com/eB2f9yD.jpg
http://i.imgur.com/FE1lnti.jpg

and a quick unproffessional demostration https://youtu.be/4gsl5RdtAoQ "	0
   	 2015-07-19 12:13:00 	" Is she guilty?....

Anyways.. it's from a compaing called ""save the children""..
Here is one of their excellent photos with female :
http://i.imgur.com/TyJf8J8.jpg  "	0
   	 2015-07-19 12:22:00 	" I found it in 1600x1600 and removed the text
http://i.imgur.com/6QapTZq.jpg
[edit] tragluk is right about the lazy thing "	0
   	 2015-07-19 14:01:20 	" here's a quick and a little bit dirty version http://i.imgur.com/0vlHOxc.png
I didn't use green because in my opinion sucks in your skin "	0
   	 2015-07-19 14:30:27 	 I haven't see any vampire around here to know how the look like but here you go http://i.imgur.com/DFgKQeP.png 	0
   	 2015-07-19 15:37:35 	 [Here's a quick one.](http://i.imgur.com/ndfjvaP.jpg) 	0
   	 2015-07-19 15:48:21 	 [Here you go Bro!](http://i.imgur.com/DF3PoOj.jpg) 	0
   	 2015-07-19 16:11:10 	 your welcome :) I hope she is innocent! 	0
   	 2015-07-19 16:12:42 	 It's like a f*cking air conditioner remote.... 	0
   	 2015-07-19 16:42:07 	 your welcome mate  	0
   	 2015-07-19 16:48:15 	 i was about to tell the same.. 	0
   	 2015-07-19 16:56:25 	" This is not photoshop, I made them with Instant: Polaroid Instant Cam
[Here is the album](http://imgur.com/a/9Z7f1) "	0
   	 2015-07-19 17:28:50 	 seems legit right? http://i.imgur.com/L1Bidr8.jpg 	0
   	 2015-07-19 17:31:45 	 your welcome mate 	0
   	 2015-07-19 18:00:54 	 a quick one http://i.imgur.com/fHMSJu5.jpg 	0
   	 2015-07-19 18:11:49 	 I use the patch tool 	0
   	 2015-07-19 20:27:44 	" look I won't lie to you. I'm opposed to this. Tell me a racist or homophobic if you want. But seeing this picture I realized that everyone deserves a nice wedding photo and that's something that I believe in.. So here you go [FIXED PHOTO](http://i.imgur.com/oPaS953.jpg)
*I can't remove the cup without malforming his hand. "	0
   	 2015-07-19 20:44:59 	 thanks 	0
   	 2015-07-19 21:06:49 	 and that's exactly why I believe in freedom of speech! You did very good job there, looks great! 	0
   	 2015-07-19 21:11:17 	 I learned something from this picture, that's why I mentioned it. Please read carefully before commenting, people tend to get aggressive in these topics. 	0
   	 2015-07-19 21:33:20 	 nope, I believe that we all have the right to love anyone we want and get married with anyone we want, I don't critisize people for who they love, I just don't like the idea. Freedom is for everyone and that's my opinion. Sorry but please don't continue the argument, we have opposite opinions and that's not a reason to ruin this gentlemans request. 	0
   	 2015-07-19 21:49:45 	 Your welcome, and sorry for the mess.. 	0
   	 2015-07-19 21:52:28 	 I tried.. http://i.imgur.com/lJJZ0tK.jpg 	0
   	 2015-07-19 22:46:58 	 Sorry I can't do better I guess.. [Attempt_001](http://i.imgur.com/4BdJGS6.jpg) [Attempt_002](http://i.imgur.com/43nbJEH.jpg) 	0
   	 2015-07-19 22:48:49 	 No I didn't even thought about it.. I just like that you answered  gently, Thanks :) 	0
   	 2015-07-19 22:50:23 	 Thank you, I really appreciate your answer! :) 	0
   	 2015-07-19 23:22:26 	 are these ? http://imgur.com/a/zaRIR 	0
   	 2015-07-19 23:43:56 	 yeah I tried again, please check the second one. Thanks 	0
   	 2015-07-20 00:08:52 	 here's my try [Imgur](http://i.imgur.com/zA1hchS.jpg) 	0
   	 2015-07-20 00:29:49 	 I don't have much time but check this one http://i.imgur.com/mzXD9FG.jpg otherwise I'm sure someone else will do it musch better for you 	0
   	 2015-07-20 00:36:55 	 patch tool http://i.imgur.com/VS2GCeP.png you can use it to remove pimples from faces. it actually does a smart copy and paste so the skin (example) will fit exactly were the pimple you selected was including most of times shadows and lighting thas why I used it there so I can actually create a smooth back ground like the first image 	0
   	 2015-07-20 01:03:01 	 what do you mean by saying 'interesting'? [Image](http://i.imgur.com/BHpsGbn.jpg) 	0
   	 2015-07-20 01:03:32 	 your welcome 	0
   	 2015-07-20 01:17:14 	 ok then 	0
   	 2015-07-20 01:50:25 	 if someone could colorize it to it would be great http://i.imgur.com/6cofxZb.jpg 	0
 [HIRING] [GIG] Anyone from US with basic computer knowledge 	 2015-07-20 05:00:12 	 A stable internet connection is also required. I'm basically paying anyone who can help me download a pdf collection. I'm from a third world country so I'm unable to download them due to service. I'm not paying much but it's quick money. Please send me PM if you are interested. 	0
   	 2015-07-20 05:58:16 	 your welcome mate 	0
   	 2015-07-20 06:48:26 	 shit that's a good one 	0
   	 2015-07-20 07:00:22 	 nahh it doesn't matter 	0
 Cristiano Ronaldo and his secret desire 	 2015-07-20 07:08:56 	  	0
   	 2015-07-20 07:52:02 	 [Here you go mate! UltraRealistic](http://i.imgur.com/4kMPBlI.jpg) 	0
   	 2015-07-20 07:59:07 	 no problem mate 	0
   	 2015-07-20 08:12:00 	" [Imgur](http://i.imgur.com/NYYyFMf.png)
 "	0
   	 2015-07-20 08:32:11 	 your welcome 	0
   	 2015-07-20 16:01:19 	 [Not even close?](http://i.imgur.com/ZkGCINr.jpg) 	0
   	 2015-07-20 16:05:23 	" Yeah sure, easy one [FIRST ATTEMPT]http://i.imgur.com/bHdQG3H.jpg
[EDIT] Sorry you wasn't specific at all when you posted it... [YOUR REQUEST](http://i.imgur.com/DFw3jKI.png) "	0
   	 2015-07-20 16:07:03 	 your welcome 	0
   	 2015-07-20 16:48:11 	 your welcome Kevin 	0
   	 2015-07-20 16:48:37 	 your welcome, and sorry 	0
   	 2015-07-20 17:54:28 	 what sir? 	0
   	 2015-07-20 18:15:24 	 well then please check when I posted it :) 	0
   	 2015-07-20 20:15:54 	 glad to hear that! yeah pick some colors from here http://www.color-hex.com/ and send them to me along with the logo you want 	0
   	 2015-07-20 20:18:00 	 hahaha looool 	0
   	 2015-07-20 21:19:30 	 a simple one http://i.imgur.com/kQlSWgN.png 	0
   	 2015-07-20 21:51:56 	 thanks 	0
   	 2015-07-20 23:57:22 	 the last guy who requested to photoshop this picture... http://www.photoshoptroll.com/disneyland/ 	0
   	 2015-07-21 22:33:30 	          ? 	0
   	 2015-07-22 01:36:19 	" [""Saturday Night Flight"" - DoubleG](http://i.imgur.com/mLUPTJZ.jpg) "	0
   	 2015-07-22 08:54:15 	 [QuickAF](http://i.imgur.com/KHKI9Pl.png) --- [Edit2](http://i.imgur.com/vJDBlCD.png) 	0
   	 2015-07-22 08:55:06 	 loool 	0
   	 2015-07-22 09:20:35 	 I'm sure this one looks great http://i.imgur.com/hwNZD17.png 	0
   	 2015-07-22 09:26:48 	 this one? http://i.imgur.com/Gg3KQhF.png 	0
   	 2015-07-22 09:35:02 	 your welcome 	0
   	 2015-07-22 09:46:10 	 His motto probably http://i.imgur.com/0oZoUKz.jpg 	0
   	 2015-07-22 11:31:24 	 your welcome xd 	0
   	 2015-07-22 11:36:10 	 lol seems easier to create a new one than to remove the text xD 	0
   	 2015-07-22 12:28:35 	 Does it look like an office? [EDIT 1](http://i.imgur.com/54ApJqi.png) -- [EDIT 2](http://i.imgur.com/x3f0Epe.png) 	0
   	 2015-07-22 12:42:36 	 [Looks Legit AF](http://i.imgur.com/T3xKgct.jpg) 	0
   	 2015-07-22 12:50:00 	 your welcome 	0
 They'll never know what hit em! 	 2015-07-22 13:01:03 	  	0
