title	date	text	class
   	 2015-06-28 23:25:33 	" [I don't think your dog cares](http://s21.postimg.org/rfzh35m1z/1_1.jpg)

Edit: Open a new account, make a quick paint of a stoned dawg, get gilded.  Thanks for the generosity friendly neighbour!  "	0
   	 2015-06-29 12:45:21 	 What a beaut! Is everything original except for the bushings?  	0
   	 2015-06-30 00:23:48 	 The job is a bit too much for my taste but it's all good as long as you had fun with it man! What Welcome shape is that, thinking about getting one myself  	0
   	 2015-06-30 00:32:41 	 Man, that cat has seen some shit. Looks like a brooding war veteran  	0
   	 2015-06-30 00:43:04 	 Thanks man, might be a Nimbus by the looks of it. Enjoy your new grip job!  	0
   	 2015-06-30 01:37:54 	 A T-800 traveling in a phone booth is on its way to Robert Zemecki's house... 	0
   	 2015-06-30 19:16:19 	 Hell yeah!  	0
   	 2015-06-30 19:16:32 	 Haha that was awesome!  	0
   	 2015-07-01 01:38:41 	 Ordering a plain coffee at Starbucks? What are you? An unpretentious hipster? That's meta bro  	0
" Metal band releases ""gayest t-shirt ever"" as a big middle finger to their homophobic fans "	 2015-07-01 22:15:13 	  	0
   	 2015-07-01 22:19:24 	" The band is The Dillinger Escape Plan and this glorious tshirt depicts a pegasus with a cock as a horn ejaculating a rainbow into a tie dye tee. They recently had some homophobic fans commenting in their Facebook posts supporting the same sex marriage legislation. 
Relevant link: https://www.facebook.com/dillingerescapeplan "	0
   	 2015-07-01 22:26:49 	 And you are absolutely right, corrected! 	0
" (X-post) The Dillinger Escape Plan releases ""gayest t-shirt ever"" as a big middle finger to their homophobic fans. "	 2015-07-01 22:55:24 	  	0
   	 2015-07-01 22:59:29 	 Pretty disgraceful that homosexuality is still such a hush hush topic within the metal community. Help me get this upvoted to let people know that we metalheads are a respectful and open minded tribe!    	0
   	 2015-07-05 20:03:30 	 Digging the Welcome tee! 	0
 Ben Raybourns In Transition part. This kid is f*cking fearless 	 2015-07-05 20:31:07 	  	0
   	 2015-07-05 21:06:01 	 I get that man, watching Ben makes we wanna get more into skating  transition. He just has that raw energy and you can tell he is having a blast doing it. Infectious shit for sure!  	0
   	 2015-07-05 22:44:50 	" ""Same thing we do every night Pinky... Try to take over the world!""  "	0
   	 2015-07-05 22:53:17 	 You might think he is cool but he sure looks like he wants to disfigure you  	0
   	 2015-07-06 21:38:34 	" Nice work GeekyHooker! You seem to be very skilled with your crotch(et)... 
Edit: bad jokes aside, those are awesome! :)  "	0
   	 2015-07-06 23:29:59 	 You'd have to be very bitter to give her shit for posting this. Best of luck for your kid OP. You might find encouragement in the Temple Grandin story if you don't know about her already. :)  	0
   	 2015-07-08 00:47:00 	 I skated when I was a kid and then moved on to other sports. Got back on the board around 28. It's never too late man!  	0
   	 2015-07-08 00:54:49 	 Fuck pebbles, they are the devil's invention  	0
   	 2015-07-08 23:48:43 	 Takes one to know one  	0
 Eli Reed hippy jumps a picnic table...the long way 	 2015-07-09 22:06:15 	  	0
   	 2015-07-09 23:43:01 	 Aww, Metal loves sharks too... https://youtu.be/eKv84ANH9vc 	0
   	 2015-07-10 07:31:33 	 That's what it takes man, no secrets  	0
   	 2015-07-10 08:03:57 	 Because Richie Jackson and his crew are hippy space pirates from another dimension. 	0
   	 2015-07-11 00:39:11 	 Just out of curiosity, how are you qualified to know about everything the job requires and what makes you such a capable judge on Pao's competence?  	0
   	 2015-07-11 00:53:29 	 Do you honestly believe that she stepped down because she wasn't competent enough?  	0
   	 2015-07-12 08:56:20 	 But, but, but... WE SAID DO NOT ANIMALS!!  	0
   	 2015-07-13 22:44:15 	 Way to go OP! I'm jealous as a Spaniard that has never been to Pas Vasco  	0
   	 2015-07-14 18:08:54 	 We don't smoke milk...!? :O 	0
   	 2015-07-14 18:14:55 	 Well... That's just like... your opinin, man  	0
   	 2015-07-15 00:32:13 	 I'm missing both the racist and sexist parts of that (pretty poor) joke.  	0
   	 2015-07-15 15:40:58 	 Oh, your mum is NOT gonna be happy with MY Photoshop skills either...  	0
   	 2015-07-15 18:17:10 	 Translation for the uninitiated : Time to do what /r/watches have failed to  	0
   	 2015-07-15 19:10:17 	 Edit: [Jag r inte bitter](http://i.imgur.com/qfliRSV.gif) 	0
   	 2015-07-15 19:52:58 	 Tack mygrapefruit. Tycker man ska skriva om detta p reglerna om det r nu frbjuden att verstta p Sweddit.  	0
   	 2015-07-15 22:05:55 	 That's so rad! I'd never leave if I had that by my house  	0
   	 2015-07-15 22:12:42 	 https://www.reddit.com/r/skateboarding/comments/3cr5bj/how_hippy_hardflip_late_flip/?ref=search_posts 	0
   	 2015-07-15 22:20:11 	 It makes for raw street skating tho. I personally never get tired of watching cats skate NYC  	0
   	 2015-07-15 23:18:29 	 Relevant username  	0
   	 2015-07-15 23:21:41 	" Unfuckingfortunately yes, it is 

Edit : Downvote me all you want, I just don't see him in the role of Deadshot. His persona is just too well established and to me it's not a good fit for a movie like this.  "	0
   	 2015-07-15 23:27:16 	 I can't even... Just can't...  	0
   	 2015-07-16 19:07:28 	 I think I can spot Leo DiCaprio in there  	0
   	 2015-07-17 00:19:51 	 Chef here, I've spent entire nights dreaming about being in the kitchen after coming home from a particularly long/busy service. Also... dreamed a lot about Call of Duty in a period where I played quite obsessively.  	0
   	 2015-07-17 00:21:07 	 What's a matre'd by the way?  	0
   	 2015-07-17 00:27:28 	" Nah, that's a maitre ;) 


(Just kidding, I have the utmost respect for maitres)  "	0
   	 2015-07-17 22:56:19 	 http://media3.giphy.com/media/ppmjJyjpZG53i/giphy.gif 	0
   	 2015-07-17 23:43:48 	 Thanks for the upload! This kid skates fast!  	0
   	 2015-07-18 08:53:23 	 I feel you bro  	0
   	 2015-07-18 11:45:38 	 Neat! Are those pictures your? They are cool  	0
   	 2015-07-18 11:49:10 	 Man, I love the Lion city but everything except hawkers is absurdly expensive  	0
   	 2015-07-19 01:26:11 	 Man, Portishead is gloomy enough while being alive, can't imagine for a person who believes they are dead. (Great music taste and very interesting  story, wish you the best for the future!)  	0
   	 2015-07-19 01:29:04 	" How did you justified everyday college life and all the chores that comes with it? Did you thought of yourself as being in a purgatory/limbo of some kind? I'm also curious about what happened in the hallucination that ""killed you"".  "	0
   	 2015-07-19 01:52:37 	 To me Beth's voice sounds so broken and fragile, haunting stuff really. Don't know oOoOo but I'll check them out!  	0
   	 2015-07-21 10:27:34 	 [Fret not OP! If Walt Jr can get some sweet poontang, so can you! ](http://i.imgur.com/FjrtQsR.jpg) 	0
   	 2015-07-21 16:27:27 	 Rushing or dragging?  	0
 Salmon and mango salsa burrito, quick and healthy! 	 2015-07-21 19:59:00 	  	0
   	 2015-07-21 20:02:18 	 I was lusting for fish tacos but I didnt have small tortillas so I decided to make a burrito instead. Very easy and quick recipe, Ill post the steps/ingredients if theres interest.  	0
   	 2015-07-21 20:07:47 	 I wanna know whats in it too! My sister was on Seoul and told me about Bibimbop, she loved it 	0
   	 2015-07-21 21:04:05 	 Cook them in a nice, aromatic stock in advance. Then marinate on your BBQ sauce overnight  	0
