title	date	text	class
   	 2014-05-25 23:45:02 	 looks awesome, but as far as i can tell it's not available in Canada yet, but im in no rush to buy so i think i'll wait for this one to come out. Thanks a ton 	0
   	 2014-05-25 23:52:33 	" How do you think it compares to this 
http://shop.lenovo.com/us/en/laptops/lenovo/y-series/y50/#customize

Although im not sure of availability in canada for that one either.  "	0
 In honor of his 4th birthday, here is my husky Loki (and friends) :) 	 2014-05-29 22:49:26 	  	0
 Need advice for switching from lightning to Fire! 	 2014-06-02 23:59:35 	" Hey guys, so i've been playing a lightning crusader for a while and im pretty bored with it. I want to switch to fire, but i have +lightning dmg on a bunch of gear, and not many souls to reroll it to fire. So basically what im asking is, what should i look for as a fire crusader? i know i should try and get a cindercoat and maximus, but is there anything i should look for/spend most shards on? Any other advice/tips are welcome :)

heres my profile http://us.battle.net/d3/en/profile/test_subject5736-1644/hero/44816729 "	0
   	 2014-06-05 23:20:01 	 So you would take the new shield even with the really low block rate? 	0
   	 2014-06-05 23:20:56 	 Hammer is my main Dmg spender, still worth rerolling to CHC? 	0
 What to reroll on my SoJ? 	 2014-06-14 17:27:30 	" http://imgur.com/UowYQ7r

Currently running a lightning build with about 30% CDR, not sure what to reroll into CDR or CHD. 

Profile: http://us.battle.net/d3/en/profile/test_subject5736-1644/hero/44816729 "	0
   	 2014-06-14 19:15:43 	 Into CDR or CHD?  	0
 Need help picking a counter top! 	 2014-06-16 22:07:41 	" Hey guys, so I'm redoing my kitchen and need a new counter top to match my existing cabinets and floor tiles.

http://imgur.com/yQXbbpO

I'm not the best with colours and all that, so I'm looking for suggestions on what colour/style to get! Thanks! "	0
   	 2014-06-17 13:12:42 	 Laminate that looks like granite. Don't care about cost really, I'm just looking for what style/colour will go well. It's a medium size area, my entire kitchen countertop.  	0
" CANADA, 15"", $1500 "	 2014-06-20 00:13:42 	" LAPTOP QUESTIONNAIRE**

* Country of purchase: Canada

* Budget range: ~ $1500

* Purpose (netbook, ultraportable, mainstream, gaming, desktop replacement, etc.): Gaming

* Screen size preference: 15''

* OS preference (Windows/ Mac/ Linux): Windows 

* Gaming requirements (example games and desired fps/settings): Diablo 3: High setting   Skyrim: Medium- High, 45 Fps

* Performance requirements (video, CAD, etc.): Everything for engineering school (CAD type software).

* Method of computer support (office supplier, college bookstore, self support): Self Support

* Brand preferences and reasons (already owned accessories, familiarity, business
compatibility): None

* Any particular style that you like (examples are great): Prefer the style of Y50

* Which of the following qualities would you prefer? (Choose one, the other, or balanced)

* Long battery life -vs- Low weight: balanced, medium life for medium weight

* Build quality -vs- Low price: build quality

* Low noise/heat -vs- High performance: high performance

**Would you pay a premium for something that has:**

* High resolution screen: yes

* A great keyboard: yes

* A great touchpad/mouse buttons: yes

* Great audio: yes

**List any features that are critical:** (e.g. Optical drive, USB 3.0, SD card slot, ethernet port, HDMI port, bluetooth, VGA port, removable battery, glossy screen, matte screen, etc.)

Basically since i'm in Canada my options are limited so I've narrowed it down to the Canadian N550JK version (https://www.cdw.ca/shop/products/ASUS-N550JK-DB71-15.6in-Core-i7-4700HQ-Windows-8.1-64-bit-12-GB-RAM/3338923.aspx?enkwrd=asus%20n550jk-db71#TS) and the Canadian Y50 (http://shop.lenovo.com/ca/en/laptops/lenovo/y-series/y50/#customize)

If i got the ASUS id replace the HDD with a 250GB SSD and move the HDD to the optical drive. If i get the Y50, the upper model already has an SSD (only 512GB but should be enough storage). The GTX860M is about 30% better on average framerate than the GTX850M. So basically, which would you go for? i love the red look of the Y50, but it is more pricey (i would get a discount of prolly a few hundred of the ASUS). Is it worth the extra? "	0
 Game lot save data. please help! 	 2014-08-21 02:50:31 	 So i went to run Dragon Age, and it acted as if it was the first time it had run, and i lost my save data and settings. I have the files in the bioware folder but i don't know how to get them to be used in the game? 	0
 Looking for crusaders to farm T6 NS rifts today 	 2014-12-29 18:44:55 	 I'm going to be playing pretty much all day, and I seriously want to improve my gear before the season ends so I can have a serious condemn build. I've yet to find a Blade of Prophecy, and I need a few other gear improvements. I'm looking for T6 crusaders to farm with today. My battle tag is test_subject5736#1644 	0
   	 2015-01-09 15:44:32 	 Here are some of my favourites http://imgur.com/a/gOmaM 	0
   	 2015-01-09 15:56:13 	" Can you build up muscle and lose weight at the same? Everywhere I see people say you have to have a surplus of calories to get significant muscle growth, but that would also make you gain weight, right?  Im trying to get rid of my gut and build up some muscle before summer, 5'10"" 190. Been really confused with nutrition recently and looking for some guidance.  "	0
   	 2015-02-27 14:54:09 	" Here's my home screen http://m.imgur.com/Do9Geif
The theme is Rome, and allows a great view of Natalie Dormer.  "	0
 Since healthy food usually costs more, we're basically buying extra years of life. 	 2015-03-02 19:19:33 	  	0
   	 2015-03-17 14:58:59 	 Stupid people shouldn't be allowed to reproduce.  	0
   	 2015-03-31 13:54:11 	 Danny Bhoy, great scottish comedian with great wit. 	0
   	 2015-03-31 13:55:33 	" ""My doctor said I need more fruit in my diet, so I've been eating a lot of pop tarts; thin layer inside of those"" -Brian Reagen  "	0
 If you had to survive a zombie apocalypse, but you weren't allowed to leave the room you're currently in, how well would you fare? 	 2015-04-03 01:27:21 	  	0
   	 2015-04-03 01:38:28 	 Electricity lasts until the power grid fails due to the zombies 	0
   	 2015-04-03 01:38:50 	 I've got 2 boxes of crackers and Gatorade, I'm with you 	0
 Who would be the best person to cast as the next James Bond? 	 2015-05-05 13:15:28 	  	0
 How do axial tilt's change with respect to the Sun during a planet's rotation? 	 2015-05-06 03:04:04 	  	0
 How do axial tilts change with respect to the sun? 	 2015-05-07 00:28:32 	 If i am using this picture (http://rossmannellcomments.edublogs.org/files/2013/12/Planetary-Axial-Tilts-1qtzpi8.jpg[1] ) as a reference for the axial tilts of the solar system, will these numbers always be correct? Could they also be negative instead of positive depending on from where you view the planets? 	0
   	 2015-05-17 16:07:33 	 Jet fuel can't melt steel beams.  	0
 What should I be trying to upgrade first? 	 2015-05-18 16:27:36 	" I'm stuck around GR 37 because i keep dying too easily. What gear should I gamble on/re-roll to help me progress?
http://us.battle.net/d3/en/profile/test_subject5736-1644/hero/60535097 "	0
   	 2015-05-19 02:23:22 	 The link wont update but I had changed from a lightning build to physical for GRing, And I've incorporated the changes you suggested. What stats are best on a RoRG? 	0
   	 2015-05-29 04:54:07 	" ""When the rich wage war it's the poor who die"" - Linkin Park "	0
 My Reaction to Everything Concerning Caitlyn Jenner 	 2015-06-03 03:03:59 	  	0
   	 2015-06-10 14:51:09 	 /r/tumblrinaction just makes me cringe every time 	0
   	 2015-06-15 13:30:27 	 How can calories for one food item vary so much? I'm trying to figure out the calories and macros for boneless skinless Chicken Breast but on MyFitnessPal the options range from 160-290 calories. How do I know which is correct, shouldn't it be the same for all chicken breasts?  	0
   	 2015-06-28 00:47:38 	 Inside Man, amazing movie with the bad guy getting away with it at the end. 	0
   	 2015-06-28 00:49:56 	 I'm getting a solar system tattoo soon without pluto, simply because it isn't a planet anymore. I don't feel any attachment to it, and there's nothing worse than having a scientifically inaccurate astronomy tattoo.  	0
 Axial tilts of planets 	 2015-06-28 16:21:29 	 I'm getting a tattoo soon of the solar system and am including a line in each planet to indicate the direction of their axial tilt. using this picture as reference http://rossmannellcomments.edublogs.org/files/2013/12/Planetary-Axial-Tilts-1qtzpi8.jpg can i make the angles negative? so instead of Earth being 23.4 degrees away from the sun, can it be 23.4 degrees pointing towards the sun? I'm assuming yes because that is what happens during summer, but just wanted to make sure. Thanks! 	0
 Can someone make all the colour in this photo black except the red circle within Jupiter? 	 2015-06-28 18:02:53 	  	0
   	 2015-06-28 18:41:51 	 Thank you! 	0
   	 2015-06-30 14:07:37 	 Coffee. How do I die? Happily. 	0
 If you wear a shirt inside-out, the entire universe would be wearing it except for you 	 2015-07-02 14:24:40 	  	0
   	 2015-07-06 12:38:59 	 So I have two different packages of plain cashews, yet one has 310 cals per 1/3 cup and the other has 227 cals per 1/3 cup. Why is there a difference? Shouldn't it be the same since it's the same food?  	0
   	 2015-07-07 14:04:22 	 I think this is the main reason for the difference 	0
 How to maximize fat loss? 	 2015-07-08 15:43:21 	  	0
   	 2015-07-08 16:13:43 	 Do you have any recommendations for beginner programs? I have been lifting since last september though, but not too seriously until a few months ago when I finished school and started the cut, and have seen some good muscle developments and have been able to increase what I'm lifting despite eating at the deficit. 	0
   	 2015-07-08 16:21:13 	 Yea that's one of the things I've heard, I'll have to do some research on it 	0
   	 2015-07-08 16:49:22 	 I really like the look of the beginner PPL (https://www.reddit.com/r/Fitness/comments/37ylk5/a_linear_progression_based_ppl_program_for/) . I'm wondering if I could do a PPLPP and still see good results? I'm really set on working out on every weekday because it fits really nicely into my schedule and I like my weekends to relax. I have a pretty good base for legs already from running and cross country skiing. 	0
   	 2015-07-08 17:21:34 	 I work 9-3 Saturdays and I think I'll bring along a gym bag and if i have energy hit the gym for legs after work. Thanks for all your help, hopefully the next two months can show as much progress as the last two. I think between changing up my routine and adding some HIIT i can really get some good results before i start my first bulk in the October (that's the plan at least). 	0
   	 2015-07-10 03:17:22 	 Would you be able to do another quick colour edit? Getting this as a tattoo soon and trying to decide on what mix of colour and black. 	0
   	 2015-07-10 14:26:00 	" So I'm just starting to follow the beginner PPL Routine (https://www.reddit.com/r/Fitness/comments/37ylk5/a_linear_progression_based_ppl_program_for/) and it says to add weight linearly 

    2.5kg/5lbs for upper body lifts (bench press, row, overhead press)
    2.5kg/5lbs for squats
    5kg/10lbs for deadlifts

I'm assuming this means add this to only the first lift of the day and with thew accessory lifts increase the weight when i can do the max number of reps per set in the specified range. 5 Pounds per week seems like a lot for bench though, I've only managed to up it by about 10 pounds in the past 2 months (not following this routine albeit). Is that really feasible while eating at a 700ish cal deficit since I'm on a cut?
 "	0
   	 2015-07-10 15:16:13 	 When are you no longer a beginner? I've been lifting for a while now, saw good progression at first but it hasn't been as fast recently. 	0
 [Serious] Why are people so stubborn on Pluto being considered a planet? 	 2015-07-10 17:40:57 	  	0
   	 2015-07-10 17:42:49 	 In my mind its simple, it is a dwarf planet, based upon new information that wasn't available when it was first discovered. Things change, we have to adapt. If you still consider Pluto a planet, why? (besides the fact that you like it, or want it to be a planet, that holds no scientific meaning) 	0
   	 2015-07-10 18:52:28 	 This is actually a very good analogy, I think this one would be a bit more controversial because we talk about pizza a lot more than planets (says something about society doesn't it). Change is good but change is hard I guess.  	0
 TaiG cant find iTunes? 	 2015-07-21 03:30:11 	  	0
 [Question] TaiG won't recognize iTunes? 	 2015-07-21 12:41:04 	" I'm trying to jailbreak my iphone 5s running on 8.4 but the TaiG installer is telling me ""Apple driver hasn't been found. Please download and install iTunes"". I don't really feel like re-installing itunes and having to go through ratings and playlists again. Does anyone know of a fix for this? "	0
 [Request] How to be a better reader? 	 2015-07-21 13:49:16 	 So I find with most of the books that I read, i read the text but i don;t really retain a lot of the information. This isn't usually too big a problem because most books don;t have too many different plots/characters/etc. However I'm currently reading the Silmarillion, and dear God is there a lot of information. Does anyone have any tricks on how to retain the information that you read better? 	0
