title	date	text	class
 ELI5: Why exactly do we feel pain and why are there so many different ways pain feels like? 	 2014-04-11 23:56:36 	  	0
   	 2014-04-29 20:03:38 	 Lost 	0
 German filmmaker single-handedly produced a professional looking 50min animation movie. 	 2014-05-03 21:54:35 	  	0
   	 2014-05-03 22:12:49 	 Incredibly satisfying 	0
   	 2014-06-25 23:12:32 	 I don't get it.. how did she come to that conclusion? 	0
   	 2014-07-06 20:21:42 	 Add me too, I'm actorius. 	0
   	 2014-10-02 00:05:20 	 Fast lanes for pedestrians in crowded areas like airports and metros! People who use to walk faster than others or are just in a hurry would be able to take a special lane where everyone is supposed to walk at an appropriate speed. 	0
   	 2014-10-03 00:12:24 	" To be honest: ""Monk feeding a Tiger"" sounded way more interesting to me as I expected to see Adrian Monk feeding a Tiger. "	0
" German TV show ""Halligalli"" sends charlady who doesn't speak english to an interview with Jason Segel and Cameron Diaz. "	 2014-10-03 00:56:50 	  	0
   	 2014-10-03 10:35:01 	 Is that.. Mystique? 	0
   	 2014-10-03 14:19:32 	" Also the [""Remember Reach""](https://www.youtube.com/watch?v=18-_9E0HNY4) Trailer for Halo Reach was awsome! Still get goosebumps everytime I watch it. "	0
   	 2014-10-04 16:33:34 	" [Robyn - Call Your Girlfriend](https://www.youtube.com/watch?v=CHn7w3o22PA)
Love how great it looks despite it's simplicity and her peerless moves. "	0
   	 2014-10-04 17:39:08 	 Watching my girlfriend doing it with another guy. 	0
   	 2014-10-06 11:21:05 	 I hate those people who think that I necessarily have to ask them to help them out. The worst are customers who complain about you being ignorant after they ignored you when you kindly welcomed them. 	0
 No wanna help me out? 	 2014-10-07 11:03:40 	  	0
   	 2014-10-13 01:35:35 	 Sticking a fucking screwdriver in a fucking power point. Still don't know how I'm alive. 	0
 How does it seem like I always wake up right before the best moment in my dream? 	 2014-10-22 00:08:09 	 [removed] 	0
 In retrospect, what was an intent in your childhood you are happy you didn't turn it into reality? 	 2014-11-02 21:40:10 	  	0
   	 2014-11-12 12:05:40 	 Nice try, Hollywood. 	0
   	 2015-01-23 17:45:19 	 Hahaha. Stupid cat. 	0
 What is the most uncomfortable thing in your job that regularly happens to you? 	 2015-02-01 06:12:27 	  	0
 What is the tastiest thing that originally isn't supposed to be eaten by humans. 	 2015-02-01 11:42:41 	 [removed] 	0
 ELI5 How do cyber criminals use bank accounts and stuff without being tracked back by the police? 	 2015-02-08 22:27:17 	  	0
 Apparently Chuck is working at my local store. 	 2015-03-09 20:27:21 	  	0
   	 2015-03-30 15:03:29 	 At least his name was not JD. 	0
   	 2015-04-19 18:23:23 	" What advice would you give someone, who has never cooked more than spaghetti and that wants to cook a meal better than spaghetti?
edit: question mark. "	0
   	 2015-04-19 18:27:14 	 What advice would you give someone, who has never cooked more than spaghetti and that wants to cook a meal better than spaghetti? 	0
   	 2015-04-29 16:37:11 	 In Switzerland we know this long time. 	0
 ELI5 Why is love so important for human beings? 	 2015-05-27 21:35:40 	 It seems like there's nothing more important to every person than the positive/negative effects of love. Why? 	0
   	 2015-05-28 08:22:26 	 Good answer. Thank you! 	0
 ELI5: Homeless   unemployed people in first world countries? 	 2015-05-30 21:46:54 	" My ""attitude"" may be stupid or ignorant but that's a thing I was always wondering about.
Is it really that hard to find a job as an uneducated person? I was taught that there are more than enough jobs out there that require almost no education/career and that if your willing enough, you will find at least a minimum wage job. I mean isn't a ""bad"" job better than none? "	0
 What's your best Pixar movie story that was never made? 	 2015-06-02 09:26:46 	 Could be a feature film or a short. 	0
 Just a pic of me playing cards with a guinea pig. 	 2015-06-06 06:06:43 	  	0
   	 2015-06-18 21:41:31 	" Fucking shit. I read ""Cockpit view of a killed pilot"". Thought she's gonna crash that plane and her waving was some weird way of saying bye to the world. "	0
   	 2015-10-27 18:19:17 	 Way too less movies after 2000.  	0
   	 2015-10-30 13:48:08 	 Is there allready a patent on a VR-Controller that gives you realistic recoil? If not, well.. that would probably have made me rich.  	0
   	 2015-10-30 22:24:12 	 If you like books, I strongly recommend you [Lord of all Things](http://www.amazon.com/Lord-All-Things-Andreas-Eschbach/dp/1477849815) by german author Andreas Eschbach. It's an excellent science fiction novel, which adresses exactly that subject. 	0
 What is the first video you remember watching on the internet? 	 2015-10-30 23:29:00 	  	0
   	 2015-11-29 01:32:15 	 Don't forget to first turn the light/power off though. 	0
   	 2015-12-27 12:17:12 	 I can't place it but something about this video makes me cringe. 	0
   	 2015-12-27 21:58:04 	" As I'm kinda into america, I am sorry to say this but your entire legal system seems to be a fucking joke.

edit: grammar "	0
   	 2016-03-26 14:13:07 	 Well, your not from Switzerland I guess... 	0
   	 2016-03-27 22:25:48 	 When noticed the string I could not help but imagine the string tangle up in the back wheel. 	0
   	 2016-03-28 02:18:02 	 The editing gives me eye cancer though. 	0
 What in the last few years has become socially acceptable that you wish it hadn't? 	 2016-03-30 22:21:16 	  	0
 Caught myself being weird today 	 2016-03-30 23:06:23 	  	0
 Caught myself being weird today 	 2016-03-30 23:21:10 	  	0
   	 2016-05-14 10:26:52 	 Why is the vs in this title in brackets? 	0
   	 2016-05-15 14:53:48 	 In Gang Beasts everyone thinks their experience is the funniest while actually it is just normal gameplay.  	0
 A friends family took me to church today... 	 2016-07-10 10:04:20 	" So, a friend of mine is in one of those free-evangelical, ""International Christian Fellowship""-churches. His family is very nice and admirable. They knew I was an atheist and were ""okay"" with it, however they offered me to attend their service today and as I am very interested in other world views (I was raised catholic and I have heard of their church to be very ""progressive"") I agreed to go with them.

This visit made me aware of how religion is keeping people back from being reasonable people. It was so frustrating! There was a part during the worship where the pastor asked the attendants to share their encounters with god and jesus and there was this woman in her mid-30's who had a brother with a bipolar disorder. Apparently in his worst moments he tended to abuse his kids. So this woman told about that and how she was considering calling the cops on him, or at least warning his neighbors so that if they hear something they could step between. She said she was praying to the lord for help, so she would make the right desicion.

What eventually came about was: She realised that god is watching us all and he will watch her brother and his kids and he will lead them. Interfering in gods plan would mean she doesn't trust in god. So she did nothing. She did literally nothing and was totally happy about her brother hitting his kids ""because god has his plans"". In disbelieve I looked at my friend and his father (who I usually admired for his reasonable and rational views/behaviour) and they both were fucking cheering to the story along with everyone in the building. I can't believe that in a highly developed society (I'm from Switzerland btw) there are people who are okay with a father hitting his kids, just because of a ""god knows what he does"" label on it.

I wish I had done anything, but I honestly am not the type of guy who leans up against a full room of people and I don't think it would have changed a single bit, so I just went home to write this post to process my last experience with christianity. It definitely opened my eyes in some way. Even an intelligent and usually rational thinking person will do the dumbest things if they think it's ""gods plan"" and I will never trust them in anything like I was to.

**TLDR:** Woman does nothing about her mental instable brother abusing his kids because she thinks ""god will fix it"". Church attendants are okay with it. I realize that religion is danger, even in first world countries and I'm not to trust religious people anymore.


**edit:** words   formating

**edit II:** turns out the ""International Christian Fellowship"" is only a thing in europe, so [here's](https://en.wikipedia.org/wiki/International_Christian_Fellowship) the wikipedia to look it up. "	0
   	 2016-07-10 15:43:32 	 Thanks guys for your advice. There doesn't seem to be a Child Protection Agency near me, but I'm definitely going to report the case to the police tomorrow morning. Hopefully they will take it seriously and try and find that father to make sure those kids are alright. 	0
   	 2016-07-10 16:50:12 	" Sorry, I thought the ""International Christian Fellowship"" was more popular. Seems to be more of a european thing though. "	0
   	 2016-07-11 12:58:24 	 I always recommend [Variens tutorial](https://www.youtube.com/watch?v=LRTrRa-cpyw). It even has a TLDW version. 	0
   	 2016-07-18 12:37:45 	" Hey guys!

https://soundcloud.com/wtf-united/different-times/s-64QMu (private link)

I made this as a part of an EP. Is it missing something? The track is still unmastered, since the EP is still to be completed. I am also considering sending demo tracks to labels. Do you honestly think my production quality is good enough?
Thanks for your feedback!

[Feedback 1](https://www.reddit.com/r/edmproduction/comments/4td9wf/feedback_thread_july_18/d5gntp6)

[Feedback 2](https://www.reddit.com/r/edmproduction/comments/4td9wf/feedback_thread_july_18/d5gnx6i) "	0
   	 2016-07-18 12:51:01 	 Super funky, sounds great over all. Definitely something I would listen to repeatedly. Maybe it's just my headphones but I feel like the snare is missing something in the mid-high section. 	0
   	 2016-07-18 12:56:32 	 Way to go! I think it's a chill track, but the mix isn't very great. It's missing energy. Also the kick (maybe drums in general) could be a little louder and punchier. 	0
   	 2016-07-20 01:56:41 	" Seems like you're looking for something like [this](https://www.youtube.com/watch?v=JMpAgzNTkV0).

I've never used it, but was told it's the best and easiest DAW you can get for free.

But honestly I think if you're not willing to spend money on it, you're not very likely to put in the effort it takes to get some decent results. "	0
   	 2016-07-20 09:34:15 	 Well, in this case I think software like MuLab is perfect for just playing around and to find out if producing is something that might be fun to you. Don't expect to be even close to productive for the first several weeks/months (depends on how much time you invest) :) 	0
   	 2016-07-27 09:13:28 	 same here :) 	0
   	 2016-07-27 18:59:48 	 I've never had trouble doing this since I was a kid. Is music theory a thing you can learn unconcious/unintended or am I just not as good as I think I am? 	0
   	 2016-08-16 12:46:29 	 How's OP supposed to ask clever questions if can't event answer his dumb ones? 	0
   	 2016-08-28 11:46:34 	" ""no""!! this makes me furious "	0
   	 2016-08-29 10:18:23 	" Heyyy, I'm looking for feedback on my [""Still Alive"" (Mirrors Edge) Future Bass Cover:](https://soundcloud.com/heroplanet/still-alive)
-------------------------------------------------------
FEEDBACK:

[reddiitor101](https://www.reddit.com/r/edmproduction/comments/5036cr/feedback_thread_august_29/d70z8z3)

[Plumfruit](https://www.reddit.com/r/edmproduction/comments/5036cr/feedback_thread_august_29/d70zl8p) "	0
   	 2016-08-29 10:24:35 	 Hi. Solid track, but there's definitely some punch missing. Try using a compressor with a fast release on the drum (kick) and the pluck (the one at 2:52). 	0
   	 2016-08-29 10:45:15 	" Hi Plumfruit
I like your track, gives a good summer mood. However, I feel like there's some (sub)bass missing in the drop. A simple sidechained sine wave playing the chorus melody would help make it ""dropier"" and fuller. "	0
   	 2016-09-03 18:53:57 	 Thanks, it should work again now. 	0
   	 2016-09-15 13:03:49 	 Since I often have problems finding the right inspiration, I love to use a random vocal from looperman.com and start with that as a basis and build chords and rythm around it. Then I drop the vocal and replace it with whatever I think is missing. 	0
   	 2016-09-16 10:29:13 	" I started producing in 2011 and felt exactly the same a few months ago. I thought for the 5 years I am doing this I should be way better than I am. Then I just started forcing myself to learn about every single technical aspect I didnt understand. I gathered more knowledge in these (maybe 3) months than I did in the last 3 or 4 years. Its not like understanding these things is some magical secret. Its just about looking for information until you can comprehend the matter and using the knowledge you picked up in your new projects and experiment with what you get from it.


You already are in the right subreddit! Search for the keywords you mentioned above and just try to understand. If you dont, make a new post and point out whats confusing you.


A YouTube channel that helped me was [Composing Gloves](https://www.google.de/url?sa=t rct=j q= esrc=s source=web cd=1 cad=rja uact=8 ved=0ahUKEwja0dbxupPPAhWMCsAKHZqEB6kQFggcMAA url=https%3A%2F%2Fwww.youtube.com%2Fuser%2Fcomposinggloves usg=AFQjCNE6rdHveAZR7Np_ijUBkLpgWE-Q5g bvm=bv.133053837,d.bGg). Check out his from the ground up-series.

Also, I read the [iZotope Mixing Guide](https://www.google.de/url?sa=t rct=j q= esrc=s source=web cd=1 cad=rja uact=8 ved=0ahUKEwi5l6u5u5PPAhVlJMAKHRoKDyYQFggfMAA url=http%3A%2F%2Fdownloads.izotope.com%2Fguides%2FiZotope-Mixing-Guide-Principles-Tips-Techniques.pdf usg=AFQjCNFQMaoVfGNbifxyfWOyNtL843fe8g bvm=bv.133053837,d.bGg) which is a great resource for all mixing related questions.

I hope this helps you as a starting point and inspiration.

edit: formatting "	0
   	 2016-09-17 20:16:55 	 I believe it's a mainly motivational thing. You will be surprised how fast your sound improves, and that motivates you to learn even more. You just need to start at some point and trust in yourself in what you're doing. 	0
 What is a thing you know about yourself, that you wish you found out earlier in you life? 	 2016-09-21 09:23:24 	  	0
   	 2016-10-24 12:56:00 	" [My Track](https://soundcloud.com/heroplanet/while-you-fight-wip-vox-missing/s-4cf4l?in=heroplanet/sets/while-you-fight-wip-interim-vox/s-jZmek)

To vocals are currently being recorded.

One specific question: Is the arp playing in the drop okay from a sound design perspective?

[Feedback 1](https://www.reddit.com/r/edmproduction/comments/584mei/feedback_thread_october_18/d95g1qk/) "	0
   	 2016-10-24 13:34:50 	" The mixing is solid. Also your choice on Synths. Maybe it's my headphones, but I feel like the Kick could be a bit louder and ""kickier"". "	0
   	 2016-10-25 17:28:43 	 Very cool. Followed and added a track too. 	0
 It always seemed so far away... 	 2016-11-03 10:24:13 	  	0
   	 2016-11-03 10:28:40 	 TIL I have tripohobia. 	0
 I always thought it's so far away... 	 2016-11-03 10:40:01 	  	0
   	 2016-11-18 12:50:36 	 Lucerne, Switzerland 	0
   	 2016-11-22 17:22:44 	" You didn't mention where you're from... This is actually a very weird question, as the copyright law in most countries applies on any intellectual property in the moment you create it. There shouldn't be any need to register your work. The task of providing evidence to prove that work was originally made by you in a lawsuit is another chapter.

edit: grammar "	0
   	 2016-12-12 10:19:09 	" I use fruity compressor almost every time on my snare and sometimes on the whole drum bus to make it sound bouncyer. It helps to stick all the drum layers together.
I also have a slight compression in my mastering chain (about 1:1.4-1.6) to fit in the loudest parts of the track.
Edit: Also on Vocals, always. Makes a huge difference. "	0
   	 2016-12-15 22:37:15 	 lol 	0
   	 2016-12-19 15:32:55 	" Here's some (""cheap"") services I have used in the past:


- Splice.com does have a small but increasing amount of vocal packs that you can use for your commercial releases.They're the cheapest and easiest way to get high quality vocals i've found yet.


- Looperman.com, where you have to deal with the vocalists for licensing. There's some very nice and straight forward people, but most of them will charge more than 100$ per release (after what i've experienced).

- beatport, there are some nice and ""for commercial usage"" vocal packs of many genres which I've made use of. The quality depends very much and the price per pack is between 20-50$.


- fiverr.com, where I had a vocalist sing some original lyrics for me. In most cases you have to write them yourself though. Also, it's a fair amout of work to have the vocalist sing the lyrcis how you imagine them (which included singing the bit myself first, and several rerecordings on the vocalists side). Pricing is about 30 up to 200 bucks (I paid 105$).

Sorry for my not so good english. "	0
   	 2016-12-27 21:49:06 	 That's one sexy sloth. 	0
   	 2017-01-04 12:53:49 	 TIL you can buy giant cats from amazon. 	0
   	 2017-01-08 12:49:11 	 Why should we worry about the opinion of someone that doesn't walk? If you're too stupid to safely stop before a crosswalk, then you might want to find your helper and have them drive with you next time. 	0
   	 2017-01-17 12:55:02 	 I had to call a customer at work to tell him we fucked up his order once. I overthought that conversation so much I couldn't say a word when he answered the phone. It was the most embarassing moment I've experienced. Now I'm writing down everything I plan to say on the phone including multiple possible alternatives. 	0
   	 2017-01-26 12:53:28 	 You can be both 	0
   	 2017-02-13 21:26:19 	 well this is absolutely unwatchable 	0
   	 2017-02-15 13:05:04 	" WTF what a waste of money. Even with 91% off.
You can make such a template in ~15 minutes for free. "	0
   	 2017-02-15 15:34:43 	 this very much 	0
   	 2017-02-22 15:27:09 	" While a decent fanbase really can help you with getting signed, most labels will not care about your following if you present them an awesome tune. I would recommend you creating a professional looking Facebook/Twitter/Soundcloud etc. though. An A R will want to check out those pages if they are interested in you. Proving that you're able to market yourself and your music is quite important to some labels from what I've experienced. Also if your music is good, social media is the only way to get audience in the first place and can serve as an indicator if your sound/style appeals your listeners. Still, at the end of the day it's all about making great music.

Edit: added a sentence "	0
   	 2017-02-27 19:10:29 	" you forgot the best one:
Sloth = Lazy animal "	0
   	 2017-03-23 13:00:30 	 I'm not the creator of this but if I invested hours over hours creating all this awesome animations I would be pretty upset about your poor comment. 	0
   	 2017-03-23 16:09:08 	" My comment wasn't about your opinion being unvalid. I was referring to your total lack of respect for someones hard work. You have every right to be a douche on the internet, I just wanted to point out to you, that you're not helping anyone with your ""critic"". "	0
   	 2017-03-23 20:01:15 	" That's still not my point though. I don't care if you can't help but tell someone their work is utter shit and you got eye cancer from watching it. But if you don't provide them with any usable advice when you had the necessary knowledge to do so, your ""critic"" is just hate/spam and I will professionaly distance myself from your opinion. Fuck me right?

edit: one word "	0
   	 2017-03-23 20:17:19 	" But how is ""Not good"" more helpful than my (exagerrated) example. It's not as harsh I agree, but it's still unusable as a critic. "	0
   	 2017-04-16 11:18:08 	" To be fair, guessing calories in food seems to be very hard in general. I've read that according to studies even nutritionists only achieve an average accuracy of around 80%.
edit: added ""according to studies"" "	0
   	 2017-04-20 09:41:56 	 Omg, you look beautiful! Congrats! 	0
 What production companies or movies did actually pay fair wages to their VFX-artists? 	 2017-05-10 11:51:04 	" I was wondering about this, since the relationships between production companies and vfx companies in terms of payment/compensation seem to be horrific. Is this a Hollywood specific problem because of the lack of unions in these branches? And are there even ""big"" (say budgeted from 50m upwards) Hollywood productions that actually do pay their VFX contractors well? "	0
