title	date	text	class
 A university never looked sexier! 	 2015-01-23 03:49:01 	  	0
 Kim Jong-un going overseas for the first time in 3 years! 	 2015-01-30 05:42:19 	  	0
 ESPN tries to explain Cricket to America! 	 2015-02-12 05:30:24 	  	0
 ESPN tries to explain Cricket to America! 	 2015-02-12 05:53:43 	  	0
   	 2015-02-12 06:00:18 	 me 	0
   	 2015-02-12 06:18:36 	 Ha.. 	0
   	 2015-02-17 05:47:55 	 kinda looks like the Indian flag with orange at the top and green at the bottom! 	0
   	 2015-02-18 03:08:13 	 This one 	0
   	 2015-02-18 03:37:37 	 Its a trap 	0
   	 2015-02-18 03:39:13 	 this is sick! 	0
   	 2015-02-18 05:19:27 	 go out for lunch / drinks with colleagues! 	0
   	 2015-02-19 00:51:26 	 World Peace 	0
   	 2015-02-19 04:27:39 	 2008 called. They want their joke back... 	0
   	 2015-02-20 04:00:38 	 you have a split personality where on once side you are peace loving holy monk, and on the other side, you are a lethal ninja with amazing martial arts capabilities. 	0
   	 2015-02-20 04:02:16 	 america cannot 	0
   	 2015-02-20 04:06:45 	 Thailand + Cambodia = ThaiCombo 	0
   	 2015-02-20 04:07:52 	 Thailand + Iraq = Thairaq or ThaiRok 	0
   	 2015-02-20 04:26:12 	 windows key + D = Desktop 	0
   	 2015-02-20 04:30:17 	 person with a split personality where on once side they are peace loving holy monk, and on the other side, they are a lethal ninja with amazing martial arts capabilities. 	0
   	 2015-02-20 04:31:38 	 anal 	0
   	 2015-02-20 04:33:28 	 sit 	0
   	 2015-02-20 06:09:14 	 it'll explode 	0
   	 2015-02-20 06:16:42 	 or follically ungifted ? 	0
   	 2015-02-20 06:20:03 	 i pronounce spelled like its giffed 	0
   	 2015-02-20 06:25:11 	" Definitely a bad idea. Cars always depreciate in value from the moment you drive out of the dealership! Buying a cheaper car when your income is not a whole lot makes much more sense as you wont lose much once you sell it. A couple of years later, if you are making more money, then go for a better car. 
 "	0
   	 2015-02-20 06:26:07 	 google 	0
   	 2015-02-20 06:27:13 	 writing this comment 	0
   	 2015-02-20 06:29:19 	 reddit 	0
   	 2015-02-20 07:14:01 	 pronounce I like gif spelled 	0
   	 2015-02-20 07:14:36 	 replying to the comment now 	0
   	 2015-02-23 03:28:01 	 depends when was the last time you slept! 	0
   	 2015-02-23 03:39:32 	 hate 	0
   	 2015-02-23 03:43:10 	 pajamas are disgusting. 	0
   	 2015-02-23 04:50:44 	 If the Oscars where he won 3 were held in Paris, he would be Neil Hattrick Paris 	0
   	 2015-02-23 05:03:16 	 you're an asshole to post this in /r/funny !! 	0
   	 2015-02-23 05:04:21 	 18C - Melbourne, Australia 	0
   	 2015-02-23 05:06:10 	 i dont get it 	0
 ELI5: What exactly happens to my brain and body when I consume alcohol? And why do I throw up after a certain amount? 	 2015-02-23 05:23:52 	  	0
   	 2015-02-23 05:55:28 	 Its summer in Australia at the moment. but yeah, it doesn't snow in Melbourne.. But a couple of hours drive and there are a few ski resorts where you can have as many snowball fights as you want :D 	0
   	 2015-02-23 06:12:46 	 about time! 	0
   	 2015-02-24 02:25:02 	 He keeps getting lucky...  	0
   	 2015-02-24 06:24:27 	 Mars 	0
   	 2015-02-25 01:00:19 	 bacon! mmmmmmmmmm!!! 	0
   	 2015-02-25 01:03:38 	 people who take their religion way too seriously and get to a point where it starts to harm other people! 	0
   	 2015-02-25 01:07:02 	" [Cat Stevens - Wide World](https://www.youtube.com/watch?v=4ihaOLOt29U)
 "	0
   	 2015-02-25 02:47:59 	 pics or it did not happen 	0
   	 2015-02-25 03:24:02 	" ctrl+c 
ctrl+v "	0
   	 2015-02-25 04:43:51 	 Best 	0
   	 2015-02-25 04:52:01 	" They feed me, they give me shelter, they love me....they must be god!

And a cats thought process: They feed me, they give me shelter, they love me....I must be god! "	0
 He convinced 400 followers to have their testicles removed to speak directly to god! 	 2015-02-26 05:48:13 	  	0
   	 2015-02-26 05:57:04 	 life is a box of chocolates 	0
   	 2015-02-26 05:59:29 	 someone got creative after they found out about https://shipyourenemiesglitter.com/ 	0
   	 2015-02-26 06:04:35 	 :-o TIL 	0
   	 2015-02-26 06:15:40 	 use a hair dryer to heat it up and soften / melt the wax maybe! 	0
   	 2015-02-26 06:18:14 	 my shadow.. it follows me everywhere :( 	0
   	 2015-02-26 06:20:10 	 70% of bollywood movies 	0
   	 2015-02-26 06:22:55 	 it doesnt want you to look while it types the facebook password! 	0
   	 2015-02-26 06:46:48 	 you are the love charZer 	0
   	 2015-02-26 07:20:54 	 You never know what you gonna get! 	0
 This had to be done 	 2015-02-26 23:39:40 	  	0
   	 2015-02-27 06:31:27 	 i concur 	0
   	 2015-03-01 02:36:12 	 any supermarket! 	0
   	 2015-03-01 02:37:27 	 my partner looking after me! 	0
 If people winked in real life as much as they do in text messages, the world would be a really creepy place! 	 2015-03-02 00:59:42 	  	0
   	 2015-03-02 09:23:42 	" Childcare!
 "	0
 Sheikh's son goes to University 	 2015-03-14 01:47:23 	" A rich billionaire Sheikh sends his son to a university in the US. He buys his son a gold plated Ferrari so that he can commute from his house to the university everyday.
A couple of weeks in, he gets really upset and sends an email to his dad:
Dad, all my friends in the university use the public transport .. usually a train .. to come to university. I feel really embarrassed to be driving around in a gold Ferrari.

Next day, the Sheikh responds: Don't worry son. I've just transferred $10 million to your account. Go buy urself a train. "	0
 Relationship advise 	 2015-03-14 02:05:13 	  	0
 Best sex ever. Emma McCabe plans to marry a tree named Tim 	 2015-03-25 01:28:36 	  	0
   	 2015-03-25 04:39:33 	" next door.. the ""else"" house "	0
   	 2015-03-25 06:42:50 	 pics or it did not happen! 	0
   	 2015-03-30 05:43:28 	 this is one of the oldest joke i know of! 	0
   	 2015-03-30 05:48:21 	 OMG WormBeer! 	0
   	 2015-03-30 06:03:26 	 Coromandel Peninsula, probably the most beautiful places in the north Island! most amazing beaches too.. like http://en.wikipedia.org/wiki/Te_Whanganui-A-Hei_(Cathedral_Cove)_Marine_Reserve 	0
   	 2015-03-31 01:55:56 	 talk about their performance in the recent cricket world cup :D 	0
   	 2015-03-31 02:53:49 	 who's there 	0
   	 2015-03-31 02:57:40 	 Knock Who? 	0
   	 2015-03-31 03:09:26 	 Knock Who? 	0
 Lamb with face like an angry old man 	 2015-03-31 04:20:26 	  	0
   	 2015-03-31 06:27:58 	 I make folders for each artist, and a sub folder for each album if I have a few songs of an album. Else, assorted songs for an artist goes under the artist folder itself! 	0
   	 2015-03-31 06:32:35 	 she keeps falling 	0
   	 2015-04-02 00:15:50 	" Yes
No "	0
   	 2015-04-02 00:33:42 	 more like your iphone attaches to a giant lens! 	0
   	 2015-04-02 08:24:12 	 Jamme Thodi l8 ho 	0
   	 2015-04-07 04:11:55 	 Amazing! 	0
 Sometimes I wake up moody... 	 2015-04-07 12:06:00 	 The other times, i let her sleep. 	0
   	 2015-04-08 01:28:02 	 They almost got a gig 	0
   	 2015-04-08 01:29:55 	 Django Unchained 	0
   	 2015-04-08 01:41:51 	 If you put ur nose against it, do you hear the ocean? 	0
   	 2015-04-08 01:42:10 	 get a new ear 	0
   	 2015-04-08 01:54:12 	 https://www.google.com.au/search?q=grey+crewneck+sweatshirt es_sm=122 source=lnms tbm=isch sa=X ei=g2wkVcWQCoua8QWpu4CwCA ved=0CAcQ_AUoAQ biw=1251 bih=868#tbm=isch q=grey+crewneck+sweatshirt+dalmatian+sport 	0
   	 2015-04-08 01:57:33 	 too sexy for my shirt 	0
   	 2015-04-08 01:58:23 	 this comment 	0
   	 2015-04-08 02:55:37 	 some of the home brand products with similar branded ones. Eg: plain salt chips! 	0
   	 2015-04-08 03:48:02 	 Vacuum 	0
   	 2015-04-08 04:36:02 	 it came 	0
   	 2015-04-08 08:39:35 	 I will third that. 	0
   	 2015-04-08 08:44:39 	 I love my job! 	0
   	 2015-04-08 08:49:49 	 are you still friends with them? 	0
   	 2015-04-08 08:58:39 	 So we will learn about a man who convinced his 400 followers to have their testicles removed to directly speak to god. 	0
   	 2015-04-08 14:42:01 	 Bacon 	0
   	 2015-04-08 14:49:33 	 Be careful opening it! 	0
   	 2015-04-09 03:27:27 	" old one but still the best!
Keyboard missing. Press F1 to continue! "	0
   	 2015-04-09 07:28:40 	 Amazing Shot! 	0
   	 2015-04-09 07:30:37 	 It must be the ghost of jealousy.  	0
   	 2015-04-09 08:16:08 	" and on the very next post it note, write ""poop"" "	0
   	 2015-04-09 08:34:57 	 Smell.. so i wont be able to smell other peoples farts.. and mine too  	0
   	 2015-04-09 08:44:34 	 It'll do the damage everyone will be confused as f@#k as to what caused it! 	0
   	 2015-04-10 02:02:56 	 who buys stuff on reddit! we have ebay for that. 	0
   	 2015-04-10 02:10:46 	" But you did end up losing a lot more eventually! feel sorry for you man, but you gotta be careful..
Here, i found you a good deal:
http://www.ebay.com/itm/GTA-5-PC-Game-Rockstar-Digital-Cd-Key-Code-Grand-Theft-Auto-V-EU-US-NEW-/201317058790?pt=LH_DefaultDomain_3 hash=item2edf6e88e6 "	0
   	 2015-04-10 02:20:39 	 I think my best memory of him was from Cricket 97 - EA Sports! 	0
   	 2015-04-10 05:32:09 	 Matrix! 	0
 Pics from Iggy Azalea and Britney Spears new sexy video! 	 2015-04-10 05:50:32 	  	0
   	 2015-04-10 06:37:49 	 Jenny will be having a lot of visitors at 7. 	0
   	 2015-04-10 06:53:15 	 Cuz Dark Lord Funk gon give it to ya 	0
 If you stand on the south pole, you are actually hanging upside down from the earth! 	 2015-04-10 07:34:16 	  	0
   	 2015-04-10 13:43:30 	" TIL redditors are weird 
 "	0
   	 2015-04-11 15:28:04 	 Ops username! 	0
   	 2015-04-11 15:29:58 	 Why are so many comments deleted! 	0
 Like to use your iphone before sleeping with lights off? or anywhere with very less light.. ? Goto Settings  General  Accessibility  Invert Colors, and turn it on. Will put much less strain on your eyes! 	 2015-04-13 02:02:46 	  	0
   	 2015-04-13 02:05:41 	 What the duck!!! 	0
   	 2015-04-13 03:36:38 	 can confirm.. happened to me this morning! 	0
   	 2015-04-13 03:39:10 	 Time flies 	0
   	 2015-04-13 04:27:14 	 you must be pissed 	0
   	 2015-04-13 06:29:57 	 I see BatPug 	0
   	 2015-04-13 06:49:54 	 /r/wtf 	0
 Kenyan rapists get 15-year jail sentences after backlash over grass-cutting punishment given about a year ago. 	 2015-04-14 01:10:23 	  	0
 Eight bytes walk into a bar 	 2015-04-14 01:55:59 	" The bartender asks, ""can I get you something?"" 

""Yeah"", the bytes reply, ""make us a double"" "	0
   	 2015-04-14 02:11:02 	 nailed it 	0
   	 2015-04-14 02:28:30 	 you should do something 	0
   	 2015-04-14 02:46:58 	" I saw him yesterday!
http://www.reddit.com/r/pics/comments/32efyb/i_see_batman/ "	0
 Police Car causes 3 car Crash - Prospect N.S.W - Caught on Dash Cam 	 2015-04-14 06:56:04 	  	0
   	 2015-04-14 07:23:17 	 Thats a beary bad joke! 	0
   	 2015-04-14 07:46:22 	 else he will be sleeping in the basement tonight! 	0
   	 2015-04-14 07:59:23 	 I wonder if i'm wearing those clothes right now! 	0
   	 2015-04-14 14:48:14 	 I think the typo is the main reason this post is getting up voted! 	0
   	 2015-04-15 00:47:59 	 Oye paaji tussi great ho! 	0
   	 2015-04-15 01:47:18 	 ops didnt realise this was posted already! 	0
 How you doin? 	 2015-04-15 01:48:57 	  	0
   	 2015-04-15 02:22:39 	 your eyes are so dreamy! 	0
   	 2015-04-15 03:55:29 	" bills
FTFY "	0
   	 2015-04-15 03:59:30 	 dont think this joke gonna get any poopular... 	0
   	 2015-04-15 04:09:47 	 upvoted for name! 	0
   	 2015-04-15 16:10:19 	 Everything is awesome! 	0
 Okay 	 2015-04-17 00:42:15 	  	0
 Japanese Game Show - Handjob Karaoke! Slightly NSFW 	 2015-04-17 01:50:29 	  	0
   	 2015-04-17 02:44:20 	 Put the (D:) in her (A:) 	0
   	 2015-04-17 02:47:07 	 There could be a virus!  	0
   	 2015-04-17 04:17:33 	 lets get it on the front page! 	0
   	 2015-04-17 05:36:12 	 request access 	0
   	 2015-04-17 06:28:55 	 If Bill gates had 1 cent for each time windows crashes...oh wait, he already does! 	0
   	 2015-04-17 06:39:35 	" 

                        _    ,-,    _
                 ,--, /: :\/': :`\/: :\
                |`;  ' `,'   `.;    `: |
                |    |     |  '  |     |.
                | :  |     | pb  |     ||
                | :. |  :  |  :  |  :  | \
                 \__/: :.. : :.. | :.. |  )
                      `---',\___/,\___/ /'
                           `==._ .. . /'
                                `-::-'
 "	0
   	 2015-04-17 08:52:05 	 a coconut 	0
   	 2015-04-21 02:29:14 	 what a dickegg 	0
 Hay! What do you think ur doing? 	 2015-04-23 06:43:38 	  	0
   	 2015-04-23 07:36:29 	 but I dont eat cereal.. who do i marry now? :( 	0
 Girls banned from running at Islamic school in Melbourne to protect virginity 	 2015-04-23 08:47:50 	  	0
 Female witness in Greenville, Mississippi wets herself in interview on CBS 	 2015-04-24 06:47:53 	  	0
   	 2015-04-27 01:59:45 	 Make it competitive! What the family member gets is completely depended on the number of upvotes the thread gets! And a bonus for a gold maybe.. 	0
   	 2015-04-27 03:00:49 	 http://knowyourmeme.com/memes/cone-ing 	0
   	 2015-04-27 03:07:07 	"  I spread the cream all over my dong and the tip erupted in pain, like that time I tried using Alberto Balsam mint shampoo as lube 

Sounds like another TIFU from OP! "	0
   	 2015-04-27 03:47:16 	 My empty coffee mug! I hope zombies are allergic to the smell of caffeine! 	0
 A man lost 31 members of his family (including extended) due to the earthquake in Nepal. The whole family was together for a religious ceremony. 	 2015-04-29 02:37:24 	  	0
   	 2015-04-30 02:21:53 	" If i would
I should "	0
   	 2015-04-30 02:39:13 	 Maximum utilization of all the technologies OP has. 	0
   	 2015-04-30 03:53:13 	 explained very well here - https://www.youtube.com/watch?v=4dOAjXSZJ1o 	0
   	 2015-05-01 07:36:36 	 Somebody gonna get a hurt 	0
   	 2015-05-01 07:38:16 	 so did you? 	0
   	 2015-05-02 13:14:14 	 mildlyfunny too! 	0
   	 2015-05-03 04:42:09 	 What about Pluto? :( 	0
   	 2015-05-04 06:37:38 	 Half of that was in 1947 when India got Independence. Population of india then - roughly 350 million! 	0
 With smart watches like Apple watch and others gaining popularity, its about time to start thinking about laws around using those while driving! Just like we have laws about using the mobile while driving. 	 2015-05-05 08:20:28 	 Receiving a text on a smart watch while driving can be just as dangerous. Answering a call .. probably not. But receiving a text or other notifications while driving can be very distracting while driving. 	0
   	 2015-05-06 06:29:12 	 TIFU... :( 	0
   	 2015-05-07 01:12:03 	 This should become a meme! something on the lines of - you expect me to be impressed??? 	0
   	 2015-05-12 02:29:19 	 he came 	0
 Chinese theme park sets up 'death simulator' 	 2015-05-12 03:58:21 	  	0
 In Chandigarh, Man Pays 8.1 Lakh for a VIP Number For Rs 50,000 Scooter 	 2015-05-12 04:01:28 	  	0
   	 2015-05-13 04:57:38 	 This kinda happened to me too! I didn't notice my wife's (then girlfriend) missing arm until 3-4 hours of the first time we met! It was late evening, we went to a couple of pubs / nightclubs! Still the best night ever! 	0
   	 2015-05-13 05:06:38 	 about 3 hrs in, we were walking to the next nightclub.. she was walking ahead of me .. thats when I noticed.. and i was like.. HOLY SHIT !!! How the hell did I miss that all this while!!! Not for once that made any difference to what I thought / felt about her.. I was just shocked at myself! She was wearing a long sleve jacket. 	0
   	 2015-05-14 09:26:02 	 Star Wars 	0
   	 2015-05-14 09:27:27 	" The Godfather.. 
Probably tried to watch the first part long long time ago.. gave up after 20min. Never got back to it! "	0
   	 2015-05-15 02:01:15 	 I somehow am possible! 	0
   	 2015-05-21 02:53:43 	" Step 3: ????
Step 4: Profit

FTFY "	0
 An SQL query walks into a bar.. 	 2015-05-25 09:58:08 	  	0
 ELI5: What is the sound i hear in my ears when there is absolute silence? 	 2015-05-28 04:02:21 	  	0
 Google Photos offers unlimited storage for mobile and web 	 2015-05-29 02:33:07 	  	0
   	 2015-06-03 05:59:06 	" Rinse it 2-3 times before cooking.
Also, put lots of water.. and drain excess water once cooked! This removes all the starch which actually causes the stickiness. Your rice will be healthier and wont stick even if you put it in the fridge for a few days. "	0
 Man buys a new car using 660,000 yuan in coins! 	 2015-06-04 01:54:42 	  	0
   	 2015-06-04 02:02:57 	 http://www.news.com.au/news/photos-fn78rwin-1227380133472?page=1 	0
   	 2015-06-04 04:29:17 	 are you lying? 	0
   	 2015-06-05 01:31:44 	 are you a bear? 	0
   	 2015-06-09 07:36:26 	 Explained very well here - https://www.youtube.com/watch?v=R-blBhZjx4k 	0
   	 2015-06-09 08:42:47 	"  3:15-3:16am

damit.. its 3:15:21am
 "	0
 This tree looks like it's got dicks hanging out of it. 	 2015-06-21 14:28:52 	  	0
   	 2015-06-21 15:22:43 	 So what do you see? 	0
   	 2015-06-22 12:18:21 	 Correct! 	0
   	 2015-06-29 07:44:58 	 Diddy hurt himself? 	0
   	 2015-07-06 14:54:20 	 This is the best XKCD ever. 	0
   	 2015-07-07 00:36:47 	 Maybe.. Maybe not 	0
   	 2015-07-07 08:47:55 	 why is this NSFW? 	0
   	 2015-07-07 08:57:36 	 by jizzing in the bathroom sink prolly! 	0
   	 2015-07-07 09:02:05 	 OP is Antman 	0
   	 2015-07-15 04:22:17 	 [Russell Peters explains it very well](https://www.youtube.com/watch?v=4dOAjXSZJ1o) 	0
   	 2015-07-17 05:22:45 	 [This tree](http://imgur.com/rw7q9fO) has massive dicks hanging off it! 	0
 DJ Gandhi 	 2015-07-17 05:34:32 	  	0
 Drivers urged to update Jeep software after hackers force car off the road 	 2015-07-22 02:12:37 	  	0
   	 2015-07-22 02:49:57 	 Couldn't agree more! 	0
 TIL: The most densely populated place in the world is a tiny Columbian island with only about 1200 people but 4x density as Manhattan 	 2015-07-22 05:45:44 	  	0
   	 2015-07-22 06:09:43 	 More like Running! 	0
   	 2015-07-22 08:31:43 	 TIL: I can't spell Colombia :( 	0
