title	date	text	class
 Asperatus Clouds 	 2012-06-23 22:10:42 	  	0
 Asperatus Clouds 	 2012-06-23 22:50:14 	  	0
   	 2013-07-31 06:42:16 	 Great job, that looks incredible 	0
   	 2013-08-05 19:00:47 	 I want to be something happy but then sad at the same time. Anyway they do it will be brilliant.  	0
   	 2013-08-05 19:12:37 	 More then likely he won't be seeing any of 11 because in an interview he said that he wasn't invited back for the 50th episode, unless they decide to throw him in there before 11 regenerates.  	0
   	 2013-08-06 22:05:34 	 Xlan16 is right. You're never  going to know what happens in your dream. What you should do is try biting your tongue, or try plugging your nose and try to breath. The biting your tongue almost always works for me. Good Luck!  	0
   	 2013-08-06 22:18:27 	 Wouldn't it be great if they played the Rings of Akhaten song, The part where the girl sang? 	0
 Dream Z App for Iphone? 	 2013-08-07 22:12:45 	 Has anyone had an actual lucid dream with the dream Z app? I've tried but with no success. I want to know if I should keep trying or just stick with using an alarm to wake up 5 hours after I sleep.  	0
   	 2013-08-08 01:48:18 	 That's what my friend said! It would be fantastic!  	0
   	 2013-08-25 18:29:59 	 Oh wow! That was FANTASTIC 	0
   	 2013-09-07 19:27:47 	 The WILD technique is where you go to bed wake up after 4-6 hours of sleep, stay awake for like 10 min to an hour (I think an hour is way too long) then get back in your bed, make sure your body is all relaxed. The trick to this is you want to trick your body into falling asleep and your brain remain active. Unfortunately during this technique you might run into sleep paralysis, but you just have to take that with a grain of salt. Once your body is asleep you will start seeing thing, shapes, colors, soon you'll start seeing faces then full on scenes. Don't focus too much on any of that because you will lose all you're trying to achieve. You may even hear some things.One big thing is that you cannot get too excited. You will ruin all of it. There are some good apps/ youtube videos on taking you through the process of relaxing your body and the steps after that. Sorry I wrote this pretty fast, if you have any questions or want other tips just let me know! Happy Lucid Dreaming! 	0
   	 2013-12-30 21:44:27 	 a T.A.R.D.I.S 	0
   	 2013-12-30 21:52:12 	 Looks like he's seen so much 	0
   	 2014-01-25 21:09:59 	 I figured out every time I watch tv or listen to music before I go to bed really messes with my dream recall. It's best for me to just go to sleep in a quiet environment. 	0
 What is your favorite thing to do when Lucid? 	 2014-01-28 19:40:14 	 Hey Lucid Dreamers! My question for you is what is your favorite activity to do when Lucid? If you have not been Lucid what is the first thing on your to do list in a Lucid Dream? Flying is still my favorite! 	0
   	 2014-01-28 22:42:09 	 Yeah I feel like I'm never able to do exactly what I want. Most lucid dreams I have are random and unexpected 	0
   	 2014-01-28 23:47:44 	 I've always wanted to do a story, but I never end up actually doing it. I'll have to try that soon!  	0
   	 2014-01-29 00:01:21 	 Todd I guessed it! I cried so hard when I actually heard it 	0
   	 2014-01-29 13:45:05 	 Getting to know yourself in a Lucid Dream, I think it is one of the greatest things to do in a lucid dream! I do it on occasion!  	0
   	 2014-01-29 13:46:04 	 How long have you been lucid dreaming for? I've never done that. Sounds awesome!  	0
   	 2014-01-29 13:47:34 	 Had one with my grandpa at one point, it was really nice.  	0
   	 2014-01-29 13:48:16 	 That's usually what I end up doing in most lucid dreams, just being in awe of what I am doing in that moment.  	0
   	 2014-01-29 17:24:23 	 Story building is always fun! Do you ever just have a start for the story and let the dream do the rest? 	0
   	 2014-01-29 20:49:38 	 You can do it! I suggest crazyinsanes wild technique for sure  	0
   	 2014-01-29 20:50:01 	 What is your inner sanctuary? 	0
   	 2014-01-29 22:25:08 	 That sounds fantastic 	0
   	 2014-01-30 02:33:48 	 This may sound weird, but pay them off. Just say here's a billion dollars pull whatever you have in your pocket and give it to them! Regardless of what's actually in your pocket! 	0
   	 2014-01-31 04:14:38 	 Love when things just never get old in Lucid Dreams  	0
   	 2014-03-28 00:04:00 	 the person who just died just saw the light and then came back from it.  	0
   	 2014-11-30 03:19:36 	 COMPLETELY off topic, but how'd you get into commercials? I want/need to start, but don't know where to.. Thanks man!  	0
   	 2015-03-17 03:21:20 	 This is the future.  	0
   	 2015-03-22 13:57:00 	 I've never been so jealous  	0
   	 2015-03-29 07:55:34 	 I would love for some random bloke to find it and do something extravagant with it. 	0
   	 2015-03-29 08:07:03 	" ""You just downloaded   opened this app, tell us what you think!""  "	0
   	 2015-03-29 17:30:43 	" I bet she was like, ""Damn my niece is crazy wanting to kill me, my fianc, her cousin, and WHAT THE FUCK THIS BITCH WANTS THE DOG DEAD?!""  "	0
   	 2015-03-30 21:30:24 	" I can't be the only one who thought when they said ""shots fired at NSA"" there was a heated argument at the offices of NSA "	0
   	 2015-03-31 13:45:16 	 I applaud you sir, paybacks a bitch 	0
   	 2015-03-31 20:57:28 	 So if I dye my pubes, would it feel like jacking off another dude? Asking for a friend.  	0
   	 2015-04-01 00:54:17 	 Come on gang, MySpace here we come! 	0
 Why do stars twinkle or sparkle? 	 2015-04-01 03:07:01 	  	0
 ELI5: Why do stars twinkle or sparkle? 	 2015-04-01 03:17:26 	 Right now in just gazing at the stars and I was really curious on why stars twinkle and sparkle?  	0
   	 2015-04-01 15:46:27 	 I joke about being pregnant ever year! My girlfriend doesn't find it funny anymore.. 	0
   	 2015-04-01 16:04:20 	 I make my mom pick me up still. Last year we almost knocked down the tree! Crossing fingers to get the whole tree down next time. 	0
   	 2015-04-01 18:11:23 	 I do it every year, always gets a laugh.  	0
   	 2015-04-02 04:53:40 	 If it was me it would've been an instant divorce right then and there.  	0
   	 2015-04-02 21:13:24 	 OP I'm excited for you. Have a shit ton of fun!  	0
   	 2015-04-03 22:42:03 	 No doubt about it, there are so many good ones I'll never be able to say which one is my favorite.  	0
   	 2015-04-04 07:51:07 	" While I was scrolling all I could think was, ""OH MY GOD ITS GETTING NASTIER""  "	0
   	 2015-04-07 16:20:11 	 I loved my NeoCube! Until I lost 5 magnets and then it was worthless  	0
   	 2015-04-07 21:21:21 	 That's what she said  	0
   	 2015-04-21 21:59:46 	 One of my favorite threads of all time. 	0
 People of reddit, how did you get over that person that you liked, but the feelings weren't mutual? 	 2015-04-22 16:17:54 	 Thank you all for the comments Redditors, I can't wait to read all of them when I get home today!  	0
   	 2015-04-22 18:48:34 	 I'm glad this is helping more than just me, but I'm sorry to hear you're going through a tough time. We'll get through it!  	0
   	 2015-04-22 21:24:47 	 One of my favorite comments in the thread. Thank you  	0
   	 2015-04-25 23:26:05 	 Totally serious, what's the best way to get involved with movies, like an extra?  	0
 Actors of Reddit, what's the best way to continue acting after High School? 	 2015-04-26 20:10:53 	  	0
 Actors of Reddit, what's the best way to continue the craft after High School? 	 2015-04-26 20:22:52 	  	0
   	 2015-05-02 21:00:05 	 Everybody poops  	0
   	 2015-05-04 16:16:55 	 Unlimited calls in Canada?! Sign me up 	0
   	 2015-05-25 21:26:14 	 Expected something hilarious, got more than expected. Well done  	0
   	 2015-06-11 06:13:35 	 Being a narcissistic little shit 	0
   	 2015-06-16 18:18:32 	 The Doctor can get through anything. He always finds a way  	0
   	 2015-06-21 23:52:24 	 As everyone is saying, it sucks, but with time and more kick ass lucid dreams you'll get through it man. 	0
   	 2015-06-22 04:30:01 	 This is the type of shit I love seeing  	0
   	 2015-06-23 17:52:53 	 Is there a mental illness for being too poor? I think I have it.  	0
   	 2015-07-01 03:22:08 	 Fun fact: My dads best friends with their ex drummer bob. Used to go over to his house and play halo 3.  	0
   	 2015-07-01 05:05:50 	 I don't think I'm entitled to say exactly what went down, but yeah it was never the same after he left.  	0
   	 2015-07-01 05:45:37 	 Haha yeah Bobs great! Living his life out of the limelight  	0
   	 2015-07-02 07:17:03 	" There was a kid who was called ""The Phantom Pooper"" he used to randomly poop in the halls around the school ALL THE TIME. Never found who that sneaky bastard was.  "	0
   	 2015-07-03 07:26:18 	 Hello Lavern  	0
   	 2015-07-05 20:39:41 	 I love her. I've always loved her. I still don't understand everyone's hate towards her.. 	0
   	 2015-07-06 01:58:57 	 Absolutely LOVE her! 	0
   	 2015-07-07 15:12:51 	 I've always wanted to have a day like this, but it hasn't happened yet. Sorry to hear about the bitter ending!  	0
   	 2015-07-07 15:19:29 	 I was at Disney World when I was six years old. We were riding the bus back to our hotel when my mom gave her seat up to a girl about the same age as me. We kept looking at each other and just smiled and laughed. It was so innocent and for my six year old self it was the best thing ever.  	0
   	 2015-07-09 00:06:40 	 Stress relief part 1   2 were possibly two of the best episodes of The Office.  	0
   	 2015-07-09 00:08:50 	 The sweetest post of all time.  	0
 Wanting to fap vs. the will to fight it 	 2015-07-10 00:39:55 	  	0
   	 2015-07-11 05:24:24 	 Holy shit. It happened. It FUCKING HAPPENED 	0
   	 2015-07-12 16:09:27 	 I literally can't believe you would say that. Chris Traeger would be disappointed. 	0
   	 2015-07-12 16:20:36 	 White People 	0
   	 2015-07-15 00:43:58 	 Oh brother.. 	0
   	 2015-07-17 02:23:12 	 I definitely agree with you, I absolutely love Clara, since we first saw her. It really saddens me that she gets all this unnecessary hate.  	0
   	 2015-07-17 02:37:15 	 She's planning to kill you. Cats are vicious  	0
   	 2015-07-17 16:41:17 	" I've done the ""call someone a best friend shortly after meeting them"" just to try to connect with them because I know we're going to be good friends. "	0
   	 2015-07-17 19:39:24 	" Oh you're still talking?

Gets them every single time "	0
   	 2015-07-20 01:47:28 	 Theatre students.. Well.. You'll notice them a mile away  	0
   	 2015-07-20 22:19:08 	 Kid probably didn't know. If he knew, would you really think he would've done it?  	0
   	 2015-07-20 22:27:47 	 Never laughed this hard on a comment ever.  	0
 My Dad makes a mean Filet Mignon 	 2015-07-22 03:35:02 	  	0
   	 2015-07-22 03:44:33 	 Medium Rare boys, it WAS a perfectly cooked steak. Just a lot of seasoning on top ;)  	0
