title	date	text	class
 Facebook Research (Stalking)  	 2012-07-07 07:40:05 	  	0
   	 2012-07-07 21:06:50 	 My first laugh of the day, thank you! 	0
   	 2012-07-09 11:06:51 	 Things that will never happen to me. 	0
   	 2012-07-09 11:29:48 	 1.) That is not a TShirt 	0
   	 2012-07-09 22:43:28 	 SAY ANYTHING IS MY FAVORITE BAND OF ALL TIME. YOU GET ALL THE UPVOTES. 	0
   	 2012-07-10 21:25:45 	 Your wife is very beautiful, otisshredding! 	0
 I'm a magician by trade and a few months ago I decided to get my bunny a girlfriend. This month, these happened. 	 2012-07-10 21:51:02 	  	0
   	 2012-07-10 22:02:27 	 This reminds me of Justin Bieber's recent [run in with the cops]( http://cdn03.cdnwp.celebuzz.com/wp-content/uploads/2012/07/06/06/Justin-Bieber-Gets-Pulled-Over-for-Speeding-in-LA-2-400x300.jpg) 	0
   	 2012-07-10 22:06:17 	 On behalf of my race, I apologize.  	0
   	 2012-07-10 22:19:57 	 No. But I'll upvote for OW. 	0
   	 2012-07-10 22:39:12 	 This is more effective than my AA meetings. 	0
   	 2012-07-13 00:10:47 	 Hitting the Bernie. 	0
   	 2012-07-13 10:37:18 	 Did this make anyone else's skin crawl? Yuck. 	0
   	 2012-07-13 12:38:37 	" ""Thank you. Please try again."" "	0
 Dinner and a show (Chinese restaurant) 	 2012-07-16 01:53:17 	  	0
   	 2012-07-16 02:07:56 	" ""Stay there. Don't fucking move. I need to take a picture for Reddit."" "	0
   	 2012-07-16 12:21:15 	 Andy Bernard/Ed Helms? 	0
   	 2012-07-16 22:10:52 	 I have not laughed so hard in a long time. 	0
   	 2012-07-17 12:09:17 	 It's really funny to click on the link, then clicking again to zoom. 	0
   	 2012-07-18 00:20:16 	 At first I thought you were talking about the fact that it looks like she's taking a huge shit under her chair. 	0
   	 2012-07-19 04:33:38 	 Only guy in my fraternity who doesn't drink yet. I have not met someone like this GGG yet.  	0
   	 2012-07-19 11:32:07 	 And you are friends on FB with a sixth grader. Chris_Hansen.jpeg 	0
 I've spent many lonely nights pleasuring myself with this little guy [SFW] 	 2012-07-20 00:33:29 	  	0
   	 2012-07-20 10:58:06 	 The problem you may encounter with wearing patterned pants is playing them out. A good colored chino can do you some good... like maroon or dark green. 	0
   	 2012-07-25 22:38:43 	 Let me just take a picture of these two random strangers who are sleeping peacefully... FOR KARMA. 	0
   	 2012-07-26 20:52:55 	 I like America's Got Talent :( 	0
   	 2012-07-26 20:54:26 	" More like... it's a hard dock life....
*groans "	0
   	 2012-07-27 18:42:23 	 Whoa.... 	0
   	 2012-07-27 19:24:43 	 I have 3 pairs of these. Take care of them and they'll take care of you!  	0
   	 2012-07-27 19:44:31 	 This exact pair of denim. 	0
   	 2012-07-28 05:56:18 	" I purchased these denims on two separate occasions. I spent 8mo in my first pair (which I came across in a shop in San Francisco) until I busted a whole in the crotch. It was a tragedy.... so I went back and luckily they still had bigger sizes (I wear a 36) and so I bought the last two pairs in my size they had. 
At this point in my style life, I was really into curing my denim on my own. I was into APC first, then PBJ, then Samurai, then I tried LVC and loved them. 
As far as I know, they only make indigo. It's all I had. And for the record, my third pair is still alive and look awesome. I should post a pic... "	0
   	 2012-07-28 05:59:07 	" On these guys, I sized down one. This was with the intention of curing them myself... as in like fading and all that stuff. So I did that, I cold soaked to get rid of the excess dye and wore them for 8mo hardcore before any problems occurred (see my comment below).
The cinch is what sold me at first. It was really neat. However, the more I wore them, the less I felt a need to call attention to the cinch and the more it just became a thing for me to enjoy.  "	0
   	 2012-07-29 01:36:32 	" I've been a Disneyland enthusiast ever since I was little. I went to WDW (Walt Disney World) for the first time in May 2011. I loved the originality and innovation and execution of Epcot and Animal Kingdom. I really didn't like Magic Kingdom and MGM Studios. 

It's such a large place... it's an event park hopping. At Disneyland, it's not like that. You walk 100 paces to get to the adjoining park.  "	0
   	 2012-07-29 01:52:20 	 I really enjoyed the World Showcase at Epcot. As for a specific ride, I really enjoyed the really cheesy Great Movie Ride in MGM Studios and also the Rockin Rollercoaster. All great rides that play to all sorts of audiences and audience wishes.  	0
   	 2012-07-29 02:00:08 	 Coming right up http://i.imgur.com/pWyQs.jpg 	0
   	 2012-07-29 02:00:35 	 Have fun over there... but when you're ready for some real magic, come to the west coast! 	0
   	 2012-07-29 02:15:17 	" I'm going to say this in terms of attractions (which is my line of business), but it also applies to retail, food, outdoor vending, etc. 

You get hired into a certain location. In attractions, you get either Tomorrowland, New Orleans/Critter Country, Fantasyland/Toontown, and Adventureland/Frontierland/Main Street USA (The Best). 
You are ""landlocked,"" and are only allowed to learn the attractions in your area. If you wish to go to a different area, you may, but you would lose your seniority and knowledge from the current area.

So you hire in at a hire-in attraction, something easy and not too dependent on fast paced thinking or experience. Then once you accrue seniority and rapport, you may cross train to other attractions. For instance, I get to work at Big Thunder Mountain, The Jungle Cruise, and Parades next week over a five day period.  "	0
   	 2012-07-29 02:23:33 	" I'll say them like this:
The ""friends"" of the characters like Mickey and Minnie that walk around and take pictures, are mainly women except for the tall ones like Goofy.

There is a basketball hoop at the top of the Matterhorn (fact).

In retail, if a CM says ""customer"" they are referring to shoplifters.  "	0
   	 2012-07-29 02:25:46 	 Not this weekend, sorry man! It's down for about a week. Making some safety changes. 	0
   	 2012-07-29 02:30:52 	" Yes I do :)

It was simple. I came down here for school and already knew I wanted to work here. I applied online (disney.com/careers) and a week later I'm hired. 

I specifically work in attractions and in guest show operations. I work at the World Famous Jungle Cruise and Big Thunder Mountain. At guest show operations, I make sure that the parades and fireworks go smoothly from the guests' point of view and I guest interact all day and get to ""make magic"" as we say. It's wonderful.

It's not hard to be cheerful because it's freaking Disneyland. Mostly everyone is having an extremely good time. I come to work after breaking up with my girlfriend of 4 years and get lost in the show of Disneyland... which is an extremely good thing. Walt made Disneyland to do just that, have it's inhabitants forget about the outside world. 

I actually hear more funny things from adults! The other night at guest show operations (GSO) I was talking to a group of middle aged women and we were shooting the breeze and joking and laughing. The apparent leader said ""Michael, we are romance novel writers and we want to write a story about a strong male Asian lead now!"" I couldn't stop laughing all night.
Once I had a very foreign Asian man walk up to me outside the Jungle Cruise asking for the King Kong ride (which is at Universal Studios) with a California Adventure (the adjoining park to Disneyland) map.  "	0
   	 2012-07-29 02:46:40 	" Every department pays differently. Attractions isn't that great. 

We get some evenings during the holidays for just CMs. Grad Nites suck ass... but we have had them since the 50's and yes we run all the rides from 10p-3a. "	0
   	 2012-07-30 12:17:58 	 Pool parties  	0
   	 2012-07-30 12:29:50 	" I like the Remember! fireworks spectacular because it showcases the beautiful and nostalgic and classic attractions of Disneyland past and present. 

I get paid a little over $9 "	0
   	 2012-07-30 12:30:18 	 Ohhhh yes! I couldn't tell if y'all were visiting the school and stoked about it or students. I was at Big Thunder that day. 	0
   	 2012-07-30 12:32:35 	" It may be because this is not called a Fast Pass. It's called a Guest Assistance Card. These are awesome for people that need them. All you need to do is go to Guest Relations and tell them why you need them and what your disability restricts you from doing ie standing too long. People abuse this shit all the time and it sucks. 

The card lets the holder and up to 6 guests go through the shortest route to the attraction. "	0
   	 2012-07-30 12:32:50 	 I'm not saying anything that could get me terminated. 	0
   	 2012-07-30 12:33:20 	 Soak in cold water first to get the dye out. If you don't like the sizing after, warm soak it for 30min. 	0
   	 2012-07-30 12:34:37 	 The only times I see children cry are when they are spoiled and don't get what they want from their parents (candy, toys, food), when they are too scared to ride a ride their parents are taking them on, and (most relevant to me daily) when they don't make height checks. 	0
   	 2012-07-30 12:34:59 	 Thank you! I'm being very careful.  	0
   	 2012-07-30 12:35:27 	 I dislike the Tiki Room songs more than Small World. 	0
   	 2012-07-30 12:36:23 	" Orlando info is true. The fact that it's underground is an after thought. Pirates of The Caribbean ride at Disneyland is mostly underground for what it's worth. 

And the head info is false. "	0
   	 2012-07-30 12:37:04 	 The people who do it love it. The crowds are what make it not monotonous. Each crowd responds differently. There are always new ad libs on every boat. 	0
   	 2012-07-30 12:37:10 	 Working on it.  	0
   	 2012-07-30 12:37:28 	 Neither. Just bored and thought y'all may be interested. 	0
   	 2012-07-30 12:38:34 	" I only look like Grant because I'm Asian. Not opposed.

Weirdest rule... maybe that I'm not allowed to use the phrase ""Olympics."" I have to say ""summer games"" if I want to talk about them because the Olympics are owned by NBC and Disney owns ABC. "	0
   	 2012-07-30 12:39:36 	 Know how to use fast pass. Know that you can ask for the front row on any attractions. Know that you can bring food and drink into Disneyland.  	0
   	 2012-07-30 12:41:32 	 Thanks! No bragging but occasionally me or my friends get cat called or get numbers passed to us but we never solicit, even though I'm tempted sometimes admittedly.  	0
   	 2012-07-31 19:42:36 	 NoMo is amazing. Henley and Pralle are like hotels. You are not allowed to chill around... you need to be inside at all time if you want to chill (basically). At NoMo, doors can be open, you can walk up and down the aisle and meet different people or ask people for things or chill inside the quad which is in the middle of the housing. Really awesome, I didn't even live there last year. 	0
 Theater popcorn that is to die for 	 2012-08-01 17:34:30 	  	0
   	 2012-08-04 18:42:21 	" The ""pretending to be asleep"" face. Classic. "	0
   	 2012-08-08 19:59:10 	 Because we have friends. 	0
   	 2012-08-08 20:46:44 	 Diddy Riese cookies in Westwood 	0
 Grandfather Problems 	 2012-08-08 21:19:32 	  	0
   	 2012-08-09 08:11:48 	" Here's the original for anyone that cares:
http://www.amysymes.com/blog/wp-content/uploads/2009/08/GrandpaCloseUpSmall-crop.jpg "	0
   	 2012-08-10 07:52:12 	 Those pillows are full of fart.  	0
   	 2012-08-10 20:48:56 	 Reverse psychology... DUH. 	0
   	 2012-08-11 21:31:52 	 I see y'all are... dealing with it... pretty well. :) 	0
   	 2012-08-13 10:34:39 	 Must_not_fap.jpeg 	0
   	 2012-08-14 10:47:14 	 I love pictures like that. 	0
   	 2012-08-16 10:56:44 	 More like Zack Snyder (300, Sin City, Sucker Punch, etc.) 	0
   	 2012-08-16 12:05:05 	 Who the fuck would tattle? 	0
   	 2012-08-20 23:37:18 	 They really outdid themselves with the artwork on the bicycle ass. I'm blown away. 	0
 Friend Request Denied 	 2012-08-21 19:47:13 	  	0
   	 2012-08-21 22:21:58 	 Hence the red arrow.  	0
 I came home to this in my mom's house to pick up some last things before going back to college... 	 2012-08-21 22:57:07 	  	0
   	 2012-08-22 02:48:26 	 Haha interesting point. My mom is a single mom and we talk freely about sex without too many details thankfully, but it's not like I'm giving my mom a high five for wanting to dance on a pole for old men.  	0
   	 2012-08-22 05:03:37 	" I'm happy for her. Like I said its not like I walk in and see this and say ""Yay mom!"" "	0
   	 2012-08-25 21:31:11 	 I don't get why this comment got downvoted to oblivion.  	0
   	 2012-08-26 20:39:15 	" ""Do I belong here?"" 
CUZ I LIVE IN A CREEEEK, I'M AN OTTER. WTF AM I DOING HERE? I DON'T BELONG HERE. "	0
   	 2012-08-26 20:48:03 	 You don't know my life. You don't know my struggles. 	0
 10 guy eats pasta 	 2012-08-29 19:26:26 	  	0
   	 2012-08-31 05:00:15 	 NNmagic is as legit as it gets my friend. 	0
   	 2012-09-01 20:05:45 	 Really wanted to... but TL;DW 	0
   	 2012-09-02 08:11:36 	 If you look into the negative space created by the branches, you'll see two people FUCKING. 	0
   	 2012-09-03 10:35:35 	" [Relevant](http://i.imgur.com/KSHu4.gif)

 "	0
   	 2012-09-03 10:53:43 	 KOREAN WAR 	0
   	 2012-09-06 01:56:44 	 For years, I've been searching for an image of Salma naked. I am so thankful for you, OP. 	0
   	 2012-09-06 08:15:44 	 I used to be happy with my Google skills. Today I am not. 	0
 When I don't understand a link 	 2012-09-07 20:51:51 	  	0
   	 2012-09-07 21:18:25 	 Star Wars? 	0
   	 2012-09-07 21:22:32 	 Okay it's my bad I can't read into shit like that. I wasn't sure. There are some people in this world that haven't seen it believe it or not. Bless their souls. 	0
   	 2012-09-08 02:52:51 	 That's cool bro. Excuse me for only being here 6 weeks and not knowing the full comprehensive history of the postings here on Reddit.  	0
   	 2012-09-10 06:19:40 	" It says that comment was posted ""Just now."" Sounds like someone is really proud of their comment.  "	0
 Does it look like I care? 	 2012-09-11 02:27:37 	  	0
 One of the most incredible sandwiches to ever touch my tongue 	 2012-09-12 00:27:29 	  	0
   	 2012-09-12 22:46:26 	 Maybe it's just me, but jumping fences to get where you wanna go sounds like a 2nd or 3rd world problem.  	0
   	 2012-09-12 22:47:09 	 SURF CHAPMAN 	0
   	 2012-09-13 09:06:15 	 Do you really give the items you say you do at the end of your shows? 	0
   	 2012-09-15 11:39:53 	" doesn't really know where Arkansas is on the map
upvotes anyways "	0
   	 2012-09-17 20:22:36 	 ARE YOU FRANK ABIGNALE JR.? 	0
   	 2012-09-17 20:30:01 	 Guess you're spending your time in Advice Animals and AskReddit 	0
   	 2012-09-20 07:53:49 	 Thought this was r/circlejerk at first. Love it. 	0
   	 2012-09-25 21:10:01 	 This album would make a great iSpy game. 	0
   	 2012-09-26 02:03:36 	 Show the dog some safe, free, streaming beastality porn sites and write it in a Microsoft Word doc and leave it on the dog's laptop. Your dog has a laptop right? (it's 2012 for Christ's sake) 	0
   	 2012-09-26 21:00:17 	 The best thing here was learning there is an r/fugly 	0
   	 2012-09-27 09:33:52 	 Thank god you posted the picture of the pepper next to it! 	0
   	 2012-09-27 09:46:34 	 Mr Toad anyone? 	0
   	 2012-09-28 01:53:52 	 It's a wonderful product. I just don't use it.  	0
   	 2012-09-30 02:25:39 	 Which one is it mate? 	0
 A very helpful prologue 	 2012-10-02 20:13:02 	  	0
   	 2012-10-03 01:38:12 	 What does a multimillionaire know that a middle class person does not? 	0
   	 2012-10-03 06:03:45 	" Sorry I don't know why some of y'all can't see it. It says:

HOW TO READ THIS BOOK:
If you're reading this sentence then you pretty much got it. Good job. Just keep going the way you are.  "	0
   	 2012-10-04 23:28:52 	 As someone who owns a dog, I can confirm this is Photoshopped. 	0
   	 2012-10-05 22:36:09 	 So am I the only one around here that is surprised/doesn't have a washing machine next to my toilet? 	0
   	 2012-10-06 18:49:38 	 If only. 	0
 Forever alone 	 2012-10-06 19:09:19 	  	0
   	 2012-10-06 20:13:24 	" I have a theory that he didn't know that he was alone until he looked behind him right before the drop and said ""Y'all ready for th- oh..."" "	0
   	 2012-10-06 20:31:30 	 I am familiar with your wide skill set and experience in certain fields. What extraneous work do you get hired to do apart from working on Mythbusters? 	0
   	 2012-10-07 07:18:42 	 I know y'all don't really care, but I'm just going to officially say here on a comment that this is my friend and not me. My friend's Facebook has been blowing up though from our friends recognizing him on the front page, and we even spotted this: http://imgur.com/Y8YdM 	0
   	 2012-10-07 19:41:18 	 As an Asian, I approve.  	0
 If I had Instagram with my first cell phone ever 	 2012-10-08 02:34:36 	  	0
   	 2012-10-08 18:34:40 	" Hahaha, I kept reading this title as ""Hancock"" and was so confused, trying to remember Scarlett in Hancock and why there was supposedly a Janet Leigh interpretation of her. Anyways... "	0
   	 2012-10-09 09:20:57 	 I prefer the imgur title.  	0
 Walk into class and found this on my chair. Nope.  	 2012-10-10 21:39:06 	  	0
   	 2012-10-11 06:27:34 	 We only have as many chairs in our computer lab as there are computers (first world problem). Decided to take a quick picture before I personally took the professor aside and let her know I wouldn't sit in that chair. She was awesome and traded me since she doesn't sit in hers during class.  	0
   	 2012-10-11 08:04:44 	 Why wasn't this in Wall E? 	0
   	 2012-10-12 02:53:17 	 Thanks for your reply mate. I don't know how to restore so I would like to see if anyone could chime in! 	0
   	 2012-10-12 05:38:44 	 Wait... I thought circlejerk was a text only subreddit.... WAT? 	0
   	 2012-10-13 01:31:43 	 How's Tammy #2 doing anyway, Ron? 	0
   	 2012-10-15 20:46:10 	 How much did you have to do with the creation of the character that is now Dwight?  	0
   	 2012-10-16 04:24:19 	 Fall colors like orange, mustard, browns, and navy's will be nicely paired with these. You wouldn't necessarily have to match a suede jacket with these. I could imagine these being paired nicely with a slim lighter grey chino, or of course a nice jean with a taper. Maybe a dark solids on top (cardigan?).  	0
   	 2012-10-17 19:44:39 	" I'm sitting in the library and I could not help but yell ""Oooooooooooooh!"" out loud haha. Oops. "	0
   	 2012-10-17 20:04:34 	 Magic Moments- Perry Como 	0
   	 2012-10-17 21:25:32 	 Total MILF. 	0
   	 2012-10-17 21:26:02 	 Implying most redditors go to the gym and understand this plight. If only. 	0
   	 2012-10-20 08:14:52 	 Yes, I'm a FIJI. I would also love to see this get bigger! 	0
   	 2012-10-20 08:28:15 	 I'm upvoting this because it's the only quote gif I've ever seen where the character is actually mouthing the quote.  	0
   	 2012-10-25 10:00:39 	 Packed his lunch today!  	0
   	 2012-10-26 20:40:39 	 Never forget 	0
   	 2012-10-27 21:08:31 	 I love my weekly dose of this rehashed concept in every meme known to Reddit. 	0
   	 2012-10-29 05:27:44 	 [Reminds me of those damn Chuck E Cheese Cyclone games](http://i.imgur.com/jlf1c.jpg) 	0
   	 2012-10-31 06:37:57 	 This reminds me a lot of my prom night. 	0
   	 2012-10-31 09:07:01 	 Fucking Canadians. 	0
   	 2012-11-01 00:33:41 	 That oughtta do the trick. 	0
   	 2012-11-01 00:34:26 	" ""Hahaha, that's a shitty Halloween costume Brian.""
""Hallo-what?"" "	0
   	 2012-11-01 00:46:52 	 Fuck no. Downvote. 	0
   	 2012-11-01 21:08:08 	 Also, check the URL 	0
   	 2012-11-03 05:00:16 	 Just the tip. 	0
   	 2012-11-04 01:19:50 	 Genius. 	0
   	 2012-11-08 09:06:00 	 Posted a few seconds ago...  	0
   	 2012-11-09 20:47:13 	 This is cool and all but we should all stop being surprised at Reddit showing up in media. It's one of the biggest websites on the Internet.  	0
   	 2012-11-10 09:25:31 	 What if someone bought me a maze.... I'd be pissed! LOL 	0
   	 2012-11-10 09:31:13 	 What the fuck are you wearing? 	0
   	 2012-11-10 21:22:28 	 He probably thinks you're a pussy, amirite? 	0
   	 2012-11-10 21:41:59 	 too* 	0
   	 2012-11-10 21:43:18 	" ""In my defense, I'm Fifteen"" is never a great way to start a title.... "	0
   	 2012-11-11 03:12:39 	 sarcasmThis is so funny and new!/sarcasm 	0
   	 2012-11-12 20:00:55 	 This is what happens when you sneeze and pee, boys. 	0
   	 2012-11-14 09:48:47 	 Twist: he actually Photoshopped his mustache onto his eyebrows to hide the fact that he has chronic hair loss on his brow line.  	0
   	 2012-11-15 04:08:26 	 Chick-Fi-Le* 	0
   	 2012-11-15 04:15:35 	 Was I the only one that was waiting for the image to turn red? 	0
   	 2012-11-15 06:07:53 	" You should've flipped the peel so it had an ""S"" for ""successes""... I expected more from you.... "	0
   	 2012-11-16 09:11:07 	 2000 link karma.... 	0
   	 2012-11-16 23:34:21 	 HUGE SHAWSHANK SPOILER 	0
 Whenever I Febreze Air Effects my house 	 2012-11-17 04:49:17 	  	0
   	 2012-11-18 00:04:10 	 At least it wasn't Zach Braff 	0
   	 2012-11-18 00:23:11 	" I work at BTM.
We are closing to first and foremost change the operating system. Right now we run on a computer system currently. We have a pretty sophisticated system, but it requires a lot of upkeep and is rivaled by the system of Indiana Jones, which spaces their vehicles automatically, preventing backups.
Second, because we are already going down for a year, we are taking this time to change the 30+ year old track. Same ride, better track/brake system.
Third, we are extending the exit platform to accommodate more people/wheelchairs. 
Fourth, we are improving show effects and in turn, replacing lost show effects such as potentially the return of the earthquake ending, or I have heard rumor that it may be much different...
Fifth, behind the scenes stuff like adding phone systems to backstage areas and on stage areas that need them.

Hope this helped. "	0
   	 2012-11-20 15:31:49 	" Instagram makes you make pictures squares though...


Still hot. "	0
   	 2012-11-22 22:28:39 	 Pic unrelated... or is it? 	0
 Let em know.  	 2012-11-23 00:17:18 	  	0
   	 2012-11-23 01:15:36 	 Great title.  	0
   	 2012-11-23 01:34:21 	 Yeah... that's enough Internet for today. 	0
   	 2012-11-26 09:44:19 	 I am a Cast Member at Disneyland and the NUMBER ONE thing you need to do is email Guest Relations at Disneyland and explain to them your situation. Do not tell them you bought this ticket from some random dude since that's not permitted. You may instead imply that you were gifted it... They will help you out. We work to make sure guests are happy and not to put people SOL.  	0
   	 2012-11-26 09:45:11 	 I love Basil, but I have no doubt he's gonna fuck that carpet right up. Be careful! :) 	0
   	 2012-11-26 09:47:08 	" Thank you very much for not making the top half ""Socially Awesome"" "	0
   	 2012-11-26 10:26:47 	 Okay well I'm glad you tried. A nice technique to try when speaking to GR (something you may already have tried) is stating at the end that this really upsets you because you really an innocently messed up then asking if there is anything more they could do for you. I'm sure they'll try to offer another solution, but alternatively I can't say I'd be terribly surprised with the amount of fake claims they receive. Just be genuine and innocent as possible when dealing with GR.   	0
   	 2012-11-28 00:14:08 	 Great title. 	0
   	 2012-11-28 05:19:46 	" This is something a lot of parents should be doing all the time that my mother did for me:
My mom is a very popular lady amongst her peers and at her workplace. So, whenever she would take me around her friends, family members I hadn't met yet, or people she ran into at the store, she'd always make sure I fully introduced myself and started even just some small talk with the person(s). Instead of ""This is my son Michael"" she'd turn to me and say ""Michael, would you like to introduce yourself?"" Really simple. I'd generally reply with ""Hi, it's nice to meet you. I'm Michael. Shellani's son"" to which her friends would usually laugh... haha. It's funny to think about now. But really, I see too many shy ass kids around as kids and as teenagers and adults I deal with every day. Could've benefitted from what I did.  "	0
   	 2012-11-30 00:34:43 	 So apparently complimenting girls makes you Socially Awesome now... 	0
   	 2012-11-30 00:40:49 	 Nice try, Chris Brown. 	0
   	 2012-11-30 01:08:55 	 Waited for Bert.... 	0
   	 2012-12-03 21:18:46 	" As a fellow Asian, I imagined this to be more like ""My blood type is B+, so you can imagine how pissed off my parents were when they found out."" "	0
 Asian blood types 	 2012-12-04 00:30:31 	  	0
   	 2012-12-04 00:35:35 	 I respect you. It's so easy sometimes, so cheap.... 	0
   	 2012-12-04 04:27:32 	 Great title.... 	0
   	 2012-12-04 13:40:56 	" That's a really funny video! Thank you for sharing, or else I would never have seen it. Looks like I wasn't the first to have this idea... but what ideas are ever original to us? 
Hahaha, getting way too fucking lofty at 4:45AM....  "	0
   	 2012-12-04 20:53:08 	 Not even the Nashville filter can save this one. 	0
 Shake what your mama gave you 	 2012-12-05 21:43:48 	  	0
   	 2012-12-05 21:45:21 	 Genius. 	0
   	 2012-12-06 03:31:38 	 http://i.imgur.com/iDIkB.jpg 	0
   	 2012-12-06 20:49:01 	 Thanks for sharing. I'll be right there with you once I get out of this school, man. 	0
   	 2012-12-06 21:44:03 	 Thank you for your reply! You clean your litter every night? Wow that's new, and something I will consider doing. Currently on a 1.5 week schedule. 	0
   	 2012-12-06 21:44:27 	 Thanks for your reply sneaky. I have 3 litter boxes, one in each cage and one for outside pen play. 	0
   	 2012-12-08 07:41:14 	" One of them? 1/2 of them. 
 "	0
   	 2012-12-08 07:52:18 	 I also use the Aviary iPhone app. 	0
   	 2012-12-08 22:49:46 	 This post was Font-astic.  	0
   	 2012-12-09 13:20:12 	" ""Hold that face... I gotta get my iPhone..."" "	0
   	 2012-12-13 07:36:30 	 Look... closelier.... 	0
   	 2012-12-20 19:24:03 	 http://www.reddit.com/r/LifeProTips/comments/13mdr5/lpt_if_you_want_to_buy_the_cheapest_airline/ 	0
   	 2012-12-20 23:49:45 	 No she didn't. 	0
   	 2012-12-22 23:07:25 	 http://postedvia.com 	0
   	 2012-12-25 10:19:25 	 It has been and always will be Biddlers Trick. Such an unsung effect that is perfect in my eyes.  	0
   	 2012-12-29 06:41:19 	 Those Mexican Microwaves.... 	0
   	 2012-12-29 07:43:15 	 Does anyone else eating the filling first and eat the crust later? Just me? 	0
   	 2012-12-29 09:26:10 	 Thank you very much for not making the top half Socially Awesome. 	0
   	 2012-12-30 02:04:40 	 Thinking of great comments makes you socially awesome apparently... 	0
   	 2012-12-30 04:18:45 	 Love Don't Cost A Thing with Nick Cannon 	0
   	 2012-12-30 04:19:22 	 /r/GetMotivated 	0
   	 2012-12-30 04:24:44 	" Calling someone a ""card"" or a ""cad."" 

The whole ""kittencaboodle.""  "	0
   	 2012-12-30 04:26:26 	 As an Asian (and literally ANY Asian that has white friends can agree with me on this one), PSY. 	0
   	 2012-12-30 04:32:41 	 The percentages of President Obama's American birth certificates. -Donald Trump 	0
 How wrong I was 	 2012-12-30 19:51:28 	  	0
   	 2012-12-30 19:55:03 	" Also, please remember not to be a fucking dick to the dude that tows you. He is working on NYE to drive your sloppy ass around. 
Source: someone that works on holidays "	0
   	 2012-12-30 22:47:40 	 Definitely didn't give off any sort of attitude regarding me working on holidays. I'm pretty positive that it's an innocent and simple plea to ask people to remember to be courteous to those offering a free service to keep them safe during holidays.  	0
   	 2012-12-30 22:48:55 	 I work at Disneyland and the busiest time is during Christmas.  	0
   	 2012-12-30 22:54:04 	 Sorry for the shit quality. I made it on my POS phone.  	0
   	 2012-12-30 23:09:39 	 Certainly not for humans, absolutely not for arbors.  	0
   	 2012-12-31 00:50:36 	 Very correct. The Mouse doesn't give me any time off when I really want it and doesn't give me any hours when I really need them. It's a great place to work... but I can't say it's worth the trouble during holidays.  	0
   	 2012-12-31 05:21:27 	 Chapman actually.  	0
 Proactiv  	 2012-12-31 18:34:13 	  	0
   	 2012-12-31 18:58:11 	" Here's a link to the post this is a reply to for all y'all who don't REDDIT HARD ENOUGH.

http://www.reddit.com/r/WTF/comments/15paoa/for_years_my_mom_stayed_up_late_playing_on_the/ "	0
   	 2012-12-31 19:08:59 	 HOW HARD BRO?  	0
   	 2012-12-31 19:16:47 	 DAE HARD? 	0
   	 2012-12-31 19:36:44 	 Did someone say... [Hardy](http://i.imgur.com/s0ukI.jpg)? 	0
   	 2012-12-31 19:40:08 	 She hopes it will show up as merely a blemish on her record.  	0
   	 2012-12-31 19:51:52 	 DAE Reddit? (philosophical question) 	0
   	 2012-12-31 20:49:42 	 If only they all knew the rule you speak of. Can't count how many annoying ass middle-of-the-mall workers try and stop me for teeth whitening, hair straighteners, ground-breaking makeup, breast lifters... and I'm a man. 	0
   	 2012-12-31 21:25:34 	 Extremely good point. This explains all my bicuriosity as a young ma-... I mean... 	0
   	 2012-12-31 21:27:45 	 Are.. are you... the teenage boy I saw? 	0
   	 2013-01-01 20:46:10 	 FUCK 	0
   	 2013-01-01 21:07:33 	 RE: bitch comment- To be fair, he did buy her a dog collar (picture).  	0
   	 2013-01-07 18:52:36 	 My mind awoke before my body did. I lay motionless, lacking memory, afraid to peel back my own eyelids to face my reality. One eye opens: pitch black darkness. The other eye follows and soon and I realize that... *could I still be... in the coffin*? I rack my brain for memories... why is it so hard to remember? The wood above my head is cracking from the weight above-- I'm underground. Rapidly, more dirt fills the empty space around me. I try to fight back. *Is this how I die? In the pitch, dark, blackness....?* 	0
   	 2013-01-08 07:07:02 	 Fuck your title.  	0
   	 2013-01-09 08:42:44 	" I had to exit at ""What was your name again?"" "	0
 Every flight 	 2013-01-12 06:11:47 	  	0
   	 2013-01-12 06:22:33 	" ""You may wonder why I've brought you all here today."" "	0
   	 2013-01-12 18:39:31 	 What movie were you watching? 	0
 My professor in a class I'm enrolled in sent me this. Can't tell if this is good or bad for me.  	 2013-01-13 02:28:32 	  	0
   	 2013-01-13 04:19:26 	 I'm sorry people downvoted you. I thought this was very funny.  	0
   	 2013-01-13 04:20:18 	 If this somehow gets front page, I get to send him the same email.  	0
   	 2013-01-13 10:37:40 	 Thanks everybody! Email sent. Will follow up.  	0
   	 2013-01-13 20:56:50 	" [Here's his reply](http://i.imgur.com/rKDui.jpg)

I then replied with http://i.imgur.com/ckuY7.gif

Thanks again Reddit. "	0
   	 2013-01-13 20:57:43 	" [Here's his reply](http://i.imgur.com/rKDui.jpg)

I then replied with http://i.imgur.com/ckuY7.gif

Thanks again Reddit. "	0
   	 2013-01-14 22:22:12 	" Wow. I'm extremely humbled by this. That's my tweet. I started posting my tweets in Nov to get feedback on my jokes and reddit has been very kind to me. Seeing someone else post my own tweets is so crazy. 
To clarify, I work at Disneyland and teenagers run rampant through the park and say YOLO. All. The. Time.  "	0
   	 2013-01-14 22:40:28 	 Whoa, did you just call me YOLO? 	0
   	 2013-01-16 18:21:28 	" Hey, you should give her (him?) a guest compliment at City Hall (or at Chamber of Commerce at DCA). It would really make their day, I'm sure.
 "	0
 T.(Doesn't Exist).I.F. 	 2013-01-25 22:10:04 	  	0
   	 2013-01-26 04:15:40 	 FOR ALL THAT SWEET, JUICY SELF POST KARMA RIGHT? 	0
   	 2013-01-26 05:26:52 	 Dr Phil has nothing on you.  	0
   	 2013-01-26 18:59:22 	 Double whammy if he was masturbating to gay porn.... in the closet... heh.. I'll show myself out. 	0
   	 2013-01-26 19:01:43 	 Every post. Every time.  	0
   	 2013-01-27 17:58:07 	 Okay, we get it. You're funny. Please make this AMA worth something to us by giving us real answers to our questions, please. 	0
   	 2013-02-01 19:12:44 	 I've worked 2 Superbowl Sundays at Disneyland. This is not true for Disneyland. Too many people from all over the world have planned a vacation months in advance. However, lots of folks wear jerseys and are constantly checking their phones instead of watching where they step, that's certain.  	0
   	 2013-02-01 20:41:25 	 Yep. Looks about right. 	0
   	 2013-02-04 17:58:53 	 Cue the /r/KarmaConspiracy post stating a disgusting owner killed these kittens.... 	0
 Let's get back to the REAL America, the America before immigrants.  	 2013-02-06 21:42:37 	  	0
   	 2013-02-11 19:00:34 	" ""In spite"" instead of ""despite.""  "	0
   	 2013-02-14 09:33:06 	 NICKLEBACK. PHOTOGRAPH. 	0
   	 2013-02-18 23:30:06 	 The story of my life.  	0
   	 2013-02-19 01:19:13 	" **BELIEVE ME WHEN I SAY THIS**
I'M SERIOUS. LISTEN UP.
Make your availability fully open on your application.
**THIS IS HOW THEY PICK PEOPLE TO INTERVIEW**

I'm a former CM, former as in just left after spending over a year there. This is for certain the #1 to get seen.  "	0
 That would do it 	 2013-02-19 22:01:50 	  	0
   	 2013-02-19 22:53:48 	 Wake up in the morning feeling like Guantanamo.  	0
   	 2013-02-22 06:20:55 	" No fucking way. You won't believe me.... but I am seriously watching this for the first time and just opened your post up... wow.
Edit: http://i.imgur.com/4nUSpWP.jpg "	0
 Every relationship has its firsts.  	 2013-02-24 21:36:04 	  	0
   	 2013-02-24 23:38:33 	 Hey man, not everyone posts for karma.  	0
   	 2013-02-24 23:54:57 	 As a writer of comedy, not only has reddit shown me that they receive humor like mine well, it is also an amazing resource to get exposure to my twitter which I am thankful for. Sorry if this ruins your day.   	0
 They have their perks.  	 2013-02-25 23:51:20 	  	0
 They have their perks.  	 2013-02-26 02:57:59 	  	0
 Anyone know where to find the bracelet in the middle, hooks with green and white stripes? 	 2013-02-28 06:43:44 	  	0
 Latest The Travel Playbook post: Why You Shouldn't Go To Disneyland, written by a former Disney Cast Member 	 2013-03-01 18:47:32 	  	0
 I got this email today. That's my picture. I've never heard of myEDU. 	 2013-03-01 21:41:58 	  	0
   	 2013-03-03 22:08:14 	 Thanks so much! 	0
   	 2013-03-05 16:40:33 	 Marvin must be rolling in the dough. 	0
 Chefs Anonymous 	 2013-03-06 02:25:03 	  	0
   	 2013-03-12 22:54:06 	" I just recently left in Feb. But I know a lot about the interviews and how recruiters think.

Like a previous poster said, smile. Always smile.
Don't talk about how much you love Disneyland. They don't care who your favorite character is or how many times you've been.
When they ask you your number one concern, it is ALWAYS safety.
Think about how the four keys of Disneyland (Safety, Courtesy, Show, Efficiency) affect your role and answer the questions in that way. You're not supposed to know those keys right now so don't talk about knowing them but casually mentioning them would be prime (i.e. ""I recognize that to be a great CM, I have to be courteous to all guests when performing my role.""
That's another one: don't forget to think of yourself when answering questions as a part of a show, a cast member with a role. 
That's about it. They typically offer the jobs on the spot if they like you.

Good luck. Say hi to the Mouse for me.  "	0
   	 2013-03-25 13:57:44 	 First 5min of the movie What Happens In Vegas 	0
   	 2013-03-25 23:29:11 	 /r/facepalm 	0
   	 2013-04-10 04:46:12 	" ""Girlfriend."" LOL "	0
 Man tries to take picture of beaver; it kills him. 	 2013-04-12 00:32:54 	  	0
   	 2013-04-13 01:44:02 	 Hootsuite. 	0
   	 2013-04-13 09:39:20 	 I'm not sure I see the big fuss here.  	0
   	 2013-04-18 19:03:54 	 I'm not terribly sure I understand what this is about. I downloaded it. So far I don't know what it does that Spotify premium doesn't? A more social experience? 	0
 Goodwill understands. 	 2013-05-02 02:20:10 	  	0
   	 2013-05-18 09:45:18 	 My father's nose. I can't find a good way to store it.  	0
   	 2013-05-18 09:51:35 	 So edgy. 	0
   	 2013-05-19 03:42:43 	 /r/nocontext  	0
   	 2013-05-19 06:44:27 	" I give it an hour before these responses pop up in a Buzzfeed titled ""The 100 items from your childhood you wish you still had."" "	0
   	 2013-05-19 06:49:55 	 Start talking loudly about my tendency to suddenly expel diarrhea at a moment's notice.  	0
   	 2013-05-19 16:32:12 	" Despite v. In spite
 
Couldn't care less v. Could care less
 "	0
   	 2013-05-19 16:35:47 	" My father passed when I was 4. Now I'm nearly 20, and the only thing that lacks in retrospect was having someone to teach me the things my mom couldn't. 

See, when you're a single parent, you have to act as both parents. My mom tried, and for the most part, she succeeded. However, she couldn't teach me things like how to shave, for instance. How to fight, how to pick up girls (in a way), and general guy-to-guy stuff. But I wholeheartedly believe that having a single parent doesn't affect whether you can achieve excellence or not. "	0
 Whenever I have to force shutdown my computer when it is frozen. 	 2013-05-22 21:42:59 	  	0
   	 2013-05-22 21:46:47 	 RIP. 	0
   	 2013-05-29 19:51:31 	 His name is Toothless Jake! 	0
 Indoor Recess 	 2013-05-30 21:11:14 	  	0
   	 2013-05-31 08:41:45 	 Armed with loaded downvotes. 	0
   	 2013-05-31 08:50:29 	" Maybe...

Wait for it....

**They go there.** "	0
 Tales from a Disneyland Cast Member Ep. 1 	 2013-06-04 18:44:28 	" So as the title suggests, I used to operate rides in Disneyland. I was there for a couple years and finally quit in February 2013.

I've had much more than my fair share of completely shitty guests. But the most common occurrence is when I'm at the ""group"" position and we ask how many is in your party so we can divvy y'all into rows and the person says ""2"" so I put them in row (let's say) 5 and that's the last row in the train so I hold the next group and that person says ""OH BUT WE'RE WITH THEM!"" (sorry for that monster sentence)

So one night, I was at Big Thunder Mountain and it was nearing the end of my Grad Nite shift (Grad Nite is a night for graduating seniors from all around SoCal to hang out in Disneyland with free reign from 10p-2a). A group of 6 really fat and loud students come up the stairs. The couple behind them scream from behind saying this group cut them. At Disneyland, we can't do anything about that unless we see, but believing them, I bring the couple out of line and reserve a special spot for them.
Now, I ask how many the students are. Not listening, I ask again. Finally, one of the people in the back hits the person in the front to acknowledge me.
""Haha what?""
""How many in your group?""
""2""
Here we go. Not trying to go through this turmoil and dually seeing an opportunity for some fun, I ask: 
""Are you guys 2 or all together here?""
""Oh we're all together.""

So at Big Thunder, we don't have seats, we have rows that look like benches that are made to hold 2 adults or three children. But we're encouraged to pack the rows to three. 

""Rows 6 and 7.""

I watch the 6 enter two rows and slowly watch them realize that this is going to be the tightest ride of their lives. Squeeeeeeeeeeeeeezing tight they finally managed to pull the lap bar down one click. We sent the train. When they came back it was like watching a clown car unload.

I gave the other couple who told me all about their problems in line a front row spot. "	0
   	 2013-06-13 01:54:50 	" Anything about not buying things. The answer will always be ""Winrar"" "	0
   	 2013-06-13 01:55:11 	 They're all too busy posting about PS4. 	0
   	 2013-06-13 01:56:29 	 Post about religion in /r/atheism  	0
   	 2013-06-13 01:57:26 	 Watched Freddy Got Fingered. 	0
 Back when MTV was MTV. 	 2013-06-16 21:21:38 	  	0
   	 2013-06-23 05:02:57 	 Good thing the address is on the ke-oh wait.  	0
   	 2013-06-25 00:57:20 	" I used to work at Disneyland. The family was composed of 2 boys (about 7, 9), a mom, and a dad. I was working on the Jungle Cruise, driving the boat, and telling the jokes. 

One of the kids kept pulling down the throttle and another kept grabbing the gun (which, contrary to popular belief, is a real gun that has the capability of shooting real bullets, but we use blanks that can still fuck someone's eardrums or skin up). I repeatedly asked the parents to control their children as to stop fucking around with everyone else's experience. They kind of just said ""Stop that"" and kept taking pictures.

Finally one of the twerps took it a step further and shot the gun. I stopped the show and drove back to the dock, conferred with my lead before unloading, and had a manager and security meet us to escort the family out of the park. I didn't hear anything else from it.  "	0
 Our Half Xmas card, go-hards. 	 2013-06-26 21:23:52 	  	0
   	 2013-07-03 19:29:11 	 Mentally handicapped and severely racist Steve cannot figure out why he can't wash the black off of his car! 	0
   	 2013-07-04 21:14:23 	 Thanks mate! 	0
   	 2013-08-02 00:12:52 	" Thank you sneaky!
When you say shoo them, is it appropriate to pick them up and put them near the cardboard?
Also, when you say pen them up, am I using that as a punishment when they start digging?
Thanks again! "	0
   	 2013-08-02 00:14:10 	 I will say this: I have seen, and even studied, their ads numerous, numerous times. After seeing your post, I finally just became a member. They should pay you. 	0
   	 2013-08-07 18:31:12 	" Thanks for the reply. None at all. Left it ""charging"" overnight hoping something would happen. "	0
   	 2013-08-08 01:43:00 	 Thanks for your reply. Did you go to the ATT store to get that replaced or did you call Nokia? 	0
   	 2013-08-08 01:43:19 	 Thanks for your reply. I definitely have tried that... all day. :( 	0
   	 2013-08-08 09:16:58 	 Update: they couldn't do anything. Here's my take away: know that the store (in this case ATT) cannot just give you a new phone. If it's in warranty, they'll have to send you to a special store that carries refurbished phones and has a center just for troubleshooting. If you're lucky, your store is close by and not 45min away like mine! 	0
   	 2013-09-08 23:30:25 	 and author. Read The Gunseller. 	0
   	 2013-09-15 21:40:50 	 Thanks for that. I searched before posting. There aren't any good or developed threads yet. 	0
   	 2013-09-21 19:33:00 	 Go into the locker rooms on weekdays by the gym. Showers there. 	0
   	 2013-09-22 07:40:40 	 Yes, I saw the first line haha :) The answer is yes... and no. Obviously, if they knew you weren't a student they wouldn't want you there. But it's not like you need an ID to get in there. After my basketball class I walk in there. No lock. Just walk in there and shower. Good luck! 	0
   	 2013-09-23 01:10:32 	 Bill Malone, when teaching Sam the Bellhop, teaches two excellent cuts to the table. 	0
   	 2013-09-25 22:57:49 	" I didn't fall for it because of nozzle. Would've preferred ""neck."" "	0
   	 2013-10-27 18:57:10 	 If I wasn't poor, I'd give you gold for this.  	0
   	 2013-10-31 06:58:33 	" Alive With The Glory Of Love- Say Anything


Along with many of their lesser known hits.  "	0
 Forgot to get candy for trick-or-treaters this year. 	 2013-11-01 03:33:11 	  	0
   	 2013-11-02 01:08:17 	 My daily plight. 	0
   	 2013-11-02 08:59:07 	 It sounds like it's fastened too high on your outer layer. Position is closer to give yourself more slack. 	0
   	 2013-11-02 09:00:23 	" I used to perform this a lot. My best advice to you if you're worried about this is to either say something when it happens (like ""Watch!"") or snap with your other hand.


Also worth reminding: don't run when you're not being chased. Enjoy the Raven! "	0
   	 2013-11-08 22:57:21 	" Don't forget to tag the post as ""solved."" :) "	0
" My neighbor just told me the street cleaners weren't coming because it is ""Veterinarians Day."" "	 2013-11-11 21:39:56 	  	0
   	 2013-11-13 22:49:25 	 Holy shit. This game was my JAM! My father passed away when I was four and one of the things he left behind was a Super Nintendo, this game (and others), and a black book with cheat codes. When I found it at 7 years old, it was like something out of a movie lol. 	0
   	 2013-12-04 06:40:19 	" I would just like to say ""Fuck you"" to imgur's little gallery thing on RES.  "	0
   	 2013-12-12 00:02:00 	 I wish I had money to give you gold for this comment. Instead, I've screenshot it and sent it to my friends to have a laugh with me. Thanks.  	0
 I fell in love with the colors of this watch. Anyone ever seen one, that's not $550? (RIGHT LINK!) 	 2013-12-12 00:18:19 	  	0
   	 2013-12-12 01:10:30 	 Thanks man! 	0
   	 2014-01-09 20:26:22 	 Usually, when I'm out of position with a decent hand like AK or mid-small pair and the flop comes something like J74r or even J44 (or in other words, a flop that I think could have missed us both), then I check.  If the villain makes a smallish bet, I will call. Then on the turn, if it helps me or not, I will bet, and 75% of the time, the villain will fold. 	0
   	 2014-01-29 18:58:32 	" Hi Hank! 
What about The Simpsons do you think contributes to its unique longevity?

And how did your vocal talents play a role when you were growing up? "	0
 How can I revive these Clark desert boots? 	 2014-01-31 22:30:14 	  	0
   	 2014-02-04 01:11:29 	 Hahaha, my buddy wanted to photo bomb. Thanks for the compliment. 	0
   	 2014-02-05 07:44:42 	 Alex, thank you so much! Can you tell me which picture told you that? 	0
   	 2014-02-05 07:51:39 	 So helpful for a noob. Thanks! 	0
   	 2014-02-05 18:02:15 	" BJ, great work in Saving Mr Banks.

My question is: What's your biggest advice for comedy writers aspiring to make it big? And how did the transition from behind the camera to on the camera happen for you? "	0
   	 2014-02-05 20:43:37 	" No prob Alex. However I realize I only sent one thing that was in my dash. Here are the rest and let me know if this changes anything.


http://imgur.com/a/arF2I
http://imgur.com/a/pnnmK "	0
   	 2014-02-05 20:58:19 	 Thank you for your response! If I'm reading it right, the oil says 2100 miles. Does that mean I'm 2100 over or have 2100 left or neither? 	0
   	 2014-02-05 21:47:17 	" I don't think it's the oil because I just checked the status of the oil and I'm getting ""OK."" "	0
   	 2014-02-06 00:33:14 	 You rock. THANKS. 	0
" My mom checked someone with a ""funny name"" today for an Alaska Airlines flight. She sent me this. "	 2014-02-08 00:35:17 	  	0
   	 2014-02-10 23:46:08 	" I work in social media marketing and I've had very different experiences with Facebook ads. Facebook ads have tremendously helped my clients reach audiences they sought out to reach.

What it takes is extremely good targeting. Geo targeting, interests, demographics, etc. Though, I don't deny the claims the presenter makes, I think there is a way to be successful with them. "	0
   	 2014-02-11 01:00:08 	 Can you tell us how it is to have a duck as a pet? 	0
 Reddit, what are you a snob about? 	 2014-02-17 17:29:29 	 Wine, beer, fashion...? 	0
   	 2014-02-18 01:42:55 	 I shook my head as I closed this link. I guess that's a mark that your post is in the right place.  	0
   	 2014-02-20 18:42:46 	 *ducking 	0
   	 2014-02-20 19:06:24 	" I read the meme before the title and was sure the title was going to say ""My roommate wants to know why I sniff her yoga pants crotches."" "	0
   	 2014-02-26 05:49:59 	 Yeah you did. 	0
   	 2014-02-28 01:58:02 	 Thanks for your reply. Can you answer this q: What exactly is happening when my mom pressed charges?  	0
   	 2014-02-28 02:01:43 	 Thanks again for your reply. If the prosecutor decides there wasn't enough evidence, what can my mom do to continue to persecute him. 	0
   	 2014-02-28 02:24:53 	 WA 	0
   	 2014-03-18 06:48:44 	 Freddy Got Fingered. 	0
 Traditional Japanese Geisha by Wanja at Sins Of Style, Cape Town, South Africa 	 2014-03-27 18:36:12 	  	0
" Was told that hiking Lions Head in Cape Town, South Africa would be ""a trail walk,"" so I did it in flip flops... View was worth it, though. "	 2014-03-28 22:02:44 	  	0
   	 2014-03-28 22:15:52 	 Oh yeah, man, but that might've been a guaranteed death on the way down! 	0
   	 2014-04-06 20:33:51 	" ""thinkin lol"" "	0
   	 2014-04-16 20:27:45 	 DON'T PUT THAT CURSE ON ME RICKY BOBBY.  	0
   	 2014-04-24 04:27:10 	 Mike Pineda got ejected in the 2nd inning for pine tar on his neck. 	0
 A couple things that have helped me avoid eating when I'm not hungry. 	 2014-04-29 21:18:32 	" The first is a tip that I got in a question I posed earlier this year.

1. Say ""I'll eat it later."" As the lovely commenter told me, later often doesn't come. However, in my mind, it's nice to know that I could eat it if I wanted to, but won't.

2. Brush your teeth after your meal. As we learned growing up, brushing your teeth is often equated with not eating for the next few hours.


Hope these little things help you on your journey! "	0
 Need alternative 	 2014-05-06 18:33:05 	" Hi guys

I'm used to eating rice, for every meal. Or some form of starch like potatoes.

However, I know that rice is high in calories, esp the amount I'm used to eating. Is there an alternative to rice that's lower in calories, that would fill me up along side my protein? I've started introducing more vegetables to my plate, but it's not the same.

Thanks!

 "	0
   	 2014-05-06 22:06:42 	 Even then, I'll still just borrow the book from someone in a later session. 	0
   	 2014-05-15 04:07:33 	 Thanks for the vote of confidence that it will be an easy process! Where do I go for carpet? Home Depot? 	0
   	 2014-05-31 00:17:59 	 Definitely seen some really good work from this artist. 	0
   	 2014-05-31 20:41:16 	 What if it's just a female kitten who identifies as a male kitten? /s 	0
   	 2014-06-01 20:14:26 	" ""I wish a baby would."" "	0
 How I imagine kale farmers lately. 	 2014-06-02 21:36:27 	  	0
   	 2014-06-03 18:42:28 	" Haha, kind of the opposite. I thought of the title then searched ""bed of money."" "	0
   	 2014-06-04 06:21:19 	 Be a man and tell them you need a different locker. 	0
   	 2014-06-25 22:44:45 	 How about $6.99 for a bag of chicken tenderloins, $3 for two bags of fresh spinach,  $2 for a bag of frozen corn, and a bag of rice for $2? 	0
   	 2014-07-24 10:26:52 	 A white guy with a beard will always find his way into one. 	0
 LPT: When you need to move your clothes on hangers, thread a belt through the hangers and pick them all up at once. 	 2014-08-14 22:21:17 	 This is for if you're moving rooms or moving into a new home, or anytime you need to move hella clothes on hangers. 	0
   	 2014-08-14 23:10:04 	" Message me before you go on another and I'll remind you.

 "	0
   	 2014-08-16 04:51:17 	 Not true. the part you thread it through doesn't have a direction (the big triangle) 	0
   	 2014-09-09 07:30:22 	" I do. I write mainly comedic narratives, but also accrued a sizeable following on social media on Twitter and FB. I get paid kind of often for stories in a handful of publications.

However, I don't make any considerable amount of my income from the kinds of writing I enjoy most (including the stuff included above). Instead, I get paid as a writer for companies to do their social media.

It's more than that, because I also consult on soc media marketing strategy and lead campaigns for these companies. But I began as a writer, and any one of you can do it too. It's fulfilling to an extent because it pays me well and lets me write creatively. It flexes my muscles in writing engaging content and in different voices.

I began in college, and could do it because I already had a knack of writing on social media. Majored in creative writing and minored in public relations/advertising, so when I decided to find a job I just put what I could do with social media on my resume. Only one agency hit me back and took a chance on me. Great for both of us. "	0
   	 2014-09-10 09:46:10 	" I never write for SEO. To begin, start getting to know the social medias better. Explore the different features and pay attention to what kinds of things show up in your feed (type of post, from who, when). Then read up on social media talk from social media marketing blogs. Then (fast forward) start by looking for jobs in ""content creation"" or ""content writing"". "	0
 Fun fact: Volvos hold hands when they sleep so they don't drift away from each other. 	 2014-10-22 19:52:42 	  	0
 When the comment section looks like this 	 2014-11-25 20:20:26 	  	0
   	 2014-12-15 20:37:26 	" Yes, anytime you send a follow request, they'll be notified in their notifications. Private or public profile.

Source: Social media professional, and I just checked with two diff accts. "	0
   	 2014-12-30 22:27:12 	 I worked there 2011-2013. The NYE I worked (I did guest interaction for Main Street fireworks, red vests etc) the doors closed around 6-8. People sitting and staking out spots as soon as the last parade ends. 	0
 I cant explain how bad I want to hit this guy 	 2014-12-31 22:51:25 	  	0
 Alex Wiley- Vibration [4:05] 	 2015-01-26 17:45:21 	  	0
   	 2015-02-20 18:12:38 	 It's the Spotify Extended Version 	0
   	 2015-02-20 18:12:58 	 Glad this got at least 6 upvotes.  	0
   	 2015-04-03 20:04:27 	 Need more info. Can't find but one KC suit on their site at that price, and it's big.  	0
   	 2015-04-23 09:20:04 	 OMG LMAOOOO 	0
   	 2015-04-25 22:27:37 	 I live in CA so tip off is at noon. 	0
   	 2015-04-25 22:28:22 	 Potentially, but we're talking about this writer's credibility. He's NBC's writer. 	0
" 24"" iMac Display problem "	 2015-05-27 21:45:14 	" As seen in this video:

https://twitter.com/chinaboytellem/status/603647701037621248

Is this a correctable issue (by a professional) or is my iMac done? "	0
 [TOMT] [movie] Sick child, American, very sick, I think something related to sugar, and a doctor in Oregon cures him. At the end they show the doctor's information. 	 2015-07-01 19:26:05 	" This is a movie I saw with my grandma about 2009-2010 I think, give or take a year or two past. We would really like the information of the doctor in the movie. 

The mother of the boy wrote to the doctor because someone told her his job is to look for cures for illnesses without one. He replied ""if you're willing to move here to Oregon with your son, we will try to find a cure."" 

He was successful in finding a cure, and at the end it shows the name and address of the doctor in Portland OR. "	0
   	 2015-07-01 19:34:40 	 This is really, close, but my grandma says it's not the movie. I added more details in my description. Thanks so much for helping! 	0
   	 2015-07-01 19:41:03 	 This is knocking on the door of the correct answer, but not quite. The boy needs treatment is actually a boy, young like 10 years old. Thank you for your response! 	0
   	 2015-07-02 08:16:00 	 Still more effective than Apple Maps 	0
" ""Two Years A Cast Member"" A college thesis turned blog series, hilarious look at Disneyland employment "	 2015-07-20 07:24:13 	  	0
   	 2015-07-20 07:44:50 	 I wish I could go back in time to when I didn't know this existed. 	0
   	 2015-07-20 08:08:25 	 Put contact info in your bio (your email, and email that you create, don't matter it's up to you). I bet you'll be approached to sell that, especially if you make it easy with the contact info. I'm not sure for other countries, but as you probably know it's common practice to get paid for good usernames, even tho it's against the TOS. It happens though, and if your name is the name of the show, then I'd hold tight. Maybe try opening a different account for your personal stuff, now. 	0
   	 2015-07-20 21:58:22 	" Thank you all so much for the feedback! Part two is written (as stated, it's my thesis so I'm just translating it into episodes). I'll reply to all your comments with the link so you don't miss it! 

-Happy skip "	0
   	 2015-07-20 21:58:48 	 That's so awesome. 	0
   	 2015-07-20 22:31:45 	 Maybe with that attitude.  	0
   	 2015-07-20 22:38:35 	 Parents just don't understand. 	0
   	 2015-07-21 03:02:15 	 Hi, yes I have. He didn't want me. I think he's missing out. Haven't listened since he didn't hit me back (3 years now?) 	0
   	 2015-07-21 03:15:54 	 I lived real close to Disneyland while I was in school. My buddy had quit at the same time as me and we were both interested in doing a show. This is right when the show only had like 10 or less episodes. We reached out a couple times, but never got a solid call back. Oh well! 	0
   	 2015-07-21 03:16:12 	 It's coming! 	0
   	 2015-07-21 03:16:59 	 Does anyone have an idea where else I could post this on reddit? This is obviously the perfect place, and y'all have helped me gain over 500 reads on Medium (thanks!)  	0
" ""Two Years A Cast Member"" A college thesis turned blog series, hilarious look at Disneyland employment "	 2015-07-21 04:14:48 	  	0
   	 2015-07-21 08:41:28 	 Really soon. Will reply with the link here when it's posted. Thanks for reading! 	0
   	 2015-07-21 18:56:06 	" Thanks for those great compliments. 

I turned in this thesis for my creative writing degree in May. More of a Capstone. I had to submit 80 pages of my best work that I'd created during my time at Chapman, which could include new work. This was orignally like 4,000 words of scatterbrain thoughts about working at Disneyland which I ended up inflating to a full-on submission. Didn't have to present it, but the committee read it and sent it back to me with some awesome feedback. "	0
   	 2015-07-21 18:56:30 	 I always feel the same way regardless of the story. 	0
   	 2015-07-22 03:38:50 	" Thanks for reading!

From another thread:

I turned in this thesis for my creative writing degree in May. More of a Capstone. I had to submit 80 pages of my best work that I'd created during my time at Chapman, which could include new work. This was orignally like 4,000 words of scatterbrain thoughts about working at Disneyland which I ended up inflating to a full-on submission. Didn't have to present it, but the committee read it and sent it back to me with some awesome feedback. "	0
   	 2015-07-22 03:43:44 	 Do you guys have any suggestions for where else I could post this, writing or reading wise? Already got it in r/Disneyland. Thank you so much! 	0
   	 2015-07-22 06:43:00 	" Special tip that I didn't include in this: I did find out from someone that FYI was not a part of my hiring process that the reason I got an interview was largely due to my selection of ""open availability"" that I marked on my online app. It wasn't true necessarily (I was in school). It's how I got the interview email so quickly I think. "	0
 One time, when I was a Disneyland Jungle Cruise Skipper, I took out a whole boat of tourists who didn't speak a lick of English. Instead of the normal spiel, I explained how to make PBJ's. 	 2015-07-22 09:34:41 	  	0
