title	date	text	class
 I made a  simple site which sold Japanese food samples. If you are interested in it, I send for you everywhere only 30$. 	 2011-10-04 19:18:43 	  	0
 I made some app which read Javascript weekly made easy. 	 2013-03-12 01:38:39 	  	0
 (Objective-C) How to save Img's url and retrieve UIImage from this. 	 2013-12-11 03:01:36 	  	0
 Quick Explain about re.sub and re.search 	 2013-12-14 10:59:50 	  	0
   	 2013-12-14 19:28:51 	 thanks, I fixed my comment, 	0
 [code] How to calculate the difference between two dates 	 2013-12-18 01:54:47 	  	0
 How to get class's property or method dynamically 	 2013-12-22 10:07:20 	  	0
 I made my favorite color pallate for iOS 	 2013-12-28 06:14:40 	  	0
   	 2013-12-28 08:02:11 	 Oh,thanks, I fixed it. 	0
   	 2013-12-28 08:43:30 	 I fixed code to  copy  it easily. 	0
   	 2013-12-29 13:47:18 	" It's great!

 "	0
 Hi. I have no money, no jobs. So I made web Service for Programmer using Flask. 	 2014-01-03 13:47:58 	" Hi,all. I have no money,no jobs. So I made web app which named Trick Star thanks to Flask.

Check it out.http://trickstar.info/

This web service is made to found videos in youtube's videos for programmer by Github's star count.

If you are want to be innovator of this service, I want you to upload good videos.

This service is still beta, so if you have any feedback or idea , please sent email to  me (test_subject6469@gmail.com) or leave comment,please. "	0
   	 2014-01-03 16:24:20 	" Thanks for your response! 

Currently, I have no plan about it because I have to get some money.

But If this service is dying, I'll make it open source .

 "	0
   	 2014-01-04 11:45:10 	" Hey! No, It just take care of developer's star count. 

 I'll fix my spell miss.

Although it is lack of document,I'll push this code to Github in the few days.

When I done it , I'll post it here.




 "	0
 I made iPhone App which makes me more productive 	 2014-01-09 02:57:10 	" I made ChainDrive App(https://itunes.apple.com/us/app/chain-drive/id789649816?ls=1 mt=8)  which is based on Don't break the chain method by Jerry Seinfelds (You can see the source at http://lifehacker.com/281626/jerry-seinfelds-productivity-secret)

It's change your task to habit by do it everyday.

Don't break the chain! "	0
   	 2014-01-10 02:15:46 	 sorry 	0
   	 2014-01-10 11:52:22 	 Ok.I'll try to solve this problem. 	0
 I made template for making web app using Flask 	 2014-02-17 12:16:48 	  	0
   	 2014-02-17 15:47:44 	 Thanks!  	0
 I made template for making web app using Flask 	 2014-02-17 22:48:39 	  	0
 How to Start/Stop/Restart Gunicorn using Fabric 	 2014-02-19 23:38:08 	  	0
 Dwitter ~ Sample web app which like Twitter using Django 	 2014-06-04 04:02:58 	  	0
   	 2014-06-07 11:36:37 	" Thanks for your advice.
I'll handle it. "	0
 Auto export slices of sketch file when it save file. 	 2014-07-13 16:25:26 	  	0
 CSS gradient generator fork from http://uigradients.com 	 2014-09-25 03:52:04 	  	0
   	 2015-06-05 11:04:01 	" Thanks for bug reporting .I didn't find this bug. Where do you live? 

 "	0
   	 2015-06-05 11:21:30 	" I see your link , but I can see screeen shot in English correctly.
I don't know why this happend.

Thanks anyway. "	0
   	 2015-06-05 11:24:00 	  I'll remove ad when you answer  the questions. 	0
   	 2015-06-05 13:42:52 	" Thank you for your advice. 

 "	0
   	 2015-06-05 14:41:21 	 I figured out what you mean. I did'n t notice this bug. Thank you  very much. 	0
 James Brown Super Bad Dance 	 2015-06-14 09:23:11 	  	0
 I created an iOS App to check depression. 	 2015-06-16 14:08:29 	" You can download it below link.
https://itunes.apple.com/us/app/depression-test!/id967749613?l=ja ls=1 mt=8

Please use it if you want.
And I'm happy if you wrote any feedback.




 "	0
   	 2015-06-16 14:39:14 	" You're welcome :)
 "	0
