title	date	text	class
   	 2012-05-12 06:16:24 	 Speak for yourself and hit the gym, fatty. 	0
   	 2012-06-21 07:06:18 	 It's photoshopped, I can tell by the border. 	0
   	 2012-10-01 11:29:47 	 Creepy? 	0
   	 2012-11-01 18:05:53 	 Great body. 	0
   	 2012-11-08 23:12:20 	 fak u 	0
   	 2012-11-09 13:10:13 	 That's some ugly lesbian. 	0
   	 2012-11-11 14:42:39 	 Vice Premier of the People's Republic of China* 	0
   	 2012-11-12 15:02:11 	 link, please? 	0
   	 2012-11-14 17:21:16 	 cansur. 	0
   	 2012-11-21 18:50:32 	 /r/ShitPeoplePayFor 	0
 Squid having sex with one's back 	 2012-11-21 18:51:58 	  	0
 /r/ShitPeoplePayFor 	 2012-11-22 06:17:42 	  	0
   	 2012-11-22 13:30:31 	" Scar on the face? Not sexy at all.  
  
However it doesn't really matter - you can't be any uglier. "	0
   	 2012-11-28 19:01:11 	" I have hard time believing someone would dare to ask 15k usd for this. 
  
Htel Ritz Paris on Place Vendme is about 1k eur/night "	0
   	 2013-02-03 15:16:30 	 That was oddly beautiful. 	0
   	 2013-03-02 22:55:09 	 I may have missed the point... Care to elaborate? 	0
   	 2013-03-05 20:29:18 	 /r/shitpeoplepayfor is probably the most suitable one @ the moment 	0
   	 2013-03-10 19:42:58 	 /r/bibros 	0
   	 2013-04-10 10:11:53 	 *queue 	0
   	 2013-04-12 16:29:13 	" Wow I must be super stupid then cause I do this all the tucking time.

Edit: fucking* I don't even know what the fuck tucking means... stupid autocorrect. "	0
   	 2013-04-12 16:39:32 	 English isn't my first language. Thanks anyway. 	0
   	 2013-04-16 19:57:21 	 So, that's including you? 	0
   	 2013-04-25 20:34:56 	 Bullshit. There was the whole story to this, but basically they were just fighting over something stupid. The blood comes from the old guy's nose. No one was eating anyone for fucks sake. 	0
 Bang Theory 	 2013-05-07 11:26:00 	  	0
   	 2013-05-14 21:01:21 	 Building looked like it's huge in the original image. Still cool tho. 	0
   	 2013-05-19 08:11:29 	" I like how you claim you live there ;)

To anyone looking for more images:
http://sunriselocations.net/properties/3026-modern "	0
   	 2013-05-22 09:04:53 	 Hashtags? 2001? 	0
 I don't know if he plays in our team, nonetheless I nominate this for a new bropic 	 2013-06-29 11:04:24 	  	0
   	 2013-08-15 17:39:36 	 Which sound are you taking about? It's a gif. 	0
   	 2013-08-17 10:52:55 	 It's kind of disgusting. 	0
   	 2013-11-05 17:09:40 	 YOU HAVE PRETTY FINGERNAILS 	0
   	 2013-12-02 07:49:19 	 Nice 	0
   	 2013-12-21 10:32:35 	 Dude is quite chill with the whole ordeal, it seems. 	0
   	 2013-12-23 06:33:46 	 Where's the bedroom? 	0
 The impact of your words. 	 2014-08-29 23:03:53 	  	0
   	 2015-03-17 19:51:40 	 That's just called being a slut, it has nothing to do with homosexuality. 	0
   	 2015-05-05 11:51:12 	 are you sure? 	0
 I killed my parents.... 	 2015-07-21 15:28:25 	  	0
   	 2015-07-21 15:28:39 	" Jake Evans (pictured) is a kid who shot his mum and sister before phoning 911 to confess. That's the transcript of the call. I've listened to this before, it's some unsettling shit

http://youtu.be/FBn1uQJq7L4 "	0
